<?xml version="1.0" encoding="utf-8" standalone="no"?>
<!DOCTYPE svg PUBLIC "-//W3C//DTD SVG 1.1//EN"
  "http://www.w3.org/Graphics/SVG/1.1/DTD/svg11.dtd">
<!-- Created with matplotlib (http://matplotlib.org/) -->
<svg height="406pt" version="1.1" viewBox="0 0 839 406" width="839pt" xmlns="http://www.w3.org/2000/svg" xmlns:xlink="http://www.w3.org/1999/xlink">
 <defs>
  <style type="text/css">
*{stroke-linecap:butt;stroke-linejoin:round;}
  </style>
 </defs>
 <g id="figure_1">
  <g id="patch_1">
   <path d="
M0 406.592
L839.616 406.592
L839.616 0
L0 0
z
" style="fill:#ffffff;"/>
  </g>
  <g id="axes_1">
   <g id="patch_2">
    <path d="
M21.825 376.036
L468.225 376.036
L468.225 30.4362
L21.825 30.4362
z
" style="fill:#ffffff;"/>
   </g>
   <g id="line2d_1">
    <path clip-path="url(#pa0c61c5a2a)" d="
M36.4366 320.319
L92.6673 324.528
L163.51 328.293
L259.637 329.814
L355.764 332.224
L451.891 333.493" style="fill:none;stroke:#f5deb3;stroke-linecap:square;stroke-width:10;"/>
    <defs>
     <path d="
M-8.32667e-16 17.6777
L10.6066 0
L9.4369e-16 -17.6777
L-10.6066 -3.55271e-15
z
" id="md254f5ef2b" style="stroke:#f5deb3;stroke-linejoin:miter;stroke-width:0.5;"/>
    </defs>
    <g clip-path="url(#pa0c61c5a2a)">
     <use style="fill:#f5deb3;stroke:#f5deb3;stroke-linejoin:miter;stroke-width:0.5;" x="36.4366025434" xlink:href="#md254f5ef2b" y="320.318843897"/>
     <use style="fill:#f5deb3;stroke:#f5deb3;stroke-linejoin:miter;stroke-width:0.5;" x="92.6672973907" xlink:href="#md254f5ef2b" y="324.527965744"/>
     <use style="fill:#f5deb3;stroke:#f5deb3;stroke-linejoin:miter;stroke-width:0.5;" x="163.509594781" xlink:href="#md254f5ef2b" y="328.293153539"/>
     <use style="fill:#f5deb3;stroke:#f5deb3;stroke-linejoin:miter;stroke-width:0.5;" x="259.636602543" xlink:href="#md254f5ef2b" y="329.814073779"/>
     <use style="fill:#f5deb3;stroke:#f5deb3;stroke-linejoin:miter;stroke-width:0.5;" x="355.763610305" xlink:href="#md254f5ef2b" y="332.224171013"/>
     <use style="fill:#f5deb3;stroke:#f5deb3;stroke-linejoin:miter;stroke-width:0.5;" x="451.890618067" xlink:href="#md254f5ef2b" y="333.493046257"/>
    </g>
   </g>
   <g id="line2d_2">
    <path clip-path="url(#pa0c61c5a2a)" d="
M163.51 238.32" style="fill:none;stroke:#000080;stroke-linecap:square;stroke-width:5.0;"/>
    <defs>
     <path d="
M0 15.5
C4.11065 15.5 8.05349 13.8668 10.9602 10.9602
C13.8668 8.05349 15.5 4.11065 15.5 0
C15.5 -4.11065 13.8668 -8.05349 10.9602 -10.9602
C8.05349 -13.8668 4.11065 -15.5 0 -15.5
C-4.11065 -15.5 -8.05349 -13.8668 -10.9602 -10.9602
C-13.8668 -8.05349 -15.5 -4.11065 -15.5 0
C-15.5 4.11065 -13.8668 8.05349 -10.9602 10.9602
C-8.05349 13.8668 -4.11065 15.5 0 15.5
z
" id="m0d8e0e36bc" style="stroke:#000080;stroke-width:6.0;"/>
    </defs>
    <g clip-path="url(#pa0c61c5a2a)">
     <use style="fill:none;stroke:#000080;stroke-width:6.0;" x="163.509594781" xlink:href="#m0d8e0e36bc" y="238.32016916"/>
    </g>
   </g>
   <g id="line2d_3"/>
   <g id="line2d_4">
    <defs>
     <path d="
M0 10
C2.65203 10 5.1958 8.94634 7.07107 7.07107
C8.94634 5.1958 10 2.65203 10 0
C10 -2.65203 8.94634 -5.1958 7.07107 -7.07107
C5.1958 -8.94634 2.65203 -10 0 -10
C-2.65203 -10 -5.1958 -8.94634 -7.07107 -7.07107
C-8.94634 -5.1958 -10 -2.65203 -10 0
C-10 2.65203 -8.94634 5.1958 -7.07107 7.07107
C-5.1958 8.94634 -2.65203 10 0 10
z
" id="m482b61ff66" style="stroke:#000080;"/>
    </defs>
    <g clip-path="url(#pa0c61c5a2a)">
     <use style="fill:none;stroke:#000080;" x="163.509594781" xlink:href="#m482b61ff66" y="225.501974417"/>
    </g>
   </g>
   <g id="line2d_5">
    <path clip-path="url(#pa0c61c5a2a)" d="
M36.4366 186.607
L92.6673 185.431" style="fill:none;stroke:#ff00ff;stroke-linecap:square;stroke-width:4.66666666667;"/>
    <defs>
     <path d="
M-8.65974e-16 18.3848
L11.0309 0
L9.10383e-16 -18.3848
L-11.0309 -3.55271e-15
z
" id="mb8abdacfd3" style="stroke:#ff00ff;stroke-linejoin:miter;stroke-width:5.5;"/>
    </defs>
    <g clip-path="url(#pa0c61c5a2a)">
     <use style="fill:none;stroke:#ff00ff;stroke-linejoin:miter;stroke-width:5.5;" x="36.4366025434" xlink:href="#mb8abdacfd3" y="186.607086758"/>
     <use style="fill:none;stroke:#ff00ff;stroke-linejoin:miter;stroke-width:5.5;" x="92.6672973907" xlink:href="#mb8abdacfd3" y="185.430745895"/>
    </g>
   </g>
   <g id="line2d_6">
    <path clip-path="url(#pa0c61c5a2a)" d="
M92.6673 185.431
L163.51 183.277" style="fill:none;stroke:#ff00ff;stroke-linecap:square;stroke-width:4.66666666667;"/>
    <g clip-path="url(#pa0c61c5a2a)">
     <use style="fill:none;stroke:#ff00ff;stroke-linejoin:miter;stroke-width:5.5;" x="92.6672973907" xlink:href="#mb8abdacfd3" y="185.430745895"/>
     <use style="fill:none;stroke:#ff00ff;stroke-linejoin:miter;stroke-width:5.5;" x="163.509594781" xlink:href="#mb8abdacfd3" y="183.277330781"/>
    </g>
   </g>
   <g id="line2d_7">
    <path clip-path="url(#pa0c61c5a2a)" d="
M163.51 183.277
L259.637 183.482" style="fill:none;stroke:#ff00ff;stroke-linecap:square;stroke-width:4.66666666667;"/>
    <g clip-path="url(#pa0c61c5a2a)">
     <use style="fill:none;stroke:#ff00ff;stroke-linejoin:miter;stroke-width:5.5;" x="163.509594781" xlink:href="#mb8abdacfd3" y="183.277330781"/>
     <use style="fill:none;stroke:#ff00ff;stroke-linejoin:miter;stroke-width:5.5;" x="259.636602543" xlink:href="#mb8abdacfd3" y="183.482093918"/>
    </g>
   </g>
   <g id="line2d_8">
    <path clip-path="url(#pa0c61c5a2a)" d="
M259.637 183.482
L355.764 184.891" style="fill:none;stroke:#ff00ff;stroke-linecap:square;stroke-width:4.66666666667;"/>
    <g clip-path="url(#pa0c61c5a2a)">
     <use style="fill:none;stroke:#ff00ff;stroke-linejoin:miter;stroke-width:5.5;" x="259.636602543" xlink:href="#mb8abdacfd3" y="183.482093918"/>
     <use style="fill:none;stroke:#ff00ff;stroke-linejoin:miter;stroke-width:5.5;" x="355.763610305" xlink:href="#mb8abdacfd3" y="184.890873783"/>
    </g>
   </g>
   <g id="line2d_9">
    <path clip-path="url(#pa0c61c5a2a)" d="
M355.764 184.891
L451.891 186.226" style="fill:none;stroke:#ff00ff;stroke-linecap:square;stroke-width:4.66666666667;"/>
    <g clip-path="url(#pa0c61c5a2a)">
     <use style="fill:none;stroke:#ff00ff;stroke-linejoin:miter;stroke-width:5.5;" x="355.763610305" xlink:href="#mb8abdacfd3" y="184.890873783"/>
     <use style="fill:none;stroke:#ff00ff;stroke-linejoin:miter;stroke-width:5.5;" x="451.890618067" xlink:href="#mb8abdacfd3" y="186.225869197"/>
    </g>
   </g>
   <g id="line2d_10">
    <path clip-path="url(#pa0c61c5a2a)" d="
M451.891 186.226" style="fill:none;stroke:#ff00ff;stroke-linecap:square;stroke-width:4.66666666667;"/>
    <g clip-path="url(#pa0c61c5a2a)">
     <use style="fill:none;stroke:#ff00ff;stroke-linejoin:miter;stroke-width:5.5;" x="451.890618067" xlink:href="#mb8abdacfd3" y="186.225869197"/>
    </g>
   </g>
   <g id="line2d_11"/>
   <g id="line2d_12">
    <defs>
     <path d="
M-6.66134e-16 14.1421
L8.48528 0
L-6.66134e-16 -14.1421
L-8.48528 -1.77636e-15
z
" id="m5f66c049e9" style="stroke:#ff00ff;stroke-linejoin:miter;"/>
    </defs>
    <g clip-path="url(#pa0c61c5a2a)">
     <use style="fill:none;stroke:#ff00ff;stroke-linejoin:miter;" x="36.4366025434" xlink:href="#m5f66c049e9" y="178.548127495"/>
     <use style="fill:none;stroke:#ff00ff;stroke-linejoin:miter;" x="92.6672973907" xlink:href="#m5f66c049e9" y="181.078149488"/>
     <use style="fill:none;stroke:#ff00ff;stroke-linejoin:miter;" x="163.509594781" xlink:href="#m5f66c049e9" y="179.903762662"/>
     <use style="fill:none;stroke:#ff00ff;stroke-linejoin:miter;" x="259.636602543" xlink:href="#m5f66c049e9" y="180.185892272"/>
     <use style="fill:none;stroke:#ff00ff;stroke-linejoin:miter;" x="355.763610305" xlink:href="#m5f66c049e9" y="182.463942411"/>
     <use style="fill:none;stroke:#ff00ff;stroke-linejoin:miter;" x="451.890618067" xlink:href="#m5f66c049e9" y="184.535437521"/>
    </g>
   </g>
   <g id="line2d_13">
    <path clip-path="url(#pa0c61c5a2a)" d="
M36.4366 174.162
L92.6673 160.776" style="fill:none;stroke:#ffa500;stroke-linecap:square;stroke-width:4.33333333333;"/>
    <defs>
     <path d="
M1.01033e-15 -16.5
L-3.70448 -5.09878
L-15.6924 -5.09878
L-5.99398 1.94756
L-9.69846 13.3488
L-1.15774e-15 6.30244
L9.69846 13.3488
L5.99398 1.94756
L15.6924 -5.09878
L3.70448 -5.09878
z
" id="m32a056ebc7" style="stroke:#ffa500;stroke-linejoin:bevel;stroke-width:5.0;"/>
    </defs>
    <g clip-path="url(#pa0c61c5a2a)">
     <use style="fill:none;stroke:#ffa500;stroke-linejoin:bevel;stroke-width:5.0;" x="36.4366025434" xlink:href="#m32a056ebc7" y="174.161579847"/>
     <use style="fill:none;stroke:#ffa500;stroke-linejoin:bevel;stroke-width:5.0;" x="92.6672973907" xlink:href="#m32a056ebc7" y="160.77587979"/>
    </g>
   </g>
   <g id="line2d_14">
    <path clip-path="url(#pa0c61c5a2a)" d="
M92.6673 160.776
L163.51 142.497" style="fill:none;stroke:#ffa500;stroke-linecap:square;stroke-width:4.33333333333;"/>
    <g clip-path="url(#pa0c61c5a2a)">
     <use style="fill:none;stroke:#ffa500;stroke-linejoin:bevel;stroke-width:5.0;" x="92.6672973907" xlink:href="#m32a056ebc7" y="160.77587979"/>
     <use style="fill:none;stroke:#ffa500;stroke-linejoin:bevel;stroke-width:5.0;" x="163.509594781" xlink:href="#m32a056ebc7" y="142.496528582"/>
    </g>
   </g>
   <g id="line2d_15">
    <path clip-path="url(#pa0c61c5a2a)" d="
M163.51 142.497
L259.637 124.158" style="fill:none;stroke:#ffa500;stroke-linecap:square;stroke-width:4.33333333333;"/>
    <g clip-path="url(#pa0c61c5a2a)">
     <use style="fill:none;stroke:#ffa500;stroke-linejoin:bevel;stroke-width:5.0;" x="163.509594781" xlink:href="#m32a056ebc7" y="142.496528582"/>
     <use style="fill:none;stroke:#ffa500;stroke-linejoin:bevel;stroke-width:5.0;" x="259.636602543" xlink:href="#m32a056ebc7" y="124.158331257"/>
    </g>
   </g>
   <g id="line2d_16">
    <path clip-path="url(#pa0c61c5a2a)" d="
M259.637 124.158
L355.764 111.119" style="fill:none;stroke:#ffa500;stroke-linecap:square;stroke-width:4.33333333333;"/>
    <g clip-path="url(#pa0c61c5a2a)">
     <use style="fill:none;stroke:#ffa500;stroke-linejoin:bevel;stroke-width:5.0;" x="259.636602543" xlink:href="#m32a056ebc7" y="124.158331257"/>
     <use style="fill:none;stroke:#ffa500;stroke-linejoin:bevel;stroke-width:5.0;" x="355.763610305" xlink:href="#m32a056ebc7" y="111.119227354"/>
    </g>
   </g>
   <g id="line2d_17">
    <path clip-path="url(#pa0c61c5a2a)" d="
M355.764 111.119
L451.891 104.377" style="fill:none;stroke:#ffa500;stroke-linecap:square;stroke-width:4.33333333333;"/>
    <g clip-path="url(#pa0c61c5a2a)">
     <use style="fill:none;stroke:#ffa500;stroke-linejoin:bevel;stroke-width:5.0;" x="355.763610305" xlink:href="#m32a056ebc7" y="111.119227354"/>
     <use style="fill:none;stroke:#ffa500;stroke-linejoin:bevel;stroke-width:5.0;" x="451.890618067" xlink:href="#m32a056ebc7" y="104.376691071"/>
    </g>
   </g>
   <g id="line2d_18">
    <path clip-path="url(#pa0c61c5a2a)" d="
M451.891 104.377" style="fill:none;stroke:#ffa500;stroke-linecap:square;stroke-width:4.33333333333;"/>
    <g clip-path="url(#pa0c61c5a2a)">
     <use style="fill:none;stroke:#ffa500;stroke-linejoin:bevel;stroke-width:5.0;" x="451.890618067" xlink:href="#m32a056ebc7" y="104.376691071"/>
    </g>
   </g>
   <g id="line2d_19"/>
   <g id="line2d_20">
    <defs>
     <path d="
M6.12323e-16 -10
L-2.24514 -3.09017
L-9.51057 -3.09017
L-3.63271 1.18034
L-5.87785 8.09017
L-7.0166e-16 3.81966
L5.87785 8.09017
L3.63271 1.18034
L9.51057 -3.09017
L2.24514 -3.09017
z
" id="m6d50deb3be" style="stroke:#ffa500;stroke-linejoin:bevel;"/>
    </defs>
    <g clip-path="url(#pa0c61c5a2a)">
     <use style="fill:none;stroke:#ffa500;stroke-linejoin:bevel;" x="36.4366025434" xlink:href="#m6d50deb3be" y="168.239282271"/>
     <use style="fill:none;stroke:#ffa500;stroke-linejoin:bevel;" x="92.6672973907" xlink:href="#m6d50deb3be" y="157.83210902"/>
     <use style="fill:none;stroke:#ffa500;stroke-linejoin:bevel;" x="163.509594781" xlink:href="#m6d50deb3be" y="138.551468761"/>
     <use style="fill:none;stroke:#ffa500;stroke-linejoin:bevel;" x="259.636602543" xlink:href="#m6d50deb3be" y="122.793597497"/>
     <use style="fill:none;stroke:#ffa500;stroke-linejoin:bevel;" x="355.763610305" xlink:href="#m6d50deb3be" y="109.722713135"/>
     <use style="fill:none;stroke:#ffa500;stroke-linejoin:bevel;" x="451.890618067" xlink:href="#m6d50deb3be" y="102.77880047"/>
    </g>
   </g>
   <g id="line2d_21">
    <defs>
     <path d="
M4.74551e-16 -7.75
L-1.73998 -2.39488
L-7.37069 -2.39488
L-2.81535 0.914763
L-4.55534 6.26988
L-5.43787e-16 2.96024
L4.55534 6.26988
L2.81535 0.914763
L7.37069 -2.39488
L1.73998 -2.39488
z
" id="m8500090848" style="stroke:#000000;stroke-linejoin:bevel;stroke-width:2;"/>
    </defs>
    <g clip-path="url(#pa0c61c5a2a)">
     <use style="stroke:#000000;stroke-linejoin:bevel;stroke-width:2;" x="36.4366025434" xlink:href="#m8500090848" y="186.607086758"/>
     <use style="stroke:#000000;stroke-linejoin:bevel;stroke-width:2;" x="92.6672973907" xlink:href="#m8500090848" y="185.430745895"/>
     <use style="stroke:#000000;stroke-linejoin:bevel;stroke-width:2;" x="163.509594781" xlink:href="#m8500090848" y="238.32016916"/>
     <use style="stroke:#000000;stroke-linejoin:bevel;stroke-width:2;" x="259.636602543" xlink:href="#m8500090848" y="183.482093918"/>
     <use style="stroke:#000000;stroke-linejoin:bevel;stroke-width:2;" x="355.763610305" xlink:href="#m8500090848" y="184.890873783"/>
     <use style="stroke:#000000;stroke-linejoin:bevel;stroke-width:2;" x="451.890618067" xlink:href="#m8500090848" y="186.225869197"/>
    </g>
   </g>
   <g id="line2d_22">
    <path clip-path="url(#pa0c61c5a2a)" d="
M-282.89 524.151
M169.438 407.592
L840.616 234.64" style="fill:none;stroke:#000000;stroke-dasharray:1.000000,3.000000;stroke-dashoffset:0.0;stroke-width:0.5;"/>
   </g>
   <g id="line2d_23">
    <path clip-path="url(#pa0c61c5a2a)" d="
M-282.89 441.865
M-1 369.226
L840.616 152.354" style="fill:none;stroke:#000000;stroke-dasharray:1.000000,3.000000;stroke-dashoffset:0.0;stroke-width:0.5;"/>
   </g>
   <g id="line2d_24">
    <path clip-path="url(#pa0c61c5a2a)" d="
M-282.89 359.579
M-1 286.94
L840.616 70.0687" style="fill:none;stroke:#000000;stroke-dasharray:1.000000,3.000000;stroke-dashoffset:0.0;stroke-width:0.5;"/>
   </g>
   <g id="line2d_25">
    <path clip-path="url(#pa0c61c5a2a)" d="
M-282.89 277.293
M-1 204.655
L797.086 -1" style="fill:none;stroke:#000000;stroke-dasharray:1.000000,3.000000;stroke-dashoffset:0.0;stroke-width:0.5;"/>
   </g>
   <g id="line2d_26">
    <path clip-path="url(#pa0c61c5a2a)" d="
M-282.89 195.008
M-1 122.369
L477.759 -1" style="fill:none;stroke:#000000;stroke-dasharray:1.000000,3.000000;stroke-dashoffset:0.0;stroke-width:0.5;"/>
   </g>
   <g id="line2d_27">
    <path clip-path="url(#pa0c61c5a2a)" d="
M-282.89 112.722
M-1 40.0831
L158.432 -1" style="fill:none;stroke:#000000;stroke-dasharray:1.000000,3.000000;stroke-dashoffset:0.0;stroke-width:0.5;"/>
   </g>
   <g id="line2d_28">
    <path clip-path="url(#pa0c61c5a2a)" d="
M-282.89 30.4362" style="fill:none;stroke:#000000;stroke-dasharray:1.000000,3.000000;stroke-dashoffset:0.0;stroke-width:0.5;"/>
   </g>
   <g id="line2d_29">
    <path clip-path="url(#pa0c61c5a2a)" d="
M-282.89 -51.8495" style="fill:none;stroke:#000000;stroke-dasharray:1.000000,3.000000;stroke-dashoffset:0.0;stroke-width:0.5;"/>
   </g>
   <g id="line2d_30">
    <path clip-path="url(#pa0c61c5a2a)" d="
M-282.89 -134.135" style="fill:none;stroke:#000000;stroke-dasharray:1.000000,3.000000;stroke-dashoffset:0.0;stroke-width:0.5;"/>
   </g>
   <g id="patch_3">
    <path d="
M21.825 30.4362
L468.225 30.4362" style="fill:none;stroke:#000000;stroke-linecap:square;stroke-linejoin:miter;"/>
   </g>
   <g id="patch_4">
    <path d="
M468.225 376.036
L468.225 30.4362" style="fill:none;stroke:#000000;stroke-linecap:square;stroke-linejoin:miter;"/>
   </g>
   <g id="patch_5">
    <path d="
M21.825 376.036
L468.225 376.036" style="fill:none;stroke:#000000;stroke-linecap:square;stroke-linejoin:miter;"/>
   </g>
   <g id="patch_6">
    <path d="
M21.825 376.036
L21.825 30.4362" style="fill:none;stroke:#000000;stroke-linecap:square;stroke-linejoin:miter;"/>
   </g>
   <g id="matplotlib.axis_1">
    <g id="xtick_1">
     <g id="line2d_31">
      <defs>
       <path d="
M0 0
L0 -4" id="m93b0483c22" style="stroke:#000000;stroke-width:0.5;"/>
      </defs>
      <g>
       <use style="stroke:#000000;stroke-width:0.5;" x="36.4366025434" xlink:href="#m93b0483c22" y="376.03625"/>
      </g>
     </g>
     <g id="line2d_32">
      <defs>
       <path d="
M0 0
L0 4" id="m741efc42ff" style="stroke:#000000;stroke-width:0.5;"/>
      </defs>
      <g>
       <use style="stroke:#000000;stroke-width:0.5;" x="36.4366025434" xlink:href="#m741efc42ff" y="30.43625"/>
      </g>
     </g>
     <g id="text_1">
      <!-- 2 -->
      <defs>
       <path d="
M19.1875 8.29688
L53.6094 8.29688
L53.6094 0
L7.32812 0
L7.32812 8.29688
Q12.9375 14.1094 22.625 23.8906
Q32.3281 33.6875 34.8125 36.5312
Q39.5469 41.8438 41.4219 45.5312
Q43.3125 49.2188 43.3125 52.7812
Q43.3125 58.5938 39.2344 62.25
Q35.1562 65.9219 28.6094 65.9219
Q23.9688 65.9219 18.8125 64.3125
Q13.6719 62.7031 7.8125 59.4219
L7.8125 69.3906
Q13.7656 71.7812 18.9375 73
Q24.125 74.2188 28.4219 74.2188
Q39.75 74.2188 46.4844 68.5469
Q53.2188 62.8906 53.2188 53.4219
Q53.2188 48.9219 51.5312 44.8906
Q49.8594 40.875 45.4062 35.4062
Q44.1875 33.9844 37.6406 27.2188
Q31.1094 20.4531 19.1875 8.29688" id="BitstreamVeraSans-Roman-32"/>
      </defs>
      <g transform="translate(31.8084775434 395.233125)scale(0.2 -0.2)">
       <use xlink:href="#BitstreamVeraSans-Roman-32"/>
      </g>
     </g>
    </g>
    <g id="xtick_2">
     <g id="line2d_33">
      <g>
       <use style="stroke:#000000;stroke-width:0.5;" x="92.6672973907" xlink:href="#m93b0483c22" y="376.03625"/>
      </g>
     </g>
     <g id="line2d_34">
      <g>
       <use style="stroke:#000000;stroke-width:0.5;" x="92.6672973907" xlink:href="#m741efc42ff" y="30.43625"/>
      </g>
     </g>
     <g id="text_2">
      <!-- 3 -->
      <defs>
       <path d="
M40.5781 39.3125
Q47.6562 37.7969 51.625 33
Q55.6094 28.2188 55.6094 21.1875
Q55.6094 10.4062 48.1875 4.48438
Q40.7656 -1.42188 27.0938 -1.42188
Q22.5156 -1.42188 17.6562 -0.515625
Q12.7969 0.390625 7.625 2.20312
L7.625 11.7188
Q11.7188 9.32812 16.5938 8.10938
Q21.4844 6.89062 26.8125 6.89062
Q36.0781 6.89062 40.9375 10.5469
Q45.7969 14.2031 45.7969 21.1875
Q45.7969 27.6406 41.2812 31.2656
Q36.7656 34.9062 28.7188 34.9062
L20.2188 34.9062
L20.2188 43.0156
L29.1094 43.0156
Q36.375 43.0156 40.2344 45.9219
Q44.0938 48.8281 44.0938 54.2969
Q44.0938 59.9062 40.1094 62.9062
Q36.1406 65.9219 28.7188 65.9219
Q24.6562 65.9219 20.0156 65.0312
Q15.375 64.1562 9.8125 62.3125
L9.8125 71.0938
Q15.4375 72.6562 20.3438 73.4375
Q25.25 74.2188 29.5938 74.2188
Q40.8281 74.2188 47.3594 69.1094
Q53.9062 64.0156 53.9062 55.3281
Q53.9062 49.2656 50.4375 45.0938
Q46.9688 40.9219 40.5781 39.3125" id="BitstreamVeraSans-Roman-33"/>
      </defs>
      <g transform="translate(87.8688598907 395.233125)scale(0.2 -0.2)">
       <use xlink:href="#BitstreamVeraSans-Roman-33"/>
      </g>
     </g>
    </g>
    <g id="xtick_3">
     <g id="line2d_35">
      <g>
       <use style="stroke:#000000;stroke-width:0.5;" x="163.509594781" xlink:href="#m93b0483c22" y="376.03625"/>
      </g>
     </g>
     <g id="line2d_36">
      <g>
       <use style="stroke:#000000;stroke-width:0.5;" x="163.509594781" xlink:href="#m741efc42ff" y="30.43625"/>
      </g>
     </g>
     <g id="text_3">
      <!-- 5 -->
      <defs>
       <path d="
M10.7969 72.9062
L49.5156 72.9062
L49.5156 64.5938
L19.8281 64.5938
L19.8281 46.7344
Q21.9688 47.4688 24.1094 47.8281
Q26.2656 48.1875 28.4219 48.1875
Q40.625 48.1875 47.75 41.5
Q54.8906 34.8125 54.8906 23.3906
Q54.8906 11.625 47.5625 5.09375
Q40.2344 -1.42188 26.9062 -1.42188
Q22.3125 -1.42188 17.5469 -0.640625
Q12.7969 0.140625 7.71875 1.70312
L7.71875 11.625
Q12.1094 9.23438 16.7969 8.0625
Q21.4844 6.89062 26.7031 6.89062
Q35.1562 6.89062 40.0781 11.3281
Q45.0156 15.7656 45.0156 23.3906
Q45.0156 31 40.0781 35.4375
Q35.1562 39.8906 26.7031 39.8906
Q22.75 39.8906 18.8125 39.0156
Q14.8906 38.1406 10.7969 36.2812
z
" id="BitstreamVeraSans-Roman-35"/>
      </defs>
      <g transform="translate(158.792407281 395.233125)scale(0.2 -0.2)">
       <use xlink:href="#BitstreamVeraSans-Roman-35"/>
      </g>
     </g>
    </g>
    <g id="xtick_4">
     <g id="line2d_37">
      <g>
       <use style="stroke:#000000;stroke-width:0.5;" x="259.636602543" xlink:href="#m93b0483c22" y="376.03625"/>
      </g>
     </g>
     <g id="line2d_38">
      <g>
       <use style="stroke:#000000;stroke-width:0.5;" x="259.636602543" xlink:href="#m741efc42ff" y="30.43625"/>
      </g>
     </g>
     <g id="text_4">
      <!-- 10 -->
      <defs>
       <path d="
M31.7812 66.4062
Q24.1719 66.4062 20.3281 58.9062
Q16.5 51.4219 16.5 36.375
Q16.5 21.3906 20.3281 13.8906
Q24.1719 6.39062 31.7812 6.39062
Q39.4531 6.39062 43.2812 13.8906
Q47.125 21.3906 47.125 36.375
Q47.125 51.4219 43.2812 58.9062
Q39.4531 66.4062 31.7812 66.4062
M31.7812 74.2188
Q44.0469 74.2188 50.5156 64.5156
Q56.9844 54.8281 56.9844 36.375
Q56.9844 17.9688 50.5156 8.26562
Q44.0469 -1.42188 31.7812 -1.42188
Q19.5312 -1.42188 13.0625 8.26562
Q6.59375 17.9688 6.59375 36.375
Q6.59375 54.8281 13.0625 64.5156
Q19.5312 74.2188 31.7812 74.2188" id="BitstreamVeraSans-Roman-30"/>
       <path d="
M12.4062 8.29688
L28.5156 8.29688
L28.5156 63.9219
L10.9844 60.4062
L10.9844 69.3906
L28.4219 72.9062
L38.2812 72.9062
L38.2812 8.29688
L54.3906 8.29688
L54.3906 0
L12.4062 0
z
" id="BitstreamVeraSans-Roman-31"/>
      </defs>
      <g transform="translate(248.674102543 395.233125)scale(0.2 -0.2)">
       <use xlink:href="#BitstreamVeraSans-Roman-31"/>
       <use x="63.623046875" xlink:href="#BitstreamVeraSans-Roman-30"/>
      </g>
     </g>
    </g>
    <g id="xtick_5">
     <g id="line2d_39">
      <g>
       <use style="stroke:#000000;stroke-width:0.5;" x="355.763610305" xlink:href="#m93b0483c22" y="376.03625"/>
      </g>
     </g>
     <g id="line2d_40">
      <g>
       <use style="stroke:#000000;stroke-width:0.5;" x="355.763610305" xlink:href="#m741efc42ff" y="30.43625"/>
      </g>
     </g>
     <g id="text_5">
      <!-- 20 -->
      <g transform="translate(344.435485305 395.233125)scale(0.2 -0.2)">
       <use xlink:href="#BitstreamVeraSans-Roman-32"/>
       <use x="63.623046875" xlink:href="#BitstreamVeraSans-Roman-30"/>
      </g>
     </g>
    </g>
    <g id="xtick_6">
     <g id="line2d_41">
      <g>
       <use style="stroke:#000000;stroke-width:0.5;" x="451.890618067" xlink:href="#m93b0483c22" y="376.03625"/>
      </g>
     </g>
     <g id="line2d_42">
      <g>
       <use style="stroke:#000000;stroke-width:0.5;" x="451.890618067" xlink:href="#m741efc42ff" y="30.43625"/>
      </g>
     </g>
     <g id="text_6">
      <!-- 40 -->
      <defs>
       <path d="
M37.7969 64.3125
L12.8906 25.3906
L37.7969 25.3906
z

M35.2031 72.9062
L47.6094 72.9062
L47.6094 25.3906
L58.0156 25.3906
L58.0156 17.1875
L47.6094 17.1875
L47.6094 0
L37.7969 0
L37.7969 17.1875
L4.89062 17.1875
L4.89062 26.7031
z
" id="BitstreamVeraSans-Roman-34"/>
      </defs>
      <g transform="translate(440.318743067 395.233125)scale(0.2 -0.2)">
       <use xlink:href="#BitstreamVeraSans-Roman-34"/>
       <use x="63.623046875" xlink:href="#BitstreamVeraSans-Roman-30"/>
      </g>
     </g>
    </g>
    <g id="xtick_7">
     <g id="line2d_43">
      <defs>
       <path d="
M0 0
L0 -2" id="m177f7580d0" style="stroke:#000000;stroke-width:0.5;"/>
      </defs>
      <g>
       <use style="stroke:#000000;stroke-width:0.5;" x="36.4366025434" xlink:href="#m177f7580d0" y="376.03625"/>
      </g>
     </g>
     <g id="line2d_44">
      <defs>
       <path d="
M0 0
L0 2" id="m5284c7e2a0" style="stroke:#000000;stroke-width:0.5;"/>
      </defs>
      <g>
       <use style="stroke:#000000;stroke-width:0.5;" x="36.4366025434" xlink:href="#m5284c7e2a0" y="30.43625"/>
      </g>
     </g>
    </g>
    <g id="xtick_8">
     <g id="line2d_45">
      <g>
       <use style="stroke:#000000;stroke-width:0.5;" x="92.6672973907" xlink:href="#m177f7580d0" y="376.03625"/>
      </g>
     </g>
     <g id="line2d_46">
      <g>
       <use style="stroke:#000000;stroke-width:0.5;" x="92.6672973907" xlink:href="#m5284c7e2a0" y="30.43625"/>
      </g>
     </g>
    </g>
    <g id="xtick_9">
     <g id="line2d_47">
      <g>
       <use style="stroke:#000000;stroke-width:0.5;" x="132.563610305" xlink:href="#m177f7580d0" y="376.03625"/>
      </g>
     </g>
     <g id="line2d_48">
      <g>
       <use style="stroke:#000000;stroke-width:0.5;" x="132.563610305" xlink:href="#m5284c7e2a0" y="30.43625"/>
      </g>
     </g>
    </g>
    <g id="xtick_10">
     <g id="line2d_49">
      <g>
       <use style="stroke:#000000;stroke-width:0.5;" x="163.509594781" xlink:href="#m177f7580d0" y="376.03625"/>
      </g>
     </g>
     <g id="line2d_50">
      <g>
       <use style="stroke:#000000;stroke-width:0.5;" x="163.509594781" xlink:href="#m5284c7e2a0" y="30.43625"/>
      </g>
     </g>
    </g>
    <g id="xtick_11">
     <g id="line2d_51">
      <g>
       <use style="stroke:#000000;stroke-width:0.5;" x="188.794305153" xlink:href="#m177f7580d0" y="376.03625"/>
      </g>
     </g>
     <g id="line2d_52">
      <g>
       <use style="stroke:#000000;stroke-width:0.5;" x="188.794305153" xlink:href="#m5284c7e2a0" y="30.43625"/>
      </g>
     </g>
    </g>
    <g id="xtick_12">
     <g id="line2d_53">
      <g>
       <use style="stroke:#000000;stroke-width:0.5;" x="210.172223165" xlink:href="#m177f7580d0" y="376.03625"/>
      </g>
     </g>
     <g id="line2d_54">
      <g>
       <use style="stroke:#000000;stroke-width:0.5;" x="210.172223165" xlink:href="#m5284c7e2a0" y="30.43625"/>
      </g>
     </g>
    </g>
    <g id="xtick_13">
     <g id="line2d_55">
      <g>
       <use style="stroke:#000000;stroke-width:0.5;" x="228.690618067" xlink:href="#m177f7580d0" y="376.03625"/>
      </g>
     </g>
     <g id="line2d_56">
      <g>
       <use style="stroke:#000000;stroke-width:0.5;" x="228.690618067" xlink:href="#m5284c7e2a0" y="30.43625"/>
      </g>
     </g>
    </g>
    <g id="xtick_14">
     <g id="line2d_57">
      <g>
       <use style="stroke:#000000;stroke-width:0.5;" x="245.025" xlink:href="#m177f7580d0" y="376.03625"/>
      </g>
     </g>
     <g id="line2d_58">
      <g>
       <use style="stroke:#000000;stroke-width:0.5;" x="245.025" xlink:href="#m5284c7e2a0" y="30.43625"/>
      </g>
     </g>
    </g>
    <g id="xtick_15">
     <g id="line2d_59">
      <g>
       <use style="stroke:#000000;stroke-width:0.5;" x="355.763610305" xlink:href="#m177f7580d0" y="376.03625"/>
      </g>
     </g>
     <g id="line2d_60">
      <g>
       <use style="stroke:#000000;stroke-width:0.5;" x="355.763610305" xlink:href="#m5284c7e2a0" y="30.43625"/>
      </g>
     </g>
    </g>
    <g id="xtick_16">
     <g id="line2d_61">
      <g>
       <use style="stroke:#000000;stroke-width:0.5;" x="411.994305153" xlink:href="#m177f7580d0" y="376.03625"/>
      </g>
     </g>
     <g id="line2d_62">
      <g>
       <use style="stroke:#000000;stroke-width:0.5;" x="411.994305153" xlink:href="#m5284c7e2a0" y="30.43625"/>
      </g>
     </g>
    </g>
    <g id="xtick_17">
     <g id="line2d_63">
      <g>
       <use style="stroke:#000000;stroke-width:0.5;" x="451.890618067" xlink:href="#m177f7580d0" y="376.03625"/>
      </g>
     </g>
     <g id="line2d_64">
      <g>
       <use style="stroke:#000000;stroke-width:0.5;" x="451.890618067" xlink:href="#m5284c7e2a0" y="30.43625"/>
      </g>
     </g>
    </g>
   </g>
   <g id="matplotlib.axis_2">
    <g id="ytick_1">
     <g id="line2d_65">
      <path clip-path="url(#pa0c61c5a2a)" d="
M21.825 359.579
L468.225 359.579" style="fill:none;stroke:#000000;stroke-dasharray:1.000000,3.000000;stroke-dashoffset:0.0;stroke-width:0.5;"/>
     </g>
     <g id="line2d_66">
      <defs>
       <path d="
M0 0
L4 0" id="m728421d6d4" style="stroke:#000000;stroke-width:0.5;"/>
      </defs>
      <g>
       <use style="stroke:#000000;stroke-width:0.5;" x="21.825" xlink:href="#m728421d6d4" y="359.579107143"/>
      </g>
     </g>
     <g id="line2d_67">
      <defs>
       <path d="
M0 0
L-4 0" id="mcb0005524f" style="stroke:#000000;stroke-width:0.5;"/>
      </defs>
      <g>
       <use style="stroke:#000000;stroke-width:0.5;" x="468.225" xlink:href="#mcb0005524f" y="359.579107143"/>
      </g>
     </g>
     <g id="text_7">
      <!-- 0 -->
      <g transform="translate(7.746875 365.097857143)scale(0.2 -0.2)">
       <use xlink:href="#BitstreamVeraSans-Roman-30"/>
      </g>
     </g>
    </g>
    <g id="ytick_2">
     <g id="line2d_68">
      <path clip-path="url(#pa0c61c5a2a)" d="
M21.825 277.293
L468.225 277.293" style="fill:none;stroke:#000000;stroke-dasharray:1.000000,3.000000;stroke-dashoffset:0.0;stroke-width:0.5;"/>
     </g>
     <g id="line2d_69">
      <g>
       <use style="stroke:#000000;stroke-width:0.5;" x="21.825" xlink:href="#m728421d6d4" y="277.293392857"/>
      </g>
     </g>
     <g id="line2d_70">
      <g>
       <use style="stroke:#000000;stroke-width:0.5;" x="468.225" xlink:href="#mcb0005524f" y="277.293392857"/>
      </g>
     </g>
     <g id="text_8">
      <!-- 1 -->
      <g transform="translate(9.14375 282.812142857)scale(0.2 -0.2)">
       <use xlink:href="#BitstreamVeraSans-Roman-31"/>
      </g>
     </g>
    </g>
    <g id="ytick_3">
     <g id="line2d_71">
      <path clip-path="url(#pa0c61c5a2a)" d="
M21.825 195.008
L468.225 195.008" style="fill:none;stroke:#000000;stroke-dasharray:1.000000,3.000000;stroke-dashoffset:0.0;stroke-width:0.5;"/>
     </g>
     <g id="line2d_72">
      <g>
       <use style="stroke:#000000;stroke-width:0.5;" x="21.825" xlink:href="#m728421d6d4" y="195.007678571"/>
      </g>
     </g>
     <g id="line2d_73">
      <g>
       <use style="stroke:#000000;stroke-width:0.5;" x="468.225" xlink:href="#mcb0005524f" y="195.007678571"/>
      </g>
     </g>
     <g id="text_9">
      <!-- 2 -->
      <g transform="translate(8.56875 200.526428571)scale(0.2 -0.2)">
       <use xlink:href="#BitstreamVeraSans-Roman-32"/>
      </g>
     </g>
    </g>
    <g id="ytick_4">
     <g id="line2d_74">
      <path clip-path="url(#pa0c61c5a2a)" d="
M21.825 112.722
L468.225 112.722" style="fill:none;stroke:#000000;stroke-dasharray:1.000000,3.000000;stroke-dashoffset:0.0;stroke-width:0.5;"/>
     </g>
     <g id="line2d_75">
      <g>
       <use style="stroke:#000000;stroke-width:0.5;" x="21.825" xlink:href="#m728421d6d4" y="112.721964286"/>
      </g>
     </g>
     <g id="line2d_76">
      <g>
       <use style="stroke:#000000;stroke-width:0.5;" x="468.225" xlink:href="#mcb0005524f" y="112.721964286"/>
      </g>
     </g>
     <g id="text_10">
      <!-- 3 -->
      <g transform="translate(8.228125 118.240714286)scale(0.2 -0.2)">
       <use xlink:href="#BitstreamVeraSans-Roman-33"/>
      </g>
     </g>
    </g>
    <g id="ytick_5">
     <g id="line2d_77">
      <path clip-path="url(#pa0c61c5a2a)" d="
M21.825 30.4362
L468.225 30.4362" style="fill:none;stroke:#000000;stroke-dasharray:1.000000,3.000000;stroke-dashoffset:0.0;stroke-width:0.5;"/>
     </g>
     <g id="line2d_78">
      <g>
       <use style="stroke:#000000;stroke-width:0.5;" x="21.825" xlink:href="#m728421d6d4" y="30.43625"/>
      </g>
     </g>
     <g id="line2d_79">
      <g>
       <use style="stroke:#000000;stroke-width:0.5;" x="468.225" xlink:href="#mcb0005524f" y="30.43625"/>
      </g>
     </g>
     <g id="text_11">
      <!-- 4 -->
      <g transform="translate(7.2 35.955)scale(0.2 -0.2)">
       <use xlink:href="#BitstreamVeraSans-Roman-34"/>
      </g>
     </g>
    </g>
    <g id="ytick_6">
     <g id="line2d_80">
      <defs>
       <path d="
M0 0
L2 0" id="mf0c55a9a47" style="stroke:#000000;stroke-width:0.5;"/>
      </defs>
      <g>
       <use style="stroke:#000000;stroke-width:0.5;" x="21.825" xlink:href="#mf0c55a9a47" y="372.325325565"/>
      </g>
     </g>
     <g id="line2d_81">
      <defs>
       <path d="
M0 0
L-2 0" id="ma4f294b3af" style="stroke:#000000;stroke-width:0.5;"/>
      </defs>
      <g>
       <use style="stroke:#000000;stroke-width:0.5;" x="468.225" xlink:href="#ma4f294b3af" y="372.325325565"/>
      </g>
     </g>
    </g>
    <g id="ytick_7">
     <g id="line2d_82">
      <g>
       <use style="stroke:#000000;stroke-width:0.5;" x="21.825" xlink:href="#mf0c55a9a47" y="367.553416785"/>
      </g>
     </g>
     <g id="line2d_83">
      <g>
       <use style="stroke:#000000;stroke-width:0.5;" x="468.225" xlink:href="#ma4f294b3af" y="367.553416785"/>
      </g>
     </g>
    </g>
    <g id="ytick_8">
     <g id="line2d_84">
      <g>
       <use style="stroke:#000000;stroke-width:0.5;" x="21.825" xlink:href="#mf0c55a9a47" y="363.344294938"/>
      </g>
     </g>
     <g id="line2d_85">
      <g>
       <use style="stroke:#000000;stroke-width:0.5;" x="468.225" xlink:href="#ma4f294b3af" y="363.344294938"/>
      </g>
     </g>
    </g>
    <g id="ytick_9">
     <g id="line2d_86">
      <g>
       <use style="stroke:#000000;stroke-width:0.5;" x="21.825" xlink:href="#mf0c55a9a47" y="334.808638928"/>
      </g>
     </g>
     <g id="line2d_87">
      <g>
       <use style="stroke:#000000;stroke-width:0.5;" x="468.225" xlink:href="#ma4f294b3af" y="334.808638928"/>
      </g>
     </g>
    </g>
    <g id="ytick_10">
     <g id="line2d_88">
      <g>
       <use style="stroke:#000000;stroke-width:0.5;" x="21.825" xlink:href="#mf0c55a9a47" y="320.318843897"/>
      </g>
     </g>
     <g id="line2d_89">
      <g>
       <use style="stroke:#000000;stroke-width:0.5;" x="468.225" xlink:href="#ma4f294b3af" y="320.318843897"/>
      </g>
     </g>
    </g>
    <g id="ytick_11">
     <g id="line2d_90">
      <g>
       <use style="stroke:#000000;stroke-width:0.5;" x="21.825" xlink:href="#mf0c55a9a47" y="310.038170714"/>
      </g>
     </g>
     <g id="line2d_91">
      <g>
       <use style="stroke:#000000;stroke-width:0.5;" x="468.225" xlink:href="#ma4f294b3af" y="310.038170714"/>
      </g>
     </g>
    </g>
    <g id="ytick_12">
     <g id="line2d_92">
      <g>
       <use style="stroke:#000000;stroke-width:0.5;" x="21.825" xlink:href="#mf0c55a9a47" y="302.063861072"/>
      </g>
     </g>
     <g id="line2d_93">
      <g>
       <use style="stroke:#000000;stroke-width:0.5;" x="468.225" xlink:href="#ma4f294b3af" y="302.063861072"/>
      </g>
     </g>
    </g>
    <g id="ytick_13">
     <g id="line2d_94">
      <g>
       <use style="stroke:#000000;stroke-width:0.5;" x="21.825" xlink:href="#mf0c55a9a47" y="295.548375683"/>
      </g>
     </g>
     <g id="line2d_95">
      <g>
       <use style="stroke:#000000;stroke-width:0.5;" x="468.225" xlink:href="#ma4f294b3af" y="295.548375683"/>
      </g>
     </g>
    </g>
    <g id="ytick_14">
     <g id="line2d_96">
      <g>
       <use style="stroke:#000000;stroke-width:0.5;" x="21.825" xlink:href="#mf0c55a9a47" y="290.039611279"/>
      </g>
     </g>
     <g id="line2d_97">
      <g>
       <use style="stroke:#000000;stroke-width:0.5;" x="468.225" xlink:href="#ma4f294b3af" y="290.039611279"/>
      </g>
     </g>
    </g>
    <g id="ytick_15">
     <g id="line2d_98">
      <g>
       <use style="stroke:#000000;stroke-width:0.5;" x="21.825" xlink:href="#mf0c55a9a47" y="285.267702499"/>
      </g>
     </g>
     <g id="line2d_99">
      <g>
       <use style="stroke:#000000;stroke-width:0.5;" x="468.225" xlink:href="#ma4f294b3af" y="285.267702499"/>
      </g>
     </g>
    </g>
    <g id="ytick_16">
     <g id="line2d_100">
      <g>
       <use style="stroke:#000000;stroke-width:0.5;" x="21.825" xlink:href="#mf0c55a9a47" y="281.058580652"/>
      </g>
     </g>
     <g id="line2d_101">
      <g>
       <use style="stroke:#000000;stroke-width:0.5;" x="468.225" xlink:href="#ma4f294b3af" y="281.058580652"/>
      </g>
     </g>
    </g>
    <g id="ytick_17">
     <g id="line2d_102">
      <g>
       <use style="stroke:#000000;stroke-width:0.5;" x="21.825" xlink:href="#mf0c55a9a47" y="252.522924643"/>
      </g>
     </g>
     <g id="line2d_103">
      <g>
       <use style="stroke:#000000;stroke-width:0.5;" x="468.225" xlink:href="#ma4f294b3af" y="252.522924643"/>
      </g>
     </g>
    </g>
    <g id="ytick_18">
     <g id="line2d_104">
      <g>
       <use style="stroke:#000000;stroke-width:0.5;" x="21.825" xlink:href="#mf0c55a9a47" y="238.033129612"/>
      </g>
     </g>
     <g id="line2d_105">
      <g>
       <use style="stroke:#000000;stroke-width:0.5;" x="468.225" xlink:href="#ma4f294b3af" y="238.033129612"/>
      </g>
     </g>
    </g>
    <g id="ytick_19">
     <g id="line2d_106">
      <g>
       <use style="stroke:#000000;stroke-width:0.5;" x="21.825" xlink:href="#mf0c55a9a47" y="227.752456428"/>
      </g>
     </g>
     <g id="line2d_107">
      <g>
       <use style="stroke:#000000;stroke-width:0.5;" x="468.225" xlink:href="#ma4f294b3af" y="227.752456428"/>
      </g>
     </g>
    </g>
    <g id="ytick_20">
     <g id="line2d_108">
      <g>
       <use style="stroke:#000000;stroke-width:0.5;" x="21.825" xlink:href="#mf0c55a9a47" y="219.778146786"/>
      </g>
     </g>
     <g id="line2d_109">
      <g>
       <use style="stroke:#000000;stroke-width:0.5;" x="468.225" xlink:href="#ma4f294b3af" y="219.778146786"/>
      </g>
     </g>
    </g>
    <g id="ytick_21">
     <g id="line2d_110">
      <g>
       <use style="stroke:#000000;stroke-width:0.5;" x="21.825" xlink:href="#mf0c55a9a47" y="213.262661397"/>
      </g>
     </g>
     <g id="line2d_111">
      <g>
       <use style="stroke:#000000;stroke-width:0.5;" x="468.225" xlink:href="#ma4f294b3af" y="213.262661397"/>
      </g>
     </g>
    </g>
    <g id="ytick_22">
     <g id="line2d_112">
      <g>
       <use style="stroke:#000000;stroke-width:0.5;" x="21.825" xlink:href="#mf0c55a9a47" y="207.753896993"/>
      </g>
     </g>
     <g id="line2d_113">
      <g>
       <use style="stroke:#000000;stroke-width:0.5;" x="468.225" xlink:href="#ma4f294b3af" y="207.753896993"/>
      </g>
     </g>
    </g>
    <g id="ytick_23">
     <g id="line2d_114">
      <g>
       <use style="stroke:#000000;stroke-width:0.5;" x="21.825" xlink:href="#mf0c55a9a47" y="202.981988213"/>
      </g>
     </g>
     <g id="line2d_115">
      <g>
       <use style="stroke:#000000;stroke-width:0.5;" x="468.225" xlink:href="#ma4f294b3af" y="202.981988213"/>
      </g>
     </g>
    </g>
    <g id="ytick_24">
     <g id="line2d_116">
      <g>
       <use style="stroke:#000000;stroke-width:0.5;" x="21.825" xlink:href="#mf0c55a9a47" y="198.772866366"/>
      </g>
     </g>
     <g id="line2d_117">
      <g>
       <use style="stroke:#000000;stroke-width:0.5;" x="468.225" xlink:href="#ma4f294b3af" y="198.772866366"/>
      </g>
     </g>
    </g>
    <g id="ytick_25">
     <g id="line2d_118">
      <g>
       <use style="stroke:#000000;stroke-width:0.5;" x="21.825" xlink:href="#mf0c55a9a47" y="170.237210357"/>
      </g>
     </g>
     <g id="line2d_119">
      <g>
       <use style="stroke:#000000;stroke-width:0.5;" x="468.225" xlink:href="#ma4f294b3af" y="170.237210357"/>
      </g>
     </g>
    </g>
    <g id="ytick_26">
     <g id="line2d_120">
      <g>
       <use style="stroke:#000000;stroke-width:0.5;" x="21.825" xlink:href="#mf0c55a9a47" y="155.747415326"/>
      </g>
     </g>
     <g id="line2d_121">
      <g>
       <use style="stroke:#000000;stroke-width:0.5;" x="468.225" xlink:href="#ma4f294b3af" y="155.747415326"/>
      </g>
     </g>
    </g>
    <g id="ytick_27">
     <g id="line2d_122">
      <g>
       <use style="stroke:#000000;stroke-width:0.5;" x="21.825" xlink:href="#mf0c55a9a47" y="145.466742142"/>
      </g>
     </g>
     <g id="line2d_123">
      <g>
       <use style="stroke:#000000;stroke-width:0.5;" x="468.225" xlink:href="#ma4f294b3af" y="145.466742142"/>
      </g>
     </g>
    </g>
    <g id="ytick_28">
     <g id="line2d_124">
      <g>
       <use style="stroke:#000000;stroke-width:0.5;" x="21.825" xlink:href="#mf0c55a9a47" y="137.4924325"/>
      </g>
     </g>
     <g id="line2d_125">
      <g>
       <use style="stroke:#000000;stroke-width:0.5;" x="468.225" xlink:href="#ma4f294b3af" y="137.4924325"/>
      </g>
     </g>
    </g>
    <g id="ytick_29">
     <g id="line2d_126">
      <g>
       <use style="stroke:#000000;stroke-width:0.5;" x="21.825" xlink:href="#mf0c55a9a47" y="130.976947111"/>
      </g>
     </g>
     <g id="line2d_127">
      <g>
       <use style="stroke:#000000;stroke-width:0.5;" x="468.225" xlink:href="#ma4f294b3af" y="130.976947111"/>
      </g>
     </g>
    </g>
    <g id="ytick_30">
     <g id="line2d_128">
      <g>
       <use style="stroke:#000000;stroke-width:0.5;" x="21.825" xlink:href="#mf0c55a9a47" y="125.468182707"/>
      </g>
     </g>
     <g id="line2d_129">
      <g>
       <use style="stroke:#000000;stroke-width:0.5;" x="468.225" xlink:href="#ma4f294b3af" y="125.468182707"/>
      </g>
     </g>
    </g>
    <g id="ytick_31">
     <g id="line2d_130">
      <g>
       <use style="stroke:#000000;stroke-width:0.5;" x="21.825" xlink:href="#mf0c55a9a47" y="120.696273928"/>
      </g>
     </g>
     <g id="line2d_131">
      <g>
       <use style="stroke:#000000;stroke-width:0.5;" x="468.225" xlink:href="#ma4f294b3af" y="120.696273928"/>
      </g>
     </g>
    </g>
    <g id="ytick_32">
     <g id="line2d_132">
      <g>
       <use style="stroke:#000000;stroke-width:0.5;" x="21.825" xlink:href="#mf0c55a9a47" y="116.48715208"/>
      </g>
     </g>
     <g id="line2d_133">
      <g>
       <use style="stroke:#000000;stroke-width:0.5;" x="468.225" xlink:href="#ma4f294b3af" y="116.48715208"/>
      </g>
     </g>
    </g>
    <g id="ytick_33">
     <g id="line2d_134">
      <g>
       <use style="stroke:#000000;stroke-width:0.5;" x="21.825" xlink:href="#mf0c55a9a47" y="87.9514960711"/>
      </g>
     </g>
     <g id="line2d_135">
      <g>
       <use style="stroke:#000000;stroke-width:0.5;" x="468.225" xlink:href="#ma4f294b3af" y="87.9514960711"/>
      </g>
     </g>
    </g>
    <g id="ytick_34">
     <g id="line2d_136">
      <g>
       <use style="stroke:#000000;stroke-width:0.5;" x="21.825" xlink:href="#mf0c55a9a47" y="73.4617010402"/>
      </g>
     </g>
     <g id="line2d_137">
      <g>
       <use style="stroke:#000000;stroke-width:0.5;" x="468.225" xlink:href="#ma4f294b3af" y="73.4617010402"/>
      </g>
     </g>
    </g>
    <g id="ytick_35">
     <g id="line2d_138">
      <g>
       <use style="stroke:#000000;stroke-width:0.5;" x="21.825" xlink:href="#mf0c55a9a47" y="63.1810278564"/>
      </g>
     </g>
     <g id="line2d_139">
      <g>
       <use style="stroke:#000000;stroke-width:0.5;" x="468.225" xlink:href="#ma4f294b3af" y="63.1810278564"/>
      </g>
     </g>
    </g>
    <g id="ytick_36">
     <g id="line2d_140">
      <g>
       <use style="stroke:#000000;stroke-width:0.5;" x="21.825" xlink:href="#mf0c55a9a47" y="55.2067182146"/>
      </g>
     </g>
     <g id="line2d_141">
      <g>
       <use style="stroke:#000000;stroke-width:0.5;" x="468.225" xlink:href="#ma4f294b3af" y="55.2067182146"/>
      </g>
     </g>
    </g>
    <g id="ytick_37">
     <g id="line2d_142">
      <g>
       <use style="stroke:#000000;stroke-width:0.5;" x="21.825" xlink:href="#mf0c55a9a47" y="48.6912328256"/>
      </g>
     </g>
     <g id="line2d_143">
      <g>
       <use style="stroke:#000000;stroke-width:0.5;" x="468.225" xlink:href="#ma4f294b3af" y="48.6912328256"/>
      </g>
     </g>
    </g>
    <g id="ytick_38">
     <g id="line2d_144">
      <g>
       <use style="stroke:#000000;stroke-width:0.5;" x="21.825" xlink:href="#mf0c55a9a47" y="43.1824684217"/>
      </g>
     </g>
     <g id="line2d_145">
      <g>
       <use style="stroke:#000000;stroke-width:0.5;" x="468.225" xlink:href="#ma4f294b3af" y="43.1824684217"/>
      </g>
     </g>
    </g>
    <g id="ytick_39">
     <g id="line2d_146">
      <g>
       <use style="stroke:#000000;stroke-width:0.5;" x="21.825" xlink:href="#mf0c55a9a47" y="38.4105596418"/>
      </g>
     </g>
     <g id="line2d_147">
      <g>
       <use style="stroke:#000000;stroke-width:0.5;" x="468.225" xlink:href="#ma4f294b3af" y="38.4105596418"/>
      </g>
     </g>
    </g>
    <g id="ytick_40">
     <g id="line2d_148">
      <g>
       <use style="stroke:#000000;stroke-width:0.5;" x="21.825" xlink:href="#mf0c55a9a47" y="34.2014377947"/>
      </g>
     </g>
     <g id="line2d_149">
      <g>
       <use style="stroke:#000000;stroke-width:0.5;" x="468.225" xlink:href="#ma4f294b3af" y="34.2014377947"/>
      </g>
     </g>
    </g>
   </g>
   <g id="text_12">
    <!-- 15 instances -->
    <defs>
     <path id="BitstreamVeraSans-Roman-20"/>
     <path d="
M54.8906 33.0156
L54.8906 0
L45.9062 0
L45.9062 32.7188
Q45.9062 40.4844 42.875 44.3281
Q39.8438 48.1875 33.7969 48.1875
Q26.5156 48.1875 22.3125 43.5469
Q18.1094 38.9219 18.1094 30.9062
L18.1094 0
L9.07812 0
L9.07812 54.6875
L18.1094 54.6875
L18.1094 46.1875
Q21.3438 51.125 25.7031 53.5625
Q30.0781 56 35.7969 56
Q45.2188 56 50.0469 50.1719
Q54.8906 44.3438 54.8906 33.0156" id="BitstreamVeraSans-Roman-6e"/>
     <path d="
M9.42188 54.6875
L18.4062 54.6875
L18.4062 0
L9.42188 0
z

M9.42188 75.9844
L18.4062 75.9844
L18.4062 64.5938
L9.42188 64.5938
z
" id="BitstreamVeraSans-Roman-69"/>
     <path d="
M56.2031 29.5938
L56.2031 25.2031
L14.8906 25.2031
Q15.4844 15.9219 20.4844 11.0625
Q25.4844 6.20312 34.4219 6.20312
Q39.5938 6.20312 44.4531 7.46875
Q49.3125 8.73438 54.1094 11.2812
L54.1094 2.78125
Q49.2656 0.734375 44.1875 -0.34375
Q39.1094 -1.42188 33.8906 -1.42188
Q20.7969 -1.42188 13.1562 6.1875
Q5.51562 13.8125 5.51562 26.8125
Q5.51562 40.2344 12.7656 48.1094
Q20.0156 56 32.3281 56
Q43.3594 56 49.7812 48.8906
Q56.2031 41.7969 56.2031 29.5938
M47.2188 32.2344
Q47.125 39.5938 43.0938 43.9844
Q39.0625 48.3906 32.4219 48.3906
Q24.9062 48.3906 20.3906 44.1406
Q15.875 39.8906 15.1875 32.1719
z
" id="BitstreamVeraSans-Roman-65"/>
     <path d="
M18.3125 70.2188
L18.3125 54.6875
L36.8125 54.6875
L36.8125 47.7031
L18.3125 47.7031
L18.3125 18.0156
Q18.3125 11.3281 20.1406 9.42188
Q21.9688 7.51562 27.5938 7.51562
L36.8125 7.51562
L36.8125 0
L27.5938 0
Q17.1875 0 13.2344 3.875
Q9.28125 7.76562 9.28125 18.0156
L9.28125 47.7031
L2.6875 47.7031
L2.6875 54.6875
L9.28125 54.6875
L9.28125 70.2188
z
" id="BitstreamVeraSans-Roman-74"/>
     <path d="
M34.2812 27.4844
Q23.3906 27.4844 19.1875 25
Q14.9844 22.5156 14.9844 16.5
Q14.9844 11.7188 18.1406 8.90625
Q21.2969 6.10938 26.7031 6.10938
Q34.1875 6.10938 38.7031 11.4062
Q43.2188 16.7031 43.2188 25.4844
L43.2188 27.4844
z

M52.2031 31.2031
L52.2031 0
L43.2188 0
L43.2188 8.29688
Q40.1406 3.32812 35.5469 0.953125
Q30.9531 -1.42188 24.3125 -1.42188
Q15.9219 -1.42188 10.9531 3.29688
Q6 8.01562 6 15.9219
Q6 25.1406 12.1719 29.8281
Q18.3594 34.5156 30.6094 34.5156
L43.2188 34.5156
L43.2188 35.4062
Q43.2188 41.6094 39.1406 45
Q35.0625 48.3906 27.6875 48.3906
Q23 48.3906 18.5469 47.2656
Q14.1094 46.1406 10.0156 43.8906
L10.0156 52.2031
Q14.9375 54.1094 19.5781 55.0469
Q24.2188 56 28.6094 56
Q40.4844 56 46.3438 49.8438
Q52.2031 43.7031 52.2031 31.2031" id="BitstreamVeraSans-Roman-61"/>
     <path d="
M44.2812 53.0781
L44.2812 44.5781
Q40.4844 46.5312 36.375 47.5
Q32.2812 48.4844 27.875 48.4844
Q21.1875 48.4844 17.8438 46.4375
Q14.5 44.3906 14.5 40.2812
Q14.5 37.1562 16.8906 35.375
Q19.2812 33.5938 26.5156 31.9844
L29.5938 31.2969
Q39.1562 29.25 43.1875 25.5156
Q47.2188 21.7812 47.2188 15.0938
Q47.2188 7.46875 41.1875 3.01562
Q35.1562 -1.42188 24.6094 -1.42188
Q20.2188 -1.42188 15.4531 -0.5625
Q10.6875 0.296875 5.42188 2
L5.42188 11.2812
Q10.4062 8.6875 15.2344 7.39062
Q20.0625 6.10938 24.8125 6.10938
Q31.1562 6.10938 34.5625 8.28125
Q37.9844 10.4531 37.9844 14.4062
Q37.9844 18.0625 35.5156 20.0156
Q33.0625 21.9688 24.7031 23.7812
L21.5781 24.5156
Q13.2344 26.2656 9.51562 29.9062
Q5.8125 33.5469 5.8125 39.8906
Q5.8125 47.6094 11.2812 51.7969
Q16.75 56 26.8125 56
Q31.7812 56 36.1719 55.2656
Q40.5781 54.5469 44.2812 53.0781" id="BitstreamVeraSans-Roman-73"/>
     <path d="
M48.7812 52.5938
L48.7812 44.1875
Q44.9688 46.2969 41.1406 47.3438
Q37.3125 48.3906 33.4062 48.3906
Q24.6562 48.3906 19.8125 42.8438
Q14.9844 37.3125 14.9844 27.2969
Q14.9844 17.2812 19.8125 11.7344
Q24.6562 6.20312 33.4062 6.20312
Q37.3125 6.20312 41.1406 7.25
Q44.9688 8.29688 48.7812 10.4062
L48.7812 2.09375
Q45.0156 0.34375 40.9844 -0.53125
Q36.9688 -1.42188 32.4219 -1.42188
Q20.0625 -1.42188 12.7812 6.34375
Q5.51562 14.1094 5.51562 27.2969
Q5.51562 40.6719 12.8594 48.3281
Q20.2188 56 33.0156 56
Q37.1562 56 41.1094 55.1406
Q45.0625 54.2969 48.7812 52.5938" id="BitstreamVeraSans-Roman-63"/>
    </defs>
    <g transform="translate(21.825 357.44775)scale(0.14 -0.14)">
     <use xlink:href="#BitstreamVeraSans-Roman-31"/>
     <use x="63.623046875" xlink:href="#BitstreamVeraSans-Roman-35"/>
     <use x="127.24609375" xlink:href="#BitstreamVeraSans-Roman-20"/>
     <use x="159.033203125" xlink:href="#BitstreamVeraSans-Roman-69"/>
     <use x="186.81640625" xlink:href="#BitstreamVeraSans-Roman-6e"/>
     <use x="250.1953125" xlink:href="#BitstreamVeraSans-Roman-73"/>
     <use x="302.294921875" xlink:href="#BitstreamVeraSans-Roman-74"/>
     <use x="341.50390625" xlink:href="#BitstreamVeraSans-Roman-61"/>
     <use x="402.783203125" xlink:href="#BitstreamVeraSans-Roman-6e"/>
     <use x="466.162109375" xlink:href="#BitstreamVeraSans-Roman-63"/>
     <use x="521.142578125" xlink:href="#BitstreamVeraSans-Roman-65"/>
     <use x="582.666015625" xlink:href="#BitstreamVeraSans-Roman-73"/>
    </g>
    <!-- target Df: 1e-8 -->
    <defs>
     <path d="
M31.7812 34.625
Q24.75 34.625 20.7188 30.8594
Q16.7031 27.0938 16.7031 20.5156
Q16.7031 13.9219 20.7188 10.1562
Q24.75 6.39062 31.7812 6.39062
Q38.8125 6.39062 42.8594 10.1719
Q46.9219 13.9688 46.9219 20.5156
Q46.9219 27.0938 42.8906 30.8594
Q38.875 34.625 31.7812 34.625
M21.9219 38.8125
Q15.5781 40.375 12.0312 44.7188
Q8.5 49.0781 8.5 55.3281
Q8.5 64.0625 14.7188 69.1406
Q20.9531 74.2188 31.7812 74.2188
Q42.6719 74.2188 48.875 69.1406
Q55.0781 64.0625 55.0781 55.3281
Q55.0781 49.0781 51.5312 44.7188
Q48 40.375 41.7031 38.8125
Q48.8281 37.1562 52.7969 32.3125
Q56.7812 27.4844 56.7812 20.5156
Q56.7812 9.90625 50.3125 4.23438
Q43.8438 -1.42188 31.7812 -1.42188
Q19.7344 -1.42188 13.25 4.23438
Q6.78125 9.90625 6.78125 20.5156
Q6.78125 27.4844 10.7812 32.3125
Q14.7969 37.1562 21.9219 38.8125
M18.3125 54.3906
Q18.3125 48.7344 21.8438 45.5625
Q25.3906 42.3906 31.7812 42.3906
Q38.1406 42.3906 41.7188 45.5625
Q45.3125 48.7344 45.3125 54.3906
Q45.3125 60.0625 41.7188 63.2344
Q38.1406 66.4062 31.7812 66.4062
Q25.3906 66.4062 21.8438 63.2344
Q18.3125 60.0625 18.3125 54.3906" id="BitstreamVeraSans-Roman-38"/>
     <path d="
M19.6719 64.7969
L19.6719 8.10938
L31.5938 8.10938
Q46.6875 8.10938 53.6875 14.9375
Q60.6875 21.7812 60.6875 36.5312
Q60.6875 51.1719 53.6875 57.9844
Q46.6875 64.7969 31.5938 64.7969
z

M9.8125 72.9062
L30.0781 72.9062
Q51.2656 72.9062 61.1719 64.0938
Q71.0938 55.2812 71.0938 36.5312
Q71.0938 17.6719 61.125 8.82812
Q51.1719 0 30.0781 0
L9.8125 0
z
" id="BitstreamVeraSans-Roman-44"/>
     <path d="
M11.7188 12.4062
L22.0156 12.4062
L22.0156 0
L11.7188 0
z

M11.7188 51.7031
L22.0156 51.7031
L22.0156 39.3125
L11.7188 39.3125
z
" id="BitstreamVeraSans-Roman-3a"/>
     <path d="
M4.89062 31.3906
L31.2031 31.3906
L31.2031 23.3906
L4.89062 23.3906
z
" id="BitstreamVeraSans-Roman-2d"/>
     <path d="
M45.4062 27.9844
Q45.4062 37.75 41.375 43.1094
Q37.3594 48.4844 30.0781 48.4844
Q22.8594 48.4844 18.8281 43.1094
Q14.7969 37.75 14.7969 27.9844
Q14.7969 18.2656 18.8281 12.8906
Q22.8594 7.51562 30.0781 7.51562
Q37.3594 7.51562 41.375 12.8906
Q45.4062 18.2656 45.4062 27.9844
M54.3906 6.78125
Q54.3906 -7.17188 48.1875 -13.9844
Q42 -20.7969 29.2031 -20.7969
Q24.4688 -20.7969 20.2656 -20.0938
Q16.0625 -19.3906 12.1094 -17.9219
L12.1094 -9.1875
Q16.0625 -11.3281 19.9219 -12.3438
Q23.7812 -13.375 27.7812 -13.375
Q36.625 -13.375 41.0156 -8.76562
Q45.4062 -4.15625 45.4062 5.17188
L45.4062 9.625
Q42.625 4.78125 38.2812 2.39062
Q33.9375 0 27.875 0
Q17.8281 0 11.6719 7.65625
Q5.51562 15.3281 5.51562 27.9844
Q5.51562 40.6719 11.6719 48.3281
Q17.8281 56 27.875 56
Q33.9375 56 38.2812 53.6094
Q42.625 51.2188 45.4062 46.3906
L45.4062 54.6875
L54.3906 54.6875
z
" id="BitstreamVeraSans-Roman-67"/>
     <path d="
M37.1094 75.9844
L37.1094 68.5
L28.5156 68.5
Q23.6875 68.5 21.7969 66.5469
Q19.9219 64.5938 19.9219 59.5156
L19.9219 54.6875
L34.7188 54.6875
L34.7188 47.7031
L19.9219 47.7031
L19.9219 0
L10.8906 0
L10.8906 47.7031
L2.29688 47.7031
L2.29688 54.6875
L10.8906 54.6875
L10.8906 58.5
Q10.8906 67.625 15.1406 71.7969
Q19.3906 75.9844 28.6094 75.9844
z
" id="BitstreamVeraSans-Roman-66"/>
     <path d="
M41.1094 46.2969
Q39.5938 47.1719 37.8125 47.5781
Q36.0312 48 33.8906 48
Q26.2656 48 22.1875 43.0469
Q18.1094 38.0938 18.1094 28.8125
L18.1094 0
L9.07812 0
L9.07812 54.6875
L18.1094 54.6875
L18.1094 46.1875
Q20.9531 51.1719 25.4844 53.5781
Q30.0312 56 36.5312 56
Q37.4531 56 38.5781 55.875
Q39.7031 55.7656 41.0625 55.5156
z
" id="BitstreamVeraSans-Roman-72"/>
    </defs>
    <g transform="translate(21.825 373.1246875)scale(0.14 -0.14)">
     <use xlink:href="#BitstreamVeraSans-Roman-74"/>
     <use x="39.208984375" xlink:href="#BitstreamVeraSans-Roman-61"/>
     <use x="100.48828125" xlink:href="#BitstreamVeraSans-Roman-72"/>
     <use x="139.8515625" xlink:href="#BitstreamVeraSans-Roman-67"/>
     <use x="203.328125" xlink:href="#BitstreamVeraSans-Roman-65"/>
     <use x="264.8515625" xlink:href="#BitstreamVeraSans-Roman-74"/>
     <use x="304.060546875" xlink:href="#BitstreamVeraSans-Roman-20"/>
     <use x="335.84765625" xlink:href="#BitstreamVeraSans-Roman-44"/>
     <use x="412.849609375" xlink:href="#BitstreamVeraSans-Roman-66"/>
     <use x="444.4296875" xlink:href="#BitstreamVeraSans-Roman-3a"/>
     <use x="478.12109375" xlink:href="#BitstreamVeraSans-Roman-20"/>
     <use x="509.908203125" xlink:href="#BitstreamVeraSans-Roman-31"/>
     <use x="573.53125" xlink:href="#BitstreamVeraSans-Roman-65"/>
     <use x="635.0546875" xlink:href="#BitstreamVeraSans-Roman-2d"/>
     <use x="671.138671875" xlink:href="#BitstreamVeraSans-Roman-38"/>
    </g>
   </g>
   <g id="text_13">
    <!-- v2.1.1.3 -->
    <defs>
     <path d="
M2.98438 54.6875
L12.5 54.6875
L29.5938 8.79688
L46.6875 54.6875
L56.2031 54.6875
L35.6875 0
L23.4844 0
z
" id="BitstreamVeraSans-Roman-76"/>
     <path d="
M10.6875 12.4062
L21 12.4062
L21 0
L10.6875 0
z
" id="BitstreamVeraSans-Roman-2e"/>
    </defs>
    <g style="fill:#808080;" transform="translate(225.1234375 370.5005625)scale(0.1 -0.1)">
     <use xlink:href="#BitstreamVeraSans-Roman-76"/>
     <use x="59.1796875" xlink:href="#BitstreamVeraSans-Roman-32"/>
     <use x="122.802734375" xlink:href="#BitstreamVeraSans-Roman-2e"/>
     <use x="154.58984375" xlink:href="#BitstreamVeraSans-Roman-31"/>
     <use x="218.212890625" xlink:href="#BitstreamVeraSans-Roman-2e"/>
     <use x="250.0" xlink:href="#BitstreamVeraSans-Roman-31"/>
     <use x="313.623046875" xlink:href="#BitstreamVeraSans-Roman-2e"/>
     <use x="345.41015625" xlink:href="#BitstreamVeraSans-Roman-33"/>
    </g>
   </g>
   <g id="text_14">
    <!-- 1 Sphere -->
    <defs>
     <path d="
M53.5156 70.5156
L53.5156 60.8906
Q47.9062 63.5781 42.9219 64.8906
Q37.9375 66.2188 33.2969 66.2188
Q25.25 66.2188 20.875 63.0938
Q16.5 59.9688 16.5 54.2031
Q16.5 49.3594 19.4062 46.8906
Q22.3125 44.4375 30.4219 42.9219
L36.375 41.7031
Q47.4062 39.5938 52.6562 34.2969
Q57.9062 29 57.9062 20.125
Q57.9062 9.51562 50.7969 4.04688
Q43.7031 -1.42188 29.9844 -1.42188
Q24.8125 -1.42188 18.9688 -0.25
Q13.1406 0.921875 6.89062 3.21875
L6.89062 13.375
Q12.8906 10.0156 18.6562 8.29688
Q24.4219 6.59375 29.9844 6.59375
Q38.4219 6.59375 43.0156 9.90625
Q47.6094 13.2344 47.6094 19.3906
Q47.6094 24.75 44.3125 27.7812
Q41.0156 30.8125 33.5 32.3281
L27.4844 33.5
Q16.4531 35.6875 11.5156 40.375
Q6.59375 45.0625 6.59375 53.4219
Q6.59375 63.0938 13.4062 68.6562
Q20.2188 74.2188 32.1719 74.2188
Q37.3125 74.2188 42.625 73.2812
Q47.9531 72.3594 53.5156 70.5156" id="BitstreamVeraSans-Roman-53"/>
     <path d="
M54.8906 33.0156
L54.8906 0
L45.9062 0
L45.9062 32.7188
Q45.9062 40.4844 42.875 44.3281
Q39.8438 48.1875 33.7969 48.1875
Q26.5156 48.1875 22.3125 43.5469
Q18.1094 38.9219 18.1094 30.9062
L18.1094 0
L9.07812 0
L9.07812 75.9844
L18.1094 75.9844
L18.1094 46.1875
Q21.3438 51.125 25.7031 53.5625
Q30.0781 56 35.7969 56
Q45.2188 56 50.0469 50.1719
Q54.8906 44.3438 54.8906 33.0156" id="BitstreamVeraSans-Roman-68"/>
     <path d="
M18.1094 8.20312
L18.1094 -20.7969
L9.07812 -20.7969
L9.07812 54.6875
L18.1094 54.6875
L18.1094 46.3906
Q20.9531 51.2656 25.2656 53.625
Q29.5938 56 35.5938 56
Q45.5625 56 51.7812 48.0938
Q58.0156 40.1875 58.0156 27.2969
Q58.0156 14.4062 51.7812 6.48438
Q45.5625 -1.42188 35.5938 -1.42188
Q29.5938 -1.42188 25.2656 0.953125
Q20.9531 3.32812 18.1094 8.20312
M48.6875 27.2969
Q48.6875 37.2031 44.6094 42.8438
Q40.5312 48.4844 33.4062 48.4844
Q26.2656 48.4844 22.1875 42.8438
Q18.1094 37.2031 18.1094 27.2969
Q18.1094 17.3906 22.1875 11.75
Q26.2656 6.10938 33.4062 6.10938
Q40.5312 6.10938 44.6094 11.75
Q48.6875 17.3906 48.6875 27.2969" id="BitstreamVeraSans-Roman-70"/>
    </defs>
    <g transform="translate(191.94375 25.43625)scale(0.24 -0.24)">
     <use xlink:href="#BitstreamVeraSans-Roman-31"/>
     <use x="63.623046875" xlink:href="#BitstreamVeraSans-Roman-20"/>
     <use x="95.41015625" xlink:href="#BitstreamVeraSans-Roman-53"/>
     <use x="158.88671875" xlink:href="#BitstreamVeraSans-Roman-70"/>
     <use x="222.36328125" xlink:href="#BitstreamVeraSans-Roman-68"/>
     <use x="285.7421875" xlink:href="#BitstreamVeraSans-Roman-65"/>
     <use x="347.265625" xlink:href="#BitstreamVeraSans-Roman-72"/>
     <use x="386.12890625" xlink:href="#BitstreamVeraSans-Roman-65"/>
    </g>
   </g>
   <g id="legend_1">
    <g id="patch_7">
     <path d="
M31.825 366.036
L832.416 366.036
L832.416 271.967
L31.825 271.967
z
" style="fill:#ffffff;opacity:0.2;stroke:#000000;stroke-linejoin:miter;"/>
    </g>
    <g id="line2d_150">
     <path d="
M39.825 288.164
L79.825 288.164" style="fill:none;stroke:#000080;stroke-linecap:square;stroke-width:5.0;"/>
    </g>
    <g id="line2d_151">
     <defs>
      <path d="
M0 6
C1.59122 6 3.11748 5.3678 4.24264 4.24264
C5.3678 3.11748 6 1.59122 6 0
C6 -1.59122 5.3678 -3.11748 4.24264 -4.24264
C3.11748 -5.3678 1.59122 -6 0 -6
C-1.59122 -6 -3.11748 -5.3678 -4.24264 -4.24264
C-5.3678 -3.11748 -6 -1.59122 -6 0
C-6 1.59122 -5.3678 3.11748 -4.24264 4.24264
C-3.11748 5.3678 -1.59122 6 0 6
z
" id="mf9a4960697" style="stroke:#000080;stroke-width:6.0;"/>
     </defs>
     <g>
      <use style="fill:none;stroke:#000080;stroke-width:6.0;" x="59.825" xlink:href="#mf9a4960697" y="288.164375"/>
     </g>
    </g>
    <g id="text_15">
     <!-- PDL 3.0 1000 1000 1 15D 5-velocity-bound-test-noImpro-20P2D-collapse -->
     <defs>
      <path d="
M9.8125 72.9062
L19.6719 72.9062
L19.6719 8.29688
L55.1719 8.29688
L55.1719 0
L9.8125 0
z
" id="BitstreamVeraSans-Roman-4c"/>
      <path d="
M52 44.1875
Q55.375 50.25 60.0625 53.125
Q64.75 56 71.0938 56
Q79.6406 56 84.2812 50.0156
Q88.9219 44.0469 88.9219 33.0156
L88.9219 0
L79.8906 0
L79.8906 32.7188
Q79.8906 40.5781 77.0938 44.375
Q74.3125 48.1875 68.6094 48.1875
Q61.625 48.1875 57.5625 43.5469
Q53.5156 38.9219 53.5156 30.9062
L53.5156 0
L44.4844 0
L44.4844 32.7188
Q44.4844 40.625 41.7031 44.4062
Q38.9219 48.1875 33.1094 48.1875
Q26.2188 48.1875 22.1562 43.5312
Q18.1094 38.875 18.1094 30.9062
L18.1094 0
L9.07812 0
L9.07812 54.6875
L18.1094 54.6875
L18.1094 46.1875
Q21.1875 51.2188 25.4844 53.6094
Q29.7812 56 35.6875 56
Q41.6562 56 45.8281 52.9688
Q50 49.9531 52 44.1875" id="BitstreamVeraSans-Roman-6d"/>
      <path d="
M30.6094 48.3906
Q23.3906 48.3906 19.1875 42.75
Q14.9844 37.1094 14.9844 27.2969
Q14.9844 17.4844 19.1562 11.8438
Q23.3438 6.20312 30.6094 6.20312
Q37.7969 6.20312 41.9844 11.8594
Q46.1875 17.5312 46.1875 27.2969
Q46.1875 37.0156 41.9844 42.7031
Q37.7969 48.3906 30.6094 48.3906
M30.6094 56
Q42.3281 56 49.0156 48.375
Q55.7188 40.7656 55.7188 27.2969
Q55.7188 13.875 49.0156 6.21875
Q42.3281 -1.42188 30.6094 -1.42188
Q18.8438 -1.42188 12.1719 6.21875
Q5.51562 13.875 5.51562 27.2969
Q5.51562 40.7656 12.1719 48.375
Q18.8438 56 30.6094 56" id="BitstreamVeraSans-Roman-6f"/>
      <path d="
M9.42188 75.9844
L18.4062 75.9844
L18.4062 0
L9.42188 0
z
" id="BitstreamVeraSans-Roman-6c"/>
      <path d="
M19.6719 64.7969
L19.6719 37.4062
L32.0781 37.4062
Q38.9688 37.4062 42.7188 40.9688
Q46.4844 44.5312 46.4844 51.125
Q46.4844 57.6719 42.7188 61.2344
Q38.9688 64.7969 32.0781 64.7969
z

M9.8125 72.9062
L32.0781 72.9062
Q44.3438 72.9062 50.6094 67.3594
Q56.8906 61.8125 56.8906 51.125
Q56.8906 40.3281 50.6094 34.8125
Q44.3438 29.2969 32.0781 29.2969
L19.6719 29.2969
L19.6719 0
L9.8125 0
z
" id="BitstreamVeraSans-Roman-50"/>
      <path d="
M32.1719 -5.07812
Q28.375 -14.8438 24.75 -17.8125
Q21.1406 -20.7969 15.0938 -20.7969
L7.90625 -20.7969
L7.90625 -13.2812
L13.1875 -13.2812
Q16.8906 -13.2812 18.9375 -11.5156
Q21 -9.76562 23.4844 -3.21875
L25.0938 0.875
L2.98438 54.6875
L12.5 54.6875
L29.5938 11.9219
L46.6875 54.6875
L56.2031 54.6875
z
" id="BitstreamVeraSans-Roman-79"/>
      <path d="
M45.4062 46.3906
L45.4062 75.9844
L54.3906 75.9844
L54.3906 0
L45.4062 0
L45.4062 8.20312
Q42.5781 3.32812 38.25 0.953125
Q33.9375 -1.42188 27.875 -1.42188
Q17.9688 -1.42188 11.7344 6.48438
Q5.51562 14.4062 5.51562 27.2969
Q5.51562 40.1875 11.7344 48.0938
Q17.9688 56 27.875 56
Q33.9375 56 38.25 53.625
Q42.5781 51.2656 45.4062 46.3906
M14.7969 27.2969
Q14.7969 17.3906 18.875 11.75
Q22.9531 6.10938 30.0781 6.10938
Q37.2031 6.10938 41.2969 11.75
Q45.4062 17.3906 45.4062 27.2969
Q45.4062 37.2031 41.2969 42.8438
Q37.2031 48.4844 30.0781 48.4844
Q22.9531 48.4844 18.875 42.8438
Q14.7969 37.2031 14.7969 27.2969" id="BitstreamVeraSans-Roman-64"/>
      <path d="
M8.5 21.5781
L8.5 54.6875
L17.4844 54.6875
L17.4844 21.9219
Q17.4844 14.1562 20.5 10.2656
Q23.5312 6.39062 29.5938 6.39062
Q36.8594 6.39062 41.0781 11.0312
Q45.3125 15.6719 45.3125 23.6875
L45.3125 54.6875
L54.2969 54.6875
L54.2969 0
L45.3125 0
L45.3125 8.40625
Q42.0469 3.42188 37.7188 1
Q33.4062 -1.42188 27.6875 -1.42188
Q18.2656 -1.42188 13.375 4.4375
Q8.5 10.2969 8.5 21.5781" id="BitstreamVeraSans-Roman-75"/>
      <path d="
M9.8125 72.9062
L19.6719 72.9062
L19.6719 0
L9.8125 0
z
" id="BitstreamVeraSans-Roman-49"/>
      <path d="
M48.6875 27.2969
Q48.6875 37.2031 44.6094 42.8438
Q40.5312 48.4844 33.4062 48.4844
Q26.2656 48.4844 22.1875 42.8438
Q18.1094 37.2031 18.1094 27.2969
Q18.1094 17.3906 22.1875 11.75
Q26.2656 6.10938 33.4062 6.10938
Q40.5312 6.10938 44.6094 11.75
Q48.6875 17.3906 48.6875 27.2969
M18.1094 46.3906
Q20.9531 51.2656 25.2656 53.625
Q29.5938 56 35.5938 56
Q45.5625 56 51.7812 48.0938
Q58.0156 40.1875 58.0156 27.2969
Q58.0156 14.4062 51.7812 6.48438
Q45.5625 -1.42188 35.5938 -1.42188
Q29.5938 -1.42188 25.2656 0.953125
Q20.9531 3.32812 18.1094 8.20312
L18.1094 0
L9.07812 0
L9.07812 75.9844
L18.1094 75.9844
z
" id="BitstreamVeraSans-Roman-62"/>
     </defs>
     <g transform="translate(95.825 295.164375)scale(0.2 -0.2)">
      <use xlink:href="#BitstreamVeraSans-Roman-50"/>
      <use x="60.302734375" xlink:href="#BitstreamVeraSans-Roman-44"/>
      <use x="137.3046875" xlink:href="#BitstreamVeraSans-Roman-4c"/>
      <use x="193.017578125" xlink:href="#BitstreamVeraSans-Roman-20"/>
      <use x="224.8046875" xlink:href="#BitstreamVeraSans-Roman-33"/>
      <use x="288.427734375" xlink:href="#BitstreamVeraSans-Roman-2e"/>
      <use x="320.21484375" xlink:href="#BitstreamVeraSans-Roman-30"/>
      <use x="383.837890625" xlink:href="#BitstreamVeraSans-Roman-20"/>
      <use x="415.625" xlink:href="#BitstreamVeraSans-Roman-31"/>
      <use x="479.248046875" xlink:href="#BitstreamVeraSans-Roman-30"/>
      <use x="542.87109375" xlink:href="#BitstreamVeraSans-Roman-30"/>
      <use x="606.494140625" xlink:href="#BitstreamVeraSans-Roman-30"/>
      <use x="670.1171875" xlink:href="#BitstreamVeraSans-Roman-20"/>
      <use x="701.904296875" xlink:href="#BitstreamVeraSans-Roman-31"/>
      <use x="765.52734375" xlink:href="#BitstreamVeraSans-Roman-30"/>
      <use x="829.150390625" xlink:href="#BitstreamVeraSans-Roman-30"/>
      <use x="892.7734375" xlink:href="#BitstreamVeraSans-Roman-30"/>
      <use x="956.396484375" xlink:href="#BitstreamVeraSans-Roman-20"/>
      <use x="988.18359375" xlink:href="#BitstreamVeraSans-Roman-31"/>
      <use x="1051.80664062" xlink:href="#BitstreamVeraSans-Roman-20"/>
      <use x="1083.59375" xlink:href="#BitstreamVeraSans-Roman-31"/>
      <use x="1147.21679688" xlink:href="#BitstreamVeraSans-Roman-35"/>
      <use x="1210.83984375" xlink:href="#BitstreamVeraSans-Roman-44"/>
      <use x="1287.84179688" xlink:href="#BitstreamVeraSans-Roman-20"/>
      <use x="1319.62890625" xlink:href="#BitstreamVeraSans-Roman-35"/>
      <use x="1383.25195312" xlink:href="#BitstreamVeraSans-Roman-2d"/>
      <use x="1416.7109375" xlink:href="#BitstreamVeraSans-Roman-76"/>
      <use x="1475.890625" xlink:href="#BitstreamVeraSans-Roman-65"/>
      <use x="1537.4140625" xlink:href="#BitstreamVeraSans-Roman-6c"/>
      <use x="1565.19726562" xlink:href="#BitstreamVeraSans-Roman-6f"/>
      <use x="1626.37890625" xlink:href="#BitstreamVeraSans-Roman-63"/>
      <use x="1681.359375" xlink:href="#BitstreamVeraSans-Roman-69"/>
      <use x="1709.14257812" xlink:href="#BitstreamVeraSans-Roman-74"/>
      <use x="1748.3515625" xlink:href="#BitstreamVeraSans-Roman-79"/>
      <use x="1805.78125" xlink:href="#BitstreamVeraSans-Roman-2d"/>
      <use x="1841.86523438" xlink:href="#BitstreamVeraSans-Roman-62"/>
      <use x="1905.34179688" xlink:href="#BitstreamVeraSans-Roman-6f"/>
      <use x="1966.5234375" xlink:href="#BitstreamVeraSans-Roman-75"/>
      <use x="2029.90234375" xlink:href="#BitstreamVeraSans-Roman-6e"/>
      <use x="2093.28125" xlink:href="#BitstreamVeraSans-Roman-64"/>
      <use x="2156.7578125" xlink:href="#BitstreamVeraSans-Roman-2d"/>
      <use x="2192.84179688" xlink:href="#BitstreamVeraSans-Roman-74"/>
      <use x="2232.05078125" xlink:href="#BitstreamVeraSans-Roman-65"/>
      <use x="2293.57421875" xlink:href="#BitstreamVeraSans-Roman-73"/>
      <use x="2345.67382812" xlink:href="#BitstreamVeraSans-Roman-74"/>
      <use x="2384.8828125" xlink:href="#BitstreamVeraSans-Roman-2d"/>
      <use x="2420.96679688" xlink:href="#BitstreamVeraSans-Roman-6e"/>
      <use x="2484.34570312" xlink:href="#BitstreamVeraSans-Roman-6f"/>
      <use x="2545.52734375" xlink:href="#BitstreamVeraSans-Roman-49"/>
      <use x="2575.01953125" xlink:href="#BitstreamVeraSans-Roman-6d"/>
      <use x="2672.43164062" xlink:href="#BitstreamVeraSans-Roman-70"/>
      <use x="2735.90820312" xlink:href="#BitstreamVeraSans-Roman-72"/>
      <use x="2774.77148438" xlink:href="#BitstreamVeraSans-Roman-6f"/>
      <use x="2837.828125" xlink:href="#BitstreamVeraSans-Roman-2d"/>
      <use x="2873.91210938" xlink:href="#BitstreamVeraSans-Roman-32"/>
      <use x="2937.53515625" xlink:href="#BitstreamVeraSans-Roman-30"/>
      <use x="3001.15820312" xlink:href="#BitstreamVeraSans-Roman-50"/>
      <use x="3061.4609375" xlink:href="#BitstreamVeraSans-Roman-32"/>
      <use x="3125.08398438" xlink:href="#BitstreamVeraSans-Roman-44"/>
      <use x="3202.0859375" xlink:href="#BitstreamVeraSans-Roman-2d"/>
      <use x="3238.16992188" xlink:href="#BitstreamVeraSans-Roman-63"/>
      <use x="3293.15039062" xlink:href="#BitstreamVeraSans-Roman-6f"/>
      <use x="3354.33203125" xlink:href="#BitstreamVeraSans-Roman-6c"/>
      <use x="3382.11523438" xlink:href="#BitstreamVeraSans-Roman-6c"/>
      <use x="3409.8984375" xlink:href="#BitstreamVeraSans-Roman-61"/>
      <use x="3471.17773438" xlink:href="#BitstreamVeraSans-Roman-70"/>
      <use x="3534.65429688" xlink:href="#BitstreamVeraSans-Roman-73"/>
      <use x="3586.75390625" xlink:href="#BitstreamVeraSans-Roman-65"/>
     </g>
    </g>
    <g id="line2d_152">
     <path d="
M39.825 317.521
L79.825 317.521" style="fill:none;stroke:#ff00ff;stroke-linecap:square;stroke-width:4.66666666667;"/>
    </g>
    <g id="line2d_153">
     <defs>
      <path d="
M-3.9968e-16 8.48528
L5.09117 0
L4.88498e-16 -8.48528
L-5.09117 -1.77636e-15
z
" id="m3a544baace" style="stroke:#ff00ff;stroke-linejoin:miter;stroke-width:5.5;"/>
     </defs>
     <g>
      <use style="fill:none;stroke:#ff00ff;stroke-linejoin:miter;stroke-width:5.5;" x="59.825" xlink:href="#m3a544baace" y="317.520625"/>
     </g>
    </g>
    <g id="text_16">
     <!-- CMAES-APOP -->
     <defs>
      <path d="
M39.4062 66.2188
Q28.6562 66.2188 22.3281 58.2031
Q16.0156 50.2031 16.0156 36.375
Q16.0156 22.6094 22.3281 14.5938
Q28.6562 6.59375 39.4062 6.59375
Q50.1406 6.59375 56.4219 14.5938
Q62.7031 22.6094 62.7031 36.375
Q62.7031 50.2031 56.4219 58.2031
Q50.1406 66.2188 39.4062 66.2188
M39.4062 74.2188
Q54.7344 74.2188 63.9062 63.9375
Q73.0938 53.6562 73.0938 36.375
Q73.0938 19.1406 63.9062 8.85938
Q54.7344 -1.42188 39.4062 -1.42188
Q24.0312 -1.42188 14.8125 8.82812
Q5.60938 19.0938 5.60938 36.375
Q5.60938 53.6562 14.8125 63.9375
Q24.0312 74.2188 39.4062 74.2188" id="BitstreamVeraSans-Roman-4f"/>
      <path d="
M9.8125 72.9062
L55.9062 72.9062
L55.9062 64.5938
L19.6719 64.5938
L19.6719 43.0156
L54.3906 43.0156
L54.3906 34.7188
L19.6719 34.7188
L19.6719 8.29688
L56.7812 8.29688
L56.7812 0
L9.8125 0
z
" id="BitstreamVeraSans-Roman-45"/>
      <path d="
M9.8125 72.9062
L24.5156 72.9062
L43.1094 23.2969
L61.8125 72.9062
L76.5156 72.9062
L76.5156 0
L66.8906 0
L66.8906 64.0156
L48.0938 14.0156
L38.1875 14.0156
L19.3906 64.0156
L19.3906 0
L9.8125 0
z
" id="BitstreamVeraSans-Roman-4d"/>
      <path d="
M64.4062 67.2812
L64.4062 56.8906
Q59.4219 61.5312 53.7812 63.8125
Q48.1406 66.1094 41.7969 66.1094
Q29.2969 66.1094 22.6562 58.4688
Q16.0156 50.8281 16.0156 36.375
Q16.0156 21.9688 22.6562 14.3281
Q29.2969 6.6875 41.7969 6.6875
Q48.1406 6.6875 53.7812 8.98438
Q59.4219 11.2812 64.4062 15.9219
L64.4062 5.60938
Q59.2344 2.09375 53.4375 0.328125
Q47.6562 -1.42188 41.2188 -1.42188
Q24.6562 -1.42188 15.125 8.70312
Q5.60938 18.8438 5.60938 36.375
Q5.60938 53.9531 15.125 64.0781
Q24.6562 74.2188 41.2188 74.2188
Q47.75 74.2188 53.5312 72.4844
Q59.3281 70.75 64.4062 67.2812" id="BitstreamVeraSans-Roman-43"/>
      <path d="
M34.1875 63.1875
L20.7969 26.9062
L47.6094 26.9062
z

M28.6094 72.9062
L39.7969 72.9062
L67.5781 0
L57.3281 0
L50.6875 18.7031
L17.8281 18.7031
L11.1875 0
L0.78125 0
z
" id="BitstreamVeraSans-Roman-41"/>
     </defs>
     <g transform="translate(95.825 324.520625)scale(0.2 -0.2)">
      <use xlink:href="#BitstreamVeraSans-Roman-43"/>
      <use x="69.82421875" xlink:href="#BitstreamVeraSans-Roman-4d"/>
      <use x="156.103515625" xlink:href="#BitstreamVeraSans-Roman-41"/>
      <use x="224.51171875" xlink:href="#BitstreamVeraSans-Roman-45"/>
      <use x="287.6953125" xlink:href="#BitstreamVeraSans-Roman-53"/>
      <use x="351.171875" xlink:href="#BitstreamVeraSans-Roman-2d"/>
      <use x="385.005859375" xlink:href="#BitstreamVeraSans-Roman-41"/>
      <use x="453.4140625" xlink:href="#BitstreamVeraSans-Roman-50"/>
      <use x="513.716796875" xlink:href="#BitstreamVeraSans-Roman-4f"/>
      <use x="592.427734375" xlink:href="#BitstreamVeraSans-Roman-50"/>
     </g>
    </g>
    <g id="line2d_154">
     <path d="
M39.825 346.877
L79.825 346.877" style="fill:none;stroke:#ffa500;stroke-linecap:square;stroke-width:4.33333333333;"/>
    </g>
    <g id="line2d_155">
     <defs>
      <path d="
M3.67394e-16 -6
L-1.34708 -1.8541
L-5.70634 -1.8541
L-2.17963 0.708204
L-3.52671 4.8541
L-4.20996e-16 2.2918
L3.52671 4.8541
L2.17963 0.708204
L5.70634 -1.8541
L1.34708 -1.8541
z
" id="m4ac89a4fb0" style="stroke:#ffa500;stroke-linejoin:bevel;stroke-width:5.0;"/>
     </defs>
     <g>
      <use style="fill:none;stroke:#ffa500;stroke-linejoin:bevel;stroke-width:5.0;" x="59.825" xlink:href="#m4ac89a4fb0" y="346.876875"/>
     </g>
    </g>
    <g id="text_17">
     <!-- JADE -->
     <defs>
      <path d="
M9.8125 72.9062
L19.6719 72.9062
L19.6719 5.07812
Q19.6719 -8.10938 14.6719 -14.0625
Q9.67188 -20.0156 -1.42188 -20.0156
L-5.17188 -20.0156
L-5.17188 -11.7188
L-2.09375 -11.7188
Q4.4375 -11.7188 7.125 -8.04688
Q9.8125 -4.39062 9.8125 5.07812
z
" id="BitstreamVeraSans-Roman-4a"/>
     </defs>
     <g transform="translate(95.825 353.876875)scale(0.2 -0.2)">
      <use xlink:href="#BitstreamVeraSans-Roman-4a"/>
      <use x="27.7421875" xlink:href="#BitstreamVeraSans-Roman-41"/>
      <use x="96.150390625" xlink:href="#BitstreamVeraSans-Roman-44"/>
      <use x="173.15234375" xlink:href="#BitstreamVeraSans-Roman-45"/>
     </g>
    </g>
   </g>
  </g>
 </g>
 <defs>
  <clipPath id="pa0c61c5a2a">
   <rect height="345.6" width="446.4" x="21.825" y="30.43625"/>
  </clipPath>
 </defs>
</svg>
