<?xml version="1.0" encoding="utf-8" standalone="no"?>
<!DOCTYPE svg PUBLIC "-//W3C//DTD SVG 1.1//EN"
  "http://www.w3.org/Graphics/SVG/1.1/DTD/svg11.dtd">
<!-- Created with matplotlib (http://matplotlib.org/) -->
<svg height="410pt" version="1.1" viewBox="0 0 476 410" width="476pt" xmlns="http://www.w3.org/2000/svg" xmlns:xlink="http://www.w3.org/1999/xlink">
 <defs>
  <style type="text/css">
*{stroke-linecap:butt;stroke-linejoin:round;}
  </style>
 </defs>
 <g id="figure_1">
  <g id="patch_1">
   <path d="
M0 410.464
L476.894 410.464
L476.894 0
L0 0
z
" style="fill:#ffffff;"/>
  </g>
  <g id="axes_1">
   <g id="patch_2">
    <path d="
M23.2938 376.036
L469.694 376.036
L469.694 30.4362
L23.2938 30.4362
z
" style="fill:#ffffff;"/>
   </g>
   <g id="line2d_1">
    <path clip-path="url(#pc7706d714b)" d="
M37.9054 120.313
L94.136 86.1433
L164.978 120.313
L261.105 120.313
L357.232 114.839
L453.359 28.5969" style="fill:none;stroke:#f5deb3;stroke-linecap:square;stroke-width:10;"/>
    <defs>
     <path d="
M-8.32667e-16 17.6777
L10.6066 0
L9.4369e-16 -17.6777
L-10.6066 -3.55271e-15
z
" id="m1b483a9f33" style="stroke:#000000;stroke-linejoin:miter;stroke-width:0.5;"/>
    </defs>
    <g clip-path="url(#pc7706d714b)">
     <use style="fill:#f5deb3;stroke:#000000;stroke-linejoin:miter;stroke-width:0.5;" x="37.9053525434" xlink:href="#m1b483a9f33" y="120.312693495"/>
     <use style="fill:#f5deb3;stroke:#000000;stroke-linejoin:miter;stroke-width:0.5;" x="94.1360473907" xlink:href="#m1b483a9f33" y="86.1433397852"/>
     <use style="fill:#f5deb3;stroke:#000000;stroke-linejoin:miter;stroke-width:0.5;" x="164.978344781" xlink:href="#m1b483a9f33" y="120.312693495"/>
     <use style="fill:#f5deb3;stroke:#000000;stroke-linejoin:miter;stroke-width:0.5;" x="261.105352543" xlink:href="#m1b483a9f33" y="120.312693495"/>
     <use style="fill:#f5deb3;stroke:#000000;stroke-linejoin:miter;stroke-width:0.5;" x="357.232360305" xlink:href="#m1b483a9f33" y="114.839278687"/>
     <use style="fill:#f5deb3;stroke:#000000;stroke-linejoin:miter;stroke-width:0.5;" x="453.359368067" xlink:href="#m1b483a9f33" y="28.5969421246"/>
    </g>
   </g>
   <g id="line2d_2">
    <path clip-path="url(#pc7706d714b)" d="
M161.674 199.374
L163.987 199.374
L161.674 199.374
L168.283 199.374
L165.97 199.374
L168.283 199.374
L161.674 199.374" style="fill:none;stroke:#000000;stroke-linecap:square;"/>
    <defs>
     <path d="
M0 0
C0 0 0 0 0 0
C0 0 0 0 0 0
C0 0 0 0 0 0
C0 0 0 0 0 0
C0 0 0 0 0 0
C0 0 0 0 0 0
C0 0 0 0 0 0
C0 0 0 0 0 0
z
" id="m927c9828cb" style="stroke:#000000;stroke-width:2;"/>
    </defs>
    <g clip-path="url(#pc7706d714b)">
     <use style="stroke:#000000;stroke-width:2;" x="161.673894208" xlink:href="#m927c9828cb" y="199.373988148"/>
     <use style="stroke:#000000;stroke-width:2;" x="163.987009609" xlink:href="#m927c9828cb" y="199.373988148"/>
     <use style="stroke:#000000;stroke-width:2;" x="161.673894208" xlink:href="#m927c9828cb" y="199.373988148"/>
     <use style="stroke:#000000;stroke-width:2;" x="168.282795355" xlink:href="#m927c9828cb" y="199.373988148"/>
     <use style="stroke:#000000;stroke-width:2;" x="165.969679954" xlink:href="#m927c9828cb" y="199.373988148"/>
     <use style="stroke:#000000;stroke-width:2;" x="168.282795355" xlink:href="#m927c9828cb" y="199.373988148"/>
     <use style="stroke:#000000;stroke-width:2;" x="161.673894208" xlink:href="#m927c9828cb" y="199.373988148"/>
    </g>
   </g>
   <g id="line2d_3">
    <path clip-path="url(#pc7706d714b)" d="
M161.674 199.374
L168.283 199.374
L168.283 199.374
L161.674 199.374
L161.674 199.374" style="fill:none;"/>
    <defs>
     <path d="
M0 3
C0.795609 3 1.55874 2.6839 2.12132 2.12132
C2.6839 1.55874 3 0.795609 3 0
C3 -0.795609 2.6839 -1.55874 2.12132 -2.12132
C1.55874 -2.6839 0.795609 -3 0 -3
C-0.795609 -3 -1.55874 -2.6839 -2.12132 -2.12132
C-2.6839 -1.55874 -3 -0.795609 -3 0
C-3 0.795609 -2.6839 1.55874 -2.12132 2.12132
C-1.55874 2.6839 -0.795609 3 0 3
z
" id="m5082eeedfc" style="stroke:#000000;stroke-width:2;"/>
    </defs>
    <g clip-path="url(#pc7706d714b)">
     <use style="stroke:#000000;stroke-width:2;" x="161.673894208" xlink:href="#m5082eeedfc" y="199.373988148"/>
     <use style="stroke:#000000;stroke-width:2;" x="168.282795355" xlink:href="#m5082eeedfc" y="199.373988148"/>
     <use style="stroke:#000000;stroke-width:2;" x="168.282795355" xlink:href="#m5082eeedfc" y="199.373988148"/>
     <use style="stroke:#000000;stroke-width:2;" x="161.673894208" xlink:href="#m5082eeedfc" y="199.373988148"/>
     <use style="stroke:#000000;stroke-width:2;" x="161.673894208" xlink:href="#m5082eeedfc" y="199.373988148"/>
    </g>
   </g>
   <g id="line2d_4">
    <path clip-path="url(#pc7706d714b)" d="
M161.674 199.374
L168.283 199.374" style="fill:none;stroke:#000000;stroke-linecap:square;stroke-width:2;"/>
    <g clip-path="url(#pc7706d714b)">
     <use style="stroke:#000000;stroke-width:2;" x="161.673894208" xlink:href="#m927c9828cb" y="199.373988148"/>
     <use style="stroke:#000000;stroke-width:2;" x="168.282795355" xlink:href="#m927c9828cb" y="199.373988148"/>
    </g>
   </g>
   <g id="line2d_5">
    <path clip-path="url(#pc7706d714b)" d="
M164.978 219.238" style="fill:none;"/>
    <defs>
     <path d="
M0 10
C2.65203 10 5.1958 8.94634 7.07107 7.07107
C8.94634 5.1958 10 2.65203 10 0
C10 -2.65203 8.94634 -5.1958 7.07107 -7.07107
C5.1958 -8.94634 2.65203 -10 0 -10
C-2.65203 -10 -5.1958 -8.94634 -7.07107 -7.07107
C-8.94634 -5.1958 -10 -2.65203 -10 0
C-10 2.65203 -8.94634 5.1958 -7.07107 7.07107
C-5.1958 8.94634 -2.65203 10 0 10
z
" id="mf88678cbc5" style="stroke:#000000;stroke-width:2;"/>
    </defs>
    <g clip-path="url(#pc7706d714b)">
     <use style="stroke:#000000;stroke-width:2;" x="164.978344781" xlink:href="#mf88678cbc5" y="219.237601791"/>
    </g>
   </g>
   <g id="line2d_6">
    <path clip-path="url(#pc7706d714b)" d="
M160.572 273.957
L163.657 273.957
L160.572 199.374
L169.384 199.374
L166.3 273.957
L169.384 273.957
L160.572 273.957" style="fill:none;stroke:#0000ff;stroke-linecap:square;"/>
    <defs>
     <path d="
M0 0
C0 0 0 0 0 0
C0 0 0 0 0 0
C0 0 0 0 0 0
C0 0 0 0 0 0
C0 0 0 0 0 0
C0 0 0 0 0 0
C0 0 0 0 0 0
C0 0 0 0 0 0
z
" id="m4443aac91f" style="stroke:#0000ff;stroke-width:0.5;"/>
    </defs>
    <g clip-path="url(#pc7706d714b)">
     <use style="fill:#0000ff;stroke:#0000ff;stroke-width:0.5;" x="160.572410683" xlink:href="#m4443aac91f" y="273.957109542"/>
     <use style="fill:#0000ff;stroke:#0000ff;stroke-width:0.5;" x="163.656564552" xlink:href="#m4443aac91f" y="273.957109542"/>
     <use style="fill:#0000ff;stroke:#0000ff;stroke-width:0.5;" x="160.572410683" xlink:href="#m4443aac91f" y="199.373988148"/>
     <use style="fill:#0000ff;stroke:#0000ff;stroke-width:0.5;" x="169.38427888" xlink:href="#m4443aac91f" y="199.373988148"/>
     <use style="fill:#0000ff;stroke:#0000ff;stroke-width:0.5;" x="166.300125011" xlink:href="#m4443aac91f" y="273.957109542"/>
     <use style="fill:#0000ff;stroke:#0000ff;stroke-width:0.5;" x="169.38427888" xlink:href="#m4443aac91f" y="273.957109542"/>
     <use style="fill:#0000ff;stroke:#0000ff;stroke-width:0.5;" x="160.572410683" xlink:href="#m4443aac91f" y="273.957109542"/>
    </g>
   </g>
   <g id="line2d_7">
    <path clip-path="url(#pc7706d714b)" d="
M160.572 273.957
L169.384 273.957
L169.384 199.374
L160.572 199.374
L160.572 273.957" style="fill:none;"/>
    <defs>
     <path d="
M0 1.5
C0.397805 1.5 0.77937 1.34195 1.06066 1.06066
C1.34195 0.77937 1.5 0.397805 1.5 0
C1.5 -0.397805 1.34195 -0.77937 1.06066 -1.06066
C0.77937 -1.34195 0.397805 -1.5 0 -1.5
C-0.397805 -1.5 -0.77937 -1.34195 -1.06066 -1.06066
C-1.34195 -0.77937 -1.5 -0.397805 -1.5 0
C-1.5 0.397805 -1.34195 0.77937 -1.06066 1.06066
C-0.77937 1.34195 -0.397805 1.5 0 1.5
z
" id="m76a7ce5b4a" style="stroke:#0000ff;stroke-width:0.5;"/>
    </defs>
    <g clip-path="url(#pc7706d714b)">
     <use style="fill:#0000ff;stroke:#0000ff;stroke-width:0.5;" x="160.572410683" xlink:href="#m76a7ce5b4a" y="273.957109542"/>
     <use style="fill:#0000ff;stroke:#0000ff;stroke-width:0.5;" x="169.38427888" xlink:href="#m76a7ce5b4a" y="273.957109542"/>
     <use style="fill:#0000ff;stroke:#0000ff;stroke-width:0.5;" x="169.38427888" xlink:href="#m76a7ce5b4a" y="199.373988148"/>
     <use style="fill:#0000ff;stroke:#0000ff;stroke-width:0.5;" x="160.572410683" xlink:href="#m76a7ce5b4a" y="199.373988148"/>
     <use style="fill:#0000ff;stroke:#0000ff;stroke-width:0.5;" x="160.572410683" xlink:href="#m76a7ce5b4a" y="273.957109542"/>
    </g>
   </g>
   <g id="line2d_8">
    <path clip-path="url(#pc7706d714b)" d="
M160.572 273.957
L169.384 273.957" style="fill:none;stroke:#0000ff;stroke-linecap:square;stroke-width:2;"/>
    <g clip-path="url(#pc7706d714b)">
     <use style="fill:#0000ff;stroke:#0000ff;stroke-width:0.5;" x="160.572410683" xlink:href="#m4443aac91f" y="273.957109542"/>
     <use style="fill:#0000ff;stroke:#0000ff;stroke-width:0.5;" x="169.38427888" xlink:href="#m4443aac91f" y="273.957109542"/>
    </g>
   </g>
   <g id="line2d_9">
    <path clip-path="url(#pc7706d714b)" d="
M164.978 214.667" style="fill:none;"/>
    <defs>
     <path d="
M0 5
C1.32602 5 2.5979 4.47317 3.53553 3.53553
C4.47317 2.5979 5 1.32602 5 0
C5 -1.32602 4.47317 -2.5979 3.53553 -3.53553
C2.5979 -4.47317 1.32602 -5 0 -5
C-1.32602 -5 -2.5979 -4.47317 -3.53553 -3.53553
C-4.47317 -2.5979 -5 -1.32602 -5 0
C-5 1.32602 -4.47317 2.5979 -3.53553 3.53553
C-2.5979 4.47317 -1.32602 5 0 5
z
" id="m6f1fcf6525" style="stroke:#0000ff;stroke-width:0.5;"/>
    </defs>
    <g clip-path="url(#pc7706d714b)">
     <use style="fill:#0000ff;stroke:#0000ff;stroke-width:0.5;" x="164.978344781" xlink:href="#m6f1fcf6525" y="214.667088586"/>
    </g>
   </g>
   <g id="line2d_10">
    <path clip-path="url(#pc7706d714b)" d="
M159.471 273.957
L163.326 199.374
L159.471 199.374
L170.486 199.374
L166.631 199.374
L170.486 273.957
L159.471 273.957" style="fill:none;stroke:#00bfbf;stroke-linecap:square;"/>
    <defs>
     <path d="
M0 0
L0 0
L0 0
z
" id="m9ac02d4b70" style="stroke:#00bfbf;stroke-linejoin:miter;stroke-width:2;"/>
    </defs>
    <g clip-path="url(#pc7706d714b)">
     <use style="fill:#00bfbf;stroke:#00bfbf;stroke-linejoin:miter;stroke-width:2;" x="159.470927159" xlink:href="#m9ac02d4b70" y="273.957109542"/>
     <use style="fill:#00bfbf;stroke:#00bfbf;stroke-linejoin:miter;stroke-width:2;" x="163.326119495" xlink:href="#m9ac02d4b70" y="199.373988148"/>
     <use style="fill:#00bfbf;stroke:#00bfbf;stroke-linejoin:miter;stroke-width:2;" x="159.470927159" xlink:href="#m9ac02d4b70" y="199.373988148"/>
     <use style="fill:#00bfbf;stroke:#00bfbf;stroke-linejoin:miter;stroke-width:2;" x="170.485762404" xlink:href="#m9ac02d4b70" y="199.373988148"/>
     <use style="fill:#00bfbf;stroke:#00bfbf;stroke-linejoin:miter;stroke-width:2;" x="166.630570068" xlink:href="#m9ac02d4b70" y="199.373988148"/>
     <use style="fill:#00bfbf;stroke:#00bfbf;stroke-linejoin:miter;stroke-width:2;" x="170.485762404" xlink:href="#m9ac02d4b70" y="273.957109542"/>
     <use style="fill:#00bfbf;stroke:#00bfbf;stroke-linejoin:miter;stroke-width:2;" x="159.470927159" xlink:href="#m9ac02d4b70" y="273.957109542"/>
    </g>
   </g>
   <g id="line2d_11">
    <path clip-path="url(#pc7706d714b)" d="
M159.471 273.957
L170.486 273.957
L170.486 199.374
L159.471 199.374
L159.471 273.957" style="fill:none;"/>
    <defs>
     <path d="
M-3.67394e-16 3
L3 -3
L-3 -3
z
" id="mf178d8dd23" style="stroke:#00bfbf;stroke-linejoin:miter;stroke-width:2;"/>
    </defs>
    <g clip-path="url(#pc7706d714b)">
     <use style="fill:#00bfbf;stroke:#00bfbf;stroke-linejoin:miter;stroke-width:2;" x="159.470927159" xlink:href="#mf178d8dd23" y="273.957109542"/>
     <use style="fill:#00bfbf;stroke:#00bfbf;stroke-linejoin:miter;stroke-width:2;" x="170.485762404" xlink:href="#mf178d8dd23" y="273.957109542"/>
     <use style="fill:#00bfbf;stroke:#00bfbf;stroke-linejoin:miter;stroke-width:2;" x="170.485762404" xlink:href="#mf178d8dd23" y="199.373988148"/>
     <use style="fill:#00bfbf;stroke:#00bfbf;stroke-linejoin:miter;stroke-width:2;" x="159.470927159" xlink:href="#mf178d8dd23" y="199.373988148"/>
     <use style="fill:#00bfbf;stroke:#00bfbf;stroke-linejoin:miter;stroke-width:2;" x="159.470927159" xlink:href="#mf178d8dd23" y="273.957109542"/>
    </g>
   </g>
   <g id="line2d_12">
    <path clip-path="url(#pc7706d714b)" d="
M159.471 199.374
L170.486 199.374" style="fill:none;stroke:#00bfbf;stroke-linecap:square;stroke-width:2;"/>
    <g clip-path="url(#pc7706d714b)">
     <use style="fill:#00bfbf;stroke:#00bfbf;stroke-linejoin:miter;stroke-width:2;" x="159.470927159" xlink:href="#m9ac02d4b70" y="199.373988148"/>
     <use style="fill:#00bfbf;stroke:#00bfbf;stroke-linejoin:miter;stroke-width:2;" x="170.485762404" xlink:href="#m9ac02d4b70" y="199.373988148"/>
    </g>
   </g>
   <g id="line2d_13">
    <path clip-path="url(#pc7706d714b)" d="
M164.978 214.667" style="fill:none;"/>
    <defs>
     <path d="
M-1.22465e-15 10
L10 -10
L-10 -10
z
" id="m3e14c286d9" style="stroke:#000000;stroke-linejoin:miter;stroke-width:2;"/>
    </defs>
    <g clip-path="url(#pc7706d714b)">
     <use style="fill:#00bfbf;stroke:#000000;stroke-linejoin:miter;stroke-width:2;" x="164.978344781" xlink:href="#m3e14c286d9" y="214.667088586"/>
    </g>
   </g>
   <g id="line2d_14">
    <path clip-path="url(#pc7706d714b)" d="
M158.369 199.374
L162.996 199.374
L158.369 199.374
L171.587 199.374
L166.961 199.374
L171.587 199.374
L158.369 199.374" style="fill:none;stroke:#008000;stroke-linecap:square;"/>
    <defs>
     <path d="
M0 0
C0 0 0 0 0 0
C0 0 0 0 0 0
C0 0 0 0 0 0
C0 0 0 0 0 0
C0 0 0 0 0 0
C0 0 0 0 0 0
C0 0 0 0 0 0
C0 0 0 0 0 0
z
" id="mf3da2ae3b2" style="stroke:#008000;stroke-width:0.5;"/>
    </defs>
    <g clip-path="url(#pc7706d714b)">
     <use style="fill:#008000;stroke:#008000;stroke-width:0.5;" x="158.369443634" xlink:href="#mf3da2ae3b2" y="199.373988148"/>
     <use style="fill:#008000;stroke:#008000;stroke-width:0.5;" x="162.995674437" xlink:href="#mf3da2ae3b2" y="199.373988148"/>
     <use style="fill:#008000;stroke:#008000;stroke-width:0.5;" x="158.369443634" xlink:href="#mf3da2ae3b2" y="199.373988148"/>
     <use style="fill:#008000;stroke:#008000;stroke-width:0.5;" x="171.587245929" xlink:href="#mf3da2ae3b2" y="199.373988148"/>
     <use style="fill:#008000;stroke:#008000;stroke-width:0.5;" x="166.961015126" xlink:href="#mf3da2ae3b2" y="199.373988148"/>
     <use style="fill:#008000;stroke:#008000;stroke-width:0.5;" x="171.587245929" xlink:href="#mf3da2ae3b2" y="199.373988148"/>
     <use style="fill:#008000;stroke:#008000;stroke-width:0.5;" x="158.369443634" xlink:href="#mf3da2ae3b2" y="199.373988148"/>
    </g>
   </g>
   <g id="line2d_15">
    <path clip-path="url(#pc7706d714b)" d="
M158.369 199.374
L171.587 199.374
L171.587 199.374
L158.369 199.374
L158.369 199.374" style="fill:none;"/>
    <defs>
     <path d="
M0 1.5
C0.397805 1.5 0.77937 1.34195 1.06066 1.06066
C1.34195 0.77937 1.5 0.397805 1.5 0
C1.5 -0.397805 1.34195 -0.77937 1.06066 -1.06066
C0.77937 -1.34195 0.397805 -1.5 0 -1.5
C-0.397805 -1.5 -0.77937 -1.34195 -1.06066 -1.06066
C-1.34195 -0.77937 -1.5 -0.397805 -1.5 0
C-1.5 0.397805 -1.34195 0.77937 -1.06066 1.06066
C-0.77937 1.34195 -0.397805 1.5 0 1.5
z
" id="mb0b177905e" style="stroke:#008000;stroke-width:0.5;"/>
    </defs>
    <g clip-path="url(#pc7706d714b)">
     <use style="fill:#008000;stroke:#008000;stroke-width:0.5;" x="158.369443634" xlink:href="#mb0b177905e" y="199.373988148"/>
     <use style="fill:#008000;stroke:#008000;stroke-width:0.5;" x="171.587245929" xlink:href="#mb0b177905e" y="199.373988148"/>
     <use style="fill:#008000;stroke:#008000;stroke-width:0.5;" x="171.587245929" xlink:href="#mb0b177905e" y="199.373988148"/>
     <use style="fill:#008000;stroke:#008000;stroke-width:0.5;" x="158.369443634" xlink:href="#mb0b177905e" y="199.373988148"/>
     <use style="fill:#008000;stroke:#008000;stroke-width:0.5;" x="158.369443634" xlink:href="#mb0b177905e" y="199.373988148"/>
    </g>
   </g>
   <g id="line2d_16">
    <path clip-path="url(#pc7706d714b)" d="
M158.369 199.374
L171.587 199.374" style="fill:none;stroke:#008000;stroke-linecap:square;stroke-width:2;"/>
    <g clip-path="url(#pc7706d714b)">
     <use style="fill:#008000;stroke:#008000;stroke-width:0.5;" x="158.369443634" xlink:href="#mf3da2ae3b2" y="199.373988148"/>
     <use style="fill:#008000;stroke:#008000;stroke-width:0.5;" x="171.587245929" xlink:href="#mf3da2ae3b2" y="199.373988148"/>
    </g>
   </g>
   <g id="line2d_17">
    <path clip-path="url(#pc7706d714b)" d="
M164.978 214.667" style="fill:none;"/>
    <defs>
     <path d="
M0 5
C1.32602 5 2.5979 4.47317 3.53553 3.53553
C4.47317 2.5979 5 1.32602 5 0
C5 -1.32602 4.47317 -2.5979 3.53553 -3.53553
C2.5979 -4.47317 1.32602 -5 0 -5
C-1.32602 -5 -2.5979 -4.47317 -3.53553 -3.53553
C-4.47317 -2.5979 -5 -1.32602 -5 0
C-5 1.32602 -4.47317 2.5979 -3.53553 3.53553
C-2.5979 4.47317 -1.32602 5 0 5
z
" id="mcecd3d9643" style="stroke:#008000;stroke-width:0.5;"/>
    </defs>
    <g clip-path="url(#pc7706d714b)">
     <use style="fill:#008000;stroke:#008000;stroke-width:0.5;" x="164.978344781" xlink:href="#mcecd3d9643" y="214.667088586"/>
    </g>
   </g>
   <g id="line2d_18">
    <path clip-path="url(#pc7706d714b)" d="
M157.268 199.374
L162.665 199.374
L157.268 199.374
L172.689 199.374
L167.291 199.374
L172.689 199.374
L157.268 199.374" style="fill:none;stroke:#bfbf00;stroke-linecap:square;"/>
    <defs>
     <path d="
M0 0
L0 0
L0 0
z
" id="m305ae481a1" style="stroke:#bfbf00;stroke-linejoin:miter;stroke-width:2;"/>
    </defs>
    <g clip-path="url(#pc7706d714b)">
     <use style="fill:#bfbf00;stroke:#bfbf00;stroke-linejoin:miter;stroke-width:2;" x="157.267960109" xlink:href="#m305ae481a1" y="199.373988148"/>
     <use style="fill:#bfbf00;stroke:#bfbf00;stroke-linejoin:miter;stroke-width:2;" x="162.66522938" xlink:href="#m305ae481a1" y="199.373988148"/>
     <use style="fill:#bfbf00;stroke:#bfbf00;stroke-linejoin:miter;stroke-width:2;" x="157.267960109" xlink:href="#m305ae481a1" y="199.373988148"/>
     <use style="fill:#bfbf00;stroke:#bfbf00;stroke-linejoin:miter;stroke-width:2;" x="172.688729453" xlink:href="#m305ae481a1" y="199.373988148"/>
     <use style="fill:#bfbf00;stroke:#bfbf00;stroke-linejoin:miter;stroke-width:2;" x="167.291460183" xlink:href="#m305ae481a1" y="199.373988148"/>
     <use style="fill:#bfbf00;stroke:#bfbf00;stroke-linejoin:miter;stroke-width:2;" x="172.688729453" xlink:href="#m305ae481a1" y="199.373988148"/>
     <use style="fill:#bfbf00;stroke:#bfbf00;stroke-linejoin:miter;stroke-width:2;" x="157.267960109" xlink:href="#m305ae481a1" y="199.373988148"/>
    </g>
   </g>
   <g id="line2d_19">
    <path clip-path="url(#pc7706d714b)" d="
M157.268 199.374
L172.689 199.374
L172.689 199.374
L157.268 199.374
L157.268 199.374" style="fill:none;"/>
    <defs>
     <path d="
M0 -3
L-3 3
L3 3
z
" id="m7e6fbcf688" style="stroke:#bfbf00;stroke-linejoin:miter;stroke-width:2;"/>
    </defs>
    <g clip-path="url(#pc7706d714b)">
     <use style="fill:#bfbf00;stroke:#bfbf00;stroke-linejoin:miter;stroke-width:2;" x="157.267960109" xlink:href="#m7e6fbcf688" y="199.373988148"/>
     <use style="fill:#bfbf00;stroke:#bfbf00;stroke-linejoin:miter;stroke-width:2;" x="172.688729453" xlink:href="#m7e6fbcf688" y="199.373988148"/>
     <use style="fill:#bfbf00;stroke:#bfbf00;stroke-linejoin:miter;stroke-width:2;" x="172.688729453" xlink:href="#m7e6fbcf688" y="199.373988148"/>
     <use style="fill:#bfbf00;stroke:#bfbf00;stroke-linejoin:miter;stroke-width:2;" x="157.267960109" xlink:href="#m7e6fbcf688" y="199.373988148"/>
     <use style="fill:#bfbf00;stroke:#bfbf00;stroke-linejoin:miter;stroke-width:2;" x="157.267960109" xlink:href="#m7e6fbcf688" y="199.373988148"/>
    </g>
   </g>
   <g id="line2d_20">
    <path clip-path="url(#pc7706d714b)" d="
M157.268 199.374
L172.689 199.374" style="fill:none;stroke:#bfbf00;stroke-linecap:square;stroke-width:2;"/>
    <g clip-path="url(#pc7706d714b)">
     <use style="fill:#bfbf00;stroke:#bfbf00;stroke-linejoin:miter;stroke-width:2;" x="157.267960109" xlink:href="#m305ae481a1" y="199.373988148"/>
     <use style="fill:#bfbf00;stroke:#bfbf00;stroke-linejoin:miter;stroke-width:2;" x="172.688729453" xlink:href="#m305ae481a1" y="199.373988148"/>
    </g>
   </g>
   <g id="line2d_21">
    <path clip-path="url(#pc7706d714b)" d="
M164.978 214.667" style="fill:none;"/>
    <defs>
     <path d="
M0 -10
L-10 10
L10 10
z
" id="m0b3fcd2f2a" style="stroke:#000000;stroke-linejoin:miter;stroke-width:2;"/>
    </defs>
    <g clip-path="url(#pc7706d714b)">
     <use style="fill:#bfbf00;stroke:#000000;stroke-linejoin:miter;stroke-width:2;" x="164.978344781" xlink:href="#m0b3fcd2f2a" y="214.667088586"/>
    </g>
   </g>
   <g id="line2d_22">
    <path clip-path="url(#pc7706d714b)" d="
M156.166 199.374
L162.335 199.374
L156.166 199.374
L173.79 199.374
L167.622 199.374
L173.79 199.374
L156.166 199.374" style="fill:none;stroke:#bf00bf;stroke-linecap:square;"/>
    <defs>
     <path d="
M0 0
C0 0 0 0 0 0
C0 0 0 0 0 0
C0 0 0 0 0 0
C0 0 0 0 0 0
C0 0 0 0 0 0
C0 0 0 0 0 0
C0 0 0 0 0 0
C0 0 0 0 0 0
z
" id="ma7358f3653" style="stroke:#bf00bf;stroke-width:0.5;"/>
    </defs>
    <g clip-path="url(#pc7706d714b)">
     <use style="fill:#bf00bf;stroke:#bf00bf;stroke-width:0.5;" x="156.166476585" xlink:href="#ma7358f3653" y="199.373988148"/>
     <use style="fill:#bf00bf;stroke:#bf00bf;stroke-width:0.5;" x="162.334784322" xlink:href="#ma7358f3653" y="199.373988148"/>
     <use style="fill:#bf00bf;stroke:#bf00bf;stroke-width:0.5;" x="156.166476585" xlink:href="#ma7358f3653" y="199.373988148"/>
     <use style="fill:#bf00bf;stroke:#bf00bf;stroke-width:0.5;" x="173.790212978" xlink:href="#ma7358f3653" y="199.373988148"/>
     <use style="fill:#bf00bf;stroke:#bf00bf;stroke-width:0.5;" x="167.62190524" xlink:href="#ma7358f3653" y="199.373988148"/>
     <use style="fill:#bf00bf;stroke:#bf00bf;stroke-width:0.5;" x="173.790212978" xlink:href="#ma7358f3653" y="199.373988148"/>
     <use style="fill:#bf00bf;stroke:#bf00bf;stroke-width:0.5;" x="156.166476585" xlink:href="#ma7358f3653" y="199.373988148"/>
    </g>
   </g>
   <g id="line2d_23">
    <path clip-path="url(#pc7706d714b)" d="
M156.166 199.374
L173.79 199.374
L173.79 199.374
L156.166 199.374
L156.166 199.374" style="fill:none;"/>
    <defs>
     <path d="
M0 1.5
C0.397805 1.5 0.77937 1.34195 1.06066 1.06066
C1.34195 0.77937 1.5 0.397805 1.5 0
C1.5 -0.397805 1.34195 -0.77937 1.06066 -1.06066
C0.77937 -1.34195 0.397805 -1.5 0 -1.5
C-0.397805 -1.5 -0.77937 -1.34195 -1.06066 -1.06066
C-1.34195 -0.77937 -1.5 -0.397805 -1.5 0
C-1.5 0.397805 -1.34195 0.77937 -1.06066 1.06066
C-0.77937 1.34195 -0.397805 1.5 0 1.5
z
" id="m56b4842580" style="stroke:#bf00bf;stroke-width:0.5;"/>
    </defs>
    <g clip-path="url(#pc7706d714b)">
     <use style="fill:#bf00bf;stroke:#bf00bf;stroke-width:0.5;" x="156.166476585" xlink:href="#m56b4842580" y="199.373988148"/>
     <use style="fill:#bf00bf;stroke:#bf00bf;stroke-width:0.5;" x="173.790212978" xlink:href="#m56b4842580" y="199.373988148"/>
     <use style="fill:#bf00bf;stroke:#bf00bf;stroke-width:0.5;" x="173.790212978" xlink:href="#m56b4842580" y="199.373988148"/>
     <use style="fill:#bf00bf;stroke:#bf00bf;stroke-width:0.5;" x="156.166476585" xlink:href="#m56b4842580" y="199.373988148"/>
     <use style="fill:#bf00bf;stroke:#bf00bf;stroke-width:0.5;" x="156.166476585" xlink:href="#m56b4842580" y="199.373988148"/>
    </g>
   </g>
   <g id="line2d_24">
    <path clip-path="url(#pc7706d714b)" d="
M156.166 199.374
L173.79 199.374" style="fill:none;stroke:#bf00bf;stroke-linecap:square;stroke-width:2;"/>
    <g clip-path="url(#pc7706d714b)">
     <use style="fill:#bf00bf;stroke:#bf00bf;stroke-width:0.5;" x="156.166476585" xlink:href="#ma7358f3653" y="199.373988148"/>
     <use style="fill:#bf00bf;stroke:#bf00bf;stroke-width:0.5;" x="173.790212978" xlink:href="#ma7358f3653" y="199.373988148"/>
    </g>
   </g>
   <g id="line2d_25">
    <path clip-path="url(#pc7706d714b)" d="
M164.978 214.667" style="fill:none;"/>
    <defs>
     <path d="
M0 5
C1.32602 5 2.5979 4.47317 3.53553 3.53553
C4.47317 2.5979 5 1.32602 5 0
C5 -1.32602 4.47317 -2.5979 3.53553 -3.53553
C2.5979 -4.47317 1.32602 -5 0 -5
C-1.32602 -5 -2.5979 -4.47317 -3.53553 -3.53553
C-4.47317 -2.5979 -5 -1.32602 -5 0
C-5 1.32602 -4.47317 2.5979 -3.53553 3.53553
C-2.5979 4.47317 -1.32602 5 0 5
z
" id="m536e98b0b7" style="stroke:#bf00bf;stroke-width:0.5;"/>
    </defs>
    <g clip-path="url(#pc7706d714b)">
     <use style="fill:#bf00bf;stroke:#bf00bf;stroke-width:0.5;" x="164.978344781" xlink:href="#m536e98b0b7" y="214.667088586"/>
    </g>
   </g>
   <g id="line2d_26">
    <path clip-path="url(#pc7706d714b)" d="
M155.065 273.957
L162.004 199.374
L155.065 199.374
L174.892 199.374
L167.952 199.374
L174.892 273.957
L155.065 273.957" style="fill:none;stroke:#ff0000;stroke-linecap:square;"/>
    <defs>
     <path d="
M0 0
C0 0 0 0 0 0
C0 0 0 0 0 0
C0 0 0 0 0 0
C0 0 0 0 0 0
C0 0 0 0 0 0
C0 0 0 0 0 0
C0 0 0 0 0 0
C0 0 0 0 0 0
z
" id="mf83d596818" style="stroke:#ff0000;stroke-width:2;"/>
    </defs>
    <g clip-path="url(#pc7706d714b)">
     <use style="fill:#ff0000;stroke:#ff0000;stroke-width:2;" x="155.06499306" xlink:href="#mf83d596818" y="273.957109542"/>
     <use style="fill:#ff0000;stroke:#ff0000;stroke-width:2;" x="162.004339265" xlink:href="#mf83d596818" y="199.373988148"/>
     <use style="fill:#ff0000;stroke:#ff0000;stroke-width:2;" x="155.06499306" xlink:href="#mf83d596818" y="199.373988148"/>
     <use style="fill:#ff0000;stroke:#ff0000;stroke-width:2;" x="174.891696503" xlink:href="#mf83d596818" y="199.373988148"/>
     <use style="fill:#ff0000;stroke:#ff0000;stroke-width:2;" x="167.952350298" xlink:href="#mf83d596818" y="199.373988148"/>
     <use style="fill:#ff0000;stroke:#ff0000;stroke-width:2;" x="174.891696503" xlink:href="#mf83d596818" y="273.957109542"/>
     <use style="fill:#ff0000;stroke:#ff0000;stroke-width:2;" x="155.06499306" xlink:href="#mf83d596818" y="273.957109542"/>
    </g>
   </g>
   <g id="line2d_27">
    <path clip-path="url(#pc7706d714b)" d="
M155.065 273.957
L174.892 273.957
L174.892 199.374
L155.065 199.374
L155.065 273.957" style="fill:none;"/>
    <defs>
     <path d="
M0 3
C0.795609 3 1.55874 2.6839 2.12132 2.12132
C2.6839 1.55874 3 0.795609 3 0
C3 -0.795609 2.6839 -1.55874 2.12132 -2.12132
C1.55874 -2.6839 0.795609 -3 0 -3
C-0.795609 -3 -1.55874 -2.6839 -2.12132 -2.12132
C-2.6839 -1.55874 -3 -0.795609 -3 0
C-3 0.795609 -2.6839 1.55874 -2.12132 2.12132
C-1.55874 2.6839 -0.795609 3 0 3
z
" id="m6d6f70f495" style="stroke:#ff0000;stroke-width:2;"/>
    </defs>
    <g clip-path="url(#pc7706d714b)">
     <use style="fill:#ff0000;stroke:#ff0000;stroke-width:2;" x="155.06499306" xlink:href="#m6d6f70f495" y="273.957109542"/>
     <use style="fill:#ff0000;stroke:#ff0000;stroke-width:2;" x="174.891696503" xlink:href="#m6d6f70f495" y="273.957109542"/>
     <use style="fill:#ff0000;stroke:#ff0000;stroke-width:2;" x="174.891696503" xlink:href="#m6d6f70f495" y="199.373988148"/>
     <use style="fill:#ff0000;stroke:#ff0000;stroke-width:2;" x="155.06499306" xlink:href="#m6d6f70f495" y="199.373988148"/>
     <use style="fill:#ff0000;stroke:#ff0000;stroke-width:2;" x="155.06499306" xlink:href="#m6d6f70f495" y="273.957109542"/>
    </g>
   </g>
   <g id="line2d_28">
    <path clip-path="url(#pc7706d714b)" d="
M155.065 199.374
L174.892 199.374" style="fill:none;stroke:#ff0000;stroke-linecap:square;stroke-width:2;"/>
    <g clip-path="url(#pc7706d714b)">
     <use style="fill:#ff0000;stroke:#ff0000;stroke-width:2;" x="155.06499306" xlink:href="#mf83d596818" y="199.373988148"/>
     <use style="fill:#ff0000;stroke:#ff0000;stroke-width:2;" x="174.891696503" xlink:href="#mf83d596818" y="199.373988148"/>
    </g>
   </g>
   <g id="line2d_29">
    <path clip-path="url(#pc7706d714b)" d="
M164.978 214.667" style="fill:none;"/>
    <defs>
     <path d="
M0 10
C2.65203 10 5.1958 8.94634 7.07107 7.07107
C8.94634 5.1958 10 2.65203 10 0
C10 -2.65203 8.94634 -5.1958 7.07107 -7.07107
C5.1958 -8.94634 2.65203 -10 0 -10
C-2.65203 -10 -5.1958 -8.94634 -7.07107 -7.07107
C-8.94634 -5.1958 -10 -2.65203 -10 0
C-10 2.65203 -8.94634 5.1958 -7.07107 7.07107
C-5.1958 8.94634 -2.65203 10 0 10
z
" id="m1474c30724" style="stroke:#000000;stroke-width:2;"/>
    </defs>
    <g clip-path="url(#pc7706d714b)">
     <use style="fill:#ff0000;stroke:#000000;stroke-width:2;" x="164.978344781" xlink:href="#m1474c30724" y="214.667088586"/>
    </g>
   </g>
   <g id="line2d_30"/>
   <g id="line2d_31"/>
   <g id="line2d_32"/>
   <g id="line2d_33"/>
   <g id="line2d_34"/>
   <g id="line2d_35"/>
   <g id="line2d_36"/>
   <g id="line2d_37">
    <defs>
     <path d="
M-10 10
L10 -10
M-10 -10
L10 10" id="mc708e8a258" style="stroke:#ff0000;stroke-width:0.5;"/>
    </defs>
    <g clip-path="url(#pc7706d714b)">
     <use style="fill:#ff0000;stroke:#ff0000;stroke-width:0.5;" x="164.978344781" xlink:href="#mc708e8a258" y="199.373988148"/>
    </g>
   </g>
   <g id="line2d_38">
    <path clip-path="url(#pc7706d714b)" d="
M-281.422 1294.75
M271.202 411.464
L477.894 81.0982" style="fill:none;stroke:#000000;stroke-dasharray:1.000000,3.000000;stroke-dashoffset:0.0;stroke-width:0.5;"/>
   </g>
   <g id="line2d_39">
    <path clip-path="url(#pc7706d714b)" d="
M-281.422 784.353
M-1 336.141
L209.931 -1" style="fill:none;stroke:#000000;stroke-dasharray:1.000000,3.000000;stroke-dashoffset:0.0;stroke-width:0.5;"/>
   </g>
   <g id="line2d_40">
    <path clip-path="url(#pc7706d714b)" d="
M-281.422 273.957" style="fill:none;stroke:#000000;stroke-dasharray:1.000000,3.000000;stroke-dashoffset:0.0;stroke-width:0.5;"/>
   </g>
   <g id="line2d_41">
    <path clip-path="url(#pc7706d714b)" d="
M-281.422 -236.439" style="fill:none;stroke:#000000;stroke-dasharray:1.000000,3.000000;stroke-dashoffset:0.0;stroke-width:0.5;"/>
   </g>
   <g id="line2d_42">
    <path clip-path="url(#pc7706d714b)" d="
M-281.422 -746.834" style="fill:none;stroke:#000000;stroke-dasharray:1.000000,3.000000;stroke-dashoffset:0.0;stroke-width:0.5;"/>
   </g>
   <g id="line2d_43">
    <path clip-path="url(#pc7706d714b)" d="
M-281.422 -1257.23" style="fill:none;stroke:#000000;stroke-dasharray:1.000000,3.000000;stroke-dashoffset:0.0;stroke-width:0.5;"/>
   </g>
   <g id="line2d_44">
    <path clip-path="url(#pc7706d714b)" d="
M-281.422 -1767.63" style="fill:none;stroke:#000000;stroke-dasharray:1.000000,3.000000;stroke-dashoffset:0.0;stroke-width:0.5;"/>
   </g>
   <g id="line2d_45">
    <path clip-path="url(#pc7706d714b)" d="
M-281.422 -2278.02" style="fill:none;stroke:#000000;stroke-dasharray:1.000000,3.000000;stroke-dashoffset:0.0;stroke-width:0.5;"/>
   </g>
   <g id="line2d_46">
    <path clip-path="url(#pc7706d714b)" d="
M-281.422 -2788.42" style="fill:none;stroke:#000000;stroke-dasharray:1.000000,3.000000;stroke-dashoffset:0.0;stroke-width:0.5;"/>
   </g>
   <g id="patch_3">
    <path d="
M23.2938 30.4362
L469.694 30.4362" style="fill:none;stroke:#000000;stroke-linecap:square;stroke-linejoin:miter;"/>
   </g>
   <g id="patch_4">
    <path d="
M469.694 376.036
L469.694 30.4362" style="fill:none;stroke:#000000;stroke-linecap:square;stroke-linejoin:miter;"/>
   </g>
   <g id="patch_5">
    <path d="
M23.2938 376.036
L469.694 376.036" style="fill:none;stroke:#000000;stroke-linecap:square;stroke-linejoin:miter;"/>
   </g>
   <g id="patch_6">
    <path d="
M23.2938 376.036
L23.2938 30.4362" style="fill:none;stroke:#000000;stroke-linecap:square;stroke-linejoin:miter;"/>
   </g>
   <g id="matplotlib.axis_1">
    <g id="xtick_1">
     <g id="line2d_47">
      <defs>
       <path d="
M0 0
L0 -4" id="m93b0483c22" style="stroke:#000000;stroke-width:0.5;"/>
      </defs>
      <g>
       <use style="stroke:#000000;stroke-width:0.5;" x="37.9053525434" xlink:href="#m93b0483c22" y="376.03625"/>
      </g>
     </g>
     <g id="line2d_48">
      <defs>
       <path d="
M0 0
L0 4" id="m741efc42ff" style="stroke:#000000;stroke-width:0.5;"/>
      </defs>
      <g>
       <use style="stroke:#000000;stroke-width:0.5;" x="37.9053525434" xlink:href="#m741efc42ff" y="30.43625"/>
      </g>
     </g>
     <g id="text_1">
      <!-- 2 -->
      <defs>
       <path d="
M19.1875 8.29688
L53.6094 8.29688
L53.6094 0
L7.32812 0
L7.32812 8.29688
Q12.9375 14.1094 22.625 23.8906
Q32.3281 33.6875 34.8125 36.5312
Q39.5469 41.8438 41.4219 45.5312
Q43.3125 49.2188 43.3125 52.7812
Q43.3125 58.5938 39.2344 62.25
Q35.1562 65.9219 28.6094 65.9219
Q23.9688 65.9219 18.8125 64.3125
Q13.6719 62.7031 7.8125 59.4219
L7.8125 69.3906
Q13.7656 71.7812 18.9375 73
Q24.125 74.2188 28.4219 74.2188
Q39.75 74.2188 46.4844 68.5469
Q53.2188 62.8906 53.2188 53.4219
Q53.2188 48.9219 51.5312 44.8906
Q49.8594 40.875 45.4062 35.4062
Q44.1875 33.9844 37.6406 27.2188
Q31.1094 20.4531 19.1875 8.29688" id="BitstreamVeraSans-Roman-32"/>
      </defs>
      <g transform="translate(32.3516025434 398.2725)scale(0.24 -0.24)">
       <use xlink:href="#BitstreamVeraSans-Roman-32"/>
      </g>
     </g>
    </g>
    <g id="xtick_2">
     <g id="line2d_49">
      <g>
       <use style="stroke:#000000;stroke-width:0.5;" x="94.1360473907" xlink:href="#m93b0483c22" y="376.03625"/>
      </g>
     </g>
     <g id="line2d_50">
      <g>
       <use style="stroke:#000000;stroke-width:0.5;" x="94.1360473907" xlink:href="#m741efc42ff" y="30.43625"/>
      </g>
     </g>
     <g id="text_2">
      <!-- 3 -->
      <defs>
       <path d="
M40.5781 39.3125
Q47.6562 37.7969 51.625 33
Q55.6094 28.2188 55.6094 21.1875
Q55.6094 10.4062 48.1875 4.48438
Q40.7656 -1.42188 27.0938 -1.42188
Q22.5156 -1.42188 17.6562 -0.515625
Q12.7969 0.390625 7.625 2.20312
L7.625 11.7188
Q11.7188 9.32812 16.5938 8.10938
Q21.4844 6.89062 26.8125 6.89062
Q36.0781 6.89062 40.9375 10.5469
Q45.7969 14.2031 45.7969 21.1875
Q45.7969 27.6406 41.2812 31.2656
Q36.7656 34.9062 28.7188 34.9062
L20.2188 34.9062
L20.2188 43.0156
L29.1094 43.0156
Q36.375 43.0156 40.2344 45.9219
Q44.0938 48.8281 44.0938 54.2969
Q44.0938 59.9062 40.1094 62.9062
Q36.1406 65.9219 28.7188 65.9219
Q24.6562 65.9219 20.0156 65.0312
Q15.375 64.1562 9.8125 62.3125
L9.8125 71.0938
Q15.4375 72.6562 20.3438 73.4375
Q25.25 74.2188 29.5938 74.2188
Q40.8281 74.2188 47.3594 69.1094
Q53.9062 64.0156 53.9062 55.3281
Q53.9062 49.2656 50.4375 45.0938
Q46.9688 40.9219 40.5781 39.3125" id="BitstreamVeraSans-Roman-33"/>
      </defs>
      <g transform="translate(88.3779223907 398.2725)scale(0.24 -0.24)">
       <use xlink:href="#BitstreamVeraSans-Roman-33"/>
      </g>
     </g>
    </g>
    <g id="xtick_3">
     <g id="line2d_51">
      <g>
       <use style="stroke:#000000;stroke-width:0.5;" x="164.978344781" xlink:href="#m93b0483c22" y="376.03625"/>
      </g>
     </g>
     <g id="line2d_52">
      <g>
       <use style="stroke:#000000;stroke-width:0.5;" x="164.978344781" xlink:href="#m741efc42ff" y="30.43625"/>
      </g>
     </g>
     <g id="text_3">
      <!-- 5 -->
      <defs>
       <path d="
M10.7969 72.9062
L49.5156 72.9062
L49.5156 64.5938
L19.8281 64.5938
L19.8281 46.7344
Q21.9688 47.4688 24.1094 47.8281
Q26.2656 48.1875 28.4219 48.1875
Q40.625 48.1875 47.75 41.5
Q54.8906 34.8125 54.8906 23.3906
Q54.8906 11.625 47.5625 5.09375
Q40.2344 -1.42188 26.9062 -1.42188
Q22.3125 -1.42188 17.5469 -0.640625
Q12.7969 0.140625 7.71875 1.70312
L7.71875 11.625
Q12.1094 9.23438 16.7969 8.0625
Q21.4844 6.89062 26.7031 6.89062
Q35.1562 6.89062 40.0781 11.3281
Q45.0156 15.7656 45.0156 23.3906
Q45.0156 31 40.0781 35.4375
Q35.1562 39.8906 26.7031 39.8906
Q22.75 39.8906 18.8125 39.0156
Q14.8906 38.1406 10.7969 36.2812
z
" id="BitstreamVeraSans-Roman-35"/>
      </defs>
      <g transform="translate(159.317719781 398.2725)scale(0.24 -0.24)">
       <use xlink:href="#BitstreamVeraSans-Roman-35"/>
      </g>
     </g>
    </g>
    <g id="xtick_4">
     <g id="line2d_53">
      <g>
       <use style="stroke:#000000;stroke-width:0.5;" x="261.105352543" xlink:href="#m93b0483c22" y="376.03625"/>
      </g>
     </g>
     <g id="line2d_54">
      <g>
       <use style="stroke:#000000;stroke-width:0.5;" x="261.105352543" xlink:href="#m741efc42ff" y="30.43625"/>
      </g>
     </g>
     <g id="text_4">
      <!-- 10 -->
      <defs>
       <path d="
M31.7812 66.4062
Q24.1719 66.4062 20.3281 58.9062
Q16.5 51.4219 16.5 36.375
Q16.5 21.3906 20.3281 13.8906
Q24.1719 6.39062 31.7812 6.39062
Q39.4531 6.39062 43.2812 13.8906
Q47.125 21.3906 47.125 36.375
Q47.125 51.4219 43.2812 58.9062
Q39.4531 66.4062 31.7812 66.4062
M31.7812 74.2188
Q44.0469 74.2188 50.5156 64.5156
Q56.9844 54.8281 56.9844 36.375
Q56.9844 17.9688 50.5156 8.26562
Q44.0469 -1.42188 31.7812 -1.42188
Q19.5312 -1.42188 13.0625 8.26562
Q6.59375 17.9688 6.59375 36.375
Q6.59375 54.8281 13.0625 64.5156
Q19.5312 74.2188 31.7812 74.2188" id="BitstreamVeraSans-Roman-30"/>
       <path d="
M12.4062 8.29688
L28.5156 8.29688
L28.5156 63.9219
L10.9844 60.4062
L10.9844 69.3906
L28.4219 72.9062
L38.2812 72.9062
L38.2812 8.29688
L54.3906 8.29688
L54.3906 0
L12.4062 0
z
" id="BitstreamVeraSans-Roman-31"/>
      </defs>
      <g transform="translate(247.950352543 398.2725)scale(0.24 -0.24)">
       <use xlink:href="#BitstreamVeraSans-Roman-31"/>
       <use x="63.623046875" xlink:href="#BitstreamVeraSans-Roman-30"/>
      </g>
     </g>
    </g>
    <g id="xtick_5">
     <g id="line2d_55">
      <g>
       <use style="stroke:#000000;stroke-width:0.5;" x="357.232360305" xlink:href="#m93b0483c22" y="376.03625"/>
      </g>
     </g>
     <g id="line2d_56">
      <g>
       <use style="stroke:#000000;stroke-width:0.5;" x="357.232360305" xlink:href="#m741efc42ff" y="30.43625"/>
      </g>
     </g>
     <g id="text_5">
      <!-- 20 -->
      <g transform="translate(343.638610305 398.2725)scale(0.24 -0.24)">
       <use xlink:href="#BitstreamVeraSans-Roman-32"/>
       <use x="63.623046875" xlink:href="#BitstreamVeraSans-Roman-30"/>
      </g>
     </g>
    </g>
    <g id="xtick_6">
     <g id="line2d_57">
      <g>
       <use style="stroke:#000000;stroke-width:0.5;" x="453.359368067" xlink:href="#m93b0483c22" y="376.03625"/>
      </g>
     </g>
     <g id="line2d_58">
      <g>
       <use style="stroke:#000000;stroke-width:0.5;" x="453.359368067" xlink:href="#m741efc42ff" y="30.43625"/>
      </g>
     </g>
     <g id="text_6">
      <!-- 40 -->
      <defs>
       <path d="
M37.7969 64.3125
L12.8906 25.3906
L37.7969 25.3906
z

M35.2031 72.9062
L47.6094 72.9062
L47.6094 25.3906
L58.0156 25.3906
L58.0156 17.1875
L47.6094 17.1875
L47.6094 0
L37.7969 0
L37.7969 17.1875
L4.89062 17.1875
L4.89062 26.7031
z
" id="BitstreamVeraSans-Roman-34"/>
      </defs>
      <g transform="translate(439.473118067 398.2725)scale(0.24 -0.24)">
       <use xlink:href="#BitstreamVeraSans-Roman-34"/>
       <use x="63.623046875" xlink:href="#BitstreamVeraSans-Roman-30"/>
      </g>
     </g>
    </g>
    <g id="xtick_7">
     <g id="line2d_59">
      <defs>
       <path d="
M0 0
L0 -2" id="m177f7580d0" style="stroke:#000000;stroke-width:0.5;"/>
      </defs>
      <g>
       <use style="stroke:#000000;stroke-width:0.5;" x="37.9053525434" xlink:href="#m177f7580d0" y="376.03625"/>
      </g>
     </g>
     <g id="line2d_60">
      <defs>
       <path d="
M0 0
L0 2" id="m5284c7e2a0" style="stroke:#000000;stroke-width:0.5;"/>
      </defs>
      <g>
       <use style="stroke:#000000;stroke-width:0.5;" x="37.9053525434" xlink:href="#m5284c7e2a0" y="30.43625"/>
      </g>
     </g>
    </g>
    <g id="xtick_8">
     <g id="line2d_61">
      <g>
       <use style="stroke:#000000;stroke-width:0.5;" x="94.1360473907" xlink:href="#m177f7580d0" y="376.03625"/>
      </g>
     </g>
     <g id="line2d_62">
      <g>
       <use style="stroke:#000000;stroke-width:0.5;" x="94.1360473907" xlink:href="#m5284c7e2a0" y="30.43625"/>
      </g>
     </g>
    </g>
    <g id="xtick_9">
     <g id="line2d_63">
      <g>
       <use style="stroke:#000000;stroke-width:0.5;" x="134.032360305" xlink:href="#m177f7580d0" y="376.03625"/>
      </g>
     </g>
     <g id="line2d_64">
      <g>
       <use style="stroke:#000000;stroke-width:0.5;" x="134.032360305" xlink:href="#m5284c7e2a0" y="30.43625"/>
      </g>
     </g>
    </g>
    <g id="xtick_10">
     <g id="line2d_65">
      <g>
       <use style="stroke:#000000;stroke-width:0.5;" x="164.978344781" xlink:href="#m177f7580d0" y="376.03625"/>
      </g>
     </g>
     <g id="line2d_66">
      <g>
       <use style="stroke:#000000;stroke-width:0.5;" x="164.978344781" xlink:href="#m5284c7e2a0" y="30.43625"/>
      </g>
     </g>
    </g>
    <g id="xtick_11">
     <g id="line2d_67">
      <g>
       <use style="stroke:#000000;stroke-width:0.5;" x="190.263055153" xlink:href="#m177f7580d0" y="376.03625"/>
      </g>
     </g>
     <g id="line2d_68">
      <g>
       <use style="stroke:#000000;stroke-width:0.5;" x="190.263055153" xlink:href="#m5284c7e2a0" y="30.43625"/>
      </g>
     </g>
    </g>
    <g id="xtick_12">
     <g id="line2d_69">
      <g>
       <use style="stroke:#000000;stroke-width:0.5;" x="211.640973165" xlink:href="#m177f7580d0" y="376.03625"/>
      </g>
     </g>
     <g id="line2d_70">
      <g>
       <use style="stroke:#000000;stroke-width:0.5;" x="211.640973165" xlink:href="#m5284c7e2a0" y="30.43625"/>
      </g>
     </g>
    </g>
    <g id="xtick_13">
     <g id="line2d_71">
      <g>
       <use style="stroke:#000000;stroke-width:0.5;" x="230.159368067" xlink:href="#m177f7580d0" y="376.03625"/>
      </g>
     </g>
     <g id="line2d_72">
      <g>
       <use style="stroke:#000000;stroke-width:0.5;" x="230.159368067" xlink:href="#m5284c7e2a0" y="30.43625"/>
      </g>
     </g>
    </g>
    <g id="xtick_14">
     <g id="line2d_73">
      <g>
       <use style="stroke:#000000;stroke-width:0.5;" x="246.49375" xlink:href="#m177f7580d0" y="376.03625"/>
      </g>
     </g>
     <g id="line2d_74">
      <g>
       <use style="stroke:#000000;stroke-width:0.5;" x="246.49375" xlink:href="#m5284c7e2a0" y="30.43625"/>
      </g>
     </g>
    </g>
    <g id="xtick_15">
     <g id="line2d_75">
      <g>
       <use style="stroke:#000000;stroke-width:0.5;" x="357.232360305" xlink:href="#m177f7580d0" y="376.03625"/>
      </g>
     </g>
     <g id="line2d_76">
      <g>
       <use style="stroke:#000000;stroke-width:0.5;" x="357.232360305" xlink:href="#m5284c7e2a0" y="30.43625"/>
      </g>
     </g>
    </g>
    <g id="xtick_16">
     <g id="line2d_77">
      <g>
       <use style="stroke:#000000;stroke-width:0.5;" x="413.463055153" xlink:href="#m177f7580d0" y="376.03625"/>
      </g>
     </g>
     <g id="line2d_78">
      <g>
       <use style="stroke:#000000;stroke-width:0.5;" x="413.463055153" xlink:href="#m5284c7e2a0" y="30.43625"/>
      </g>
     </g>
    </g>
    <g id="xtick_17">
     <g id="line2d_79">
      <g>
       <use style="stroke:#000000;stroke-width:0.5;" x="453.359368067" xlink:href="#m177f7580d0" y="376.03625"/>
      </g>
     </g>
     <g id="line2d_80">
      <g>
       <use style="stroke:#000000;stroke-width:0.5;" x="453.359368067" xlink:href="#m5284c7e2a0" y="30.43625"/>
      </g>
     </g>
    </g>
   </g>
   <g id="matplotlib.axis_2">
    <g id="ytick_1">
     <g id="line2d_81">
      <path clip-path="url(#pc7706d714b)" d="
M23.2938 273.957
L469.694 273.957" style="fill:none;stroke:#000000;stroke-dasharray:1.000000,3.000000;stroke-dashoffset:0.0;stroke-width:0.5;"/>
     </g>
     <g id="line2d_82">
      <defs>
       <path d="
M0 0
L4 0" id="m728421d6d4" style="stroke:#000000;stroke-width:0.5;"/>
      </defs>
      <g>
       <use style="stroke:#000000;stroke-width:0.5;" x="23.29375" xlink:href="#m728421d6d4" y="273.957109542"/>
      </g>
     </g>
     <g id="line2d_83">
      <defs>
       <path d="
M0 0
L-4 0" id="mcb0005524f" style="stroke:#000000;stroke-width:0.5;"/>
      </defs>
      <g>
       <use style="stroke:#000000;stroke-width:0.5;" x="469.69375" xlink:href="#mcb0005524f" y="273.957109542"/>
      </g>
     </g>
     <g id="text_7">
      <!-- 0 -->
      <g transform="translate(7.2 280.579609542)scale(0.24 -0.24)">
       <use xlink:href="#BitstreamVeraSans-Roman-30"/>
      </g>
     </g>
    </g>
    <g id="ytick_2">
     <g id="line2d_84">
      <defs>
       <path d="
M0 0
L2 0" id="mf0c55a9a47" style="stroke:#000000;stroke-width:0.5;"/>
      </defs>
      <g>
       <use style="stroke:#000000;stroke-width:0.5;" x="23.29375" xlink:href="#mf0c55a9a47" y="353.018404195"/>
      </g>
     </g>
     <g id="line2d_85">
      <defs>
       <path d="
M0 0
L-2 0" id="ma4f294b3af" style="stroke:#000000;stroke-width:0.5;"/>
      </defs>
      <g>
       <use style="stroke:#000000;stroke-width:0.5;" x="469.69375" xlink:href="#ma4f294b3af" y="353.018404195"/>
      </g>
     </g>
    </g>
    <g id="ytick_3">
     <g id="line2d_86">
      <g>
       <use style="stroke:#000000;stroke-width:0.5;" x="23.29375" xlink:href="#mf0c55a9a47" y="323.41956369"/>
      </g>
     </g>
     <g id="line2d_87">
      <g>
       <use style="stroke:#000000;stroke-width:0.5;" x="469.69375" xlink:href="#ma4f294b3af" y="323.41956369"/>
      </g>
     </g>
    </g>
    <g id="ytick_4">
     <g id="line2d_88">
      <g>
       <use style="stroke:#000000;stroke-width:0.5;" x="23.29375" xlink:href="#mf0c55a9a47" y="297.311536072"/>
      </g>
     </g>
     <g id="line2d_89">
      <g>
       <use style="stroke:#000000;stroke-width:0.5;" x="469.69375" xlink:href="#ma4f294b3af" y="297.311536072"/>
      </g>
     </g>
    </g>
    <g id="ytick_5">
     <g id="line2d_90">
      <g>
       <use style="stroke:#000000;stroke-width:0.5;" x="23.29375" xlink:href="#mf0c55a9a47" y="120.312693495"/>
      </g>
     </g>
     <g id="line2d_91">
      <g>
       <use style="stroke:#000000;stroke-width:0.5;" x="469.69375" xlink:href="#ma4f294b3af" y="120.312693495"/>
      </g>
     </g>
    </g>
    <g id="ytick_6">
     <g id="line2d_92">
      <g>
       <use style="stroke:#000000;stroke-width:0.5;" x="23.29375" xlink:href="#mf0c55a9a47" y="30.4364716619"/>
      </g>
     </g>
     <g id="line2d_93">
      <g>
       <use style="stroke:#000000;stroke-width:0.5;" x="469.69375" xlink:href="#ma4f294b3af" y="30.4364716619"/>
      </g>
     </g>
    </g>
   </g>
   <g id="text_8">
    <!-- 15 instances -->
    <defs>
     <path id="BitstreamVeraSans-Roman-20"/>
     <path d="
M54.8906 33.0156
L54.8906 0
L45.9062 0
L45.9062 32.7188
Q45.9062 40.4844 42.875 44.3281
Q39.8438 48.1875 33.7969 48.1875
Q26.5156 48.1875 22.3125 43.5469
Q18.1094 38.9219 18.1094 30.9062
L18.1094 0
L9.07812 0
L9.07812 54.6875
L18.1094 54.6875
L18.1094 46.1875
Q21.3438 51.125 25.7031 53.5625
Q30.0781 56 35.7969 56
Q45.2188 56 50.0469 50.1719
Q54.8906 44.3438 54.8906 33.0156" id="BitstreamVeraSans-Roman-6e"/>
     <path d="
M9.42188 54.6875
L18.4062 54.6875
L18.4062 0
L9.42188 0
z

M9.42188 75.9844
L18.4062 75.9844
L18.4062 64.5938
L9.42188 64.5938
z
" id="BitstreamVeraSans-Roman-69"/>
     <path d="
M56.2031 29.5938
L56.2031 25.2031
L14.8906 25.2031
Q15.4844 15.9219 20.4844 11.0625
Q25.4844 6.20312 34.4219 6.20312
Q39.5938 6.20312 44.4531 7.46875
Q49.3125 8.73438 54.1094 11.2812
L54.1094 2.78125
Q49.2656 0.734375 44.1875 -0.34375
Q39.1094 -1.42188 33.8906 -1.42188
Q20.7969 -1.42188 13.1562 6.1875
Q5.51562 13.8125 5.51562 26.8125
Q5.51562 40.2344 12.7656 48.1094
Q20.0156 56 32.3281 56
Q43.3594 56 49.7812 48.8906
Q56.2031 41.7969 56.2031 29.5938
M47.2188 32.2344
Q47.125 39.5938 43.0938 43.9844
Q39.0625 48.3906 32.4219 48.3906
Q24.9062 48.3906 20.3906 44.1406
Q15.875 39.8906 15.1875 32.1719
z
" id="BitstreamVeraSans-Roman-65"/>
     <path d="
M18.3125 70.2188
L18.3125 54.6875
L36.8125 54.6875
L36.8125 47.7031
L18.3125 47.7031
L18.3125 18.0156
Q18.3125 11.3281 20.1406 9.42188
Q21.9688 7.51562 27.5938 7.51562
L36.8125 7.51562
L36.8125 0
L27.5938 0
Q17.1875 0 13.2344 3.875
Q9.28125 7.76562 9.28125 18.0156
L9.28125 47.7031
L2.6875 47.7031
L2.6875 54.6875
L9.28125 54.6875
L9.28125 70.2188
z
" id="BitstreamVeraSans-Roman-74"/>
     <path d="
M34.2812 27.4844
Q23.3906 27.4844 19.1875 25
Q14.9844 22.5156 14.9844 16.5
Q14.9844 11.7188 18.1406 8.90625
Q21.2969 6.10938 26.7031 6.10938
Q34.1875 6.10938 38.7031 11.4062
Q43.2188 16.7031 43.2188 25.4844
L43.2188 27.4844
z

M52.2031 31.2031
L52.2031 0
L43.2188 0
L43.2188 8.29688
Q40.1406 3.32812 35.5469 0.953125
Q30.9531 -1.42188 24.3125 -1.42188
Q15.9219 -1.42188 10.9531 3.29688
Q6 8.01562 6 15.9219
Q6 25.1406 12.1719 29.8281
Q18.3594 34.5156 30.6094 34.5156
L43.2188 34.5156
L43.2188 35.4062
Q43.2188 41.6094 39.1406 45
Q35.0625 48.3906 27.6875 48.3906
Q23 48.3906 18.5469 47.2656
Q14.1094 46.1406 10.0156 43.8906
L10.0156 52.2031
Q14.9375 54.1094 19.5781 55.0469
Q24.2188 56 28.6094 56
Q40.4844 56 46.3438 49.8438
Q52.2031 43.7031 52.2031 31.2031" id="BitstreamVeraSans-Roman-61"/>
     <path d="
M44.2812 53.0781
L44.2812 44.5781
Q40.4844 46.5312 36.375 47.5
Q32.2812 48.4844 27.875 48.4844
Q21.1875 48.4844 17.8438 46.4375
Q14.5 44.3906 14.5 40.2812
Q14.5 37.1562 16.8906 35.375
Q19.2812 33.5938 26.5156 31.9844
L29.5938 31.2969
Q39.1562 29.25 43.1875 25.5156
Q47.2188 21.7812 47.2188 15.0938
Q47.2188 7.46875 41.1875 3.01562
Q35.1562 -1.42188 24.6094 -1.42188
Q20.2188 -1.42188 15.4531 -0.5625
Q10.6875 0.296875 5.42188 2
L5.42188 11.2812
Q10.4062 8.6875 15.2344 7.39062
Q20.0625 6.10938 24.8125 6.10938
Q31.1562 6.10938 34.5625 8.28125
Q37.9844 10.4531 37.9844 14.4062
Q37.9844 18.0625 35.5156 20.0156
Q33.0625 21.9688 24.7031 23.7812
L21.5781 24.5156
Q13.2344 26.2656 9.51562 29.9062
Q5.8125 33.5469 5.8125 39.8906
Q5.8125 47.6094 11.2812 51.7969
Q16.75 56 26.8125 56
Q31.7812 56 36.1719 55.2656
Q40.5781 54.5469 44.2812 53.0781" id="BitstreamVeraSans-Roman-73"/>
     <path d="
M48.7812 52.5938
L48.7812 44.1875
Q44.9688 46.2969 41.1406 47.3438
Q37.3125 48.3906 33.4062 48.3906
Q24.6562 48.3906 19.8125 42.8438
Q14.9844 37.3125 14.9844 27.2969
Q14.9844 17.2812 19.8125 11.7344
Q24.6562 6.20312 33.4062 6.20312
Q37.3125 6.20312 41.1406 7.25
Q44.9688 8.29688 48.7812 10.4062
L48.7812 2.09375
Q45.0156 0.34375 40.9844 -0.53125
Q36.9688 -1.42188 32.4219 -1.42188
Q20.0625 -1.42188 12.7812 6.34375
Q5.51562 14.1094 5.51562 27.2969
Q5.51562 40.6719 12.8594 48.3281
Q20.2188 56 33.0156 56
Q37.1562 56 41.1094 55.1406
Q45.0625 54.2969 48.7812 52.5938" id="BitstreamVeraSans-Roman-63"/>
    </defs>
    <g transform="translate(23.29375 357.44775)scale(0.14 -0.14)">
     <use xlink:href="#BitstreamVeraSans-Roman-31"/>
     <use x="63.623046875" xlink:href="#BitstreamVeraSans-Roman-35"/>
     <use x="127.24609375" xlink:href="#BitstreamVeraSans-Roman-20"/>
     <use x="159.033203125" xlink:href="#BitstreamVeraSans-Roman-69"/>
     <use x="186.81640625" xlink:href="#BitstreamVeraSans-Roman-6e"/>
     <use x="250.1953125" xlink:href="#BitstreamVeraSans-Roman-73"/>
     <use x="302.294921875" xlink:href="#BitstreamVeraSans-Roman-74"/>
     <use x="341.50390625" xlink:href="#BitstreamVeraSans-Roman-61"/>
     <use x="402.783203125" xlink:href="#BitstreamVeraSans-Roman-6e"/>
     <use x="466.162109375" xlink:href="#BitstreamVeraSans-Roman-63"/>
     <use x="521.142578125" xlink:href="#BitstreamVeraSans-Roman-65"/>
     <use x="582.666015625" xlink:href="#BitstreamVeraSans-Roman-73"/>
    </g>
    <!-- absolute targets -->
    <defs>
     <path d="
M30.6094 48.3906
Q23.3906 48.3906 19.1875 42.75
Q14.9844 37.1094 14.9844 27.2969
Q14.9844 17.4844 19.1562 11.8438
Q23.3438 6.20312 30.6094 6.20312
Q37.7969 6.20312 41.9844 11.8594
Q46.1875 17.5312 46.1875 27.2969
Q46.1875 37.0156 41.9844 42.7031
Q37.7969 48.3906 30.6094 48.3906
M30.6094 56
Q42.3281 56 49.0156 48.375
Q55.7188 40.7656 55.7188 27.2969
Q55.7188 13.875 49.0156 6.21875
Q42.3281 -1.42188 30.6094 -1.42188
Q18.8438 -1.42188 12.1719 6.21875
Q5.51562 13.875 5.51562 27.2969
Q5.51562 40.7656 12.1719 48.375
Q18.8438 56 30.6094 56" id="BitstreamVeraSans-Roman-6f"/>
     <path d="
M9.42188 75.9844
L18.4062 75.9844
L18.4062 0
L9.42188 0
z
" id="BitstreamVeraSans-Roman-6c"/>
     <path d="
M45.4062 27.9844
Q45.4062 37.75 41.375 43.1094
Q37.3594 48.4844 30.0781 48.4844
Q22.8594 48.4844 18.8281 43.1094
Q14.7969 37.75 14.7969 27.9844
Q14.7969 18.2656 18.8281 12.8906
Q22.8594 7.51562 30.0781 7.51562
Q37.3594 7.51562 41.375 12.8906
Q45.4062 18.2656 45.4062 27.9844
M54.3906 6.78125
Q54.3906 -7.17188 48.1875 -13.9844
Q42 -20.7969 29.2031 -20.7969
Q24.4688 -20.7969 20.2656 -20.0938
Q16.0625 -19.3906 12.1094 -17.9219
L12.1094 -9.1875
Q16.0625 -11.3281 19.9219 -12.3438
Q23.7812 -13.375 27.7812 -13.375
Q36.625 -13.375 41.0156 -8.76562
Q45.4062 -4.15625 45.4062 5.17188
L45.4062 9.625
Q42.625 4.78125 38.2812 2.39062
Q33.9375 0 27.875 0
Q17.8281 0 11.6719 7.65625
Q5.51562 15.3281 5.51562 27.9844
Q5.51562 40.6719 11.6719 48.3281
Q17.8281 56 27.875 56
Q33.9375 56 38.2812 53.6094
Q42.625 51.2188 45.4062 46.3906
L45.4062 54.6875
L54.3906 54.6875
z
" id="BitstreamVeraSans-Roman-67"/>
     <path d="
M8.5 21.5781
L8.5 54.6875
L17.4844 54.6875
L17.4844 21.9219
Q17.4844 14.1562 20.5 10.2656
Q23.5312 6.39062 29.5938 6.39062
Q36.8594 6.39062 41.0781 11.0312
Q45.3125 15.6719 45.3125 23.6875
L45.3125 54.6875
L54.2969 54.6875
L54.2969 0
L45.3125 0
L45.3125 8.40625
Q42.0469 3.42188 37.7188 1
Q33.4062 -1.42188 27.6875 -1.42188
Q18.2656 -1.42188 13.375 4.4375
Q8.5 10.2969 8.5 21.5781" id="BitstreamVeraSans-Roman-75"/>
     <path d="
M41.1094 46.2969
Q39.5938 47.1719 37.8125 47.5781
Q36.0312 48 33.8906 48
Q26.2656 48 22.1875 43.0469
Q18.1094 38.0938 18.1094 28.8125
L18.1094 0
L9.07812 0
L9.07812 54.6875
L18.1094 54.6875
L18.1094 46.1875
Q20.9531 51.1719 25.4844 53.5781
Q30.0312 56 36.5312 56
Q37.4531 56 38.5781 55.875
Q39.7031 55.7656 41.0625 55.5156
z
" id="BitstreamVeraSans-Roman-72"/>
     <path d="
M48.6875 27.2969
Q48.6875 37.2031 44.6094 42.8438
Q40.5312 48.4844 33.4062 48.4844
Q26.2656 48.4844 22.1875 42.8438
Q18.1094 37.2031 18.1094 27.2969
Q18.1094 17.3906 22.1875 11.75
Q26.2656 6.10938 33.4062 6.10938
Q40.5312 6.10938 44.6094 11.75
Q48.6875 17.3906 48.6875 27.2969
M18.1094 46.3906
Q20.9531 51.2656 25.2656 53.625
Q29.5938 56 35.5938 56
Q45.5625 56 51.7812 48.0938
Q58.0156 40.1875 58.0156 27.2969
Q58.0156 14.4062 51.7812 6.48438
Q45.5625 -1.42188 35.5938 -1.42188
Q29.5938 -1.42188 25.2656 0.953125
Q20.9531 3.32812 18.1094 8.20312
L18.1094 0
L9.07812 0
L9.07812 75.9844
L18.1094 75.9844
z
" id="BitstreamVeraSans-Roman-62"/>
    </defs>
    <g transform="translate(23.29375 373.1246875)scale(0.14 -0.14)">
     <use xlink:href="#BitstreamVeraSans-Roman-61"/>
     <use x="61.279296875" xlink:href="#BitstreamVeraSans-Roman-62"/>
     <use x="124.755859375" xlink:href="#BitstreamVeraSans-Roman-73"/>
     <use x="176.85546875" xlink:href="#BitstreamVeraSans-Roman-6f"/>
     <use x="238.037109375" xlink:href="#BitstreamVeraSans-Roman-6c"/>
     <use x="265.8203125" xlink:href="#BitstreamVeraSans-Roman-75"/>
     <use x="329.19921875" xlink:href="#BitstreamVeraSans-Roman-74"/>
     <use x="368.408203125" xlink:href="#BitstreamVeraSans-Roman-65"/>
     <use x="429.931640625" xlink:href="#BitstreamVeraSans-Roman-20"/>
     <use x="461.71875" xlink:href="#BitstreamVeraSans-Roman-74"/>
     <use x="500.927734375" xlink:href="#BitstreamVeraSans-Roman-61"/>
     <use x="562.20703125" xlink:href="#BitstreamVeraSans-Roman-72"/>
     <use x="601.5703125" xlink:href="#BitstreamVeraSans-Roman-67"/>
     <use x="665.046875" xlink:href="#BitstreamVeraSans-Roman-65"/>
     <use x="726.5703125" xlink:href="#BitstreamVeraSans-Roman-74"/>
     <use x="765.779296875" xlink:href="#BitstreamVeraSans-Roman-73"/>
    </g>
   </g>
   <g id="text_9">
    <!-- v2.1.1.3 -->
    <defs>
     <path d="
M2.98438 54.6875
L12.5 54.6875
L29.5938 8.79688
L46.6875 54.6875
L56.2031 54.6875
L35.6875 0
L23.4844 0
z
" id="BitstreamVeraSans-Roman-76"/>
     <path d="
M10.6875 12.4062
L21 12.4062
L21 0
L10.6875 0
z
" id="BitstreamVeraSans-Roman-2e"/>
    </defs>
    <g style="fill:#808080;" transform="translate(226.5921875 370.5005625)scale(0.1 -0.1)">
     <use xlink:href="#BitstreamVeraSans-Roman-76"/>
     <use x="59.1796875" xlink:href="#BitstreamVeraSans-Roman-32"/>
     <use x="122.802734375" xlink:href="#BitstreamVeraSans-Roman-2e"/>
     <use x="154.58984375" xlink:href="#BitstreamVeraSans-Roman-31"/>
     <use x="218.212890625" xlink:href="#BitstreamVeraSans-Roman-2e"/>
     <use x="250.0" xlink:href="#BitstreamVeraSans-Roman-31"/>
     <use x="313.623046875" xlink:href="#BitstreamVeraSans-Roman-2e"/>
     <use x="345.41015625" xlink:href="#BitstreamVeraSans-Roman-33"/>
    </g>
   </g>
   <g id="text_10">
    <!-- 5 Linear slope -->
    <defs>
     <path d="
M9.8125 72.9062
L19.6719 72.9062
L19.6719 8.29688
L55.1719 8.29688
L55.1719 0
L9.8125 0
z
" id="BitstreamVeraSans-Roman-4c"/>
     <path d="
M18.1094 8.20312
L18.1094 -20.7969
L9.07812 -20.7969
L9.07812 54.6875
L18.1094 54.6875
L18.1094 46.3906
Q20.9531 51.2656 25.2656 53.625
Q29.5938 56 35.5938 56
Q45.5625 56 51.7812 48.0938
Q58.0156 40.1875 58.0156 27.2969
Q58.0156 14.4062 51.7812 6.48438
Q45.5625 -1.42188 35.5938 -1.42188
Q29.5938 -1.42188 25.2656 0.953125
Q20.9531 3.32812 18.1094 8.20312
M48.6875 27.2969
Q48.6875 37.2031 44.6094 42.8438
Q40.5312 48.4844 33.4062 48.4844
Q26.2656 48.4844 22.1875 42.8438
Q18.1094 37.2031 18.1094 27.2969
Q18.1094 17.3906 22.1875 11.75
Q26.2656 6.10938 33.4062 6.10938
Q40.5312 6.10938 44.6094 11.75
Q48.6875 17.3906 48.6875 27.2969" id="BitstreamVeraSans-Roman-70"/>
    </defs>
    <g transform="translate(162.645625 25.43625)scale(0.24 -0.24)">
     <use xlink:href="#BitstreamVeraSans-Roman-35"/>
     <use x="63.623046875" xlink:href="#BitstreamVeraSans-Roman-20"/>
     <use x="95.41015625" xlink:href="#BitstreamVeraSans-Roman-4c"/>
     <use x="151.123046875" xlink:href="#BitstreamVeraSans-Roman-69"/>
     <use x="178.90625" xlink:href="#BitstreamVeraSans-Roman-6e"/>
     <use x="242.28515625" xlink:href="#BitstreamVeraSans-Roman-65"/>
     <use x="303.80859375" xlink:href="#BitstreamVeraSans-Roman-61"/>
     <use x="365.087890625" xlink:href="#BitstreamVeraSans-Roman-72"/>
     <use x="406.201171875" xlink:href="#BitstreamVeraSans-Roman-20"/>
     <use x="437.98828125" xlink:href="#BitstreamVeraSans-Roman-73"/>
     <use x="490.087890625" xlink:href="#BitstreamVeraSans-Roman-6c"/>
     <use x="517.87109375" xlink:href="#BitstreamVeraSans-Roman-6f"/>
     <use x="579.052734375" xlink:href="#BitstreamVeraSans-Roman-70"/>
     <use x="642.529296875" xlink:href="#BitstreamVeraSans-Roman-65"/>
    </g>
   </g>
  </g>
 </g>
 <defs>
  <clipPath id="pc7706d714b">
   <rect height="345.6" width="446.4" x="23.29375" y="30.43625"/>
  </clipPath>
 </defs>
</svg>
