<?xml version="1.0" encoding="utf-8" standalone="no"?>
<!DOCTYPE svg PUBLIC "-//W3C//DTD SVG 1.1//EN"
  "http://www.w3.org/Graphics/SVG/1.1/DTD/svg11.dtd">
<!-- Created with matplotlib (http://matplotlib.org/) -->
<svg height="407pt" version="1.1" viewBox="0 0 460 407" width="460pt" xmlns="http://www.w3.org/2000/svg" xmlns:xlink="http://www.w3.org/1999/xlink">
 <defs>
  <style type="text/css">
*{stroke-linecap:butt;stroke-linejoin:round;}
  </style>
 </defs>
 <g id="figure_1">
  <g id="patch_1">
   <path d="
M0 407.712
L460.8 407.712
L460.8 0
L0 0
z
" style="fill:#ffffff;"/>
  </g>
  <g id="axes_1">
   <g id="patch_2">
    <path d="
M7.2 352.8
L453.6 352.8
L453.6 7.2
L7.2 7.2
z
" style="fill:#ffffff;"/>
   </g>
   <g id="line2d_1">
    <path clip-path="url(#p99b4b0da67)" d="
M-1 229.616
L0.811741 229.616
L0.811741 225.053
L4.86909 225.053
L4.86909 220.491
L5.8959 220.491
L5.8959 215.929
L6.05807 215.929
L6.05807 211.366
L6.83911 211.366
L6.83911 206.804
L18.822 206.804
L18.822 202.242
L168.617 202.242
L168.692 193.117
L170.673 193.117
L170.673 188.554
L172.637 188.554
L172.637 183.992
L174.871 183.992
L174.871 179.43
L176.026 179.43
L176.026 174.867
L178.119 174.867
L178.119 170.305
L178.307 170.305
L178.307 165.743
L178.887 165.743
L178.887 161.18
L180.075 161.18
L180.075 156.618
L180.4 156.618
L180.4 133.806
L186.587 133.806
L186.587 129.244
L187.475 129.244
L187.475 115.556
L191.029 115.556
L191.029 110.994
L191.931 110.994
L191.931 106.432
L193.465 106.432
L193.465 101.869
L194.114 101.869
L194.114 97.3069
L198.199 97.3069
L198.199 92.7446
L199.759 92.7446
L199.759 88.1822
L200.152 88.1822
L200.152 83.6198
L201.943 83.6198
L201.943 79.0574
L202.17 79.0574
L202.17 69.9327
L203.447 69.9327
L203.447 65.3703
L207.223 65.3703
L207.223 60.8079
L211.557 60.8079
L211.557 56.2455
L212.586 56.2455
L212.586 51.6832
L213.153 51.6832
L213.153 47.1208
L215.224 47.1208
L215.224 42.5584
L215.89 42.5584
L215.89 37.996
L216.573 37.996
L216.573 33.4337
L217.2 33.4337
L217.2 28.8713
L217.553 28.8713
L217.553 24.3089
L217.709 24.3089
L217.709 19.7465
L220.456 19.7465
L220.456 15.1842
L228.165 15.1842
L228.165 10.6218
L228.165 10.6218
L453.6 10.6218
L453.6 10.6218" style="fill:none;stroke:#ff0000;stroke-linecap:square;stroke-width:3.0;"/>
   </g>
   <g id="line2d_2">
    <path clip-path="url(#p99b4b0da67)" d="
M211.31 352.8
L211.31 348.238
L215.277 348.238
L215.277 343.675
L217.198 343.675
L217.198 339.113
L220.24 339.113
L220.24 334.55
L220.879 334.55
L220.879 329.988
L221.227 329.988
L221.227 325.426
L223.24 325.426
L223.24 320.863
L223.501 320.863
L223.501 316.301
L224.454 316.301
L224.454 311.739
L225.517 311.739
L225.517 307.176
L226.145 307.176
L226.248 298.051
L226.348 298.051
L226.348 293.489
L227.078 293.489
L227.078 288.927
L227.766 288.927
L227.766 284.364
L236.469 284.364
L236.469 279.802
L237.725 279.802
L237.725 275.24
L238.046 275.24
L238.046 270.677
L238.38 270.677
L238.38 266.115
L238.639 266.115
L238.639 261.552
L238.877 261.552
L238.877 256.99
L239.426 256.99
L239.426 252.428
L239.604 252.428
L239.697 243.303
L239.787 243.303
L239.787 238.741
L239.952 238.741
L239.952 234.178
L240.229 234.178
L240.302 215.929
L240.358 215.929
L240.428 202.242
L240.476 202.242
L240.573 183.992
L240.593 183.992
L240.626 147.493
L249.31 147.493
L249.31 142.931
L249.824 142.931
L249.824 138.368
L250.151 138.368
L250.207 129.244
L250.437 129.244
L250.437 124.681
L251.422 124.681
L251.422 120.119
L252.041 120.119
L252.066 110.994
L252.328 110.994
L252.328 106.432
L252.757 106.432
L252.757 101.869
L253.004 101.869
L253.004 97.3069
L253.691 97.3069
L253.691 92.7446
L254.479 92.7446
L254.479 88.1822
L254.601 88.1822
L254.601 83.6198
L255.024 83.6198
L255.024 79.0574
L307.022 79.0574
L307.022 74.495
L308.337 74.495
L308.337 69.9327
L310.971 69.9327
L310.971 65.3703
L311.882 65.3703
L311.882 60.8079
L313.53 60.8079
L313.53 51.6832
L315.542 51.6832
L315.544 42.5584
L317.25 42.5584
L317.25 33.4337
L322.904 33.4337
L322.904 19.7465
L323.196 19.7465
L323.196 15.1842
L326.424 15.1842
L326.424 10.6218
L326.424 10.6218
L453.6 10.6218
L453.6 10.6218" style="fill:none;stroke:#00bfbf;stroke-linecap:square;"/>
   </g>
   <g id="line2d_3">
    <path clip-path="url(#p99b4b0da67)" d="
M204.646 352.8
L204.646 348.238
L209.834 348.238
L209.834 343.675
L211.31 343.675
L211.31 339.113
L215.277 339.113
L215.277 334.55
L216.227 334.55
L216.227 329.988
L217.274 329.988
L217.274 325.426
L218.483 325.426
L218.483 320.863
L219.137 320.863
L219.137 316.301
L219.429 316.301
L219.429 311.739
L220.24 311.739
L220.24 307.176
L220.495 307.176
L220.495 302.614
L222.818 302.614
L222.821 293.489
L223.501 293.489
L223.501 288.927
L225.043 288.927
L225.043 284.364
L228.614 284.364
L228.614 279.802
L229.356 279.802
L229.356 275.24
L234.7 275.24
L234.7 270.677
L235.606 270.677
L235.606 266.115
L236.096 266.115
L236.096 261.552
L236.469 261.552
L236.469 256.99
L236.978 256.99
L236.978 252.428
L237.273 252.428
L237.273 247.865
L237.906 247.865
L237.906 243.303
L238.046 243.303
L238.046 238.741
L238.161 238.741
L238.161 234.178
L238.392 234.178
L238.392 229.616
L238.545 229.616
L238.64 220.491
L238.877 220.491
L238.877 215.929
L239.147 215.929
L239.147 211.366
L239.658 211.366
L239.697 202.242
L239.842 202.242
L239.952 193.117
L240.031 193.117
L240.066 183.992
L240.209 183.992
L240.226 174.867
L240.37 174.867
L240.431 161.18
L240.528 161.18
L240.603 147.493
L244.738 147.493
L244.738 142.931
L244.876 142.931
L244.876 138.368
L246.028 138.368
L246.107 129.244
L246.458 129.244
L246.458 124.681
L249.009 124.681
L249.063 115.556
L249.992 115.556
L249.992 110.994
L251.422 110.994
L251.422 106.432
L251.562 106.432
L251.57 97.3069
L251.716 97.3069
L251.716 92.7446
L252.003 92.7446
L252.003 88.1822
L252.138 88.1822
L252.138 83.6198
L253.866 83.6198
L253.866 79.0574
L307.022 79.0574
L307.022 60.8079
L308.337 60.8079
L308.337 51.6832
L309.252 51.6832
L309.354 42.5584
L309.42 42.5584
L309.42 33.4337
L310.246 33.4337
L310.246 28.8713
L310.971 28.8713
L310.971 24.3089
L313.53 24.3089
L313.53 15.1842
L317.25 15.1842
L317.25 10.6218
L317.25 10.6218
L453.6 10.6218
L453.6 10.6218" style="fill:none;stroke:#bf00bf;stroke-linecap:square;"/>
   </g>
   <g id="line2d_4">
    <path clip-path="url(#p99b4b0da67)" d="
M204.646 352.8
L204.646 348.238
L209.834 348.238
L209.834 343.675
L210.371 343.675
L210.371 339.113
L210.664 339.113
L210.664 334.55
L211.568 334.55
L211.568 329.988
L213.671 329.988
L213.671 325.426
L214.207 325.426
L214.207 320.863
L215.277 320.863
L215.277 316.301
L216.073 316.301
L216.073 311.739
L216.268 311.739
L216.268 307.176
L216.62 307.176
L216.62 302.614
L216.865 302.614
L216.865 298.051
L217.424 298.051
L217.424 293.489
L217.572 293.489
L217.572 288.927
L218.131 288.927
L218.131 284.364
L225.099 284.364
L225.099 279.802
L228.238 279.802
L228.238 275.24
L229.03 275.24
L229.03 270.677
L229.589 270.677
L229.589 266.115
L229.848 266.115
L229.848 261.552
L230.217 261.552
L230.217 256.99
L230.687 256.99
L230.687 252.428
L231.357 252.428
L231.388 243.303
L231.542 243.303
L231.577 234.178
L232.484 234.178
L232.484 229.616
L232.676 229.616
L232.676 225.053
L233.095 225.053
L233.134 215.929
L234.22 215.929
L234.22 211.366
L234.336 211.366
L234.336 206.804
L235.518 206.804
L235.518 202.242
L236.469 202.242
L236.469 197.679
L236.877 197.679
L236.877 193.117
L237.101 193.117
L237.101 188.554
L237.403 188.554
L237.408 179.43
L237.578 179.43
L237.662 170.305
L237.77 170.305
L237.77 165.743
L237.943 165.743
L237.943 161.18
L238.136 161.18
L238.209 147.493
L238.249 147.493
L238.249 142.931
L238.572 142.931
L238.572 138.368
L238.701 138.368
L238.701 133.806
L240.127 133.806
L240.127 129.244
L240.269 129.244
L240.358 120.119
L240.548 120.119
L240.548 115.556
L240.737 115.556
L240.737 110.994
L241.714 110.994
L241.714 106.432
L242.102 106.432
L242.102 101.869
L242.221 101.869
L242.221 97.3069
L242.776 97.3069
L242.88 88.1822
L243.303 88.1822
L243.303 83.6198
L243.487 83.6198
L243.487 79.0574
L267.59 79.0574
L267.59 74.495
L274.532 74.495
L274.532 69.9327
L274.793 69.9327
L274.793 65.3703
L275.067 65.3703
L275.067 60.8079
L276.776 60.8079
L276.776 56.2455
L277.946 56.2455
L277.946 51.6832
L278.424 51.6832
L278.424 47.1208
L279.479 47.1208
L279.479 42.5584
L285.292 42.5584
L285.292 37.996
L288.989 37.996
L288.989 33.4337
L289.262 33.4337
L289.262 28.8713
L292.952 28.8713
L292.952 24.3089
L295.867 24.3089
L295.867 19.7465
L298.611 19.7465
L298.611 15.1842
L306.721 15.1842
L306.721 10.6218
L306.721 10.6218
L453.6 10.6218
L453.6 10.6218" style="fill:none;stroke:#000000;stroke-linecap:square;"/>
   </g>
   <g id="line2d_5">
    <path clip-path="url(#p99b4b0da67)" d="
M204.646 352.8
L204.646 348.238
L205.517 348.238
L205.517 343.675
L206.73 343.675
L206.73 339.113
L207.114 339.113
L207.114 334.55
L207.766 334.55
L207.766 329.988
L208.848 329.988
L208.848 325.426
L209.297 325.426
L209.297 320.863
L209.489 320.863
L209.489 316.301
L209.68 316.301
L209.762 302.614
L210.371 302.614
L210.371 298.051
L210.887 298.051
L210.887 293.489
L211.07 293.489
L211.07 288.927
L212.083 288.927
L212.083 284.364
L212.586 284.364
L212.586 279.802
L213.615 279.802
L213.615 275.24
L215.358 275.24
L215.461 266.115
L216.268 266.115
L216.268 261.552
L216.955 261.552
L216.955 256.99
L218.473 256.99
L218.473 252.428
L218.64 252.428
L218.64 247.865
L221.03 247.865
L221.03 243.303
L222.074 243.303
L222.074 238.741
L224.19 238.741
L224.19 234.178
L225.928 234.178
L225.928 229.616
L226.969 229.616
L226.969 225.053
L227.203 225.053
L227.203 220.491
L227.483 220.491
L227.483 215.929
L227.873 215.929
L227.873 211.366
L228.253 211.366
L228.253 206.804
L229.03 206.804
L229.138 197.679
L229.589 197.679
L229.589 193.117
L230.116 193.117
L230.166 183.992
L231.462 183.992
L231.462 179.43
L231.992 179.43
L232.046 170.305
L233.185 170.305
L233.185 165.743
L234.1 165.743
L234.1 161.18
L235.163 161.18
L235.163 156.618
L235.859 156.618
L235.859 152.055
L235.99 152.055
L236.049 142.931
L236.111 142.931
L236.111 138.368
L236.312 138.368
L236.313 129.244
L236.874 129.244
L236.874 124.681
L237.101 124.681
L237.101 120.119
L237.805 120.119
L237.805 115.556
L238.209 115.556
L238.209 110.994
L238.422 110.994
L238.422 106.432
L239.133 106.432
L239.133 101.869
L239.304 101.869
L239.304 97.3069
L239.55 97.3069
L239.55 92.7446
L240.125 92.7446
L240.125 88.1822
L240.737 88.1822
L240.737 83.6198
L240.917 83.6198
L240.917 79.0574
L242.221 79.0574
L242.221 74.495
L251.143 74.495
L251.143 69.9327
L256.65 69.9327
L256.65 65.3703
L259.421 65.3703
L259.421 60.8079
L265.725 60.8079
L265.725 56.2455
L267.246 56.2455
L267.246 51.6832
L273.834 51.6832
L273.834 47.1208
L274.532 47.1208
L274.532 42.5584
L274.793 42.5584
L274.793 37.996
L275.184 37.996
L275.184 33.4337
L279.29 33.4337
L279.29 28.8713
L288.318 28.8713
L288.318 24.3089
L288.7 24.3089
L288.7 19.7465
L298.531 19.7465
L298.531 15.1842
L305.532 15.1842
L305.532 10.6218
L305.532 10.6218
L453.6 10.6218
L453.6 10.6218" style="fill:none;stroke:#00bfbf;stroke-linecap:square;"/>
   </g>
   <g id="line2d_6">
    <path clip-path="url(#p99b4b0da67)" d="
M152.912 352.8
L152.912 348.238
L165.384 348.238
L165.384 343.675
L170.404 343.675
L170.404 339.113
L178.381 339.113
L178.381 334.55
L179.38 334.55
L179.38 329.988
L186.122 329.988
L186.122 325.426
L188.271 325.426
L188.271 320.863
L189.243 320.863
L189.257 311.739
L192.732 311.739
L192.732 307.176
L194.566 307.176
L194.566 302.614
L197.905 302.614
L197.905 298.051
L199.599 298.051
L199.599 293.489
L199.812 293.489
L199.812 288.927
L199.948 288.927
L199.948 284.364
L200.197 284.364
L200.278 275.24
L200.396 275.24
L200.474 266.115
L200.987 266.115
L200.987 261.552
L201.159 261.552
L201.159 256.99
L201.563 256.99
L201.563 252.428
L201.704 252.428
L201.704 247.865
L202.083 247.865
L202.182 229.616
L202.204 229.616
L202.282 220.491
L202.377 220.491
L202.377 215.929
L202.526 215.929
L202.526 211.366
L203 211.366
L203 206.804
L203.238 206.804
L203.238 202.242
L203.709 202.242
L203.791 193.117
L203.842 193.117
L203.842 188.554
L204.082 188.554
L204.082 183.992
L204.384 183.992
L204.404 174.867
L204.573 174.867
L204.675 165.743
L204.927 165.743
L205.023 156.618
L205.331 156.618
L205.331 152.055
L206.349 152.055
L206.349 147.493
L206.64 147.493
L206.64 142.931
L207.068 142.931
L207.068 138.368
L207.463 138.368
L207.463 133.806
L208.37 133.806
L208.37 129.244
L210.959 129.244
L210.959 124.681
L214 124.681
L214 120.119
L218.475 120.119
L218.475 115.556
L223.878 115.556
L223.878 110.994
L224.528 110.994
L224.528 106.432
L226.012 106.432
L226.012 101.869
L227.381 101.869
L227.381 97.3069
L227.793 97.3069
L227.793 92.7446
L227.93 92.7446
L227.93 88.1822
L229.026 88.1822
L229.026 83.6198
L229.187 83.6198
L229.187 79.0574
L229.321 79.0574
L229.321 74.495
L229.884 74.495
L229.884 69.9327
L230.079 69.9327
L230.079 65.3703
L230.292 65.3703
L230.292 60.8079
L230.878 60.8079
L230.878 56.2455
L231.988 56.2455
L231.988 51.6832
L234.1 51.6832
L234.1 47.1208
L235.05 47.1208
L235.05 42.5584
L236.272 42.5584
L236.272 37.996
L236.529 37.996
L236.529 33.4337
L240.663 33.4337
L240.663 28.8713
L286.925 28.8713
L286.926 19.7465
L288.699 19.7465
L288.699 15.1842
L305.093 15.1842
L305.093 10.6218
L305.093 10.6218
L453.6 10.6218
L453.6 10.6218" style="fill:none;stroke:#bf00bf;stroke-linecap:square;"/>
   </g>
   <g id="line2d_7">
    <path clip-path="url(#p99b4b0da67)" d="
M-1 307.176
L151.108 307.176
L151.108 302.614
L180.4 302.614
L180.4 293.489
L183.089 293.489
L183.089 288.927
L190.512 288.927
L190.512 284.364
L191.029 284.364
L191.029 275.24
L191.339 275.24
L191.339 256.99
L191.523 256.99
L191.613 247.865
L193.826 247.865
L193.826 243.303
L194.358 243.303
L194.358 238.741
L195.751 238.741
L195.751 234.178
L195.99 234.178
L195.99 229.616
L196.283 229.616
L196.283 225.053
L197.338 225.053
L197.338 215.929
L197.485 215.929
L197.565 197.679
L197.668 197.679
L197.711 188.554
L197.799 188.554
L197.85 174.867
L198.325 174.867
L198.325 170.305
L198.911 170.305
L198.911 165.743
L199.657 165.743
L199.657 161.18
L201.115 161.18
L201.115 156.618
L201.851 156.618
L201.941 133.806
L202.019 133.806
L202.019 129.244
L202.17 129.244
L202.17 124.681
L202.761 124.681
L202.761 120.119
L210.923 120.119
L210.923 115.556
L214.947 115.556
L214.947 110.994
L215.927 110.994
L215.927 106.432
L217.322 106.432
L217.322 101.869
L218.503 101.869
L218.568 92.7446
L218.717 92.7446
L218.717 88.1822
L219.279 88.1822
L219.322 79.0574
L220.134 79.0574
L220.134 74.495
L220.456 74.495
L220.456 69.9327
L221.783 69.9327
L221.783 65.3703
L227.342 65.3703
L227.342 60.8079
L229.84 60.8079
L229.84 56.2455
L230.195 56.2455
L230.291 47.1208
L231.265 47.1208
L231.265 42.5584
L232.49 42.5584
L232.49 37.996
L236.325 37.996
L236.325 33.4337
L237.941 33.4337
L237.941 28.8713
L286.924 28.8713
L286.924 19.7465
L288.699 19.7465
L288.699 15.1842
L305.092 15.1842
L305.092 10.6218
L305.092 10.6218
L453.6 10.6218
L453.6 10.6218" style="fill:none;stroke:#000000;stroke-linecap:square;"/>
   </g>
   <g id="line2d_8">
    <path clip-path="url(#p99b4b0da67)" d="
M-1 229.616
L0.811741 229.616
L0.811741 225.053
L4.86909 225.053
L4.86909 220.491
L5.8959 220.491
L5.8959 215.929
L6.05807 215.929
L6.05807 211.366
L6.83911 211.366
L6.83911 206.804
L18.822 206.804
L18.822 202.242
L168.617 202.242
L168.692 193.117
L170.673 193.117
L170.673 188.554
L172.637 188.554
L172.637 183.992
L174.871 183.992
L174.871 179.43
L176.026 179.43
L176.026 174.867
L178.119 174.867
L178.119 170.305
L178.307 170.305
L178.307 165.743
L178.887 165.743
L178.887 161.18
L180.075 161.18
L180.075 156.618
L180.4 156.618
L180.4 133.806
L186.587 133.806
L186.587 129.244
L187.475 129.244
L187.475 115.556
L191.029 115.556
L191.029 110.994
L193.465 110.994
L193.509 101.869
L194.114 101.869
L194.114 97.3069
L198.199 97.3069
L198.199 92.7446
L199.759 92.7446
L199.759 88.1822
L200.164 88.1822
L200.164 83.6198
L201.943 83.6198
L201.943 79.0574
L202.17 79.0574
L202.17 69.9327
L203.447 69.9327
L203.447 65.3703
L207.223 65.3703
L207.223 60.8079
L212.586 60.8079
L212.586 56.2455
L213.153 56.2455
L213.153 51.6832
L214.435 51.6832
L214.435 47.1208
L215.224 47.1208
L215.224 42.5584
L215.89 42.5584
L215.89 37.996
L216.573 37.996
L216.573 33.4337
L217.2 33.4337
L217.2 28.8713
L217.553 28.8713
L217.553 24.3089
L217.709 24.3089
L217.709 19.7465
L220.456 19.7465
L220.456 15.1842
L228.165 15.1842
L228.165 10.6218
L228.165 10.6218
L453.6 10.6218
L453.6 10.6218" style="fill:none;stroke:#00bfbf;stroke-linecap:square;"/>
   </g>
   <g id="patch_3">
    <path d="
M7.2 7.2
L453.6 7.2" style="fill:none;stroke:#000000;stroke-linecap:square;stroke-linejoin:miter;"/>
   </g>
   <g id="patch_4">
    <path d="
M453.6 352.8
L453.6 7.2" style="fill:none;stroke:#000000;stroke-linecap:square;stroke-linejoin:miter;"/>
   </g>
   <g id="patch_5">
    <path d="
M7.2 352.8
L453.6 352.8" style="fill:none;stroke:#000000;stroke-linecap:square;stroke-linejoin:miter;"/>
   </g>
   <g id="patch_6">
    <path d="
M7.2 352.8
L7.2 7.2" style="fill:none;stroke:#000000;stroke-linecap:square;stroke-linejoin:miter;"/>
   </g>
   <g id="matplotlib.axis_1">
    <g id="xtick_1"/>
    <g id="xtick_2">
     <g id="line2d_9">
      <path clip-path="url(#p99b4b0da67)" d="
M54.0986 352.8
L54.0986 7.2" style="fill:none;stroke:#000000;stroke-dasharray:1.000000,3.000000;stroke-dashoffset:0.0;stroke-width:0.5;"/>
     </g>
     <g id="line2d_10">
      <defs>
       <path d="
M0 0
L0 -4" id="m93b0483c22" style="stroke:#000000;stroke-width:0.5;"/>
      </defs>
      <g>
       <use style="stroke:#000000;stroke-width:0.5;" x="54.0986107985" xlink:href="#m93b0483c22" y="352.8"/>
      </g>
     </g>
     <g id="line2d_11">
      <defs>
       <path d="
M0 0
L0 4" id="m741efc42ff" style="stroke:#000000;stroke-width:0.5;"/>
      </defs>
      <g>
       <use style="stroke:#000000;stroke-width:0.5;" x="54.0986107985" xlink:href="#m741efc42ff" y="7.2"/>
      </g>
     </g>
     <g id="text_1">
      <!-- -6 -->
      <defs>
       <path d="
M33.0156 40.375
Q26.375 40.375 22.4844 35.8281
Q18.6094 31.2969 18.6094 23.3906
Q18.6094 15.5312 22.4844 10.9531
Q26.375 6.39062 33.0156 6.39062
Q39.6562 6.39062 43.5312 10.9531
Q47.4062 15.5312 47.4062 23.3906
Q47.4062 31.2969 43.5312 35.8281
Q39.6562 40.375 33.0156 40.375
M52.5938 71.2969
L52.5938 62.3125
Q48.875 64.0625 45.0938 64.9844
Q41.3125 65.9219 37.5938 65.9219
Q27.8281 65.9219 22.6719 59.3281
Q17.5312 52.7344 16.7969 39.4062
Q19.6719 43.6562 24.0156 45.9219
Q28.375 48.1875 33.5938 48.1875
Q44.5781 48.1875 50.9531 41.5156
Q57.3281 34.8594 57.3281 23.3906
Q57.3281 12.1562 50.6875 5.35938
Q44.0469 -1.42188 33.0156 -1.42188
Q20.3594 -1.42188 13.6719 8.26562
Q6.98438 17.9688 6.98438 36.375
Q6.98438 53.6562 15.1875 63.9375
Q23.3906 74.2188 37.2031 74.2188
Q40.9219 74.2188 44.7031 73.4844
Q48.4844 72.75 52.5938 71.2969" id="BitstreamVeraSans-Roman-36"/>
       <path d="
M4.89062 31.3906
L31.2031 31.3906
L31.2031 23.3906
L4.89062 23.3906
z
" id="BitstreamVeraSans-Roman-2d"/>
      </defs>
      <g transform="translate(45.2470482985 371.996875)scale(0.2 -0.2)">
       <use xlink:href="#BitstreamVeraSans-Roman-2d"/>
       <use x="36.083984375" xlink:href="#BitstreamVeraSans-Roman-36"/>
      </g>
     </g>
    </g>
    <g id="xtick_3">
     <g id="line2d_12">
      <path clip-path="url(#p99b4b0da67)" d="
M101.099 352.8
L101.099 7.2" style="fill:none;stroke:#000000;stroke-dasharray:1.000000,3.000000;stroke-dashoffset:0.0;stroke-width:0.5;"/>
     </g>
     <g id="line2d_13">
      <g>
       <use style="stroke:#000000;stroke-width:0.5;" x="101.098774234" xlink:href="#m93b0483c22" y="352.8"/>
      </g>
     </g>
     <g id="line2d_14">
      <g>
       <use style="stroke:#000000;stroke-width:0.5;" x="101.098774234" xlink:href="#m741efc42ff" y="7.2"/>
      </g>
     </g>
     <g id="text_2">
      <!-- -4 -->
      <defs>
       <path d="
M37.7969 64.3125
L12.8906 25.3906
L37.7969 25.3906
z

M35.2031 72.9062
L47.6094 72.9062
L47.6094 25.3906
L58.0156 25.3906
L58.0156 17.1875
L47.6094 17.1875
L47.6094 0
L37.7969 0
L37.7969 17.1875
L4.89062 17.1875
L4.89062 26.7031
z
" id="BitstreamVeraSans-Roman-34"/>
      </defs>
      <g transform="translate(92.1784617339 371.996875)scale(0.2 -0.2)">
       <use xlink:href="#BitstreamVeraSans-Roman-2d"/>
       <use x="36.083984375" xlink:href="#BitstreamVeraSans-Roman-34"/>
      </g>
     </g>
    </g>
    <g id="xtick_4">
     <g id="line2d_15">
      <path clip-path="url(#p99b4b0da67)" d="
M148.099 352.8
L148.099 7.2" style="fill:none;stroke:#000000;stroke-dasharray:1.000000,3.000000;stroke-dashoffset:0.0;stroke-width:0.5;"/>
     </g>
     <g id="line2d_16">
      <g>
       <use style="stroke:#000000;stroke-width:0.5;" x="148.098937669" xlink:href="#m93b0483c22" y="352.8"/>
      </g>
     </g>
     <g id="line2d_17">
      <g>
       <use style="stroke:#000000;stroke-width:0.5;" x="148.098937669" xlink:href="#m741efc42ff" y="7.2"/>
      </g>
     </g>
     <g id="text_3">
      <!-- -2 -->
      <defs>
       <path d="
M19.1875 8.29688
L53.6094 8.29688
L53.6094 0
L7.32812 0
L7.32812 8.29688
Q12.9375 14.1094 22.625 23.8906
Q32.3281 33.6875 34.8125 36.5312
Q39.5469 41.8438 41.4219 45.5312
Q43.3125 49.2188 43.3125 52.7812
Q43.3125 58.5938 39.2344 62.25
Q35.1562 65.9219 28.6094 65.9219
Q23.9688 65.9219 18.8125 64.3125
Q13.6719 62.7031 7.8125 59.4219
L7.8125 69.3906
Q13.7656 71.7812 18.9375 73
Q24.125 74.2188 28.4219 74.2188
Q39.75 74.2188 46.4844 68.5469
Q53.2188 62.8906 53.2188 53.4219
Q53.2188 48.9219 51.5312 44.8906
Q49.8594 40.875 45.4062 35.4062
Q44.1875 33.9844 37.6406 27.2188
Q31.1094 20.4531 19.1875 8.29688" id="BitstreamVeraSans-Roman-32"/>
      </defs>
      <g transform="translate(139.619250169 371.996875)scale(0.2 -0.2)">
       <use xlink:href="#BitstreamVeraSans-Roman-2d"/>
       <use x="36.083984375" xlink:href="#BitstreamVeraSans-Roman-32"/>
      </g>
     </g>
    </g>
    <g id="xtick_5">
     <g id="line2d_18">
      <path clip-path="url(#p99b4b0da67)" d="
M195.099 352.8
L195.099 7.2" style="fill:none;stroke:#000000;stroke-dasharray:1.000000,3.000000;stroke-dashoffset:0.0;stroke-width:0.5;"/>
     </g>
     <g id="line2d_19">
      <g>
       <use style="stroke:#000000;stroke-width:0.5;" x="195.099101105" xlink:href="#m93b0483c22" y="352.8"/>
      </g>
     </g>
     <g id="line2d_20">
      <g>
       <use style="stroke:#000000;stroke-width:0.5;" x="195.099101105" xlink:href="#m741efc42ff" y="7.2"/>
      </g>
     </g>
     <g id="text_4">
      <!-- 0 -->
      <defs>
       <path d="
M31.7812 66.4062
Q24.1719 66.4062 20.3281 58.9062
Q16.5 51.4219 16.5 36.375
Q16.5 21.3906 20.3281 13.8906
Q24.1719 6.39062 31.7812 6.39062
Q39.4531 6.39062 43.2812 13.8906
Q47.125 21.3906 47.125 36.375
Q47.125 51.4219 43.2812 58.9062
Q39.4531 66.4062 31.7812 66.4062
M31.7812 74.2188
Q44.0469 74.2188 50.5156 64.5156
Q56.9844 54.8281 56.9844 36.375
Q56.9844 17.9688 50.5156 8.26562
Q44.0469 -1.42188 31.7812 -1.42188
Q19.5312 -1.42188 13.0625 8.26562
Q6.59375 17.9688 6.59375 36.375
Q6.59375 54.8281 13.0625 64.5156
Q19.5312 74.2188 31.7812 74.2188" id="BitstreamVeraSans-Roman-30"/>
      </defs>
      <g transform="translate(190.060038605 371.996875)scale(0.2 -0.2)">
       <use xlink:href="#BitstreamVeraSans-Roman-30"/>
      </g>
     </g>
    </g>
    <g id="xtick_6">
     <g id="line2d_21">
      <path clip-path="url(#p99b4b0da67)" d="
M242.099 352.8
L242.099 7.2" style="fill:none;stroke:#000000;stroke-dasharray:1.000000,3.000000;stroke-dashoffset:0.0;stroke-width:0.5;"/>
     </g>
     <g id="line2d_22">
      <g>
       <use style="stroke:#000000;stroke-width:0.5;" x="242.09926454" xlink:href="#m93b0483c22" y="352.8"/>
      </g>
     </g>
     <g id="line2d_23">
      <g>
       <use style="stroke:#000000;stroke-width:0.5;" x="242.09926454" xlink:href="#m741efc42ff" y="7.2"/>
      </g>
     </g>
     <g id="text_5">
      <!-- 2 -->
      <g transform="translate(237.47113954 371.996875)scale(0.2 -0.2)">
       <use xlink:href="#BitstreamVeraSans-Roman-32"/>
      </g>
     </g>
    </g>
    <g id="xtick_7">
     <g id="line2d_24">
      <path clip-path="url(#p99b4b0da67)" d="
M289.099 352.8
L289.099 7.2" style="fill:none;stroke:#000000;stroke-dasharray:1.000000,3.000000;stroke-dashoffset:0.0;stroke-width:0.5;"/>
     </g>
     <g id="line2d_25">
      <g>
       <use style="stroke:#000000;stroke-width:0.5;" x="289.099427976" xlink:href="#m93b0483c22" y="352.8"/>
      </g>
     </g>
     <g id="line2d_26">
      <g>
       <use style="stroke:#000000;stroke-width:0.5;" x="289.099427976" xlink:href="#m741efc42ff" y="7.2"/>
      </g>
     </g>
     <g id="text_6">
      <!-- 4 -->
      <g transform="translate(283.786927976 371.996875)scale(0.2 -0.2)">
       <use xlink:href="#BitstreamVeraSans-Roman-34"/>
      </g>
     </g>
    </g>
    <g id="xtick_8">
     <g id="line2d_27">
      <path clip-path="url(#p99b4b0da67)" d="
M336.1 352.8
L336.1 7.2" style="fill:none;stroke:#000000;stroke-dasharray:1.000000,3.000000;stroke-dashoffset:0.0;stroke-width:0.5;"/>
     </g>
     <g id="line2d_28">
      <g>
       <use style="stroke:#000000;stroke-width:0.5;" x="336.099591411" xlink:href="#m93b0483c22" y="352.8"/>
      </g>
     </g>
     <g id="line2d_29">
      <g>
       <use style="stroke:#000000;stroke-width:0.5;" x="336.099591411" xlink:href="#m741efc42ff" y="7.2"/>
      </g>
     </g>
     <g id="text_7">
      <!-- 6 -->
      <g transform="translate(331.065216411 371.996875)scale(0.2 -0.2)">
       <use xlink:href="#BitstreamVeraSans-Roman-36"/>
      </g>
     </g>
    </g>
    <g id="xtick_9">
     <g id="line2d_30">
      <path clip-path="url(#p99b4b0da67)" d="
M383.1 352.8
L383.1 7.2" style="fill:none;stroke:#000000;stroke-dasharray:1.000000,3.000000;stroke-dashoffset:0.0;stroke-width:0.5;"/>
     </g>
     <g id="line2d_31">
      <g>
       <use style="stroke:#000000;stroke-width:0.5;" x="383.099754847" xlink:href="#m93b0483c22" y="352.8"/>
      </g>
     </g>
     <g id="line2d_32">
      <g>
       <use style="stroke:#000000;stroke-width:0.5;" x="383.099754847" xlink:href="#m741efc42ff" y="7.2"/>
      </g>
     </g>
     <g id="text_8">
      <!-- 8 -->
      <defs>
       <path d="
M31.7812 34.625
Q24.75 34.625 20.7188 30.8594
Q16.7031 27.0938 16.7031 20.5156
Q16.7031 13.9219 20.7188 10.1562
Q24.75 6.39062 31.7812 6.39062
Q38.8125 6.39062 42.8594 10.1719
Q46.9219 13.9688 46.9219 20.5156
Q46.9219 27.0938 42.8906 30.8594
Q38.875 34.625 31.7812 34.625
M21.9219 38.8125
Q15.5781 40.375 12.0312 44.7188
Q8.5 49.0781 8.5 55.3281
Q8.5 64.0625 14.7188 69.1406
Q20.9531 74.2188 31.7812 74.2188
Q42.6719 74.2188 48.875 69.1406
Q55.0781 64.0625 55.0781 55.3281
Q55.0781 49.0781 51.5312 44.7188
Q48 40.375 41.7031 38.8125
Q48.8281 37.1562 52.7969 32.3125
Q56.7812 27.4844 56.7812 20.5156
Q56.7812 9.90625 50.3125 4.23438
Q43.8438 -1.42188 31.7812 -1.42188
Q19.7344 -1.42188 13.25 4.23438
Q6.78125 9.90625 6.78125 20.5156
Q6.78125 27.4844 10.7812 32.3125
Q14.7969 37.1562 21.9219 38.8125
M18.3125 54.3906
Q18.3125 48.7344 21.8438 45.5625
Q25.3906 42.3906 31.7812 42.3906
Q38.1406 42.3906 41.7188 45.5625
Q45.3125 48.7344 45.3125 54.3906
Q45.3125 60.0625 41.7188 63.2344
Q38.1406 66.4062 31.7812 66.4062
Q25.3906 66.4062 21.8438 63.2344
Q18.3125 60.0625 18.3125 54.3906" id="BitstreamVeraSans-Roman-38"/>
      </defs>
      <g transform="translate(378.099754847 371.996875)scale(0.2 -0.2)">
       <use xlink:href="#BitstreamVeraSans-Roman-38"/>
      </g>
     </g>
    </g>
    <g id="xtick_10">
     <g id="line2d_33">
      <path clip-path="url(#p99b4b0da67)" d="
M430.1 352.8
L430.1 7.2" style="fill:none;stroke:#000000;stroke-dasharray:1.000000,3.000000;stroke-dashoffset:0.0;stroke-width:0.5;"/>
     </g>
     <g id="line2d_34">
      <g>
       <use style="stroke:#000000;stroke-width:0.5;" x="430.099918282" xlink:href="#m93b0483c22" y="352.8"/>
      </g>
     </g>
     <g id="line2d_35">
      <g>
       <use style="stroke:#000000;stroke-width:0.5;" x="430.099918282" xlink:href="#m741efc42ff" y="7.2"/>
      </g>
     </g>
     <g id="text_9">
      <!-- 10 -->
      <defs>
       <path d="
M12.4062 8.29688
L28.5156 8.29688
L28.5156 63.9219
L10.9844 60.4062
L10.9844 69.3906
L28.4219 72.9062
L38.2812 72.9062
L38.2812 8.29688
L54.3906 8.29688
L54.3906 0
L12.4062 0
z
" id="BitstreamVeraSans-Roman-31"/>
      </defs>
      <g transform="translate(419.137418282 371.996875)scale(0.2 -0.2)">
       <use xlink:href="#BitstreamVeraSans-Roman-31"/>
       <use x="63.623046875" xlink:href="#BitstreamVeraSans-Roman-30"/>
      </g>
     </g>
    </g>
    <g id="xtick_11"/>
    <g id="xtick_12">
     <g id="line2d_36">
      <defs>
       <path d="
M0 0
L0 -2" id="m177f7580d0" style="stroke:#000000;stroke-width:0.5;"/>
      </defs>
      <g>
       <use style="stroke:#000000;stroke-width:0.5;" x="54.0986107985" xlink:href="#m177f7580d0" y="352.8"/>
      </g>
     </g>
     <g id="line2d_37">
      <defs>
       <path d="
M0 0
L0 2" id="m5284c7e2a0" style="stroke:#000000;stroke-width:0.5;"/>
      </defs>
      <g>
       <use style="stroke:#000000;stroke-width:0.5;" x="54.0986107985" xlink:href="#m5284c7e2a0" y="7.2"/>
      </g>
     </g>
    </g>
    <g id="xtick_13">
     <g id="line2d_38">
      <g>
       <use style="stroke:#000000;stroke-width:0.5;" x="101.098774234" xlink:href="#m177f7580d0" y="352.8"/>
      </g>
     </g>
     <g id="line2d_39">
      <g>
       <use style="stroke:#000000;stroke-width:0.5;" x="101.098774234" xlink:href="#m5284c7e2a0" y="7.2"/>
      </g>
     </g>
    </g>
    <g id="xtick_14">
     <g id="line2d_40">
      <g>
       <use style="stroke:#000000;stroke-width:0.5;" x="148.098937669" xlink:href="#m177f7580d0" y="352.8"/>
      </g>
     </g>
     <g id="line2d_41">
      <g>
       <use style="stroke:#000000;stroke-width:0.5;" x="148.098937669" xlink:href="#m5284c7e2a0" y="7.2"/>
      </g>
     </g>
    </g>
    <g id="xtick_15">
     <g id="line2d_42">
      <g>
       <use style="stroke:#000000;stroke-width:0.5;" x="195.099101105" xlink:href="#m177f7580d0" y="352.8"/>
      </g>
     </g>
     <g id="line2d_43">
      <g>
       <use style="stroke:#000000;stroke-width:0.5;" x="195.099101105" xlink:href="#m5284c7e2a0" y="7.2"/>
      </g>
     </g>
    </g>
    <g id="xtick_16">
     <g id="line2d_44">
      <g>
       <use style="stroke:#000000;stroke-width:0.5;" x="242.09926454" xlink:href="#m177f7580d0" y="352.8"/>
      </g>
     </g>
     <g id="line2d_45">
      <g>
       <use style="stroke:#000000;stroke-width:0.5;" x="242.09926454" xlink:href="#m5284c7e2a0" y="7.2"/>
      </g>
     </g>
    </g>
    <g id="xtick_17">
     <g id="line2d_46">
      <g>
       <use style="stroke:#000000;stroke-width:0.5;" x="289.099427976" xlink:href="#m177f7580d0" y="352.8"/>
      </g>
     </g>
     <g id="line2d_47">
      <g>
       <use style="stroke:#000000;stroke-width:0.5;" x="289.099427976" xlink:href="#m5284c7e2a0" y="7.2"/>
      </g>
     </g>
    </g>
    <g id="xtick_18">
     <g id="line2d_48">
      <g>
       <use style="stroke:#000000;stroke-width:0.5;" x="336.099591411" xlink:href="#m177f7580d0" y="352.8"/>
      </g>
     </g>
     <g id="line2d_49">
      <g>
       <use style="stroke:#000000;stroke-width:0.5;" x="336.099591411" xlink:href="#m5284c7e2a0" y="7.2"/>
      </g>
     </g>
    </g>
    <g id="xtick_19">
     <g id="line2d_50">
      <g>
       <use style="stroke:#000000;stroke-width:0.5;" x="383.099754847" xlink:href="#m177f7580d0" y="352.8"/>
      </g>
     </g>
     <g id="line2d_51">
      <g>
       <use style="stroke:#000000;stroke-width:0.5;" x="383.099754847" xlink:href="#m5284c7e2a0" y="7.2"/>
      </g>
     </g>
    </g>
    <g id="xtick_20">
     <g id="line2d_52">
      <g>
       <use style="stroke:#000000;stroke-width:0.5;" x="430.099918282" xlink:href="#m177f7580d0" y="352.8"/>
      </g>
     </g>
     <g id="line2d_53">
      <g>
       <use style="stroke:#000000;stroke-width:0.5;" x="430.099918282" xlink:href="#m5284c7e2a0" y="7.2"/>
      </g>
     </g>
    </g>
    <g id="text_10">
     <!-- log10 of Df -->
     <defs>
      <path id="BitstreamVeraSans-Roman-20"/>
      <path d="
M30.6094 48.3906
Q23.3906 48.3906 19.1875 42.75
Q14.9844 37.1094 14.9844 27.2969
Q14.9844 17.4844 19.1562 11.8438
Q23.3438 6.20312 30.6094 6.20312
Q37.7969 6.20312 41.9844 11.8594
Q46.1875 17.5312 46.1875 27.2969
Q46.1875 37.0156 41.9844 42.7031
Q37.7969 48.3906 30.6094 48.3906
M30.6094 56
Q42.3281 56 49.0156 48.375
Q55.7188 40.7656 55.7188 27.2969
Q55.7188 13.875 49.0156 6.21875
Q42.3281 -1.42188 30.6094 -1.42188
Q18.8438 -1.42188 12.1719 6.21875
Q5.51562 13.875 5.51562 27.2969
Q5.51562 40.7656 12.1719 48.375
Q18.8438 56 30.6094 56" id="BitstreamVeraSans-Roman-6f"/>
      <path d="
M9.42188 75.9844
L18.4062 75.9844
L18.4062 0
L9.42188 0
z
" id="BitstreamVeraSans-Roman-6c"/>
      <path d="
M19.6719 64.7969
L19.6719 8.10938
L31.5938 8.10938
Q46.6875 8.10938 53.6875 14.9375
Q60.6875 21.7812 60.6875 36.5312
Q60.6875 51.1719 53.6875 57.9844
Q46.6875 64.7969 31.5938 64.7969
z

M9.8125 72.9062
L30.0781 72.9062
Q51.2656 72.9062 61.1719 64.0938
Q71.0938 55.2812 71.0938 36.5312
Q71.0938 17.6719 61.125 8.82812
Q51.1719 0 30.0781 0
L9.8125 0
z
" id="BitstreamVeraSans-Roman-44"/>
      <path d="
M45.4062 27.9844
Q45.4062 37.75 41.375 43.1094
Q37.3594 48.4844 30.0781 48.4844
Q22.8594 48.4844 18.8281 43.1094
Q14.7969 37.75 14.7969 27.9844
Q14.7969 18.2656 18.8281 12.8906
Q22.8594 7.51562 30.0781 7.51562
Q37.3594 7.51562 41.375 12.8906
Q45.4062 18.2656 45.4062 27.9844
M54.3906 6.78125
Q54.3906 -7.17188 48.1875 -13.9844
Q42 -20.7969 29.2031 -20.7969
Q24.4688 -20.7969 20.2656 -20.0938
Q16.0625 -19.3906 12.1094 -17.9219
L12.1094 -9.1875
Q16.0625 -11.3281 19.9219 -12.3438
Q23.7812 -13.375 27.7812 -13.375
Q36.625 -13.375 41.0156 -8.76562
Q45.4062 -4.15625 45.4062 5.17188
L45.4062 9.625
Q42.625 4.78125 38.2812 2.39062
Q33.9375 0 27.875 0
Q17.8281 0 11.6719 7.65625
Q5.51562 15.3281 5.51562 27.9844
Q5.51562 40.6719 11.6719 48.3281
Q17.8281 56 27.875 56
Q33.9375 56 38.2812 53.6094
Q42.625 51.2188 45.4062 46.3906
L45.4062 54.6875
L54.3906 54.6875
z
" id="BitstreamVeraSans-Roman-67"/>
      <path d="
M37.1094 75.9844
L37.1094 68.5
L28.5156 68.5
Q23.6875 68.5 21.7969 66.5469
Q19.9219 64.5938 19.9219 59.5156
L19.9219 54.6875
L34.7188 54.6875
L34.7188 47.7031
L19.9219 47.7031
L19.9219 0
L10.8906 0
L10.8906 47.7031
L2.29688 47.7031
L2.29688 54.6875
L10.8906 54.6875
L10.8906 58.5
Q10.8906 67.625 15.1406 71.7969
Q19.3906 75.9844 28.6094 75.9844
z
" id="BitstreamVeraSans-Roman-66"/>
     </defs>
     <g transform="translate(175.0234375 396.353125)scale(0.2 -0.2)">
      <use xlink:href="#BitstreamVeraSans-Roman-6c"/>
      <use x="27.783203125" xlink:href="#BitstreamVeraSans-Roman-6f"/>
      <use x="88.96484375" xlink:href="#BitstreamVeraSans-Roman-67"/>
      <use x="152.44140625" xlink:href="#BitstreamVeraSans-Roman-31"/>
      <use x="216.064453125" xlink:href="#BitstreamVeraSans-Roman-30"/>
      <use x="279.6875" xlink:href="#BitstreamVeraSans-Roman-20"/>
      <use x="311.474609375" xlink:href="#BitstreamVeraSans-Roman-6f"/>
      <use x="372.65625" xlink:href="#BitstreamVeraSans-Roman-66"/>
      <use x="407.861328125" xlink:href="#BitstreamVeraSans-Roman-20"/>
      <use x="439.6484375" xlink:href="#BitstreamVeraSans-Roman-44"/>
      <use x="516.650390625" xlink:href="#BitstreamVeraSans-Roman-66"/>
     </g>
    </g>
   </g>
   <g id="matplotlib.axis_2">
    <g id="ytick_1">
     <g id="line2d_54">
      <path clip-path="url(#p99b4b0da67)" d="
M7.2 352.8
L453.6 352.8" style="fill:none;stroke:#000000;stroke-dasharray:1.000000,3.000000;stroke-dashoffset:0.0;stroke-width:0.5;"/>
     </g>
     <g id="line2d_55">
      <defs>
       <path d="
M0 0
L4 0" id="m728421d6d4" style="stroke:#000000;stroke-width:0.5;"/>
      </defs>
      <g>
       <use style="stroke:#000000;stroke-width:0.5;" x="7.2" xlink:href="#m728421d6d4" y="352.8"/>
      </g>
     </g>
     <g id="line2d_56">
      <defs>
       <path d="
M0 0
L-4 0" id="mcb0005524f" style="stroke:#000000;stroke-width:0.5;"/>
      </defs>
      <g>
       <use style="stroke:#000000;stroke-width:0.5;" x="453.6" xlink:href="#mcb0005524f" y="352.8"/>
      </g>
     </g>
    </g>
    <g id="ytick_2">
     <g id="line2d_57">
      <path clip-path="url(#p99b4b0da67)" d="
M7.2 284.364
L453.6 284.364" style="fill:none;stroke:#000000;stroke-dasharray:1.000000,3.000000;stroke-dashoffset:0.0;stroke-width:0.5;"/>
     </g>
     <g id="line2d_58">
      <g>
       <use style="stroke:#000000;stroke-width:0.5;" x="7.2" xlink:href="#m728421d6d4" y="284.364356436"/>
      </g>
     </g>
     <g id="line2d_59">
      <g>
       <use style="stroke:#000000;stroke-width:0.5;" x="453.6" xlink:href="#mcb0005524f" y="284.364356436"/>
      </g>
     </g>
    </g>
    <g id="ytick_3">
     <g id="line2d_60">
      <path clip-path="url(#p99b4b0da67)" d="
M7.2 215.929
L453.6 215.929" style="fill:none;stroke:#000000;stroke-dasharray:1.000000,3.000000;stroke-dashoffset:0.0;stroke-width:0.5;"/>
     </g>
     <g id="line2d_61">
      <g>
       <use style="stroke:#000000;stroke-width:0.5;" x="7.2" xlink:href="#m728421d6d4" y="215.928712871"/>
      </g>
     </g>
     <g id="line2d_62">
      <g>
       <use style="stroke:#000000;stroke-width:0.5;" x="453.6" xlink:href="#mcb0005524f" y="215.928712871"/>
      </g>
     </g>
    </g>
    <g id="ytick_4">
     <g id="line2d_63">
      <path clip-path="url(#p99b4b0da67)" d="
M7.2 147.493
L453.6 147.493" style="fill:none;stroke:#000000;stroke-dasharray:1.000000,3.000000;stroke-dashoffset:0.0;stroke-width:0.5;"/>
     </g>
     <g id="line2d_64">
      <g>
       <use style="stroke:#000000;stroke-width:0.5;" x="7.2" xlink:href="#m728421d6d4" y="147.493069307"/>
      </g>
     </g>
     <g id="line2d_65">
      <g>
       <use style="stroke:#000000;stroke-width:0.5;" x="453.6" xlink:href="#mcb0005524f" y="147.493069307"/>
      </g>
     </g>
    </g>
    <g id="ytick_5">
     <g id="line2d_66">
      <path clip-path="url(#p99b4b0da67)" d="
M7.2 79.0574
L453.6 79.0574" style="fill:none;stroke:#000000;stroke-dasharray:1.000000,3.000000;stroke-dashoffset:0.0;stroke-width:0.5;"/>
     </g>
     <g id="line2d_67">
      <g>
       <use style="stroke:#000000;stroke-width:0.5;" x="7.2" xlink:href="#m728421d6d4" y="79.0574257426"/>
      </g>
     </g>
     <g id="line2d_68">
      <g>
       <use style="stroke:#000000;stroke-width:0.5;" x="453.6" xlink:href="#mcb0005524f" y="79.0574257426"/>
      </g>
     </g>
    </g>
    <g id="ytick_6">
     <g id="line2d_69">
      <path clip-path="url(#p99b4b0da67)" d="
M7.2 10.6218
L453.6 10.6218" style="fill:none;stroke:#000000;stroke-dasharray:1.000000,3.000000;stroke-dashoffset:0.0;stroke-width:0.5;"/>
     </g>
     <g id="line2d_70">
      <g>
       <use style="stroke:#000000;stroke-width:0.5;" x="7.2" xlink:href="#m728421d6d4" y="10.6217821782"/>
      </g>
     </g>
     <g id="line2d_71">
      <g>
       <use style="stroke:#000000;stroke-width:0.5;" x="453.6" xlink:href="#mcb0005524f" y="10.6217821782"/>
      </g>
     </g>
    </g>
   </g>
   <g id="text_11">
    <!-- {f20-f24}, 5-D -->
    <defs>
     <path d="
M12.5 -9.28125
L15.9219 -9.28125
Q22.75 -9.28125 24.8281 -7.17188
Q26.9062 -5.07812 26.9062 1.90625
L26.9062 14.0156
Q26.9062 21.625 29.0938 25.0938
Q31.2969 28.5625 36.7188 29.8906
Q31.2969 31.1094 29.0938 34.5625
Q26.9062 38.0312 26.9062 45.7031
L26.9062 57.8125
Q26.9062 64.75 24.8281 66.875
Q22.75 69 15.9219 69
L12.5 69
L12.5 75.9844
L15.5781 75.9844
Q27.7344 75.9844 31.8125 72.3906
Q35.8906 68.7969 35.8906 58.0156
L35.8906 46.2969
Q35.8906 39.0156 38.5156 36.2031
Q41.1562 33.4062 48.0938 33.4062
L51.125 33.4062
L51.125 26.4219
L48.0938 26.4219
Q41.1562 26.4219 38.5156 23.5781
Q35.8906 20.75 35.8906 13.375
L35.8906 1.70312
Q35.8906 -9.07812 31.8125 -12.6875
Q27.7344 -16.3125 15.5781 -16.3125
L12.5 -16.3125
z
" id="BitstreamVeraSans-Roman-7d"/>
     <path d="
M51.125 -9.28125
L51.125 -16.3125
L48.0938 -16.3125
Q35.9375 -16.3125 31.8125 -12.6875
Q27.6875 -9.07812 27.6875 1.70312
L27.6875 13.375
Q27.6875 20.75 25.0469 23.5781
Q22.4062 26.4219 15.4844 26.4219
L12.5 26.4219
L12.5 33.4062
L15.4844 33.4062
Q22.4688 33.4062 25.0781 36.2031
Q27.6875 39.0156 27.6875 46.2969
L27.6875 58.0156
Q27.6875 68.7969 31.8125 72.3906
Q35.9375 75.9844 48.0938 75.9844
L51.125 75.9844
L51.125 69
L47.7969 69
Q40.9219 69 38.8125 66.8438
Q36.7188 64.7031 36.7188 57.8125
L36.7188 45.7031
Q36.7188 38.0312 34.5 34.5625
Q32.2812 31.1094 26.9062 29.8906
Q32.3281 28.5625 34.5156 25.0938
Q36.7188 21.625 36.7188 14.0156
L36.7188 1.90625
Q36.7188 -4.98438 38.8125 -7.125
Q40.9219 -9.28125 47.7969 -9.28125
z
" id="BitstreamVeraSans-Roman-7b"/>
     <path d="
M11.7188 12.4062
L22.0156 12.4062
L22.0156 4
L14.0156 -11.625
L7.71875 -11.625
L11.7188 4
z
" id="BitstreamVeraSans-Roman-2c"/>
     <path d="
M10.7969 72.9062
L49.5156 72.9062
L49.5156 64.5938
L19.8281 64.5938
L19.8281 46.7344
Q21.9688 47.4688 24.1094 47.8281
Q26.2656 48.1875 28.4219 48.1875
Q40.625 48.1875 47.75 41.5
Q54.8906 34.8125 54.8906 23.3906
Q54.8906 11.625 47.5625 5.09375
Q40.2344 -1.42188 26.9062 -1.42188
Q22.3125 -1.42188 17.5469 -0.640625
Q12.7969 0.140625 7.71875 1.70312
L7.71875 11.625
Q12.1094 9.23438 16.7969 8.0625
Q21.4844 6.89062 26.7031 6.89062
Q35.1562 6.89062 40.0781 11.3281
Q45.0156 15.7656 45.0156 23.3906
Q45.0156 31 40.0781 35.4375
Q35.1562 39.8906 26.7031 39.8906
Q22.75 39.8906 18.8125 39.0156
Q14.8906 38.1406 10.7969 36.2812
z
" id="BitstreamVeraSans-Roman-35"/>
    </defs>
    <g transform="translate(300.15325 345.888)scale(0.2 -0.2)">
     <use xlink:href="#BitstreamVeraSans-Roman-7b"/>
     <use x="63.623046875" xlink:href="#BitstreamVeraSans-Roman-66"/>
     <use x="98.828125" xlink:href="#BitstreamVeraSans-Roman-32"/>
     <use x="162.451171875" xlink:href="#BitstreamVeraSans-Roman-30"/>
     <use x="226.07421875" xlink:href="#BitstreamVeraSans-Roman-2d"/>
     <use x="262.158203125" xlink:href="#BitstreamVeraSans-Roman-66"/>
     <use x="297.36328125" xlink:href="#BitstreamVeraSans-Roman-32"/>
     <use x="360.986328125" xlink:href="#BitstreamVeraSans-Roman-34"/>
     <use x="424.609375" xlink:href="#BitstreamVeraSans-Roman-7d"/>
     <use x="488.232421875" xlink:href="#BitstreamVeraSans-Roman-2c"/>
     <use x="520.01953125" xlink:href="#BitstreamVeraSans-Roman-20"/>
     <use x="551.806640625" xlink:href="#BitstreamVeraSans-Roman-35"/>
     <use x="615.4296875" xlink:href="#BitstreamVeraSans-Roman-2d"/>
     <use x="651.513671875" xlink:href="#BitstreamVeraSans-Roman-44"/>
    </g>
   </g>
   <g id="text_12">
    <!-- v2.1.1.3 -->
    <defs>
     <path d="
M2.98438 54.6875
L12.5 54.6875
L29.5938 8.79688
L46.6875 54.6875
L56.2031 54.6875
L35.6875 0
L23.4844 0
z
" id="BitstreamVeraSans-Roman-76"/>
     <path d="
M40.5781 39.3125
Q47.6562 37.7969 51.625 33
Q55.6094 28.2188 55.6094 21.1875
Q55.6094 10.4062 48.1875 4.48438
Q40.7656 -1.42188 27.0938 -1.42188
Q22.5156 -1.42188 17.6562 -0.515625
Q12.7969 0.390625 7.625 2.20312
L7.625 11.7188
Q11.7188 9.32812 16.5938 8.10938
Q21.4844 6.89062 26.8125 6.89062
Q36.0781 6.89062 40.9375 10.5469
Q45.7969 14.2031 45.7969 21.1875
Q45.7969 27.6406 41.2812 31.2656
Q36.7656 34.9062 28.7188 34.9062
L20.2188 34.9062
L20.2188 43.0156
L29.1094 43.0156
Q36.375 43.0156 40.2344 45.9219
Q44.0938 48.8281 44.0938 54.2969
Q44.0938 59.9062 40.1094 62.9062
Q36.1406 65.9219 28.7188 65.9219
Q24.6562 65.9219 20.0156 65.0312
Q15.375 64.1562 9.8125 62.3125
L9.8125 71.0938
Q15.4375 72.6562 20.3438 73.4375
Q25.25 74.2188 29.5938 74.2188
Q40.8281 74.2188 47.3594 69.1094
Q53.9062 64.0156 53.9062 55.3281
Q53.9062 49.2656 50.4375 45.0938
Q46.9688 40.9219 40.5781 39.3125" id="BitstreamVeraSans-Roman-33"/>
     <path d="
M10.6875 12.4062
L21 12.4062
L21 0
L10.6875 0
z
" id="BitstreamVeraSans-Roman-2e"/>
    </defs>
    <g style="fill:#808080;" transform="translate(210.4984375 347.2643125)scale(0.1 -0.1)">
     <use xlink:href="#BitstreamVeraSans-Roman-76"/>
     <use x="59.1796875" xlink:href="#BitstreamVeraSans-Roman-32"/>
     <use x="122.802734375" xlink:href="#BitstreamVeraSans-Roman-2e"/>
     <use x="154.58984375" xlink:href="#BitstreamVeraSans-Roman-31"/>
     <use x="218.212890625" xlink:href="#BitstreamVeraSans-Roman-2e"/>
     <use x="250.0" xlink:href="#BitstreamVeraSans-Roman-31"/>
     <use x="313.623046875" xlink:href="#BitstreamVeraSans-Roman-2e"/>
     <use x="345.41015625" xlink:href="#BitstreamVeraSans-Roman-33"/>
    </g>
   </g>
  </g>
 </g>
 <defs>
  <clipPath id="p99b4b0da67">
   <rect height="345.6" width="446.4" x="7.2" y="7.2"/>
  </clipPath>
 </defs>
</svg>
