<?xml version="1.0" encoding="utf-8" standalone="no"?>
<!DOCTYPE svg PUBLIC "-//W3C//DTD SVG 1.1//EN"
  "http://www.w3.org/Graphics/SVG/1.1/DTD/svg11.dtd">
<!-- Created with matplotlib (http://matplotlib.org/) -->
<svg height="407pt" version="1.1" viewBox="0 0 460 407" width="460pt" xmlns="http://www.w3.org/2000/svg" xmlns:xlink="http://www.w3.org/1999/xlink">
 <defs>
  <style type="text/css">
*{stroke-linecap:butt;stroke-linejoin:round;}
  </style>
 </defs>
 <g id="figure_1">
  <g id="patch_1">
   <path d="
M0 407.712
L460.8 407.712
L460.8 0
L0 0
z
" style="fill:#ffffff;"/>
  </g>
  <g id="axes_1">
   <g id="patch_2">
    <path d="
M7.2 352.8
L453.6 352.8
L453.6 7.2
L7.2 7.2
z
" style="fill:#ffffff;"/>
   </g>
   <g id="line2d_1">
    <path clip-path="url(#p99b4b0da67)" d="
M-1 288.927
L-0.0896505 288.927
L-0.0896505 284.364
L0.231878 284.364
L0.231878 279.802
L1.78929 279.802
L1.78929 275.24
L7.09845 275.24
L7.09845 138.368
L195.048 138.368
L195.048 97.3069
L202.122 97.3069
L202.122 51.6832
L206.26 51.6832
L206.26 37.996
L208.105 37.996
L208.105 33.4337
L209.196 33.4337
L209.196 24.3089
L210.922 24.3089
L210.922 19.7465
L213.003 19.7465
L213.003 15.1842
L213.334 15.1842
L213.334 10.6218
L213.334 10.6218
L453.6 10.6218
L453.6 10.6218" style="fill:none;stroke:#ff0000;stroke-linecap:square;stroke-width:3.0;"/>
   </g>
   <g id="line2d_2">
    <path clip-path="url(#p99b4b0da67)" d="
M230.349 352.8
L230.349 348.238
L234.683 348.238
L234.683 343.675
L234.903 343.675
L234.903 329.988
L235.505 329.988
L235.505 325.426
L236.224 325.426
L236.224 311.739
L239.029 311.739
L239.029 302.614
L240.778 302.614
L240.778 293.489
L242.586 293.489
L242.659 284.364
L242.974 284.364
L242.974 279.802
L244.023 279.802
L244.023 275.24
L244.247 275.24
L244.247 270.677
L246.254 270.677
L246.254 266.115
L246.927 266.115
L246.927 261.552
L247.442 261.552
L247.442 256.99
L247.753 256.99
L247.797 247.865
L248.1 247.865
L248.1 243.303
L248.534 243.303
L248.58 229.616
L248.796 229.616
L248.796 225.053
L249.936 225.053
L249.936 220.491
L250.501 220.491
L250.501 215.929
L256.737 215.929
L256.737 211.366
L257.149 211.366
L257.149 206.804
L259.292 206.804
L259.292 202.242
L259.945 202.242
L259.945 197.679
L260.062 197.679
L260.062 193.117
L260.349 193.117
L260.349 188.554
L260.86 188.554
L260.86 183.992
L261.861 183.992
L261.861 179.43
L262.249 179.43
L262.249 174.867
L263.101 174.867
L263.165 165.743
L263.938 165.743
L264.043 156.618
L264.368 156.618
L264.46 138.368
L264.542 138.368
L264.567 129.244
L264.73 129.244
L264.73 124.681
L264.984 124.681
L264.984 120.119
L265.162 120.119
L265.213 110.994
L265.755 110.994
L265.755 106.432
L266.869 106.432
L266.869 101.869
L267.664 101.869
L267.664 97.3069
L267.949 97.3069
L268.047 88.1822
L268.385 88.1822
L268.385 83.6198
L268.843 83.6198
L268.843 79.0574
L348.422 79.0574
L348.422 74.495
L350.598 74.495
L350.598 69.9327
L360.49 69.9327
L360.49 65.3703
L362.084 65.3703
L362.084 60.8079
L368.046 60.8079
L368.046 56.2455
L368.274 56.2455
L368.274 51.6832
L368.623 51.6832
L368.623 47.1208
L369.049 47.1208
L369.049 42.5584
L369.463 42.5584
L369.463 37.996
L370.026 37.996
L370.026 33.4337
L371.406 33.4337
L371.406 28.8713
L373.553 28.8713
L373.553 24.3089
L374.348 24.3089
L374.348 19.7465
L375.893 19.7465
L375.893 15.1842
L379.249 15.1842
L379.249 10.6218
L379.249 10.6218
L453.6 10.6218
L453.6 10.6218" style="fill:none;stroke:#00bfbf;stroke-linecap:square;"/>
   </g>
   <g id="line2d_3">
    <path clip-path="url(#p99b4b0da67)" d="
M7.09845 352.8
L7.09845 348.238
L7.09845 348.238
L7.09845 348.238
L7.09845 343.675
L7.09845 343.675
L7.09845 343.675
L7.09845 339.113
L218.599 339.113
L218.599 334.55
L224.474 334.55
L224.474 320.863
L229.028 320.863
L229.028 311.739
L230.349 311.739
L230.349 307.176
L233.154 307.176
L233.154 302.614
L233.397 302.614
L233.397 298.051
L234.681 298.051
L234.683 288.927
L236.784 288.927
L236.784 284.364
L239.227 284.364
L239.227 279.802
L239.851 279.802
L239.851 275.24
L240.322 275.24
L240.322 270.677
L240.778 270.677
L240.778 266.115
L240.997 266.115
L240.997 261.552
L241.878 261.552
L241.878 256.99
L242.345 256.99
L242.345 252.428
L242.489 252.428
L242.489 247.865
L242.838 247.865
L242.838 243.303
L244.193 243.303
L244.247 234.178
L244.846 234.178
L244.846 229.616
L247.365 229.616
L247.365 225.053
L247.908 225.053
L247.908 220.491
L248.474 220.491
L248.474 215.929
L249.191 215.929
L249.191 211.366
L249.502 211.366
L249.502 206.804
L250.592 206.804
L250.592 202.242
L251.28 202.242
L251.28 197.679
L253.723 197.679
L253.723 193.117
L256.713 193.117
L256.812 183.992
L257.092 183.992
L257.092 179.43
L258.053 179.43
L258.053 174.867
L258.285 174.867
L258.285 170.305
L260.393 170.305
L260.393 165.743
L260.735 165.743
L260.735 161.18
L261.258 161.18
L261.258 156.618
L261.449 156.618
L261.507 142.931
L261.716 142.931
L261.716 138.368
L261.998 138.368
L262.085 129.244
L262.261 129.244
L262.261 124.681
L262.552 124.681
L262.641 115.556
L263.071 115.556
L263.071 110.994
L264.247 110.994
L264.339 101.869
L264.368 101.869
L264.368 97.3069
L264.888 97.3069
L264.888 92.7446
L265.006 92.7446
L265.006 88.1822
L266.227 88.1822
L266.227 83.6198
L267.997 83.6198
L267.997 79.0574
L344.574 79.0574
L344.574 74.495
L348.349 74.495
L348.349 69.9327
L350.546 69.9327
L350.546 65.3703
L356.53 65.3703
L356.53 60.8079
L358.25 60.8079
L358.25 56.2455
L360.224 56.2455
L360.224 51.6832
L360.925 51.6832
L360.925 47.1208
L362.083 47.1208
L362.083 42.5584
L365.485 42.5584
L365.485 37.996
L367.705 37.996
L367.786 28.8713
L368.046 28.8713
L368.046 24.3089
L368.274 24.3089
L368.35 15.1842
L368.613 15.1842
L368.613 10.6218
L368.613 10.6218
L453.6 10.6218
L453.6 10.6218" style="fill:none;stroke:#bf00bf;stroke-linecap:square;"/>
   </g>
   <g id="line2d_4">
    <path clip-path="url(#p99b4b0da67)" d="
M7.09845 352.8
L7.09845 348.238
L7.09845 348.238
L7.09845 348.238
L7.09845 343.675
L7.09845 343.675
L7.09845 343.675
L7.09845 339.113
L7.09845 339.113
L7.09845 339.113
L7.09845 334.55
L7.09845 334.55
L7.09845 334.55
L7.09845 329.988
L7.09845 329.988
L7.09845 329.988
L7.09845 325.426
L7.09845 325.426
L7.09845 325.426
L7.09845 320.863
L7.09845 320.863
L7.09845 320.863
L7.09845 316.301
L7.09845 316.301
L7.09845 316.301
L7.09845 311.739
L7.09845 311.739
L7.09845 311.739
L7.09845 307.176
L7.09845 307.176
L7.09845 307.176
L7.09845 302.614
L7.09845 302.614
L7.09845 302.614
L7.09845 298.051
L7.09845 298.051
L7.09845 298.051
L7.09845 293.489
L7.09845 293.489
L7.09845 293.489
L7.09845 288.927
L7.09845 288.927
L7.09845 288.927
L7.09845 284.364
L213.458 284.364
L213.458 279.802
L215.901 279.802
L215.901 275.24
L218.272 275.24
L218.272 270.677
L218.417 270.677
L218.417 266.115
L219.498 266.115
L219.498 261.552
L221.976 261.552
L221.976 256.99
L222.736 256.99
L222.736 252.428
L224.884 252.428
L224.921 243.303
L225.006 243.303
L225.006 238.741
L225.385 238.741
L225.385 234.178
L226.375 234.178
L226.375 229.616
L228.13 229.616
L228.13 225.053
L230.462 225.053
L230.462 220.491
L231.546 220.491
L231.546 215.929
L234.378 215.929
L234.378 211.366
L239.486 211.366
L239.486 206.804
L240.481 206.804
L240.481 202.242
L241.521 202.242
L241.521 197.679
L243.318 197.679
L243.318 193.117
L244 193.117
L244 188.554
L244.954 188.554
L244.954 183.992
L245.629 183.992
L245.629 179.43
L245.954 179.43
L245.954 174.867
L246.209 174.867
L246.209 170.305
L246.427 170.305
L246.427 165.743
L247.906 165.743
L247.972 156.618
L248.033 156.618
L248.037 147.493
L248.32 147.493
L248.32 142.931
L248.785 142.931
L248.785 138.368
L249.836 138.368
L249.836 133.806
L249.981 133.806
L249.981 129.244
L250.54 129.244
L250.54 124.681
L251.943 124.681
L251.943 120.119
L252.564 120.119
L252.564 115.556
L255.445 115.556
L255.445 110.994
L255.661 110.994
L255.661 106.432
L257.681 106.432
L257.74 97.3069
L258.935 97.3069
L258.935 92.7446
L259.27 92.7446
L259.27 88.1822
L260.822 88.1822
L260.822 83.6198
L262.36 83.6198
L262.36 79.0574
L305.7 79.0574
L305.741 69.9327
L311.418 69.9327
L311.441 60.8079
L314.445 60.8079
L314.445 56.2455
L317.391 56.2455
L317.391 51.6832
L319.125 51.6832
L319.125 47.1208
L323.162 47.1208
L323.162 42.5584
L323.784 42.5584
L323.784 37.996
L326.806 37.996
L326.806 33.4337
L330.046 33.4337
L330.046 28.8713
L330.997 28.8713
L330.997 24.3089
L331.35 24.3089
L331.35 19.7465
L334.963 19.7465
L334.963 15.1842
L337.772 15.1842
L337.772 10.6218
L337.772 10.6218
L453.6 10.6218
L453.6 10.6218" style="fill:none;stroke:#000000;stroke-linecap:square;"/>
   </g>
   <g id="line2d_5">
    <path clip-path="url(#p99b4b0da67)" d="
M7.09845 352.8
L7.09845 348.238
L7.09845 348.238
L7.09845 348.238
L7.09845 343.675
L7.09845 343.675
L7.09845 343.675
L7.09845 339.113
L7.09845 339.113
L7.09845 339.113
L7.09845 334.55
L7.09845 334.55
L7.09845 334.55
L7.09845 329.988
L7.09845 329.988
L7.09845 329.988
L7.09845 325.426
L7.09845 325.426
L7.09845 325.426
L7.09845 320.863
L7.09845 320.863
L7.09845 320.863
L7.09845 316.301
L7.09845 316.301
L7.09845 316.301
L7.09845 311.739
L7.09845 311.739
L7.09845 311.739
L7.09845 307.176
L7.09845 307.176
L7.09845 307.176
L7.09845 302.614
L7.09845 302.614
L7.09845 302.614
L7.09845 298.051
L7.09845 298.051
L7.09845 298.051
L7.09845 293.489
L7.09845 293.489
L7.09845 293.489
L7.09845 288.927
L7.09845 288.927
L7.09845 288.927
L7.09845 284.364
L209.85 284.364
L209.85 279.802
L211.406 279.802
L211.406 275.24
L212.383 275.24
L212.383 270.677
L213.458 270.677
L213.458 266.115
L215.444 266.115
L215.444 261.552
L215.599 261.552
L215.599 256.99
L215.885 256.99
L215.885 252.428
L218.417 252.428
L218.417 247.865
L220.687 247.865
L220.687 243.303
L222.323 243.303
L222.323 238.741
L222.736 238.741
L222.736 234.178
L223.381 234.178
L223.381 229.616
L225.006 229.616
L225.006 225.053
L225.653 225.053
L225.653 220.491
L228.226 220.491
L228.226 215.929
L234.265 215.929
L234.265 211.366
L234.378 211.366
L234.378 206.804
L234.571 206.804
L234.571 202.242
L235.033 202.242
L235.033 197.679
L235.799 197.679
L235.799 193.117
L237.151 193.117
L237.151 188.554
L239.451 188.554
L239.486 179.43
L239.708 179.43
L239.708 174.867
L240.425 174.867
L240.516 161.18
L240.729 161.18
L240.729 156.618
L240.941 156.618
L240.941 152.055
L241.143 152.055
L241.143 147.493
L241.657 147.493
L241.657 142.931
L241.952 142.931
L241.952 138.368
L242.853 138.368
L242.853 133.806
L243.286 133.806
L243.286 129.244
L243.422 129.244
L243.422 124.681
L245.112 124.681
L245.112 120.119
L245.641 120.119
L245.641 115.556
L247.018 115.556
L247.018 110.994
L247.722 110.994
L247.722 106.432
L248.993 106.432
L248.993 101.869
L249.493 101.869
L249.493 97.3069
L254.467 97.3069
L254.467 92.7446
L255.644 92.7446
L255.644 88.1822
L257.739 88.1822
L257.739 83.6198
L258.528 83.6198
L258.528 79.0574
L295.48 79.0574
L295.48 74.495
L296.051 74.495
L296.051 69.9327
L304.833 69.9327
L304.833 65.3703
L305.345 65.3703
L305.345 60.8079
L305.7 60.8079
L305.741 51.6832
L311.418 51.6832
L311.418 47.1208
L313.455 47.1208
L313.455 42.5584
L317.391 42.5584
L317.391 37.996
L317.58 37.996
L317.58 33.4337
L319.533 33.4337
L319.533 28.8713
L323.784 28.8713
L323.784 24.3089
L324.565 24.3089
L324.565 19.7465
L330.721 19.7465
L330.721 15.1842
L330.989 15.1842
L330.989 10.6218
L330.989 10.6218
L453.6 10.6218
L453.6 10.6218" style="fill:none;stroke:#00bfbf;stroke-linecap:square;"/>
   </g>
   <g id="line2d_6">
    <path clip-path="url(#p99b4b0da67)" d="
M7.09845 352.8
L7.09845 348.238
L7.09845 348.238
L7.09845 348.238
L7.09845 343.675
L7.09845 343.675
L7.09845 343.675
L7.09845 339.113
L7.09845 339.113
L7.09845 339.113
L7.09845 334.55
L7.09845 334.55
L7.09845 334.55
L7.09845 329.988
L7.09845 329.988
L7.09845 329.988
L7.09845 325.426
L7.09845 325.426
L7.09845 325.426
L7.09845 320.863
L7.09845 320.863
L7.09845 320.863
L7.09845 316.301
L7.09845 316.301
L7.09845 316.301
L7.09845 311.739
L7.09845 311.739
L7.09845 311.739
L7.09845 307.176
L7.09845 307.176
L7.09845 307.176
L7.09845 302.614
L7.09845 302.614
L7.09845 302.614
L7.09845 298.051
L7.09845 298.051
L7.09845 298.051
L7.09845 293.489
L7.09845 293.489
L7.09845 293.489
L7.09845 288.927
L7.09845 288.927
L7.09845 288.927
L7.09845 284.364
L7.09845 284.364
L7.09845 284.364
L7.09845 279.802
L7.09845 279.802
L7.09845 279.802
L7.09845 275.24
L7.09845 275.24
L7.09845 275.24
L7.09845 270.677
L7.09845 270.677
L7.09845 270.677
L7.09845 266.115
L7.09845 266.115
L7.09845 266.115
L7.09845 261.552
L7.09845 261.552
L7.09845 261.552
L7.09845 256.99
L7.09845 256.99
L7.09845 256.99
L7.09845 252.428
L7.09845 252.428
L7.09845 252.428
L7.09845 247.865
L7.09845 247.865
L7.09845 247.865
L7.09845 243.303
L7.09845 243.303
L7.09845 243.303
L7.09845 238.741
L7.09845 238.741
L7.09845 238.741
L7.09845 234.178
L7.09845 234.178
L7.09845 234.178
L7.09845 229.616
L7.09845 229.616
L7.09845 229.616
L7.09845 225.053
L7.09845 225.053
L7.09845 225.053
L7.09845 220.491
L7.09845 220.491
L7.09845 220.491
L7.09845 215.929
L217.59 215.929
L217.59 211.366
L220.516 211.366
L220.516 206.804
L222.048 206.804
L222.083 197.679
L223.876 197.679
L223.876 193.117
L224.311 193.117
L224.311 188.554
L224.657 188.554
L224.657 183.992
L225.14 183.992
L225.14 179.43
L225.489 179.43
L225.489 174.867
L225.932 174.867
L225.932 170.305
L227.282 170.305
L227.282 165.743
L227.904 165.743
L227.919 156.618
L228.457 156.618
L228.568 147.493
L228.896 147.493
L228.896 142.931
L229.033 142.931
L229.05 133.806
L230.004 133.806
L230.055 124.681
L230.402 124.681
L230.402 120.119
L230.673 120.119
L230.673 115.556
L230.849 115.556
L230.849 110.994
L231.352 110.994
L231.422 101.869
L232.431 101.869
L232.439 92.7446
L233.614 92.7446
L233.614 88.1822
L234.037 88.1822
L234.037 83.6198
L234.75 83.6198
L234.75 79.0574
L249.832 79.0574
L249.832 74.495
L251.628 74.495
L251.628 69.9327
L257.62 69.9327
L257.62 65.3703
L258.315 65.3703
L258.315 60.8079
L260.062 60.8079
L260.062 56.2455
L260.768 56.2455
L260.768 51.6832
L262.8 51.6832
L262.821 42.5584
L263.972 42.5584
L263.972 37.996
L264.242 37.996
L264.242 33.4337
L265.762 33.4337
L265.762 28.8713
L268.431 28.8713
L268.431 24.3089
L268.705 24.3089
L268.705 19.7465
L275.749 19.7465
L275.749 15.1842
L277.023 15.1842
L277.023 10.6218
L277.023 10.6218
L453.6 10.6218
L453.6 10.6218" style="fill:none;stroke:#bf00bf;stroke-linecap:square;"/>
   </g>
   <g id="line2d_7">
    <path clip-path="url(#p99b4b0da67)" d="
M-1 298.051
L-0.0896505 298.051
L-0.0896505 293.489
L0.231878 293.489
L0.231878 288.927
L1.78929 288.927
L1.78929 284.364
L7.09845 284.364
L7.09845 147.493
L195.048 147.493
L195.048 129.244
L202.122 129.244
L202.122 97.3069
L206.26 97.3069
L206.26 79.0574
L209.196 79.0574
L209.196 56.2455
L211.473 56.2455
L211.473 47.1208
L213.334 47.1208
L213.334 33.4337
L214.907 33.4337
L214.907 19.7465
L216.27 19.7465
L216.27 15.1842
L221.901 15.1842
L221.901 10.6218
L221.901 10.6218
L453.6 10.6218
L453.6 10.6218" style="fill:none;stroke:#000000;stroke-linecap:square;"/>
   </g>
   <g id="line2d_8">
    <path clip-path="url(#p99b4b0da67)" d="
M-1 288.927
L-0.0896505 288.927
L-0.0896505 284.364
L0.231878 284.364
L0.231878 279.802
L1.78929 279.802
L1.78929 275.24
L7.09845 275.24
L7.09845 138.368
L195.048 138.368
L195.048 97.3069
L202.122 97.3069
L202.122 51.6832
L206.26 51.6832
L206.26 37.996
L208.105 37.996
L208.105 33.4337
L209.196 33.4337
L209.196 24.3089
L210.922 24.3089
L210.922 19.7465
L213.003 19.7465
L213.003 15.1842
L213.334 15.1842
L213.334 10.6218
L213.334 10.6218
L453.6 10.6218
L453.6 10.6218" style="fill:none;stroke:#00bfbf;stroke-linecap:square;"/>
   </g>
   <g id="patch_3">
    <path d="
M7.2 7.2
L453.6 7.2" style="fill:none;stroke:#000000;stroke-linecap:square;stroke-linejoin:miter;"/>
   </g>
   <g id="patch_4">
    <path d="
M453.6 352.8
L453.6 7.2" style="fill:none;stroke:#000000;stroke-linecap:square;stroke-linejoin:miter;"/>
   </g>
   <g id="patch_5">
    <path d="
M7.2 352.8
L453.6 352.8" style="fill:none;stroke:#000000;stroke-linecap:square;stroke-linejoin:miter;"/>
   </g>
   <g id="patch_6">
    <path d="
M7.2 352.8
L7.2 7.2" style="fill:none;stroke:#000000;stroke-linecap:square;stroke-linejoin:miter;"/>
   </g>
   <g id="matplotlib.axis_1">
    <g id="xtick_1"/>
    <g id="xtick_2">
     <g id="line2d_9">
      <path clip-path="url(#p99b4b0da67)" d="
M54.0986 352.8
L54.0986 7.2" style="fill:none;stroke:#000000;stroke-dasharray:1.000000,3.000000;stroke-dashoffset:0.0;stroke-width:0.5;"/>
     </g>
     <g id="line2d_10">
      <defs>
       <path d="
M0 0
L0 -4" id="m93b0483c22" style="stroke:#000000;stroke-width:0.5;"/>
      </defs>
      <g>
       <use style="stroke:#000000;stroke-width:0.5;" x="54.0986107985" xlink:href="#m93b0483c22" y="352.8"/>
      </g>
     </g>
     <g id="line2d_11">
      <defs>
       <path d="
M0 0
L0 4" id="m741efc42ff" style="stroke:#000000;stroke-width:0.5;"/>
      </defs>
      <g>
       <use style="stroke:#000000;stroke-width:0.5;" x="54.0986107985" xlink:href="#m741efc42ff" y="7.2"/>
      </g>
     </g>
     <g id="text_1">
      <!-- -6 -->
      <defs>
       <path d="
M33.0156 40.375
Q26.375 40.375 22.4844 35.8281
Q18.6094 31.2969 18.6094 23.3906
Q18.6094 15.5312 22.4844 10.9531
Q26.375 6.39062 33.0156 6.39062
Q39.6562 6.39062 43.5312 10.9531
Q47.4062 15.5312 47.4062 23.3906
Q47.4062 31.2969 43.5312 35.8281
Q39.6562 40.375 33.0156 40.375
M52.5938 71.2969
L52.5938 62.3125
Q48.875 64.0625 45.0938 64.9844
Q41.3125 65.9219 37.5938 65.9219
Q27.8281 65.9219 22.6719 59.3281
Q17.5312 52.7344 16.7969 39.4062
Q19.6719 43.6562 24.0156 45.9219
Q28.375 48.1875 33.5938 48.1875
Q44.5781 48.1875 50.9531 41.5156
Q57.3281 34.8594 57.3281 23.3906
Q57.3281 12.1562 50.6875 5.35938
Q44.0469 -1.42188 33.0156 -1.42188
Q20.3594 -1.42188 13.6719 8.26562
Q6.98438 17.9688 6.98438 36.375
Q6.98438 53.6562 15.1875 63.9375
Q23.3906 74.2188 37.2031 74.2188
Q40.9219 74.2188 44.7031 73.4844
Q48.4844 72.75 52.5938 71.2969" id="BitstreamVeraSans-Roman-36"/>
       <path d="
M4.89062 31.3906
L31.2031 31.3906
L31.2031 23.3906
L4.89062 23.3906
z
" id="BitstreamVeraSans-Roman-2d"/>
      </defs>
      <g transform="translate(45.2470482985 371.996875)scale(0.2 -0.2)">
       <use xlink:href="#BitstreamVeraSans-Roman-2d"/>
       <use x="36.083984375" xlink:href="#BitstreamVeraSans-Roman-36"/>
      </g>
     </g>
    </g>
    <g id="xtick_3">
     <g id="line2d_12">
      <path clip-path="url(#p99b4b0da67)" d="
M101.099 352.8
L101.099 7.2" style="fill:none;stroke:#000000;stroke-dasharray:1.000000,3.000000;stroke-dashoffset:0.0;stroke-width:0.5;"/>
     </g>
     <g id="line2d_13">
      <g>
       <use style="stroke:#000000;stroke-width:0.5;" x="101.098774234" xlink:href="#m93b0483c22" y="352.8"/>
      </g>
     </g>
     <g id="line2d_14">
      <g>
       <use style="stroke:#000000;stroke-width:0.5;" x="101.098774234" xlink:href="#m741efc42ff" y="7.2"/>
      </g>
     </g>
     <g id="text_2">
      <!-- -4 -->
      <defs>
       <path d="
M37.7969 64.3125
L12.8906 25.3906
L37.7969 25.3906
z

M35.2031 72.9062
L47.6094 72.9062
L47.6094 25.3906
L58.0156 25.3906
L58.0156 17.1875
L47.6094 17.1875
L47.6094 0
L37.7969 0
L37.7969 17.1875
L4.89062 17.1875
L4.89062 26.7031
z
" id="BitstreamVeraSans-Roman-34"/>
      </defs>
      <g transform="translate(92.1784617339 371.996875)scale(0.2 -0.2)">
       <use xlink:href="#BitstreamVeraSans-Roman-2d"/>
       <use x="36.083984375" xlink:href="#BitstreamVeraSans-Roman-34"/>
      </g>
     </g>
    </g>
    <g id="xtick_4">
     <g id="line2d_15">
      <path clip-path="url(#p99b4b0da67)" d="
M148.099 352.8
L148.099 7.2" style="fill:none;stroke:#000000;stroke-dasharray:1.000000,3.000000;stroke-dashoffset:0.0;stroke-width:0.5;"/>
     </g>
     <g id="line2d_16">
      <g>
       <use style="stroke:#000000;stroke-width:0.5;" x="148.098937669" xlink:href="#m93b0483c22" y="352.8"/>
      </g>
     </g>
     <g id="line2d_17">
      <g>
       <use style="stroke:#000000;stroke-width:0.5;" x="148.098937669" xlink:href="#m741efc42ff" y="7.2"/>
      </g>
     </g>
     <g id="text_3">
      <!-- -2 -->
      <defs>
       <path d="
M19.1875 8.29688
L53.6094 8.29688
L53.6094 0
L7.32812 0
L7.32812 8.29688
Q12.9375 14.1094 22.625 23.8906
Q32.3281 33.6875 34.8125 36.5312
Q39.5469 41.8438 41.4219 45.5312
Q43.3125 49.2188 43.3125 52.7812
Q43.3125 58.5938 39.2344 62.25
Q35.1562 65.9219 28.6094 65.9219
Q23.9688 65.9219 18.8125 64.3125
Q13.6719 62.7031 7.8125 59.4219
L7.8125 69.3906
Q13.7656 71.7812 18.9375 73
Q24.125 74.2188 28.4219 74.2188
Q39.75 74.2188 46.4844 68.5469
Q53.2188 62.8906 53.2188 53.4219
Q53.2188 48.9219 51.5312 44.8906
Q49.8594 40.875 45.4062 35.4062
Q44.1875 33.9844 37.6406 27.2188
Q31.1094 20.4531 19.1875 8.29688" id="BitstreamVeraSans-Roman-32"/>
      </defs>
      <g transform="translate(139.619250169 371.996875)scale(0.2 -0.2)">
       <use xlink:href="#BitstreamVeraSans-Roman-2d"/>
       <use x="36.083984375" xlink:href="#BitstreamVeraSans-Roman-32"/>
      </g>
     </g>
    </g>
    <g id="xtick_5">
     <g id="line2d_18">
      <path clip-path="url(#p99b4b0da67)" d="
M195.099 352.8
L195.099 7.2" style="fill:none;stroke:#000000;stroke-dasharray:1.000000,3.000000;stroke-dashoffset:0.0;stroke-width:0.5;"/>
     </g>
     <g id="line2d_19">
      <g>
       <use style="stroke:#000000;stroke-width:0.5;" x="195.099101105" xlink:href="#m93b0483c22" y="352.8"/>
      </g>
     </g>
     <g id="line2d_20">
      <g>
       <use style="stroke:#000000;stroke-width:0.5;" x="195.099101105" xlink:href="#m741efc42ff" y="7.2"/>
      </g>
     </g>
     <g id="text_4">
      <!-- 0 -->
      <defs>
       <path d="
M31.7812 66.4062
Q24.1719 66.4062 20.3281 58.9062
Q16.5 51.4219 16.5 36.375
Q16.5 21.3906 20.3281 13.8906
Q24.1719 6.39062 31.7812 6.39062
Q39.4531 6.39062 43.2812 13.8906
Q47.125 21.3906 47.125 36.375
Q47.125 51.4219 43.2812 58.9062
Q39.4531 66.4062 31.7812 66.4062
M31.7812 74.2188
Q44.0469 74.2188 50.5156 64.5156
Q56.9844 54.8281 56.9844 36.375
Q56.9844 17.9688 50.5156 8.26562
Q44.0469 -1.42188 31.7812 -1.42188
Q19.5312 -1.42188 13.0625 8.26562
Q6.59375 17.9688 6.59375 36.375
Q6.59375 54.8281 13.0625 64.5156
Q19.5312 74.2188 31.7812 74.2188" id="BitstreamVeraSans-Roman-30"/>
      </defs>
      <g transform="translate(190.060038605 371.996875)scale(0.2 -0.2)">
       <use xlink:href="#BitstreamVeraSans-Roman-30"/>
      </g>
     </g>
    </g>
    <g id="xtick_6">
     <g id="line2d_21">
      <path clip-path="url(#p99b4b0da67)" d="
M242.099 352.8
L242.099 7.2" style="fill:none;stroke:#000000;stroke-dasharray:1.000000,3.000000;stroke-dashoffset:0.0;stroke-width:0.5;"/>
     </g>
     <g id="line2d_22">
      <g>
       <use style="stroke:#000000;stroke-width:0.5;" x="242.09926454" xlink:href="#m93b0483c22" y="352.8"/>
      </g>
     </g>
     <g id="line2d_23">
      <g>
       <use style="stroke:#000000;stroke-width:0.5;" x="242.09926454" xlink:href="#m741efc42ff" y="7.2"/>
      </g>
     </g>
     <g id="text_5">
      <!-- 2 -->
      <g transform="translate(237.47113954 371.996875)scale(0.2 -0.2)">
       <use xlink:href="#BitstreamVeraSans-Roman-32"/>
      </g>
     </g>
    </g>
    <g id="xtick_7">
     <g id="line2d_24">
      <path clip-path="url(#p99b4b0da67)" d="
M289.099 352.8
L289.099 7.2" style="fill:none;stroke:#000000;stroke-dasharray:1.000000,3.000000;stroke-dashoffset:0.0;stroke-width:0.5;"/>
     </g>
     <g id="line2d_25">
      <g>
       <use style="stroke:#000000;stroke-width:0.5;" x="289.099427976" xlink:href="#m93b0483c22" y="352.8"/>
      </g>
     </g>
     <g id="line2d_26">
      <g>
       <use style="stroke:#000000;stroke-width:0.5;" x="289.099427976" xlink:href="#m741efc42ff" y="7.2"/>
      </g>
     </g>
     <g id="text_6">
      <!-- 4 -->
      <g transform="translate(283.786927976 371.996875)scale(0.2 -0.2)">
       <use xlink:href="#BitstreamVeraSans-Roman-34"/>
      </g>
     </g>
    </g>
    <g id="xtick_8">
     <g id="line2d_27">
      <path clip-path="url(#p99b4b0da67)" d="
M336.1 352.8
L336.1 7.2" style="fill:none;stroke:#000000;stroke-dasharray:1.000000,3.000000;stroke-dashoffset:0.0;stroke-width:0.5;"/>
     </g>
     <g id="line2d_28">
      <g>
       <use style="stroke:#000000;stroke-width:0.5;" x="336.099591411" xlink:href="#m93b0483c22" y="352.8"/>
      </g>
     </g>
     <g id="line2d_29">
      <g>
       <use style="stroke:#000000;stroke-width:0.5;" x="336.099591411" xlink:href="#m741efc42ff" y="7.2"/>
      </g>
     </g>
     <g id="text_7">
      <!-- 6 -->
      <g transform="translate(331.065216411 371.996875)scale(0.2 -0.2)">
       <use xlink:href="#BitstreamVeraSans-Roman-36"/>
      </g>
     </g>
    </g>
    <g id="xtick_9">
     <g id="line2d_30">
      <path clip-path="url(#p99b4b0da67)" d="
M383.1 352.8
L383.1 7.2" style="fill:none;stroke:#000000;stroke-dasharray:1.000000,3.000000;stroke-dashoffset:0.0;stroke-width:0.5;"/>
     </g>
     <g id="line2d_31">
      <g>
       <use style="stroke:#000000;stroke-width:0.5;" x="383.099754847" xlink:href="#m93b0483c22" y="352.8"/>
      </g>
     </g>
     <g id="line2d_32">
      <g>
       <use style="stroke:#000000;stroke-width:0.5;" x="383.099754847" xlink:href="#m741efc42ff" y="7.2"/>
      </g>
     </g>
     <g id="text_8">
      <!-- 8 -->
      <defs>
       <path d="
M31.7812 34.625
Q24.75 34.625 20.7188 30.8594
Q16.7031 27.0938 16.7031 20.5156
Q16.7031 13.9219 20.7188 10.1562
Q24.75 6.39062 31.7812 6.39062
Q38.8125 6.39062 42.8594 10.1719
Q46.9219 13.9688 46.9219 20.5156
Q46.9219 27.0938 42.8906 30.8594
Q38.875 34.625 31.7812 34.625
M21.9219 38.8125
Q15.5781 40.375 12.0312 44.7188
Q8.5 49.0781 8.5 55.3281
Q8.5 64.0625 14.7188 69.1406
Q20.9531 74.2188 31.7812 74.2188
Q42.6719 74.2188 48.875 69.1406
Q55.0781 64.0625 55.0781 55.3281
Q55.0781 49.0781 51.5312 44.7188
Q48 40.375 41.7031 38.8125
Q48.8281 37.1562 52.7969 32.3125
Q56.7812 27.4844 56.7812 20.5156
Q56.7812 9.90625 50.3125 4.23438
Q43.8438 -1.42188 31.7812 -1.42188
Q19.7344 -1.42188 13.25 4.23438
Q6.78125 9.90625 6.78125 20.5156
Q6.78125 27.4844 10.7812 32.3125
Q14.7969 37.1562 21.9219 38.8125
M18.3125 54.3906
Q18.3125 48.7344 21.8438 45.5625
Q25.3906 42.3906 31.7812 42.3906
Q38.1406 42.3906 41.7188 45.5625
Q45.3125 48.7344 45.3125 54.3906
Q45.3125 60.0625 41.7188 63.2344
Q38.1406 66.4062 31.7812 66.4062
Q25.3906 66.4062 21.8438 63.2344
Q18.3125 60.0625 18.3125 54.3906" id="BitstreamVeraSans-Roman-38"/>
      </defs>
      <g transform="translate(378.099754847 371.996875)scale(0.2 -0.2)">
       <use xlink:href="#BitstreamVeraSans-Roman-38"/>
      </g>
     </g>
    </g>
    <g id="xtick_10">
     <g id="line2d_33">
      <path clip-path="url(#p99b4b0da67)" d="
M430.1 352.8
L430.1 7.2" style="fill:none;stroke:#000000;stroke-dasharray:1.000000,3.000000;stroke-dashoffset:0.0;stroke-width:0.5;"/>
     </g>
     <g id="line2d_34">
      <g>
       <use style="stroke:#000000;stroke-width:0.5;" x="430.099918282" xlink:href="#m93b0483c22" y="352.8"/>
      </g>
     </g>
     <g id="line2d_35">
      <g>
       <use style="stroke:#000000;stroke-width:0.5;" x="430.099918282" xlink:href="#m741efc42ff" y="7.2"/>
      </g>
     </g>
     <g id="text_9">
      <!-- 10 -->
      <defs>
       <path d="
M12.4062 8.29688
L28.5156 8.29688
L28.5156 63.9219
L10.9844 60.4062
L10.9844 69.3906
L28.4219 72.9062
L38.2812 72.9062
L38.2812 8.29688
L54.3906 8.29688
L54.3906 0
L12.4062 0
z
" id="BitstreamVeraSans-Roman-31"/>
      </defs>
      <g transform="translate(419.137418282 371.996875)scale(0.2 -0.2)">
       <use xlink:href="#BitstreamVeraSans-Roman-31"/>
       <use x="63.623046875" xlink:href="#BitstreamVeraSans-Roman-30"/>
      </g>
     </g>
    </g>
    <g id="xtick_11"/>
    <g id="xtick_12">
     <g id="line2d_36">
      <defs>
       <path d="
M0 0
L0 -2" id="m177f7580d0" style="stroke:#000000;stroke-width:0.5;"/>
      </defs>
      <g>
       <use style="stroke:#000000;stroke-width:0.5;" x="54.0986107985" xlink:href="#m177f7580d0" y="352.8"/>
      </g>
     </g>
     <g id="line2d_37">
      <defs>
       <path d="
M0 0
L0 2" id="m5284c7e2a0" style="stroke:#000000;stroke-width:0.5;"/>
      </defs>
      <g>
       <use style="stroke:#000000;stroke-width:0.5;" x="54.0986107985" xlink:href="#m5284c7e2a0" y="7.2"/>
      </g>
     </g>
    </g>
    <g id="xtick_13">
     <g id="line2d_38">
      <g>
       <use style="stroke:#000000;stroke-width:0.5;" x="101.098774234" xlink:href="#m177f7580d0" y="352.8"/>
      </g>
     </g>
     <g id="line2d_39">
      <g>
       <use style="stroke:#000000;stroke-width:0.5;" x="101.098774234" xlink:href="#m5284c7e2a0" y="7.2"/>
      </g>
     </g>
    </g>
    <g id="xtick_14">
     <g id="line2d_40">
      <g>
       <use style="stroke:#000000;stroke-width:0.5;" x="148.098937669" xlink:href="#m177f7580d0" y="352.8"/>
      </g>
     </g>
     <g id="line2d_41">
      <g>
       <use style="stroke:#000000;stroke-width:0.5;" x="148.098937669" xlink:href="#m5284c7e2a0" y="7.2"/>
      </g>
     </g>
    </g>
    <g id="xtick_15">
     <g id="line2d_42">
      <g>
       <use style="stroke:#000000;stroke-width:0.5;" x="195.099101105" xlink:href="#m177f7580d0" y="352.8"/>
      </g>
     </g>
     <g id="line2d_43">
      <g>
       <use style="stroke:#000000;stroke-width:0.5;" x="195.099101105" xlink:href="#m5284c7e2a0" y="7.2"/>
      </g>
     </g>
    </g>
    <g id="xtick_16">
     <g id="line2d_44">
      <g>
       <use style="stroke:#000000;stroke-width:0.5;" x="242.09926454" xlink:href="#m177f7580d0" y="352.8"/>
      </g>
     </g>
     <g id="line2d_45">
      <g>
       <use style="stroke:#000000;stroke-width:0.5;" x="242.09926454" xlink:href="#m5284c7e2a0" y="7.2"/>
      </g>
     </g>
    </g>
    <g id="xtick_17">
     <g id="line2d_46">
      <g>
       <use style="stroke:#000000;stroke-width:0.5;" x="289.099427976" xlink:href="#m177f7580d0" y="352.8"/>
      </g>
     </g>
     <g id="line2d_47">
      <g>
       <use style="stroke:#000000;stroke-width:0.5;" x="289.099427976" xlink:href="#m5284c7e2a0" y="7.2"/>
      </g>
     </g>
    </g>
    <g id="xtick_18">
     <g id="line2d_48">
      <g>
       <use style="stroke:#000000;stroke-width:0.5;" x="336.099591411" xlink:href="#m177f7580d0" y="352.8"/>
      </g>
     </g>
     <g id="line2d_49">
      <g>
       <use style="stroke:#000000;stroke-width:0.5;" x="336.099591411" xlink:href="#m5284c7e2a0" y="7.2"/>
      </g>
     </g>
    </g>
    <g id="xtick_19">
     <g id="line2d_50">
      <g>
       <use style="stroke:#000000;stroke-width:0.5;" x="383.099754847" xlink:href="#m177f7580d0" y="352.8"/>
      </g>
     </g>
     <g id="line2d_51">
      <g>
       <use style="stroke:#000000;stroke-width:0.5;" x="383.099754847" xlink:href="#m5284c7e2a0" y="7.2"/>
      </g>
     </g>
    </g>
    <g id="xtick_20">
     <g id="line2d_52">
      <g>
       <use style="stroke:#000000;stroke-width:0.5;" x="430.099918282" xlink:href="#m177f7580d0" y="352.8"/>
      </g>
     </g>
     <g id="line2d_53">
      <g>
       <use style="stroke:#000000;stroke-width:0.5;" x="430.099918282" xlink:href="#m5284c7e2a0" y="7.2"/>
      </g>
     </g>
    </g>
    <g id="text_10">
     <!-- log10 of Df -->
     <defs>
      <path id="BitstreamVeraSans-Roman-20"/>
      <path d="
M30.6094 48.3906
Q23.3906 48.3906 19.1875 42.75
Q14.9844 37.1094 14.9844 27.2969
Q14.9844 17.4844 19.1562 11.8438
Q23.3438 6.20312 30.6094 6.20312
Q37.7969 6.20312 41.9844 11.8594
Q46.1875 17.5312 46.1875 27.2969
Q46.1875 37.0156 41.9844 42.7031
Q37.7969 48.3906 30.6094 48.3906
M30.6094 56
Q42.3281 56 49.0156 48.375
Q55.7188 40.7656 55.7188 27.2969
Q55.7188 13.875 49.0156 6.21875
Q42.3281 -1.42188 30.6094 -1.42188
Q18.8438 -1.42188 12.1719 6.21875
Q5.51562 13.875 5.51562 27.2969
Q5.51562 40.7656 12.1719 48.375
Q18.8438 56 30.6094 56" id="BitstreamVeraSans-Roman-6f"/>
      <path d="
M9.42188 75.9844
L18.4062 75.9844
L18.4062 0
L9.42188 0
z
" id="BitstreamVeraSans-Roman-6c"/>
      <path d="
M19.6719 64.7969
L19.6719 8.10938
L31.5938 8.10938
Q46.6875 8.10938 53.6875 14.9375
Q60.6875 21.7812 60.6875 36.5312
Q60.6875 51.1719 53.6875 57.9844
Q46.6875 64.7969 31.5938 64.7969
z

M9.8125 72.9062
L30.0781 72.9062
Q51.2656 72.9062 61.1719 64.0938
Q71.0938 55.2812 71.0938 36.5312
Q71.0938 17.6719 61.125 8.82812
Q51.1719 0 30.0781 0
L9.8125 0
z
" id="BitstreamVeraSans-Roman-44"/>
      <path d="
M45.4062 27.9844
Q45.4062 37.75 41.375 43.1094
Q37.3594 48.4844 30.0781 48.4844
Q22.8594 48.4844 18.8281 43.1094
Q14.7969 37.75 14.7969 27.9844
Q14.7969 18.2656 18.8281 12.8906
Q22.8594 7.51562 30.0781 7.51562
Q37.3594 7.51562 41.375 12.8906
Q45.4062 18.2656 45.4062 27.9844
M54.3906 6.78125
Q54.3906 -7.17188 48.1875 -13.9844
Q42 -20.7969 29.2031 -20.7969
Q24.4688 -20.7969 20.2656 -20.0938
Q16.0625 -19.3906 12.1094 -17.9219
L12.1094 -9.1875
Q16.0625 -11.3281 19.9219 -12.3438
Q23.7812 -13.375 27.7812 -13.375
Q36.625 -13.375 41.0156 -8.76562
Q45.4062 -4.15625 45.4062 5.17188
L45.4062 9.625
Q42.625 4.78125 38.2812 2.39062
Q33.9375 0 27.875 0
Q17.8281 0 11.6719 7.65625
Q5.51562 15.3281 5.51562 27.9844
Q5.51562 40.6719 11.6719 48.3281
Q17.8281 56 27.875 56
Q33.9375 56 38.2812 53.6094
Q42.625 51.2188 45.4062 46.3906
L45.4062 54.6875
L54.3906 54.6875
z
" id="BitstreamVeraSans-Roman-67"/>
      <path d="
M37.1094 75.9844
L37.1094 68.5
L28.5156 68.5
Q23.6875 68.5 21.7969 66.5469
Q19.9219 64.5938 19.9219 59.5156
L19.9219 54.6875
L34.7188 54.6875
L34.7188 47.7031
L19.9219 47.7031
L19.9219 0
L10.8906 0
L10.8906 47.7031
L2.29688 47.7031
L2.29688 54.6875
L10.8906 54.6875
L10.8906 58.5
Q10.8906 67.625 15.1406 71.7969
Q19.3906 75.9844 28.6094 75.9844
z
" id="BitstreamVeraSans-Roman-66"/>
     </defs>
     <g transform="translate(175.0234375 396.353125)scale(0.2 -0.2)">
      <use xlink:href="#BitstreamVeraSans-Roman-6c"/>
      <use x="27.783203125" xlink:href="#BitstreamVeraSans-Roman-6f"/>
      <use x="88.96484375" xlink:href="#BitstreamVeraSans-Roman-67"/>
      <use x="152.44140625" xlink:href="#BitstreamVeraSans-Roman-31"/>
      <use x="216.064453125" xlink:href="#BitstreamVeraSans-Roman-30"/>
      <use x="279.6875" xlink:href="#BitstreamVeraSans-Roman-20"/>
      <use x="311.474609375" xlink:href="#BitstreamVeraSans-Roman-6f"/>
      <use x="372.65625" xlink:href="#BitstreamVeraSans-Roman-66"/>
      <use x="407.861328125" xlink:href="#BitstreamVeraSans-Roman-20"/>
      <use x="439.6484375" xlink:href="#BitstreamVeraSans-Roman-44"/>
      <use x="516.650390625" xlink:href="#BitstreamVeraSans-Roman-66"/>
     </g>
    </g>
   </g>
   <g id="matplotlib.axis_2">
    <g id="ytick_1">
     <g id="line2d_54">
      <path clip-path="url(#p99b4b0da67)" d="
M7.2 352.8
L453.6 352.8" style="fill:none;stroke:#000000;stroke-dasharray:1.000000,3.000000;stroke-dashoffset:0.0;stroke-width:0.5;"/>
     </g>
     <g id="line2d_55">
      <defs>
       <path d="
M0 0
L4 0" id="m728421d6d4" style="stroke:#000000;stroke-width:0.5;"/>
      </defs>
      <g>
       <use style="stroke:#000000;stroke-width:0.5;" x="7.2" xlink:href="#m728421d6d4" y="352.8"/>
      </g>
     </g>
     <g id="line2d_56">
      <defs>
       <path d="
M0 0
L-4 0" id="mcb0005524f" style="stroke:#000000;stroke-width:0.5;"/>
      </defs>
      <g>
       <use style="stroke:#000000;stroke-width:0.5;" x="453.6" xlink:href="#mcb0005524f" y="352.8"/>
      </g>
     </g>
    </g>
    <g id="ytick_2">
     <g id="line2d_57">
      <path clip-path="url(#p99b4b0da67)" d="
M7.2 284.364
L453.6 284.364" style="fill:none;stroke:#000000;stroke-dasharray:1.000000,3.000000;stroke-dashoffset:0.0;stroke-width:0.5;"/>
     </g>
     <g id="line2d_58">
      <g>
       <use style="stroke:#000000;stroke-width:0.5;" x="7.2" xlink:href="#m728421d6d4" y="284.364356436"/>
      </g>
     </g>
     <g id="line2d_59">
      <g>
       <use style="stroke:#000000;stroke-width:0.5;" x="453.6" xlink:href="#mcb0005524f" y="284.364356436"/>
      </g>
     </g>
    </g>
    <g id="ytick_3">
     <g id="line2d_60">
      <path clip-path="url(#p99b4b0da67)" d="
M7.2 215.929
L453.6 215.929" style="fill:none;stroke:#000000;stroke-dasharray:1.000000,3.000000;stroke-dashoffset:0.0;stroke-width:0.5;"/>
     </g>
     <g id="line2d_61">
      <g>
       <use style="stroke:#000000;stroke-width:0.5;" x="7.2" xlink:href="#m728421d6d4" y="215.928712871"/>
      </g>
     </g>
     <g id="line2d_62">
      <g>
       <use style="stroke:#000000;stroke-width:0.5;" x="453.6" xlink:href="#mcb0005524f" y="215.928712871"/>
      </g>
     </g>
    </g>
    <g id="ytick_4">
     <g id="line2d_63">
      <path clip-path="url(#p99b4b0da67)" d="
M7.2 147.493
L453.6 147.493" style="fill:none;stroke:#000000;stroke-dasharray:1.000000,3.000000;stroke-dashoffset:0.0;stroke-width:0.5;"/>
     </g>
     <g id="line2d_64">
      <g>
       <use style="stroke:#000000;stroke-width:0.5;" x="7.2" xlink:href="#m728421d6d4" y="147.493069307"/>
      </g>
     </g>
     <g id="line2d_65">
      <g>
       <use style="stroke:#000000;stroke-width:0.5;" x="453.6" xlink:href="#mcb0005524f" y="147.493069307"/>
      </g>
     </g>
    </g>
    <g id="ytick_5">
     <g id="line2d_66">
      <path clip-path="url(#p99b4b0da67)" d="
M7.2 79.0574
L453.6 79.0574" style="fill:none;stroke:#000000;stroke-dasharray:1.000000,3.000000;stroke-dashoffset:0.0;stroke-width:0.5;"/>
     </g>
     <g id="line2d_67">
      <g>
       <use style="stroke:#000000;stroke-width:0.5;" x="7.2" xlink:href="#m728421d6d4" y="79.0574257426"/>
      </g>
     </g>
     <g id="line2d_68">
      <g>
       <use style="stroke:#000000;stroke-width:0.5;" x="453.6" xlink:href="#mcb0005524f" y="79.0574257426"/>
      </g>
     </g>
    </g>
    <g id="ytick_6">
     <g id="line2d_69">
      <path clip-path="url(#p99b4b0da67)" d="
M7.2 10.6218
L453.6 10.6218" style="fill:none;stroke:#000000;stroke-dasharray:1.000000,3.000000;stroke-dashoffset:0.0;stroke-width:0.5;"/>
     </g>
     <g id="line2d_70">
      <g>
       <use style="stroke:#000000;stroke-width:0.5;" x="7.2" xlink:href="#m728421d6d4" y="10.6217821782"/>
      </g>
     </g>
     <g id="line2d_71">
      <g>
       <use style="stroke:#000000;stroke-width:0.5;" x="453.6" xlink:href="#mcb0005524f" y="10.6217821782"/>
      </g>
     </g>
    </g>
   </g>
   <g id="text_11">
    <!-- {f1-f5}, 5-D -->
    <defs>
     <path d="
M12.5 -9.28125
L15.9219 -9.28125
Q22.75 -9.28125 24.8281 -7.17188
Q26.9062 -5.07812 26.9062 1.90625
L26.9062 14.0156
Q26.9062 21.625 29.0938 25.0938
Q31.2969 28.5625 36.7188 29.8906
Q31.2969 31.1094 29.0938 34.5625
Q26.9062 38.0312 26.9062 45.7031
L26.9062 57.8125
Q26.9062 64.75 24.8281 66.875
Q22.75 69 15.9219 69
L12.5 69
L12.5 75.9844
L15.5781 75.9844
Q27.7344 75.9844 31.8125 72.3906
Q35.8906 68.7969 35.8906 58.0156
L35.8906 46.2969
Q35.8906 39.0156 38.5156 36.2031
Q41.1562 33.4062 48.0938 33.4062
L51.125 33.4062
L51.125 26.4219
L48.0938 26.4219
Q41.1562 26.4219 38.5156 23.5781
Q35.8906 20.75 35.8906 13.375
L35.8906 1.70312
Q35.8906 -9.07812 31.8125 -12.6875
Q27.7344 -16.3125 15.5781 -16.3125
L12.5 -16.3125
z
" id="BitstreamVeraSans-Roman-7d"/>
     <path d="
M51.125 -9.28125
L51.125 -16.3125
L48.0938 -16.3125
Q35.9375 -16.3125 31.8125 -12.6875
Q27.6875 -9.07812 27.6875 1.70312
L27.6875 13.375
Q27.6875 20.75 25.0469 23.5781
Q22.4062 26.4219 15.4844 26.4219
L12.5 26.4219
L12.5 33.4062
L15.4844 33.4062
Q22.4688 33.4062 25.0781 36.2031
Q27.6875 39.0156 27.6875 46.2969
L27.6875 58.0156
Q27.6875 68.7969 31.8125 72.3906
Q35.9375 75.9844 48.0938 75.9844
L51.125 75.9844
L51.125 69
L47.7969 69
Q40.9219 69 38.8125 66.8438
Q36.7188 64.7031 36.7188 57.8125
L36.7188 45.7031
Q36.7188 38.0312 34.5 34.5625
Q32.2812 31.1094 26.9062 29.8906
Q32.3281 28.5625 34.5156 25.0938
Q36.7188 21.625 36.7188 14.0156
L36.7188 1.90625
Q36.7188 -4.98438 38.8125 -7.125
Q40.9219 -9.28125 47.7969 -9.28125
z
" id="BitstreamVeraSans-Roman-7b"/>
     <path d="
M11.7188 12.4062
L22.0156 12.4062
L22.0156 4
L14.0156 -11.625
L7.71875 -11.625
L11.7188 4
z
" id="BitstreamVeraSans-Roman-2c"/>
     <path d="
M10.7969 72.9062
L49.5156 72.9062
L49.5156 64.5938
L19.8281 64.5938
L19.8281 46.7344
Q21.9688 47.4688 24.1094 47.8281
Q26.2656 48.1875 28.4219 48.1875
Q40.625 48.1875 47.75 41.5
Q54.8906 34.8125 54.8906 23.3906
Q54.8906 11.625 47.5625 5.09375
Q40.2344 -1.42188 26.9062 -1.42188
Q22.3125 -1.42188 17.5469 -0.640625
Q12.7969 0.140625 7.71875 1.70312
L7.71875 11.625
Q12.1094 9.23438 16.7969 8.0625
Q21.4844 6.89062 26.7031 6.89062
Q35.1562 6.89062 40.0781 11.3281
Q45.0156 15.7656 45.0156 23.3906
Q45.0156 31 40.0781 35.4375
Q35.1562 39.8906 26.7031 39.8906
Q22.75 39.8906 18.8125 39.0156
Q14.8906 38.1406 10.7969 36.2812
z
" id="BitstreamVeraSans-Roman-35"/>
    </defs>
    <g transform="translate(325.60325 345.888)scale(0.2 -0.2)">
     <use xlink:href="#BitstreamVeraSans-Roman-7b"/>
     <use x="63.623046875" xlink:href="#BitstreamVeraSans-Roman-66"/>
     <use x="98.828125" xlink:href="#BitstreamVeraSans-Roman-31"/>
     <use x="162.451171875" xlink:href="#BitstreamVeraSans-Roman-2d"/>
     <use x="198.53515625" xlink:href="#BitstreamVeraSans-Roman-66"/>
     <use x="233.740234375" xlink:href="#BitstreamVeraSans-Roman-35"/>
     <use x="297.36328125" xlink:href="#BitstreamVeraSans-Roman-7d"/>
     <use x="360.986328125" xlink:href="#BitstreamVeraSans-Roman-2c"/>
     <use x="392.7734375" xlink:href="#BitstreamVeraSans-Roman-20"/>
     <use x="424.560546875" xlink:href="#BitstreamVeraSans-Roman-35"/>
     <use x="488.18359375" xlink:href="#BitstreamVeraSans-Roman-2d"/>
     <use x="524.267578125" xlink:href="#BitstreamVeraSans-Roman-44"/>
    </g>
   </g>
   <g id="text_12">
    <!-- v2.1.1.3 -->
    <defs>
     <path d="
M2.98438 54.6875
L12.5 54.6875
L29.5938 8.79688
L46.6875 54.6875
L56.2031 54.6875
L35.6875 0
L23.4844 0
z
" id="BitstreamVeraSans-Roman-76"/>
     <path d="
M40.5781 39.3125
Q47.6562 37.7969 51.625 33
Q55.6094 28.2188 55.6094 21.1875
Q55.6094 10.4062 48.1875 4.48438
Q40.7656 -1.42188 27.0938 -1.42188
Q22.5156 -1.42188 17.6562 -0.515625
Q12.7969 0.390625 7.625 2.20312
L7.625 11.7188
Q11.7188 9.32812 16.5938 8.10938
Q21.4844 6.89062 26.8125 6.89062
Q36.0781 6.89062 40.9375 10.5469
Q45.7969 14.2031 45.7969 21.1875
Q45.7969 27.6406 41.2812 31.2656
Q36.7656 34.9062 28.7188 34.9062
L20.2188 34.9062
L20.2188 43.0156
L29.1094 43.0156
Q36.375 43.0156 40.2344 45.9219
Q44.0938 48.8281 44.0938 54.2969
Q44.0938 59.9062 40.1094 62.9062
Q36.1406 65.9219 28.7188 65.9219
Q24.6562 65.9219 20.0156 65.0312
Q15.375 64.1562 9.8125 62.3125
L9.8125 71.0938
Q15.4375 72.6562 20.3438 73.4375
Q25.25 74.2188 29.5938 74.2188
Q40.8281 74.2188 47.3594 69.1094
Q53.9062 64.0156 53.9062 55.3281
Q53.9062 49.2656 50.4375 45.0938
Q46.9688 40.9219 40.5781 39.3125" id="BitstreamVeraSans-Roman-33"/>
     <path d="
M10.6875 12.4062
L21 12.4062
L21 0
L10.6875 0
z
" id="BitstreamVeraSans-Roman-2e"/>
    </defs>
    <g style="fill:#808080;" transform="translate(210.4984375 347.2643125)scale(0.1 -0.1)">
     <use xlink:href="#BitstreamVeraSans-Roman-76"/>
     <use x="59.1796875" xlink:href="#BitstreamVeraSans-Roman-32"/>
     <use x="122.802734375" xlink:href="#BitstreamVeraSans-Roman-2e"/>
     <use x="154.58984375" xlink:href="#BitstreamVeraSans-Roman-31"/>
     <use x="218.212890625" xlink:href="#BitstreamVeraSans-Roman-2e"/>
     <use x="250.0" xlink:href="#BitstreamVeraSans-Roman-31"/>
     <use x="313.623046875" xlink:href="#BitstreamVeraSans-Roman-2e"/>
     <use x="345.41015625" xlink:href="#BitstreamVeraSans-Roman-33"/>
    </g>
   </g>
  </g>
 </g>
 <defs>
  <clipPath id="p99b4b0da67">
   <rect height="345.6" width="446.4" x="7.2" y="7.2"/>
  </clipPath>
 </defs>
</svg>
