<?xml version="1.0" encoding="utf-8" standalone="no"?>
<!DOCTYPE svg PUBLIC "-//W3C//DTD SVG 1.1//EN"
  "http://www.w3.org/Graphics/SVG/1.1/DTD/svg11.dtd">
<!-- Created with matplotlib (http://matplotlib.org/) -->
<svg height="413pt" version="1.1" viewBox="0 0 523 413" width="523pt" xmlns="http://www.w3.org/2000/svg" xmlns:xlink="http://www.w3.org/1999/xlink">
 <defs>
  <style type="text/css">
*{stroke-linecap:butt;stroke-linejoin:round;}
  </style>
 </defs>
 <g id="figure_1">
  <g id="patch_1">
   <path d="
M0 413.969
L523.156 413.969
L523.156 0
L0 0
z
" style="fill:#ffffff;"/>
  </g>
  <g id="axes_1">
   <g id="patch_2">
    <path d="
M64.9219 359.056
L511.322 359.056
L511.322 13.4563
L64.9219 13.4563
z
" style="fill:#ffffff;"/>
   </g>
   <g id="line2d_1">
    <path clip-path="url(#p4b24e7e61f)" d="
M276.984 359.056
L276.984 354.494
L281.486 354.494
L281.486 349.932
L282.898 349.932
L282.898 345.369
L284.582 345.369
L284.582 340.807
L284.788 340.807
L284.788 336.244
L285.198 336.244
L285.198 331.682
L290.785 331.682
L290.785 327.12
L293.267 327.12
L293.267 322.557
L296.606 322.557
L296.606 317.995
L301.511 317.995
L301.511 313.433
L302.876 313.433
L302.876 308.87
L311.129 308.87
L311.129 304.308
L320.595 304.308
L320.595 299.745
L327.241 299.745
L327.241 295.183
L328.216 295.183
L328.216 290.621
L329.131 290.621
L329.131 286.058
L330.069 286.058
L330.069 281.496
L330.431 281.496
L330.431 276.934
L333.949 276.934
L333.949 272.371
L335.091 272.371
L335.091 267.809
L351.67 267.809
L351.67 263.246
L352.92 263.246
L352.92 258.684
L354.457 258.684
L354.457 254.122
L357.713 254.122
L357.713 249.559
L369.376 249.559
L369.376 244.997
L374.557 244.997
L374.557 240.435
L378.515 240.435
L378.515 235.872
L393.038 235.872
L393.038 231.31
L393.038 231.31
L393.038 231.31
L511.322 231.31" style="fill:none;stroke:#f5deb3;stroke-linecap:square;"/>
   </g>
   <g id="line2d_2">
    <path clip-path="url(#p4b24e7e61f)" d="
M371.515 359.056
L371.515 345.369
L394.222 345.369
L394.222 331.682
L411.175 331.682
L411.175 317.995
L465.496 317.995
L465.496 304.308
L504.935 304.308
L504.935 290.621
L504.935 290.621
L504.935 290.621
L511.322 290.621" style="fill:none;stroke:#f5deb3;stroke-linecap:square;"/>
   </g>
   <g id="line2d_3">
    <path clip-path="url(#p4b24e7e61f)" d="
M229.194 359.056
L229.194 354.494
L235.002 354.494
L235.002 349.932
L280.708 349.932
L280.708 345.369
L282.576 345.369
L282.576 340.807
L285.402 340.807
L285.402 336.244
L293.611 336.244
L293.611 331.682
L298.581 331.682
L298.581 327.12
L302.876 327.12
L302.876 322.557
L306.493 322.557
L306.493 317.995
L307.081 317.995
L307.081 313.433
L312.542 313.433
L312.542 308.87
L315.25 308.87
L315.25 304.308
L323.225 304.308
L323.225 299.745
L325.541 299.745
L325.541 295.183
L334.023 295.183
L334.023 290.621
L344.162 290.621
L344.162 286.058
L355.088 286.058
L355.088 281.496
L368.598 281.496
L368.598 276.934
L369.411 276.934
L369.411 272.371
L371.976 272.371
L371.976 267.809
L376.792 267.809
L376.792 263.246
L382.076 263.246
L382.076 258.684
L383.194 258.684
L383.194 254.122
L399.627 254.122
L399.627 249.559
L403.861 249.559
L403.861 244.997
L441.041 244.997
L441.041 240.435
L443.995 240.435
L443.995 235.872
L444.707 235.872
L444.707 231.31
L457.831 231.31
L457.831 226.747
L478.343 226.747
L478.343 222.185
L478.343 222.185
L478.343 222.185
L511.322 222.185" style="fill:none;stroke:#f5deb3;stroke-linecap:square;"/>
   </g>
   <g id="line2d_4">
    <path clip-path="url(#p4b24e7e61f)" d="
M266.637 359.056
L266.637 354.494
L291.775 354.494
L291.775 349.932
L291.864 349.932
L291.864 345.369
L295.298 345.369
L295.298 340.807
L333.574 340.807
L333.574 336.244
L334.982 336.244
L334.982 331.682
L340.201 331.682
L340.201 327.12
L340.527 327.12
L340.527 322.557
L345.385 322.557
L345.385 317.995
L359.107 317.995
L359.107 313.433
L360.913 313.433
L360.913 308.87
L364.731 308.87
L364.731 304.308
L364.869 304.308
L364.869 299.745
L369.733 299.745
L369.733 295.183
L370.65 295.183
L370.65 290.621
L372.45 290.621
L372.45 286.058
L378.396 286.058
L378.396 281.496
L396.944 281.496
L396.944 276.934
L409.919 276.934
L409.919 272.371
L410.482 272.371
L410.482 267.809
L417.061 267.809
L417.061 263.246
L419.259 263.246
L419.259 258.684
L431.631 258.684
L431.631 254.122
L435.713 254.122
L435.713 249.559
L440.437 249.559
L440.437 244.997
L445.106 244.997
L445.106 240.435
L460.533 240.435
L460.533 235.872
L466.506 235.872
L466.506 231.31
L485.942 231.31
L485.942 226.747
L487.055 226.747
L487.055 222.185
L489.194 222.185
L489.194 217.623
L493.115 217.623
L493.115 213.06
L500.691 213.06
L500.691 208.498
L500.691 208.498
L500.691 208.498
L511.322 208.498" style="fill:none;stroke:#f5deb3;stroke-linecap:square;"/>
   </g>
   <g id="line2d_5">
    <path clip-path="url(#p4b24e7e61f)" d="
M278.649 359.056
L278.649 354.494
L290.051 354.494
L290.051 349.932
L333.612 349.932
L333.612 345.369
L349.664 345.369
L349.664 340.807
L379.818 340.807
L379.818 336.244
L398.98 336.244
L398.98 331.682
L405.426 331.682
L405.426 327.12
L406.637 327.12
L406.637 322.557
L407.141 322.557
L407.141 317.995
L417.639 317.995
L417.639 313.433
L420.937 313.433
L420.937 308.87
L420.95 308.87
L420.95 304.308
L424.612 304.308
L424.612 299.745
L428.5 299.745
L428.5 295.183
L431.611 295.183
L431.611 290.621
L435.016 290.621
L435.016 286.058
L435.159 286.058
L435.159 281.496
L437.082 281.496
L437.082 276.934
L441.418 276.934
L441.418 272.371
L446.855 272.371
L446.855 267.809
L453.233 267.809
L453.233 263.246
L457.502 263.246
L457.502 258.684
L457.995 258.684
L457.995 254.122
L473.031 254.122
L473.031 249.559
L473.579 249.559
L473.579 244.997
L475.015 244.997
L475.015 240.435
L478.445 240.435
L478.445 235.872
L481.468 235.872
L481.468 231.31
L482.801 231.31
L482.801 226.747
L488.885 226.747
L488.885 222.185
L524.156 222.185" style="fill:none;stroke:#f5deb3;stroke-linecap:square;"/>
   </g>
   <g id="line2d_6"/>
   <g id="line2d_7">
    <path clip-path="url(#p4b24e7e61f)" d="
M295.956 359.056
L295.956 354.494
L304.41 354.494
L304.41 349.932
L306.886 349.932
L306.886 345.369
L312.017 345.369
L312.017 340.807
L322.71 340.807
L322.71 336.244
L392.485 336.244
L392.485 331.682
L410.39 331.682
L410.39 327.12
L414.807 327.12
L414.807 322.557
L415.868 322.557
L415.868 317.995
L421.196 317.995
L421.196 313.433
L434.59 313.433
L434.59 308.87
L437.611 308.87
L437.611 304.308
L439.174 304.308
L439.174 299.745
L439.453 299.745
L439.453 295.183
L441.305 295.183
L441.305 290.621
L443.575 290.621
L443.575 286.058
L449.542 286.058
L449.542 281.496
L451.071 281.496
L451.071 276.934
L452.659 276.934
L452.659 272.371
L460.517 272.371
L460.517 267.809
L462.496 267.809
L462.496 263.246
L464.451 263.246
L464.451 258.684
L469.877 258.684
L469.877 254.122
L474.362 254.122
L474.362 249.559
L479.014 249.559
L479.014 244.997
L493.635 244.997
L493.635 240.435
L493.808 240.435
L493.808 235.872
L500.332 235.872
L500.332 231.31
L520.46 231.31
L520.46 226.747
L523.279 226.747
L523.279 222.185
L524.156 222.185" style="fill:none;stroke:#f5deb3;stroke-linecap:square;"/>
   </g>
   <g id="line2d_8">
    <path clip-path="url(#p4b24e7e61f)" d="
M457.733 359.056
L457.733 354.494
L466.182 354.494
L466.182 349.932
L469.672 349.932
L469.672 345.369
L472.701 345.369
L472.701 340.807
L473.475 340.807
L473.475 336.244
L474.648 336.244
L474.648 331.682
L479.802 331.682
L479.802 327.12
L509.953 327.12
L509.953 322.557
L510.183 322.557
L510.183 317.995
L510.208 317.995
L510.208 313.433
L511.385 313.433
L511.385 308.87
L512.438 308.87
L512.438 304.308
L513.305 304.308
L513.305 299.745
L524.156 299.745" style="fill:none;stroke:#f5deb3;stroke-linecap:square;"/>
   </g>
   <g id="line2d_9">
    <path clip-path="url(#p4b24e7e61f)" d="
M284.478 359.056
L284.478 354.494
L290.328 354.494
L290.328 349.932
L305.964 349.932
L305.964 345.369
L307.211 345.369
L307.211 340.807
L354.384 340.807
L354.384 336.244
L360.095 336.244
L360.095 331.682
L365.862 331.682
L365.862 327.12
L370.281 327.12
L370.281 322.557
L377.691 322.557
L377.691 317.995
L396.043 317.995
L396.043 313.433
L397.679 313.433
L397.679 308.87
L397.719 308.87
L397.719 304.308
L411.895 304.308
L411.895 299.745
L415.613 299.745
L415.613 295.183
L428.958 295.183
L428.958 290.621
L434.291 290.621
L434.291 286.058
L437.488 286.058
L437.488 281.496
L439.436 281.496
L439.436 276.934
L444.503 276.934
L444.503 272.371
L447.644 272.371
L447.644 267.809
L451.899 267.809
L451.899 263.246
L451.902 263.246
L451.902 258.684
L455.511 258.684
L455.511 254.122
L462.21 254.122
L462.21 249.559
L465.471 249.559
L465.471 244.997
L468.793 244.997
L468.793 240.435
L473.172 240.435
L473.172 235.872
L483.735 235.872
L483.735 231.31
L485.575 231.31
L485.575 226.747
L487.373 226.747
L487.373 222.185
L497.392 222.185
L497.392 217.623
L499.872 217.623
L499.872 213.06
L506.215 213.06
L506.215 208.498
L520.138 208.498
L520.138 203.936
L520.345 203.936
L520.345 199.373
L522.34 199.373
L522.34 194.811
L524.156 194.811" style="fill:none;stroke:#f5deb3;stroke-linecap:square;"/>
   </g>
   <g id="line2d_10">
    <path clip-path="url(#p4b24e7e61f)" d="
M436.856 359.056
L436.856 354.494
L457.852 354.494
L457.852 349.932
L463.601 349.932
L463.601 345.369
L468.075 345.369
L468.075 340.807
L482.233 340.807
L482.233 336.244
L485.249 336.244
L485.249 331.682
L486.854 331.682
L486.854 327.12
L488.064 327.12
L488.064 322.557
L492.513 322.557
L492.513 317.995
L524.156 317.995" style="fill:none;stroke:#f5deb3;stroke-linecap:square;"/>
   </g>
   <g id="line2d_11">
    <path clip-path="url(#p4b24e7e61f)" d="
M367.567 359.056
L367.567 354.494
L408.31 354.494
L408.31 349.932
L426.691 349.932
L426.691 345.369
L435.407 345.369
L435.407 340.807
L439.592 340.807
L439.592 336.244
L443.98 336.244
L443.98 331.682
L445.632 331.682
L445.632 327.12
L447.212 327.12
L447.212 322.557
L459.486 322.557
L459.486 317.995
L461.625 317.995
L461.625 313.433
L461.699 313.433
L461.699 308.87
L464.672 308.87
L464.672 304.308
L472.716 304.308
L472.716 299.745
L473.274 299.745
L473.274 295.183
L477.09 295.183
L477.09 290.621
L477.974 290.621
L477.974 286.058
L478.682 286.058
L478.682 281.496
L479.248 281.496
L479.248 276.934
L480.29 276.934
L480.29 272.371
L486.063 272.371
L486.063 267.809
L500.92 267.809
L500.92 263.246
L501.747 263.246
L501.747 258.684
L504.406 258.684
L504.406 254.122
L509.716 254.122
L509.716 249.559
L511.419 249.559
L511.419 244.997
L513.884 244.997
L513.884 240.435
L524.156 240.435" style="fill:none;stroke:#f5deb3;stroke-linecap:square;"/>
   </g>
   <g id="line2d_12">
    <path clip-path="url(#p4b24e7e61f)" d="
M288.836 359.056
L288.836 354.494
L293.18 354.494
L293.18 349.932
L295.215 349.932
L295.215 345.369
L312.946 345.369
L312.946 340.807
L313.291 340.807
L313.291 336.244
L331.853 336.244
L331.853 331.682
L334.357 331.682
L334.357 327.12
L336.1 327.12
L336.1 322.557
L337.158 322.557
L337.158 317.995
L343.248 317.995
L343.248 313.433
L351.695 313.433
L351.695 308.87
L354.262 308.87
L354.262 304.308
L356.136 304.308
L356.136 299.745
L358.483 299.745
L358.483 295.183
L358.617 295.183
L358.617 290.621
L358.885 290.621
L358.885 286.058
L361.233 286.058
L361.233 281.496
L366.646 281.496
L366.646 276.934
L376.961 276.934
L376.961 272.371
L387.572 272.371
L387.572 267.809
L398.56 267.809
L398.56 263.246
L404.167 263.246
L404.167 258.684
L408.907 258.684
L408.907 254.122
L412.125 254.122
L412.125 249.559
L427.437 249.559
L427.437 244.997
L434.089 244.997
L434.089 240.435
L441.608 240.435
L441.608 235.872
L442.471 235.872
L442.471 231.31
L457.71 231.31
L457.71 226.747
L458.33 226.747
L458.33 222.185
L458.33 222.185
L458.33 222.185
L511.322 222.185" style="fill:none;stroke:#f5deb3;stroke-linecap:square;"/>
   </g>
   <g id="line2d_13">
    <path clip-path="url(#p4b24e7e61f)" d="
M367.771 359.056
L367.771 354.494
L384.51 354.494
L384.51 349.932
L390.856 349.932
L390.856 345.369
L392.295 345.369
L392.295 340.807
L398.844 340.807
L398.844 336.244
L404.115 336.244
L404.115 331.682
L408.454 331.682
L408.454 327.12
L408.796 327.12
L408.796 322.557
L408.796 322.557
L408.796 317.995
L411.872 317.995
L411.872 313.433
L429.447 313.433
L429.447 308.87
L429.447 308.87
L429.447 308.87
L511.322 308.87" style="fill:none;stroke:#f5deb3;stroke-linecap:square;"/>
   </g>
   <g id="line2d_14">
    <path clip-path="url(#p4b24e7e61f)" d="
M244.87 359.056
L244.87 354.494
L258.498 354.494
L258.498 349.932
L330.91 349.932
L330.91 345.369
L377.114 345.369
L377.114 340.807
L388.414 340.807
L388.414 336.244
L394.114 336.244
L394.114 331.682
L395.639 331.682
L395.639 327.12
L404.853 327.12
L404.853 322.557
L405.96 322.557
L405.96 317.995
L411.954 317.995
L411.954 313.433
L415.302 313.433
L415.302 308.87
L415.971 308.87
L415.971 304.308
L416.346 304.308
L416.346 299.745
L418.828 299.745
L418.828 295.183
L422.529 295.183
L422.529 290.621
L427.318 290.621
L427.318 286.058
L431.942 286.058
L431.942 281.496
L455.205 281.496
L455.205 276.934
L455.891 276.934
L455.891 272.371
L457.606 272.371
L457.606 267.809
L458.708 267.809
L458.708 263.246
L471.949 263.246
L471.949 258.684
L476.433 258.684
L476.433 254.122
L481.966 254.122
L481.966 249.559
L485.119 249.559
L485.119 244.997
L489.317 244.997
L489.317 240.435
L502.207 240.435
L502.207 235.872
L502.207 235.872
L502.207 235.872
L511.322 235.872" style="fill:none;stroke:#f5deb3;stroke-linecap:square;"/>
   </g>
   <g id="line2d_15">
    <path clip-path="url(#p4b24e7e61f)" d="
M525.235 359.056" style="fill:none;stroke:#f5deb3;stroke-linecap:square;"/>
   </g>
   <g id="line2d_16">
    <path clip-path="url(#p4b24e7e61f)" d="
M374.99 359.056
L374.99 354.494
L473.627 354.494
L473.627 349.932
L505.518 349.932
L505.518 345.369
L506.611 345.369
L506.611 340.807
L516.455 340.807
L516.455 336.244
L524.156 336.244" style="fill:none;stroke:#f5deb3;stroke-linecap:square;"/>
   </g>
   <g id="line2d_17">
    <path clip-path="url(#p4b24e7e61f)" d="
M386.539 359.056
L386.539 354.494
L389.432 354.494
L389.432 349.932
L412.406 349.932
L412.406 345.369
L500.112 345.369
L500.112 340.807
L524.156 340.807" style="fill:none;stroke:#f5deb3;stroke-linecap:square;"/>
   </g>
   <g id="line2d_18">
    <path clip-path="url(#p4b24e7e61f)" d="
M257.241 359.056
L257.241 354.494
L280.145 354.494
L280.145 349.932
L289.681 349.932
L289.681 345.369
L291.686 345.369
L291.686 340.807
L292.13 340.807
L292.13 336.244
L306.886 336.244
L306.886 331.682
L315.958 331.682
L315.958 327.12
L317.71 327.12
L317.71 322.557
L321.23 322.557
L321.23 317.995
L326.158 317.995
L326.158 313.433
L336.632 313.433
L336.632 308.87
L337.713 308.87
L337.713 304.308
L339.773 304.308
L339.773 299.745
L340.495 299.745
L340.495 295.183
L354.652 295.183
L354.652 290.621
L356.792 290.621
L356.792 286.058
L357.301 286.058
L357.301 281.496
L357.895 281.496
L357.895 276.934
L359.107 276.934
L359.107 272.371
L373.251 272.371
L373.251 267.809
L374.136 267.809
L374.136 263.246
L381.129 263.246
L381.129 258.684
L384.772 258.684
L384.772 254.122
L392.85 254.122
L392.85 249.559
L405.307 249.559
L405.307 244.997
L409.926 244.997
L409.926 240.435
L413.901 240.435
L413.901 235.872
L419.476 235.872
L419.476 231.31
L439.221 231.31
L439.221 226.747
L446.956 226.747
L446.956 222.185
L446.956 222.185
L446.956 222.185
L511.322 222.185" style="fill:none;stroke:#f5deb3;stroke-linecap:square;"/>
   </g>
   <g id="line2d_19">
    <path clip-path="url(#p4b24e7e61f)" d="
M434.543 359.056
L434.543 357.387
L434.543 357.387
L434.543 357.387
L434.543 355.718
L434.543 355.718
L434.543 355.718
L434.543 354.049
L438.957 354.049
L438.957 349.041
L443.182 349.041
L443.182 344.034
L448.421 344.034
L448.421 339.026
L449.703 339.026
L449.703 334.019
L450.103 334.019
L450.103 329.011
L454.047 329.011
L454.047 324.004
L454.23 324.004
L454.23 318.996
L455.126 318.996
L455.126 313.989
L457.114 313.989
L457.114 308.981
L459.617 308.981
L459.617 303.974
L460.471 303.974
L460.471 298.967
L460.68 298.967
L460.68 293.959
L461.199 293.959
L461.199 288.952
L463.768 288.952
L463.768 283.944
L472.194 283.944
L472.194 278.937
L474.041 278.937
L474.041 273.929
L480.908 273.929
L480.908 268.922
L485.837 268.922
L485.837 263.914
L487.378 263.914
L487.378 258.907
L488.302 258.907
L488.302 253.899
L488.758 253.899
L488.761 243.884
L492.059 243.884
L492.152 233.869
L493.9 233.869
L493.9 228.862
L497.614 228.862
L497.614 223.854
L501.415 223.854
L501.415 218.847
L502.995 218.847
L502.995 213.839
L503.2 213.839
L503.2 208.832
L514.874 208.832
L514.874 203.824
L516.926 203.824
L516.965 193.809
L518.56 193.809
L518.56 188.802
L520.397 188.802
L520.397 183.794
L522.228 183.794
L522.228 178.787
L522.659 178.787
L522.659 173.779
L524.156 173.779
L524.156 173.779" style="fill:none;stroke:#f5deb3;stroke-linecap:square;"/>
   </g>
   <g id="line2d_20">
    <path clip-path="url(#p4b24e7e61f)" d="
M251.45 359.056
L251.45 354.494
L251.45 354.494
L251.45 349.932
L256.508 349.932
L256.508 345.369
L259.202 345.369
L259.202 340.807
L275.134 340.807
L275.134 336.244
L297.247 336.244
L297.247 331.682
L302.805 331.682
L302.805 327.12
L311.308 327.12
L311.308 322.557
L321.76 322.557
L321.76 317.995
L333.687 317.995
L333.687 313.433
L335.309 313.433
L335.309 308.87
L337.817 308.87
L337.817 304.308
L339.773 304.308
L339.773 299.745
L343.92 299.745
L343.92 295.183
L344.041 295.183
L344.041 290.621
L352.209 290.621
L352.209 286.058
L356.065 286.058
L356.065 281.496
L356.931 281.496
L356.931 276.934
L357.804 276.934
L357.804 272.371
L359.041 272.371
L359.041 267.809
L362.921 267.809
L362.921 263.246
L367.455 263.246
L367.455 258.684
L375.085 258.684
L375.085 254.122
L375.101 254.122
L375.101 249.559
L377.068 249.559
L377.068 244.997
L390.452 244.997
L390.452 240.435
L391.847 240.435
L391.847 235.872
L393.704 235.872
L393.704 231.31
L417.567 231.31
L417.567 226.747
L419.647 226.747
L419.647 222.185
L524.156 222.185" style="fill:none;stroke:#f5deb3;stroke-linecap:square;"/>
   </g>
   <g id="line2d_21">
    <path clip-path="url(#p4b24e7e61f)" d="
M462.489 359.056
L462.489 354.494
L487.845 354.494
L487.845 349.932
L496.352 349.932
L496.352 345.369
L496.352 345.369
L496.352 345.369
L511.322 345.369" style="fill:none;stroke:#f5deb3;stroke-linecap:square;"/>
   </g>
   <g id="line2d_22">
    <path clip-path="url(#p4b24e7e61f)" d="
M233.54 359.056
L233.54 354.494
L240.958 354.494
L240.958 349.932
L250.623 349.932
L250.623 345.369
L251.858 345.369
L251.858 340.807
L259.202 340.807
L259.202 336.244
L263.223 336.244
L263.223 331.682
L324.055 331.682
L324.055 327.12
L354.457 327.12
L354.457 322.557
L356.931 322.557
L356.931 317.995
L361.508 317.995
L361.508 313.433
L364.394 313.433
L364.394 308.87
L373.498 308.87
L373.498 304.308
L377.646 304.308
L377.646 299.745
L387.003 299.745
L387.003 295.183
L392.318 295.183
L392.318 290.621
L398.008 290.621
L398.008 286.058
L421.958 286.058
L421.958 281.496
L422.661 281.496
L422.661 276.934
L426.686 276.934
L426.686 272.371
L428.267 272.371
L428.267 267.809
L432.119 267.809
L432.119 263.246
L443.389 263.246
L443.389 258.684
L455.623 258.684
L455.623 254.122
L463.481 254.122
L463.481 249.559
L464.504 249.559
L464.504 244.997
L465.404 244.997
L465.404 240.435
L482.16 240.435
L482.16 235.872
L494.855 235.872
L494.855 231.31
L502.857 231.31
L502.857 226.747
L515.112 226.747
L515.112 222.185
L518.96 222.185
L518.96 217.623
L524.156 217.623" style="fill:none;stroke:#f5deb3;stroke-linecap:square;"/>
   </g>
   <g id="line2d_23">
    <path clip-path="url(#p4b24e7e61f)" d="
M377.842 359.056
L377.842 354.494
L385.433 354.494
L385.433 349.932
L388.908 349.932
L388.908 345.369
L389.845 345.369
L389.845 340.807
L391.621 340.807
L391.621 336.244
L395.167 336.244
L395.167 331.682
L413.391 331.682
L413.391 327.12
L418.067 327.12
L418.067 322.557
L418.335 322.557
L418.335 317.995
L420.315 317.995
L420.315 313.433
L429.271 313.433
L429.271 308.87
L432.675 308.87
L432.675 304.308
L440.301 304.308
L440.301 299.745
L447.953 299.745
L447.953 295.183
L451.104 295.183
L451.104 290.621
L457.076 290.621
L457.076 286.058
L473.157 286.058
L473.157 281.496
L473.201 281.496
L473.201 276.934
L476.519 276.934
L476.519 272.371
L482.385 272.371
L482.385 267.809
L502.551 267.809
L502.551 263.246
L502.551 263.246
L502.551 263.246
L511.322 263.246" style="fill:none;stroke:#f5deb3;stroke-linecap:square;"/>
   </g>
   <g id="line2d_24">
    <path clip-path="url(#p4b24e7e61f)" d="
M326.333 359.056
L326.333 354.494
L327.964 354.494
L327.964 349.932
L335.67 349.932
L335.67 345.369
L336.983 345.369
L336.983 340.807
L344.343 340.807
L344.343 336.244
L345.443 336.244
L345.443 331.682
L356.488 331.682
L356.488 327.12
L385.42 327.12
L385.42 322.557
L417.341 322.557
L417.341 317.995
L418.453 317.995
L418.453 313.433
L420.102 313.433
L420.102 308.87
L421.74 308.87
L421.74 304.308
L423.926 304.308
L423.926 299.745
L424.955 299.745
L424.955 295.183
L425.232 295.183
L425.232 290.621
L428.426 290.621
L428.426 286.058
L439.085 286.058
L439.085 281.496
L439.96 281.496
L439.96 276.934
L441.297 276.934
L441.297 272.371
L452.879 272.371
L452.879 267.809
L459.525 267.809
L459.525 263.246
L460.876 263.246
L460.876 258.684
L462.428 258.684
L462.428 254.122
L462.643 254.122
L462.643 249.559
L465.741 249.559
L465.741 244.997
L473.6 244.997
L473.6 240.435
L475.671 240.435
L475.671 235.872
L476.447 235.872
L476.447 231.31
L483.583 231.31
L483.583 226.747
L488.071 226.747
L488.071 222.185
L490.201 222.185
L490.201 217.623
L495.493 217.623
L495.493 213.06
L497.423 213.06
L497.423 208.498
L502.852 208.498
L502.852 203.936
L510.299 203.936
L510.299 199.373
L512.055 199.373
L512.055 194.811
L518.481 194.811
L518.481 190.248
L524.156 190.248" style="fill:none;stroke:#f5deb3;stroke-linecap:square;"/>
   </g>
   <g id="line2d_25">
    <path clip-path="url(#p4b24e7e61f)" d="
M486.398 359.056
L486.398 354.494
L489.695 354.494
L489.695 349.932
L494.551 349.932
L494.551 345.369
L495.817 345.369
L495.817 340.807
L495.857 340.807
L495.857 336.244
L496.888 336.244
L496.888 331.682
L497.083 331.682
L497.083 327.12
L497.827 327.12
L497.827 322.557
L499.198 322.557
L499.198 317.995
L500.64 317.995
L500.64 313.433
L501.194 313.433
L501.194 308.87
L501.269 308.87
L501.269 304.308
L501.338 304.308
L501.338 299.745
L501.419 299.745
L501.419 295.183
L501.891 295.183
L501.891 290.621
L502.54 290.621
L502.54 286.058
L502.855 286.058
L502.855 281.496
L503.612 281.496
L503.612 276.934
L504.941 276.934
L504.941 272.371
L505.429 272.371
L505.429 267.809
L506.925 267.809
L506.925 263.246
L507.047 263.246
L507.047 258.684
L509.332 258.684
L509.332 254.122
L509.576 254.122
L509.576 249.559
L523.257 249.559
L523.257 244.997
L524.156 244.997" style="fill:none;stroke:#f5deb3;stroke-linecap:square;"/>
   </g>
   <g id="line2d_26">
    <path clip-path="url(#p4b24e7e61f)" d="
M345.385 359.056
L345.385 354.494
L347.148 354.494
L347.148 349.932
L347.572 349.932
L347.572 345.369
L348.131 345.369
L348.131 340.807
L348.353 340.807
L348.353 336.244
L349.61 336.244
L349.61 331.682
L350.519 331.682
L350.519 327.12
L350.835 327.12
L350.835 322.557
L354.725 322.557
L354.725 317.995
L366.208 317.995
L366.208 313.433
L367.325 313.433
L367.325 308.87
L368.689 308.87
L368.689 304.308
L369.196 304.308
L369.196 299.745
L372.802 299.745
L372.802 295.183
L382.365 295.183
L382.365 290.621
L383.262 290.621
L383.262 286.058
L383.289 286.058
L383.289 281.496
L383.97 281.496
L383.97 276.934
L386.072 276.934
L386.072 272.371
L386.388 272.371
L386.388 267.809
L387.511 267.809
L387.511 263.246
L401.083 263.246
L401.083 258.684
L404.368 258.684
L404.368 254.122
L404.49 254.122
L404.49 249.559
L405.639 249.559
L405.639 244.997
L407.558 244.997
L407.558 240.435
L414.1 240.435
L414.1 235.872
L414.349 235.872
L414.349 231.31
L418.368 231.31
L418.368 226.747
L419.609 226.747
L419.609 222.185
L431.73 222.185
L431.73 217.623
L433.19 217.623
L433.19 213.06
L438.016 213.06
L438.016 208.498
L441.358 208.498
L441.358 203.936
L464.426 203.936
L464.426 199.373
L467.128 199.373
L467.128 194.811
L499.323 194.811
L499.323 190.248
L499.76 190.248
L499.76 185.686
L518.993 185.686
L518.993 181.124
L524.156 181.124" style="fill:none;stroke:#f5deb3;stroke-linecap:square;"/>
   </g>
   <g id="line2d_27">
    <path clip-path="url(#p4b24e7e61f)" d="
M402.333 359.056
L402.333 354.494
L402.333 354.494
L402.333 354.494
L511.322 354.494" style="fill:none;stroke:#f5deb3;stroke-linecap:square;"/>
   </g>
   <g id="line2d_28">
    <path clip-path="url(#p4b24e7e61f)" d="
M298.426 359.056
L298.426 354.494
L299.197 354.494
L299.197 349.932
L309.303 349.932
L309.303 345.369
L320.84 345.369
L320.84 340.807
L344.223 340.807
L344.223 336.244
L373.399 336.244
L373.399 331.682
L390.775 331.682
L390.775 327.12
L418.977 327.12
L418.977 322.557
L421.813 322.557
L421.813 317.995
L424.296 317.995
L424.296 313.433
L424.337 313.433
L424.337 308.87
L426.565 308.87
L426.565 304.308
L427.025 304.308
L427.025 299.745
L430.101 299.745
L430.101 295.183
L436.302 295.183
L436.302 290.621
L437.99 290.621
L437.99 286.058
L459.061 286.058
L459.061 281.496
L460.517 281.496
L460.517 276.934
L461.245 276.934
L461.245 272.371
L461.657 272.371
L461.657 267.809
L462.481 267.809
L462.481 263.246
L463.775 263.246
L463.775 258.684
L465.08 258.684
L465.08 254.122
L465.694 254.122
L465.694 249.559
L466.489 249.559
L466.489 244.997
L472.196 244.997
L472.196 240.435
L472.303 240.435
L472.303 235.872
L477.637 235.872
L477.637 231.31
L478.97 231.31
L478.97 226.747
L479.141 226.747
L479.141 222.185
L483.476 222.185
L483.476 217.623
L483.823 217.623
L483.823 213.06
L499.073 213.06
L499.073 208.498
L504.051 208.498
L504.051 203.936
L508.268 203.936
L508.268 199.373
L510.591 199.373
L510.591 194.811
L511.515 194.811
L511.515 190.248
L514.714 190.248
L514.714 185.686
L524.156 185.686" style="fill:none;stroke:#f5deb3;stroke-linecap:square;"/>
   </g>
   <g id="line2d_29">
    <path clip-path="url(#p4b24e7e61f)" d="
M293.526 359.056
L293.526 354.494
L293.526 354.494
L293.526 349.932
L293.526 349.932
L293.526 345.369
L327.455 345.369
L327.455 340.807
L327.455 340.807
L327.455 336.244
L327.455 336.244
L327.455 331.682
L334.578 331.682
L334.578 327.12
L334.578 327.12
L334.578 322.557
L334.578 322.557
L334.578 317.995
L377.022 317.995
L377.022 313.433
L377.022 313.433
L377.022 308.87
L377.022 308.87
L377.022 304.308
L423.07 304.308
L423.07 299.745
L423.07 299.745
L423.07 295.183
L423.07 295.183
L423.07 290.621
L441.479 290.621
L441.479 286.058
L441.479 286.058
L441.479 281.496
L441.479 281.496
L441.479 276.934
L451.111 276.934
L451.111 272.371
L451.111 272.371
L451.111 267.809
L451.111 267.809
L451.111 263.246
L454.187 263.246
L454.187 258.684
L455.205 258.684
L455.205 254.122
L468.394 254.122
L468.394 249.559
L469.715 249.559
L469.715 244.997
L470.03 244.997
L470.03 240.435
L480.082 240.435
L480.082 235.872
L483.683 235.872
L483.683 231.31
L488.29 231.31
L488.29 226.747
L506.375 226.747
L506.375 222.185
L506.375 222.185
L506.375 222.185
L511.322 222.185" style="fill:none;stroke:#f5deb3;stroke-linecap:square;"/>
   </g>
   <g id="line2d_30">
    <path clip-path="url(#p4b24e7e61f)" d="
M412.391 359.056
L412.391 354.494
L415.413 354.494
L415.413 349.932
L466.409 349.932
L466.409 345.369
L480.547 345.369
L480.547 340.807
L500.409 340.807
L500.409 336.244
L507.335 336.244
L507.335 331.682
L508.839 331.682
L508.839 327.12
L509.23 327.12
L509.23 322.557
L509.629 322.557
L509.629 317.995
L510.046 317.995
L510.046 313.433
L510.046 313.433
L510.046 313.433
L511.322 313.433" style="fill:none;stroke:#f5deb3;stroke-linecap:square;"/>
   </g>
   <g id="line2d_31">
    <path clip-path="url(#p4b24e7e61f)" d="
M-1 354.494
L20.5793 354.494
L20.5793 345.369
L40.2012 345.369
L40.2012 331.682
L64.9219 331.682
L64.9219 327.12
L81.205 327.12
L81.205 322.557
L87.667 322.557
L87.667 308.87
L93.367 308.87
L93.367 299.745
L98.4658 299.745
L98.4658 295.183
L103.078 295.183
L103.078 290.621
L114.749 290.621
L114.749 286.058
L124.145 286.058
L124.145 281.496
L160.455 281.496
L160.455 276.934
L170.166 276.934
L170.166 272.371
L174.377 272.371
L174.377 267.809
L175.375 267.809
L175.375 263.246
L176.352 263.246
L176.352 258.684
L179.172 258.684
L179.172 254.122
L180.965 254.122
L180.965 249.559
L196.615 249.559
L196.615 244.997
L198.489 244.997
L198.489 240.435
L201.459 240.435
L201.459 235.872
L202.031 235.872
L202.031 231.31
L203.157 231.31
L203.157 226.747
L205.861 226.747
L205.861 222.185
L206.902 222.185
L206.902 217.623
L210.378 217.623
L210.378 213.06
L211.794 213.06
L211.794 208.498
L212.716 208.498
L212.716 199.373
L217.494 199.373
L217.494 194.811
L218.314 194.811
L218.314 190.248
L224.059 190.248
L224.059 185.686
L227.543 185.686
L227.543 181.124
L227.877 181.124
L227.877 176.561
L229.84 176.561
L229.84 171.999
L233.242 171.999
L233.242 167.437
L235.859 167.437
L235.859 162.874
L237.801 162.874
L237.801 158.312
L238.072 158.312
L238.072 153.749
L239.667 153.749
L239.667 149.187
L241.212 149.187
L241.212 144.625
L241.464 144.625
L241.464 140.062
L246.26 140.062
L246.26 135.5
L249.14 135.5
L249.14 130.938
L251.858 130.938
L251.858 126.375
L254.816 126.375
L254.816 121.813
L257.784 121.813
L257.784 117.25
L258.32 117.25
L258.32 112.688
L261.086 112.688
L261.086 103.563
L265.576 103.563
L265.576 99.0009
L266.487 99.0009
L266.487 94.4385
L276.375 94.4385
L276.375 89.8761
L336.278 89.8761
L336.278 85.3138
L346.977 85.3138
L346.977 80.7514
L354.482 80.7514
L354.482 76.189
L357.37 76.189
L357.37 71.6266
L362.157 71.6266
L362.157 67.0643
L362.962 67.0643
L362.962 62.5019
L368.726 62.5019
L368.726 57.9395
L381.994 57.9395
L381.994 53.3771
L429.876 53.3771
L429.876 48.8148
L446.634 48.8148
L446.634 44.2524
L471.686 44.2524
L471.686 39.69
L488.233 39.69
L488.233 35.1276
L488.233 35.1276
L511.322 35.1276
L511.322 35.1276" style="fill:none;stroke:#000000;stroke-linecap:square;"/>
   </g>
   <g id="line2d_32">
    <path clip-path="url(#p4b24e7e61f)" style="fill:none;stroke:#000000;stroke-linecap:square;"/>
   </g>
   <g id="line2d_33">
    <path clip-path="url(#p4b24e7e61f)" d="
M243.44 359.056
L243.44 354.494
L255.197 354.494
L255.197 349.932
L285.706 349.932
L285.706 345.369
L301.218 345.369
L301.218 340.807
L309.426 340.807
L309.426 336.244
L309.735 336.244
L309.735 331.682
L316.762 331.682
L316.762 327.12
L318.435 327.12
L318.435 322.557
L320.299 322.557
L320.299 317.995
L411.805 317.995
L411.805 313.433
L415.441 313.433
L415.441 308.87
L417.864 308.87
L417.864 304.308
L421.691 304.308
L421.691 299.745
L452.285 299.745
L452.285 295.183
L452.53 295.183
L452.53 290.621
L468.01 290.621
L468.01 286.058
L469.65 286.058
L469.65 281.496
L475.924 281.496
L475.924 276.934
L489.777 276.934
L489.777 272.371
L492.021 272.371
L492.021 267.809
L495.987 267.809
L495.987 263.246
L502.165 263.246
L502.165 258.684
L509.763 258.684
L509.763 254.122
L509.763 254.122
L509.763 254.122
L511.322 254.122" style="fill:none;stroke:#00bfbf;stroke-linecap:square;"/>
   </g>
   <g id="line2d_34">
    <path clip-path="url(#p4b24e7e61f)" style="fill:none;stroke:#00bfbf;stroke-linecap:square;"/>
   </g>
   <g id="line2d_35">
    <path clip-path="url(#p4b24e7e61f)" d="
M315.195 359.056
L315.195 354.494
L329.172 354.494
L329.172 349.932
L329.704 349.932
L329.704 345.369
L331.384 345.369
L331.384 340.807
L335.921 340.807
L335.921 336.244
L338.194 336.244
L338.194 331.682
L339.64 331.682
L339.64 327.12
L340.787 327.12
L340.787 322.557
L341.174 322.557
L341.174 317.995
L414.2 317.995
L414.2 313.433
L418.757 313.433
L418.757 308.87
L424.949 308.87
L424.949 304.308
L426.345 304.308
L426.345 299.745
L452.946 299.745
L452.946 295.183
L453.071 295.183
L453.071 290.621
L469.093 290.621
L469.093 286.058
L470.9 286.058
L470.9 281.496
L476.654 281.496
L476.654 276.934
L492.988 276.934
L492.988 272.371
L496.953 272.371
L496.953 267.809
L498.667 267.809
L498.667 263.246
L502.789 263.246
L502.789 258.684
L510.177 258.684
L510.177 254.122
L510.177 254.122
L510.177 254.122
L511.322 254.122" style="fill:none;stroke:#bf00bf;stroke-linecap:square;"/>
   </g>
   <g id="line2d_36">
    <path clip-path="url(#p4b24e7e61f)" style="fill:none;stroke:#bf00bf;stroke-linecap:square;"/>
   </g>
   <g id="line2d_37">
    <path clip-path="url(#p4b24e7e61f)" d="
M342.41 359.056
L342.41 354.494
L347.712 354.494
L347.712 349.932
L349.285 349.932
L349.285 345.369
L350.306 345.369
L350.306 340.807
L354.53 340.807
L354.53 336.244
L355.304 336.244
L355.304 331.682
L355.781 331.682
L355.781 327.12
L356.207 327.12
L356.207 322.557
L357.255 322.557
L357.255 317.995
L417.107 317.995
L417.107 313.433
L421.288 313.433
L421.288 308.87
L427.199 308.87
L427.199 304.308
L428.685 304.308
L428.685 299.745
L454.921 299.745
L454.921 295.183
L454.997 295.183
L454.997 290.621
L469.706 290.621
L469.706 286.058
L471.843 286.058
L471.843 281.496
L477.55 281.496
L477.55 276.934
L494.185 276.934
L494.185 272.371
L497.608 272.371
L497.608 267.809
L499.308 267.809
L499.308 263.246
L503.666 263.246
L503.666 258.684
L503.666 258.684
L503.666 258.684
L511.322 258.684" style="fill:none;stroke:#ff0000;stroke-linecap:square;stroke-width:3.0;"/>
   </g>
   <g id="line2d_38">
    <path clip-path="url(#p4b24e7e61f)" style="fill:none;stroke:#ff0000;stroke-linecap:square;stroke-width:3.0;"/>
   </g>
   <g id="line2d_39">
    <path clip-path="url(#p4b24e7e61f)" d="
M511.322 359.056
L511.322 13.4563" style="fill:none;stroke:#000000;stroke-linecap:square;"/>
   </g>
   <g id="patch_3">
    <path d="
M64.9219 13.4563
L511.322 13.4563" style="fill:none;stroke:#000000;stroke-linecap:square;stroke-linejoin:miter;"/>
   </g>
   <g id="patch_4">
    <path d="
M511.322 359.056
L511.322 13.4563" style="fill:none;stroke:#000000;stroke-linecap:square;stroke-linejoin:miter;"/>
   </g>
   <g id="patch_5">
    <path d="
M64.9219 359.056
L511.322 359.056" style="fill:none;stroke:#000000;stroke-linecap:square;stroke-linejoin:miter;"/>
   </g>
   <g id="patch_6">
    <path d="
M64.9219 359.056
L64.9219 13.4563" style="fill:none;stroke:#000000;stroke-linecap:square;stroke-linejoin:miter;"/>
   </g>
   <g id="matplotlib.axis_1">
    <g id="xtick_1">
     <g id="line2d_40">
      <path clip-path="url(#p4b24e7e61f)" d="
M64.9219 359.056
L64.9219 13.4563" style="fill:none;stroke:#000000;stroke-dasharray:1.000000,3.000000;stroke-dashoffset:0.0;stroke-width:0.5;"/>
     </g>
     <g id="line2d_41">
      <defs>
       <path d="
M0 0
L0 -4" id="m93b0483c22" style="stroke:#000000;stroke-width:0.5;"/>
      </defs>
      <g>
       <use style="stroke:#000000;stroke-width:0.5;" x="64.921875" xlink:href="#m93b0483c22" y="359.056342822"/>
      </g>
     </g>
     <g id="line2d_42">
      <defs>
       <path d="
M0 0
L0 4" id="m741efc42ff" style="stroke:#000000;stroke-width:0.5;"/>
      </defs>
      <g>
       <use style="stroke:#000000;stroke-width:0.5;" x="64.921875" xlink:href="#m741efc42ff" y="13.4563428218"/>
      </g>
     </g>
     <g id="text_1">
      <!-- 0 -->
      <defs>
       <path d="
M31.7812 66.4062
Q24.1719 66.4062 20.3281 58.9062
Q16.5 51.4219 16.5 36.375
Q16.5 21.3906 20.3281 13.8906
Q24.1719 6.39062 31.7812 6.39062
Q39.4531 6.39062 43.2812 13.8906
Q47.125 21.3906 47.125 36.375
Q47.125 51.4219 43.2812 58.9062
Q39.4531 66.4062 31.7812 66.4062
M31.7812 74.2188
Q44.0469 74.2188 50.5156 64.5156
Q56.9844 54.8281 56.9844 36.375
Q56.9844 17.9688 50.5156 8.26562
Q44.0469 -1.42188 31.7812 -1.42188
Q19.5312 -1.42188 13.0625 8.26562
Q6.59375 17.9688 6.59375 36.375
Q6.59375 54.8281 13.0625 64.5156
Q19.5312 74.2188 31.7812 74.2188" id="BitstreamVeraSans-Roman-30"/>
      </defs>
      <g transform="translate(59.8828125 378.253217822)scale(0.2 -0.2)">
       <use xlink:href="#BitstreamVeraSans-Roman-30"/>
      </g>
     </g>
    </g>
    <g id="xtick_2">
     <g id="line2d_43">
      <path clip-path="url(#p4b24e7e61f)" d="
M176.352 359.056
L176.352 13.4563" style="fill:none;stroke:#000000;stroke-dasharray:1.000000,3.000000;stroke-dashoffset:0.0;stroke-width:0.5;"/>
     </g>
     <g id="line2d_44">
      <g>
       <use style="stroke:#000000;stroke-width:0.5;" x="176.352240439" xlink:href="#m93b0483c22" y="359.056342822"/>
      </g>
     </g>
     <g id="line2d_45">
      <g>
       <use style="stroke:#000000;stroke-width:0.5;" x="176.352240439" xlink:href="#m741efc42ff" y="13.4563428218"/>
      </g>
     </g>
     <g id="text_2">
      <!-- 1 -->
      <defs>
       <path d="
M12.4062 8.29688
L28.5156 8.29688
L28.5156 63.9219
L10.9844 60.4062
L10.9844 69.3906
L28.4219 72.9062
L38.2812 72.9062
L38.2812 8.29688
L54.3906 8.29688
L54.3906 0
L12.4062 0
z
" id="BitstreamVeraSans-Roman-31"/>
      </defs>
      <g transform="translate(172.011615439 378.253217822)scale(0.2 -0.2)">
       <use xlink:href="#BitstreamVeraSans-Roman-31"/>
      </g>
     </g>
    </g>
    <g id="xtick_3">
     <g id="line2d_46">
      <path clip-path="url(#p4b24e7e61f)" d="
M287.783 359.056
L287.783 13.4563" style="fill:none;stroke:#000000;stroke-dasharray:1.000000,3.000000;stroke-dashoffset:0.0;stroke-width:0.5;"/>
     </g>
     <g id="line2d_47">
      <g>
       <use style="stroke:#000000;stroke-width:0.5;" x="287.782605877" xlink:href="#m93b0483c22" y="359.056342822"/>
      </g>
     </g>
     <g id="line2d_48">
      <g>
       <use style="stroke:#000000;stroke-width:0.5;" x="287.782605877" xlink:href="#m741efc42ff" y="13.4563428218"/>
      </g>
     </g>
     <g id="text_3">
      <!-- 2 -->
      <defs>
       <path d="
M19.1875 8.29688
L53.6094 8.29688
L53.6094 0
L7.32812 0
L7.32812 8.29688
Q12.9375 14.1094 22.625 23.8906
Q32.3281 33.6875 34.8125 36.5312
Q39.5469 41.8438 41.4219 45.5312
Q43.3125 49.2188 43.3125 52.7812
Q43.3125 58.5938 39.2344 62.25
Q35.1562 65.9219 28.6094 65.9219
Q23.9688 65.9219 18.8125 64.3125
Q13.6719 62.7031 7.8125 59.4219
L7.8125 69.3906
Q13.7656 71.7812 18.9375 73
Q24.125 74.2188 28.4219 74.2188
Q39.75 74.2188 46.4844 68.5469
Q53.2188 62.8906 53.2188 53.4219
Q53.2188 48.9219 51.5312 44.8906
Q49.8594 40.875 45.4062 35.4062
Q44.1875 33.9844 37.6406 27.2188
Q31.1094 20.4531 19.1875 8.29688" id="BitstreamVeraSans-Roman-32"/>
      </defs>
      <g transform="translate(283.154480877 378.253217822)scale(0.2 -0.2)">
       <use xlink:href="#BitstreamVeraSans-Roman-32"/>
      </g>
     </g>
    </g>
    <g id="xtick_4">
     <g id="line2d_49">
      <path clip-path="url(#p4b24e7e61f)" d="
M399.213 359.056
L399.213 13.4563" style="fill:none;stroke:#000000;stroke-dasharray:1.000000,3.000000;stroke-dashoffset:0.0;stroke-width:0.5;"/>
     </g>
     <g id="line2d_50">
      <g>
       <use style="stroke:#000000;stroke-width:0.5;" x="399.212971316" xlink:href="#m93b0483c22" y="359.056342822"/>
      </g>
     </g>
     <g id="line2d_51">
      <g>
       <use style="stroke:#000000;stroke-width:0.5;" x="399.212971316" xlink:href="#m741efc42ff" y="13.4563428218"/>
      </g>
     </g>
     <g id="text_4">
      <!-- 3 -->
      <defs>
       <path d="
M40.5781 39.3125
Q47.6562 37.7969 51.625 33
Q55.6094 28.2188 55.6094 21.1875
Q55.6094 10.4062 48.1875 4.48438
Q40.7656 -1.42188 27.0938 -1.42188
Q22.5156 -1.42188 17.6562 -0.515625
Q12.7969 0.390625 7.625 2.20312
L7.625 11.7188
Q11.7188 9.32812 16.5938 8.10938
Q21.4844 6.89062 26.8125 6.89062
Q36.0781 6.89062 40.9375 10.5469
Q45.7969 14.2031 45.7969 21.1875
Q45.7969 27.6406 41.2812 31.2656
Q36.7656 34.9062 28.7188 34.9062
L20.2188 34.9062
L20.2188 43.0156
L29.1094 43.0156
Q36.375 43.0156 40.2344 45.9219
Q44.0938 48.8281 44.0938 54.2969
Q44.0938 59.9062 40.1094 62.9062
Q36.1406 65.9219 28.7188 65.9219
Q24.6562 65.9219 20.0156 65.0312
Q15.375 64.1562 9.8125 62.3125
L9.8125 71.0938
Q15.4375 72.6562 20.3438 73.4375
Q25.25 74.2188 29.5938 74.2188
Q40.8281 74.2188 47.3594 69.1094
Q53.9062 64.0156 53.9062 55.3281
Q53.9062 49.2656 50.4375 45.0938
Q46.9688 40.9219 40.5781 39.3125" id="BitstreamVeraSans-Roman-33"/>
      </defs>
      <g transform="translate(394.414533816 378.253217822)scale(0.2 -0.2)">
       <use xlink:href="#BitstreamVeraSans-Roman-33"/>
      </g>
     </g>
    </g>
    <g id="xtick_5">
     <g id="line2d_52">
      <path clip-path="url(#p4b24e7e61f)" d="
M510.643 359.056
L510.643 13.4563" style="fill:none;stroke:#000000;stroke-dasharray:1.000000,3.000000;stroke-dashoffset:0.0;stroke-width:0.5;"/>
     </g>
     <g id="line2d_53">
      <g>
       <use style="stroke:#000000;stroke-width:0.5;" x="510.643336755" xlink:href="#m93b0483c22" y="359.056342822"/>
      </g>
     </g>
     <g id="line2d_54">
      <g>
       <use style="stroke:#000000;stroke-width:0.5;" x="510.643336755" xlink:href="#m741efc42ff" y="13.4563428218"/>
      </g>
     </g>
     <g id="text_5">
      <!-- 4 -->
      <defs>
       <path d="
M37.7969 64.3125
L12.8906 25.3906
L37.7969 25.3906
z

M35.2031 72.9062
L47.6094 72.9062
L47.6094 25.3906
L58.0156 25.3906
L58.0156 17.1875
L47.6094 17.1875
L47.6094 0
L37.7969 0
L37.7969 17.1875
L4.89062 17.1875
L4.89062 26.7031
z
" id="BitstreamVeraSans-Roman-34"/>
      </defs>
      <g transform="translate(505.330836755 378.253217822)scale(0.2 -0.2)">
       <use xlink:href="#BitstreamVeraSans-Roman-34"/>
      </g>
     </g>
    </g>
    <g id="xtick_6">
     <g id="line2d_55">
      <defs>
       <path d="
M0 0
L0 -2" id="m177f7580d0" style="stroke:#000000;stroke-width:0.5;"/>
      </defs>
      <g>
       <use style="stroke:#000000;stroke-width:0.5;" x="98.4657574248" xlink:href="#m177f7580d0" y="359.056342822"/>
      </g>
     </g>
     <g id="line2d_56">
      <defs>
       <path d="
M0 0
L0 2" id="m5284c7e2a0" style="stroke:#000000;stroke-width:0.5;"/>
      </defs>
      <g>
       <use style="stroke:#000000;stroke-width:0.5;" x="98.4657574248" xlink:href="#m5284c7e2a0" y="13.4563428218"/>
      </g>
     </g>
    </g>
    <g id="xtick_7">
     <g id="line2d_57">
      <g>
       <use style="stroke:#000000;stroke-width:0.5;" x="118.087670772" xlink:href="#m177f7580d0" y="359.056342822"/>
      </g>
     </g>
     <g id="line2d_58">
      <g>
       <use style="stroke:#000000;stroke-width:0.5;" x="118.087670772" xlink:href="#m5284c7e2a0" y="13.4563428218"/>
      </g>
     </g>
    </g>
    <g id="xtick_8">
     <g id="line2d_59">
      <g>
       <use style="stroke:#000000;stroke-width:0.5;" x="132.00963985" xlink:href="#m177f7580d0" y="359.056342822"/>
      </g>
     </g>
     <g id="line2d_60">
      <g>
       <use style="stroke:#000000;stroke-width:0.5;" x="132.00963985" xlink:href="#m5284c7e2a0" y="13.4563428218"/>
      </g>
     </g>
    </g>
    <g id="xtick_9">
     <g id="line2d_61">
      <g>
       <use style="stroke:#000000;stroke-width:0.5;" x="142.808358014" xlink:href="#m177f7580d0" y="359.056342822"/>
      </g>
     </g>
     <g id="line2d_62">
      <g>
       <use style="stroke:#000000;stroke-width:0.5;" x="142.808358014" xlink:href="#m5284c7e2a0" y="13.4563428218"/>
      </g>
     </g>
    </g>
    <g id="xtick_10">
     <g id="line2d_63">
      <g>
       <use style="stroke:#000000;stroke-width:0.5;" x="151.631553197" xlink:href="#m177f7580d0" y="359.056342822"/>
      </g>
     </g>
     <g id="line2d_64">
      <g>
       <use style="stroke:#000000;stroke-width:0.5;" x="151.631553197" xlink:href="#m5284c7e2a0" y="13.4563428218"/>
      </g>
     </g>
    </g>
    <g id="xtick_11">
     <g id="line2d_65">
      <g>
       <use style="stroke:#000000;stroke-width:0.5;" x="159.09145843" xlink:href="#m177f7580d0" y="359.056342822"/>
      </g>
     </g>
     <g id="line2d_66">
      <g>
       <use style="stroke:#000000;stroke-width:0.5;" x="159.09145843" xlink:href="#m5284c7e2a0" y="13.4563428218"/>
      </g>
     </g>
    </g>
    <g id="xtick_12">
     <g id="line2d_67">
      <g>
       <use style="stroke:#000000;stroke-width:0.5;" x="165.553522274" xlink:href="#m177f7580d0" y="359.056342822"/>
      </g>
     </g>
     <g id="line2d_68">
      <g>
       <use style="stroke:#000000;stroke-width:0.5;" x="165.553522274" xlink:href="#m5284c7e2a0" y="13.4563428218"/>
      </g>
     </g>
    </g>
    <g id="xtick_13">
     <g id="line2d_69">
      <g>
       <use style="stroke:#000000;stroke-width:0.5;" x="171.253466544" xlink:href="#m177f7580d0" y="359.056342822"/>
      </g>
     </g>
     <g id="line2d_70">
      <g>
       <use style="stroke:#000000;stroke-width:0.5;" x="171.253466544" xlink:href="#m5284c7e2a0" y="13.4563428218"/>
      </g>
     </g>
    </g>
    <g id="xtick_14">
     <g id="line2d_71">
      <g>
       <use style="stroke:#000000;stroke-width:0.5;" x="209.896122863" xlink:href="#m177f7580d0" y="359.056342822"/>
      </g>
     </g>
     <g id="line2d_72">
      <g>
       <use style="stroke:#000000;stroke-width:0.5;" x="209.896122863" xlink:href="#m5284c7e2a0" y="13.4563428218"/>
      </g>
     </g>
    </g>
    <g id="xtick_15">
     <g id="line2d_73">
      <g>
       <use style="stroke:#000000;stroke-width:0.5;" x="229.518036211" xlink:href="#m177f7580d0" y="359.056342822"/>
      </g>
     </g>
     <g id="line2d_74">
      <g>
       <use style="stroke:#000000;stroke-width:0.5;" x="229.518036211" xlink:href="#m5284c7e2a0" y="13.4563428218"/>
      </g>
     </g>
    </g>
    <g id="xtick_16">
     <g id="line2d_75">
      <g>
       <use style="stroke:#000000;stroke-width:0.5;" x="243.440005288" xlink:href="#m177f7580d0" y="359.056342822"/>
      </g>
     </g>
     <g id="line2d_76">
      <g>
       <use style="stroke:#000000;stroke-width:0.5;" x="243.440005288" xlink:href="#m5284c7e2a0" y="13.4563428218"/>
      </g>
     </g>
    </g>
    <g id="xtick_17">
     <g id="line2d_77">
      <g>
       <use style="stroke:#000000;stroke-width:0.5;" x="254.238723452" xlink:href="#m177f7580d0" y="359.056342822"/>
      </g>
     </g>
     <g id="line2d_78">
      <g>
       <use style="stroke:#000000;stroke-width:0.5;" x="254.238723452" xlink:href="#m5284c7e2a0" y="13.4563428218"/>
      </g>
     </g>
    </g>
    <g id="xtick_18">
     <g id="line2d_79">
      <g>
       <use style="stroke:#000000;stroke-width:0.5;" x="263.061918635" xlink:href="#m177f7580d0" y="359.056342822"/>
      </g>
     </g>
     <g id="line2d_80">
      <g>
       <use style="stroke:#000000;stroke-width:0.5;" x="263.061918635" xlink:href="#m5284c7e2a0" y="13.4563428218"/>
      </g>
     </g>
    </g>
    <g id="xtick_19">
     <g id="line2d_81">
      <g>
       <use style="stroke:#000000;stroke-width:0.5;" x="270.521823869" xlink:href="#m177f7580d0" y="359.056342822"/>
      </g>
     </g>
     <g id="line2d_82">
      <g>
       <use style="stroke:#000000;stroke-width:0.5;" x="270.521823869" xlink:href="#m5284c7e2a0" y="13.4563428218"/>
      </g>
     </g>
    </g>
    <g id="xtick_20">
     <g id="line2d_83">
      <g>
       <use style="stroke:#000000;stroke-width:0.5;" x="276.983887713" xlink:href="#m177f7580d0" y="359.056342822"/>
      </g>
     </g>
     <g id="line2d_84">
      <g>
       <use style="stroke:#000000;stroke-width:0.5;" x="276.983887713" xlink:href="#m5284c7e2a0" y="13.4563428218"/>
      </g>
     </g>
    </g>
    <g id="xtick_21">
     <g id="line2d_85">
      <g>
       <use style="stroke:#000000;stroke-width:0.5;" x="282.683831983" xlink:href="#m177f7580d0" y="359.056342822"/>
      </g>
     </g>
     <g id="line2d_86">
      <g>
       <use style="stroke:#000000;stroke-width:0.5;" x="282.683831983" xlink:href="#m5284c7e2a0" y="13.4563428218"/>
      </g>
     </g>
    </g>
    <g id="xtick_22">
     <g id="line2d_87">
      <g>
       <use style="stroke:#000000;stroke-width:0.5;" x="321.326488302" xlink:href="#m177f7580d0" y="359.056342822"/>
      </g>
     </g>
     <g id="line2d_88">
      <g>
       <use style="stroke:#000000;stroke-width:0.5;" x="321.326488302" xlink:href="#m5284c7e2a0" y="13.4563428218"/>
      </g>
     </g>
    </g>
    <g id="xtick_23">
     <g id="line2d_89">
      <g>
       <use style="stroke:#000000;stroke-width:0.5;" x="340.948401649" xlink:href="#m177f7580d0" y="359.056342822"/>
      </g>
     </g>
     <g id="line2d_90">
      <g>
       <use style="stroke:#000000;stroke-width:0.5;" x="340.948401649" xlink:href="#m5284c7e2a0" y="13.4563428218"/>
      </g>
     </g>
    </g>
    <g id="xtick_24">
     <g id="line2d_91">
      <g>
       <use style="stroke:#000000;stroke-width:0.5;" x="354.870370727" xlink:href="#m177f7580d0" y="359.056342822"/>
      </g>
     </g>
     <g id="line2d_92">
      <g>
       <use style="stroke:#000000;stroke-width:0.5;" x="354.870370727" xlink:href="#m5284c7e2a0" y="13.4563428218"/>
      </g>
     </g>
    </g>
    <g id="xtick_25">
     <g id="line2d_93">
      <g>
       <use style="stroke:#000000;stroke-width:0.5;" x="365.669088891" xlink:href="#m177f7580d0" y="359.056342822"/>
      </g>
     </g>
     <g id="line2d_94">
      <g>
       <use style="stroke:#000000;stroke-width:0.5;" x="365.669088891" xlink:href="#m5284c7e2a0" y="13.4563428218"/>
      </g>
     </g>
    </g>
    <g id="xtick_26">
     <g id="line2d_95">
      <g>
       <use style="stroke:#000000;stroke-width:0.5;" x="374.492284074" xlink:href="#m177f7580d0" y="359.056342822"/>
      </g>
     </g>
     <g id="line2d_96">
      <g>
       <use style="stroke:#000000;stroke-width:0.5;" x="374.492284074" xlink:href="#m5284c7e2a0" y="13.4563428218"/>
      </g>
     </g>
    </g>
    <g id="xtick_27">
     <g id="line2d_97">
      <g>
       <use style="stroke:#000000;stroke-width:0.5;" x="381.952189308" xlink:href="#m177f7580d0" y="359.056342822"/>
      </g>
     </g>
     <g id="line2d_98">
      <g>
       <use style="stroke:#000000;stroke-width:0.5;" x="381.952189308" xlink:href="#m5284c7e2a0" y="13.4563428218"/>
      </g>
     </g>
    </g>
    <g id="xtick_28">
     <g id="line2d_99">
      <g>
       <use style="stroke:#000000;stroke-width:0.5;" x="388.414253152" xlink:href="#m177f7580d0" y="359.056342822"/>
      </g>
     </g>
     <g id="line2d_100">
      <g>
       <use style="stroke:#000000;stroke-width:0.5;" x="388.414253152" xlink:href="#m5284c7e2a0" y="13.4563428218"/>
      </g>
     </g>
    </g>
    <g id="xtick_29">
     <g id="line2d_101">
      <g>
       <use style="stroke:#000000;stroke-width:0.5;" x="394.114197421" xlink:href="#m177f7580d0" y="359.056342822"/>
      </g>
     </g>
     <g id="line2d_102">
      <g>
       <use style="stroke:#000000;stroke-width:0.5;" x="394.114197421" xlink:href="#m5284c7e2a0" y="13.4563428218"/>
      </g>
     </g>
    </g>
    <g id="xtick_30">
     <g id="line2d_103">
      <g>
       <use style="stroke:#000000;stroke-width:0.5;" x="432.756853741" xlink:href="#m177f7580d0" y="359.056342822"/>
      </g>
     </g>
     <g id="line2d_104">
      <g>
       <use style="stroke:#000000;stroke-width:0.5;" x="432.756853741" xlink:href="#m5284c7e2a0" y="13.4563428218"/>
      </g>
     </g>
    </g>
    <g id="xtick_31">
     <g id="line2d_105">
      <g>
       <use style="stroke:#000000;stroke-width:0.5;" x="452.378767088" xlink:href="#m177f7580d0" y="359.056342822"/>
      </g>
     </g>
     <g id="line2d_106">
      <g>
       <use style="stroke:#000000;stroke-width:0.5;" x="452.378767088" xlink:href="#m5284c7e2a0" y="13.4563428218"/>
      </g>
     </g>
    </g>
    <g id="xtick_32">
     <g id="line2d_107">
      <g>
       <use style="stroke:#000000;stroke-width:0.5;" x="466.300736166" xlink:href="#m177f7580d0" y="359.056342822"/>
      </g>
     </g>
     <g id="line2d_108">
      <g>
       <use style="stroke:#000000;stroke-width:0.5;" x="466.300736166" xlink:href="#m5284c7e2a0" y="13.4563428218"/>
      </g>
     </g>
    </g>
    <g id="xtick_33">
     <g id="line2d_109">
      <g>
       <use style="stroke:#000000;stroke-width:0.5;" x="477.09945433" xlink:href="#m177f7580d0" y="359.056342822"/>
      </g>
     </g>
     <g id="line2d_110">
      <g>
       <use style="stroke:#000000;stroke-width:0.5;" x="477.09945433" xlink:href="#m5284c7e2a0" y="13.4563428218"/>
      </g>
     </g>
    </g>
    <g id="xtick_34">
     <g id="line2d_111">
      <g>
       <use style="stroke:#000000;stroke-width:0.5;" x="485.922649513" xlink:href="#m177f7580d0" y="359.056342822"/>
      </g>
     </g>
     <g id="line2d_112">
      <g>
       <use style="stroke:#000000;stroke-width:0.5;" x="485.922649513" xlink:href="#m5284c7e2a0" y="13.4563428218"/>
      </g>
     </g>
    </g>
    <g id="xtick_35">
     <g id="line2d_113">
      <g>
       <use style="stroke:#000000;stroke-width:0.5;" x="493.382554746" xlink:href="#m177f7580d0" y="359.056342822"/>
      </g>
     </g>
     <g id="line2d_114">
      <g>
       <use style="stroke:#000000;stroke-width:0.5;" x="493.382554746" xlink:href="#m5284c7e2a0" y="13.4563428218"/>
      </g>
     </g>
    </g>
    <g id="xtick_36">
     <g id="line2d_115">
      <g>
       <use style="stroke:#000000;stroke-width:0.5;" x="499.84461859" xlink:href="#m177f7580d0" y="359.056342822"/>
      </g>
     </g>
     <g id="line2d_116">
      <g>
       <use style="stroke:#000000;stroke-width:0.5;" x="499.84461859" xlink:href="#m5284c7e2a0" y="13.4563428218"/>
      </g>
     </g>
    </g>
    <g id="xtick_37">
     <g id="line2d_117">
      <g>
       <use style="stroke:#000000;stroke-width:0.5;" x="505.54456286" xlink:href="#m177f7580d0" y="359.056342822"/>
      </g>
     </g>
     <g id="line2d_118">
      <g>
       <use style="stroke:#000000;stroke-width:0.5;" x="505.54456286" xlink:href="#m5284c7e2a0" y="13.4563428218"/>
      </g>
     </g>
    </g>
    <g id="text_6">
     <!-- log10 of FEvals / DIM -->
     <defs>
      <path id="BitstreamVeraSans-Roman-20"/>
      <path d="
M9.8125 72.9062
L24.5156 72.9062
L43.1094 23.2969
L61.8125 72.9062
L76.5156 72.9062
L76.5156 0
L66.8906 0
L66.8906 64.0156
L48.0938 14.0156
L38.1875 14.0156
L19.3906 64.0156
L19.3906 0
L9.8125 0
z
" id="BitstreamVeraSans-Roman-4d"/>
      <path d="
M30.6094 48.3906
Q23.3906 48.3906 19.1875 42.75
Q14.9844 37.1094 14.9844 27.2969
Q14.9844 17.4844 19.1562 11.8438
Q23.3438 6.20312 30.6094 6.20312
Q37.7969 6.20312 41.9844 11.8594
Q46.1875 17.5312 46.1875 27.2969
Q46.1875 37.0156 41.9844 42.7031
Q37.7969 48.3906 30.6094 48.3906
M30.6094 56
Q42.3281 56 49.0156 48.375
Q55.7188 40.7656 55.7188 27.2969
Q55.7188 13.875 49.0156 6.21875
Q42.3281 -1.42188 30.6094 -1.42188
Q18.8438 -1.42188 12.1719 6.21875
Q5.51562 13.875 5.51562 27.2969
Q5.51562 40.7656 12.1719 48.375
Q18.8438 56 30.6094 56" id="BitstreamVeraSans-Roman-6f"/>
      <path d="
M9.42188 75.9844
L18.4062 75.9844
L18.4062 0
L9.42188 0
z
" id="BitstreamVeraSans-Roman-6c"/>
      <path d="
M9.8125 72.9062
L51.7031 72.9062
L51.7031 64.5938
L19.6719 64.5938
L19.6719 43.1094
L48.5781 43.1094
L48.5781 34.8125
L19.6719 34.8125
L19.6719 0
L9.8125 0
z
" id="BitstreamVeraSans-Roman-46"/>
      <path d="
M9.8125 72.9062
L55.9062 72.9062
L55.9062 64.5938
L19.6719 64.5938
L19.6719 43.0156
L54.3906 43.0156
L54.3906 34.7188
L19.6719 34.7188
L19.6719 8.29688
L56.7812 8.29688
L56.7812 0
L9.8125 0
z
" id="BitstreamVeraSans-Roman-45"/>
      <path d="
M19.6719 64.7969
L19.6719 8.10938
L31.5938 8.10938
Q46.6875 8.10938 53.6875 14.9375
Q60.6875 21.7812 60.6875 36.5312
Q60.6875 51.1719 53.6875 57.9844
Q46.6875 64.7969 31.5938 64.7969
z

M9.8125 72.9062
L30.0781 72.9062
Q51.2656 72.9062 61.1719 64.0938
Q71.0938 55.2812 71.0938 36.5312
Q71.0938 17.6719 61.125 8.82812
Q51.1719 0 30.0781 0
L9.8125 0
z
" id="BitstreamVeraSans-Roman-44"/>
      <path d="
M25.3906 72.9062
L33.6875 72.9062
L8.29688 -9.28125
L0 -9.28125
z
" id="BitstreamVeraSans-Roman-2f"/>
      <path d="
M2.98438 54.6875
L12.5 54.6875
L29.5938 8.79688
L46.6875 54.6875
L56.2031 54.6875
L35.6875 0
L23.4844 0
z
" id="BitstreamVeraSans-Roman-76"/>
      <path d="
M45.4062 27.9844
Q45.4062 37.75 41.375 43.1094
Q37.3594 48.4844 30.0781 48.4844
Q22.8594 48.4844 18.8281 43.1094
Q14.7969 37.75 14.7969 27.9844
Q14.7969 18.2656 18.8281 12.8906
Q22.8594 7.51562 30.0781 7.51562
Q37.3594 7.51562 41.375 12.8906
Q45.4062 18.2656 45.4062 27.9844
M54.3906 6.78125
Q54.3906 -7.17188 48.1875 -13.9844
Q42 -20.7969 29.2031 -20.7969
Q24.4688 -20.7969 20.2656 -20.0938
Q16.0625 -19.3906 12.1094 -17.9219
L12.1094 -9.1875
Q16.0625 -11.3281 19.9219 -12.3438
Q23.7812 -13.375 27.7812 -13.375
Q36.625 -13.375 41.0156 -8.76562
Q45.4062 -4.15625 45.4062 5.17188
L45.4062 9.625
Q42.625 4.78125 38.2812 2.39062
Q33.9375 0 27.875 0
Q17.8281 0 11.6719 7.65625
Q5.51562 15.3281 5.51562 27.9844
Q5.51562 40.6719 11.6719 48.3281
Q17.8281 56 27.875 56
Q33.9375 56 38.2812 53.6094
Q42.625 51.2188 45.4062 46.3906
L45.4062 54.6875
L54.3906 54.6875
z
" id="BitstreamVeraSans-Roman-67"/>
      <path d="
M37.1094 75.9844
L37.1094 68.5
L28.5156 68.5
Q23.6875 68.5 21.7969 66.5469
Q19.9219 64.5938 19.9219 59.5156
L19.9219 54.6875
L34.7188 54.6875
L34.7188 47.7031
L19.9219 47.7031
L19.9219 0
L10.8906 0
L10.8906 47.7031
L2.29688 47.7031
L2.29688 54.6875
L10.8906 54.6875
L10.8906 58.5
Q10.8906 67.625 15.1406 71.7969
Q19.3906 75.9844 28.6094 75.9844
z
" id="BitstreamVeraSans-Roman-66"/>
      <path d="
M34.2812 27.4844
Q23.3906 27.4844 19.1875 25
Q14.9844 22.5156 14.9844 16.5
Q14.9844 11.7188 18.1406 8.90625
Q21.2969 6.10938 26.7031 6.10938
Q34.1875 6.10938 38.7031 11.4062
Q43.2188 16.7031 43.2188 25.4844
L43.2188 27.4844
z

M52.2031 31.2031
L52.2031 0
L43.2188 0
L43.2188 8.29688
Q40.1406 3.32812 35.5469 0.953125
Q30.9531 -1.42188 24.3125 -1.42188
Q15.9219 -1.42188 10.9531 3.29688
Q6 8.01562 6 15.9219
Q6 25.1406 12.1719 29.8281
Q18.3594 34.5156 30.6094 34.5156
L43.2188 34.5156
L43.2188 35.4062
Q43.2188 41.6094 39.1406 45
Q35.0625 48.3906 27.6875 48.3906
Q23 48.3906 18.5469 47.2656
Q14.1094 46.1406 10.0156 43.8906
L10.0156 52.2031
Q14.9375 54.1094 19.5781 55.0469
Q24.2188 56 28.6094 56
Q40.4844 56 46.3438 49.8438
Q52.2031 43.7031 52.2031 31.2031" id="BitstreamVeraSans-Roman-61"/>
      <path d="
M44.2812 53.0781
L44.2812 44.5781
Q40.4844 46.5312 36.375 47.5
Q32.2812 48.4844 27.875 48.4844
Q21.1875 48.4844 17.8438 46.4375
Q14.5 44.3906 14.5 40.2812
Q14.5 37.1562 16.8906 35.375
Q19.2812 33.5938 26.5156 31.9844
L29.5938 31.2969
Q39.1562 29.25 43.1875 25.5156
Q47.2188 21.7812 47.2188 15.0938
Q47.2188 7.46875 41.1875 3.01562
Q35.1562 -1.42188 24.6094 -1.42188
Q20.2188 -1.42188 15.4531 -0.5625
Q10.6875 0.296875 5.42188 2
L5.42188 11.2812
Q10.4062 8.6875 15.2344 7.39062
Q20.0625 6.10938 24.8125 6.10938
Q31.1562 6.10938 34.5625 8.28125
Q37.9844 10.4531 37.9844 14.4062
Q37.9844 18.0625 35.5156 20.0156
Q33.0625 21.9688 24.7031 23.7812
L21.5781 24.5156
Q13.2344 26.2656 9.51562 29.9062
Q5.8125 33.5469 5.8125 39.8906
Q5.8125 47.6094 11.2812 51.7969
Q16.75 56 26.8125 56
Q31.7812 56 36.1719 55.2656
Q40.5781 54.5469 44.2812 53.0781" id="BitstreamVeraSans-Roman-73"/>
      <path d="
M9.8125 72.9062
L19.6719 72.9062
L19.6719 0
L9.8125 0
z
" id="BitstreamVeraSans-Roman-49"/>
     </defs>
     <g transform="translate(184.025 402.609467822)scale(0.2 -0.2)">
      <use xlink:href="#BitstreamVeraSans-Roman-6c"/>
      <use x="27.783203125" xlink:href="#BitstreamVeraSans-Roman-6f"/>
      <use x="88.96484375" xlink:href="#BitstreamVeraSans-Roman-67"/>
      <use x="152.44140625" xlink:href="#BitstreamVeraSans-Roman-31"/>
      <use x="216.064453125" xlink:href="#BitstreamVeraSans-Roman-30"/>
      <use x="279.6875" xlink:href="#BitstreamVeraSans-Roman-20"/>
      <use x="311.474609375" xlink:href="#BitstreamVeraSans-Roman-6f"/>
      <use x="372.65625" xlink:href="#BitstreamVeraSans-Roman-66"/>
      <use x="407.861328125" xlink:href="#BitstreamVeraSans-Roman-20"/>
      <use x="439.6484375" xlink:href="#BitstreamVeraSans-Roman-46"/>
      <use x="497.16796875" xlink:href="#BitstreamVeraSans-Roman-45"/>
      <use x="560.3515625" xlink:href="#BitstreamVeraSans-Roman-76"/>
      <use x="619.53125" xlink:href="#BitstreamVeraSans-Roman-61"/>
      <use x="680.810546875" xlink:href="#BitstreamVeraSans-Roman-6c"/>
      <use x="708.59375" xlink:href="#BitstreamVeraSans-Roman-73"/>
      <use x="760.693359375" xlink:href="#BitstreamVeraSans-Roman-20"/>
      <use x="792.48046875" xlink:href="#BitstreamVeraSans-Roman-2f"/>
      <use x="826.171875" xlink:href="#BitstreamVeraSans-Roman-20"/>
      <use x="857.958984375" xlink:href="#BitstreamVeraSans-Roman-44"/>
      <use x="934.9609375" xlink:href="#BitstreamVeraSans-Roman-49"/>
      <use x="964.453125" xlink:href="#BitstreamVeraSans-Roman-4d"/>
     </g>
    </g>
   </g>
   <g id="matplotlib.axis_2">
    <g id="ytick_1">
     <g id="line2d_119">
      <path clip-path="url(#p4b24e7e61f)" d="
M64.9219 359.056
L511.322 359.056" style="fill:none;stroke:#000000;stroke-dasharray:1.000000,3.000000;stroke-dashoffset:0.0;stroke-width:0.5;"/>
     </g>
     <g id="line2d_120">
      <defs>
       <path d="
M0 0
L4 0" id="m728421d6d4" style="stroke:#000000;stroke-width:0.5;"/>
      </defs>
      <g>
       <use style="stroke:#000000;stroke-width:0.5;" x="64.921875" xlink:href="#m728421d6d4" y="359.056342822"/>
      </g>
     </g>
     <g id="line2d_121">
      <defs>
       <path d="
M0 0
L-4 0" id="mcb0005524f" style="stroke:#000000;stroke-width:0.5;"/>
      </defs>
      <g>
       <use style="stroke:#000000;stroke-width:0.5;" x="511.321875" xlink:href="#mcb0005524f" y="359.056342822"/>
      </g>
     </g>
     <g id="text_7">
      <!-- 0.0 -->
      <defs>
       <path d="
M10.6875 12.4062
L21 12.4062
L21 0
L10.6875 0
z
" id="BitstreamVeraSans-Roman-2e"/>
      </defs>
      <g transform="translate(31.7625 364.575092822)scale(0.2 -0.2)">
       <use xlink:href="#BitstreamVeraSans-Roman-30"/>
       <use x="63.623046875" xlink:href="#BitstreamVeraSans-Roman-2e"/>
       <use x="95.41015625" xlink:href="#BitstreamVeraSans-Roman-30"/>
      </g>
     </g>
    </g>
    <g id="ytick_2">
     <g id="line2d_122">
      <path clip-path="url(#p4b24e7e61f)" d="
M64.9219 290.621
L511.322 290.621" style="fill:none;stroke:#000000;stroke-dasharray:1.000000,3.000000;stroke-dashoffset:0.0;stroke-width:0.5;"/>
     </g>
     <g id="line2d_123">
      <g>
       <use style="stroke:#000000;stroke-width:0.5;" x="64.921875" xlink:href="#m728421d6d4" y="290.620699257"/>
      </g>
     </g>
     <g id="line2d_124">
      <g>
       <use style="stroke:#000000;stroke-width:0.5;" x="511.321875" xlink:href="#mcb0005524f" y="290.620699257"/>
      </g>
     </g>
     <g id="text_8">
      <!-- 0.2 -->
      <g transform="translate(32.4375 296.139449257)scale(0.2 -0.2)">
       <use xlink:href="#BitstreamVeraSans-Roman-30"/>
       <use x="63.623046875" xlink:href="#BitstreamVeraSans-Roman-2e"/>
       <use x="95.41015625" xlink:href="#BitstreamVeraSans-Roman-32"/>
      </g>
     </g>
    </g>
    <g id="ytick_3">
     <g id="line2d_125">
      <path clip-path="url(#p4b24e7e61f)" d="
M64.9219 222.185
L511.322 222.185" style="fill:none;stroke:#000000;stroke-dasharray:1.000000,3.000000;stroke-dashoffset:0.0;stroke-width:0.5;"/>
     </g>
     <g id="line2d_126">
      <g>
       <use style="stroke:#000000;stroke-width:0.5;" x="64.921875" xlink:href="#m728421d6d4" y="222.185055693"/>
      </g>
     </g>
     <g id="line2d_127">
      <g>
       <use style="stroke:#000000;stroke-width:0.5;" x="511.321875" xlink:href="#mcb0005524f" y="222.185055693"/>
      </g>
     </g>
     <g id="text_9">
      <!-- 0.4 -->
      <g transform="translate(31.55625 227.703805693)scale(0.2 -0.2)">
       <use xlink:href="#BitstreamVeraSans-Roman-30"/>
       <use x="63.623046875" xlink:href="#BitstreamVeraSans-Roman-2e"/>
       <use x="95.41015625" xlink:href="#BitstreamVeraSans-Roman-34"/>
      </g>
     </g>
    </g>
    <g id="ytick_4">
     <g id="line2d_128">
      <path clip-path="url(#p4b24e7e61f)" d="
M64.9219 153.749
L511.322 153.749" style="fill:none;stroke:#000000;stroke-dasharray:1.000000,3.000000;stroke-dashoffset:0.0;stroke-width:0.5;"/>
     </g>
     <g id="line2d_129">
      <g>
       <use style="stroke:#000000;stroke-width:0.5;" x="64.921875" xlink:href="#m728421d6d4" y="153.749412129"/>
      </g>
     </g>
     <g id="line2d_130">
      <g>
       <use style="stroke:#000000;stroke-width:0.5;" x="511.321875" xlink:href="#mcb0005524f" y="153.749412129"/>
      </g>
     </g>
     <g id="text_10">
      <!-- 0.6 -->
      <defs>
       <path d="
M33.0156 40.375
Q26.375 40.375 22.4844 35.8281
Q18.6094 31.2969 18.6094 23.3906
Q18.6094 15.5312 22.4844 10.9531
Q26.375 6.39062 33.0156 6.39062
Q39.6562 6.39062 43.5312 10.9531
Q47.4062 15.5312 47.4062 23.3906
Q47.4062 31.2969 43.5312 35.8281
Q39.6562 40.375 33.0156 40.375
M52.5938 71.2969
L52.5938 62.3125
Q48.875 64.0625 45.0938 64.9844
Q41.3125 65.9219 37.5938 65.9219
Q27.8281 65.9219 22.6719 59.3281
Q17.5312 52.7344 16.7969 39.4062
Q19.6719 43.6562 24.0156 45.9219
Q28.375 48.1875 33.5938 48.1875
Q44.5781 48.1875 50.9531 41.5156
Q57.3281 34.8594 57.3281 23.3906
Q57.3281 12.1562 50.6875 5.35938
Q44.0469 -1.42188 33.0156 -1.42188
Q20.3594 -1.42188 13.6719 8.26562
Q6.98438 17.9688 6.98438 36.375
Q6.98438 53.6562 15.1875 63.9375
Q23.3906 74.2188 37.2031 74.2188
Q40.9219 74.2188 44.7031 73.4844
Q48.4844 72.75 52.5938 71.2969" id="BitstreamVeraSans-Roman-36"/>
      </defs>
      <g transform="translate(31.69375 159.268162129)scale(0.2 -0.2)">
       <use xlink:href="#BitstreamVeraSans-Roman-30"/>
       <use x="63.623046875" xlink:href="#BitstreamVeraSans-Roman-2e"/>
       <use x="95.41015625" xlink:href="#BitstreamVeraSans-Roman-36"/>
      </g>
     </g>
    </g>
    <g id="ytick_5">
     <g id="line2d_131">
      <path clip-path="url(#p4b24e7e61f)" d="
M64.9219 85.3138
L511.322 85.3138" style="fill:none;stroke:#000000;stroke-dasharray:1.000000,3.000000;stroke-dashoffset:0.0;stroke-width:0.5;"/>
     </g>
     <g id="line2d_132">
      <g>
       <use style="stroke:#000000;stroke-width:0.5;" x="64.921875" xlink:href="#m728421d6d4" y="85.3137685644"/>
      </g>
     </g>
     <g id="line2d_133">
      <g>
       <use style="stroke:#000000;stroke-width:0.5;" x="511.321875" xlink:href="#mcb0005524f" y="85.3137685644"/>
      </g>
     </g>
     <g id="text_11">
      <!-- 0.8 -->
      <defs>
       <path d="
M31.7812 34.625
Q24.75 34.625 20.7188 30.8594
Q16.7031 27.0938 16.7031 20.5156
Q16.7031 13.9219 20.7188 10.1562
Q24.75 6.39062 31.7812 6.39062
Q38.8125 6.39062 42.8594 10.1719
Q46.9219 13.9688 46.9219 20.5156
Q46.9219 27.0938 42.8906 30.8594
Q38.875 34.625 31.7812 34.625
M21.9219 38.8125
Q15.5781 40.375 12.0312 44.7188
Q8.5 49.0781 8.5 55.3281
Q8.5 64.0625 14.7188 69.1406
Q20.9531 74.2188 31.7812 74.2188
Q42.6719 74.2188 48.875 69.1406
Q55.0781 64.0625 55.0781 55.3281
Q55.0781 49.0781 51.5312 44.7188
Q48 40.375 41.7031 38.8125
Q48.8281 37.1562 52.7969 32.3125
Q56.7812 27.4844 56.7812 20.5156
Q56.7812 9.90625 50.3125 4.23438
Q43.8438 -1.42188 31.7812 -1.42188
Q19.7344 -1.42188 13.25 4.23438
Q6.78125 9.90625 6.78125 20.5156
Q6.78125 27.4844 10.7812 32.3125
Q14.7969 37.1562 21.9219 38.8125
M18.3125 54.3906
Q18.3125 48.7344 21.8438 45.5625
Q25.3906 42.3906 31.7812 42.3906
Q38.1406 42.3906 41.7188 45.5625
Q45.3125 48.7344 45.3125 54.3906
Q45.3125 60.0625 41.7188 63.2344
Q38.1406 66.4062 31.7812 66.4062
Q25.3906 66.4062 21.8438 63.2344
Q18.3125 60.0625 18.3125 54.3906" id="BitstreamVeraSans-Roman-38"/>
      </defs>
      <g transform="translate(31.803125 90.8325185644)scale(0.2 -0.2)">
       <use xlink:href="#BitstreamVeraSans-Roman-30"/>
       <use x="63.623046875" xlink:href="#BitstreamVeraSans-Roman-2e"/>
       <use x="95.41015625" xlink:href="#BitstreamVeraSans-Roman-38"/>
      </g>
     </g>
    </g>
    <g id="ytick_6">
     <g id="line2d_134">
      <path clip-path="url(#p4b24e7e61f)" d="
M64.9219 16.8781
L511.322 16.8781" style="fill:none;stroke:#000000;stroke-dasharray:1.000000,3.000000;stroke-dashoffset:0.0;stroke-width:0.5;"/>
     </g>
     <g id="line2d_135">
      <g>
       <use style="stroke:#000000;stroke-width:0.5;" x="64.921875" xlink:href="#m728421d6d4" y="16.878125"/>
      </g>
     </g>
     <g id="line2d_136">
      <g>
       <use style="stroke:#000000;stroke-width:0.5;" x="511.321875" xlink:href="#mcb0005524f" y="16.878125"/>
      </g>
     </g>
     <g id="text_12">
      <!-- 1.0 -->
      <g transform="translate(32.640625 22.396875)scale(0.2 -0.2)">
       <use xlink:href="#BitstreamVeraSans-Roman-31"/>
       <use x="63.623046875" xlink:href="#BitstreamVeraSans-Roman-2e"/>
       <use x="95.41015625" xlink:href="#BitstreamVeraSans-Roman-30"/>
      </g>
     </g>
    </g>
    <g id="text_13">
     <!-- proportion of trials -->
     <defs>
      <path d="
M54.8906 33.0156
L54.8906 0
L45.9062 0
L45.9062 32.7188
Q45.9062 40.4844 42.875 44.3281
Q39.8438 48.1875 33.7969 48.1875
Q26.5156 48.1875 22.3125 43.5469
Q18.1094 38.9219 18.1094 30.9062
L18.1094 0
L9.07812 0
L9.07812 54.6875
L18.1094 54.6875
L18.1094 46.1875
Q21.3438 51.125 25.7031 53.5625
Q30.0781 56 35.7969 56
Q45.2188 56 50.0469 50.1719
Q54.8906 44.3438 54.8906 33.0156" id="BitstreamVeraSans-Roman-6e"/>
      <path d="
M9.42188 54.6875
L18.4062 54.6875
L18.4062 0
L9.42188 0
z

M9.42188 75.9844
L18.4062 75.9844
L18.4062 64.5938
L9.42188 64.5938
z
" id="BitstreamVeraSans-Roman-69"/>
      <path d="
M18.3125 70.2188
L18.3125 54.6875
L36.8125 54.6875
L36.8125 47.7031
L18.3125 47.7031
L18.3125 18.0156
Q18.3125 11.3281 20.1406 9.42188
Q21.9688 7.51562 27.5938 7.51562
L36.8125 7.51562
L36.8125 0
L27.5938 0
Q17.1875 0 13.2344 3.875
Q9.28125 7.76562 9.28125 18.0156
L9.28125 47.7031
L2.6875 47.7031
L2.6875 54.6875
L9.28125 54.6875
L9.28125 70.2188
z
" id="BitstreamVeraSans-Roman-74"/>
      <path d="
M41.1094 46.2969
Q39.5938 47.1719 37.8125 47.5781
Q36.0312 48 33.8906 48
Q26.2656 48 22.1875 43.0469
Q18.1094 38.0938 18.1094 28.8125
L18.1094 0
L9.07812 0
L9.07812 54.6875
L18.1094 54.6875
L18.1094 46.1875
Q20.9531 51.1719 25.4844 53.5781
Q30.0312 56 36.5312 56
Q37.4531 56 38.5781 55.875
Q39.7031 55.7656 41.0625 55.5156
z
" id="BitstreamVeraSans-Roman-72"/>
      <path d="
M18.1094 8.20312
L18.1094 -20.7969
L9.07812 -20.7969
L9.07812 54.6875
L18.1094 54.6875
L18.1094 46.3906
Q20.9531 51.2656 25.2656 53.625
Q29.5938 56 35.5938 56
Q45.5625 56 51.7812 48.0938
Q58.0156 40.1875 58.0156 27.2969
Q58.0156 14.4062 51.7812 6.48438
Q45.5625 -1.42188 35.5938 -1.42188
Q29.5938 -1.42188 25.2656 0.953125
Q20.9531 3.32812 18.1094 8.20312
M48.6875 27.2969
Q48.6875 37.2031 44.6094 42.8438
Q40.5312 48.4844 33.4062 48.4844
Q26.2656 48.4844 22.1875 42.8438
Q18.1094 37.2031 18.1094 27.2969
Q18.1094 17.3906 22.1875 11.75
Q26.2656 6.10938 33.4062 6.10938
Q40.5312 6.10938 44.6094 11.75
Q48.6875 17.3906 48.6875 27.2969" id="BitstreamVeraSans-Roman-70"/>
     </defs>
     <g transform="translate(22.396875 278.775092822)rotate(-90.0)scale(0.2 -0.2)">
      <use xlink:href="#BitstreamVeraSans-Roman-70"/>
      <use x="63.4765625" xlink:href="#BitstreamVeraSans-Roman-72"/>
      <use x="102.33984375" xlink:href="#BitstreamVeraSans-Roman-6f"/>
      <use x="163.521484375" xlink:href="#BitstreamVeraSans-Roman-70"/>
      <use x="226.998046875" xlink:href="#BitstreamVeraSans-Roman-6f"/>
      <use x="288.1796875" xlink:href="#BitstreamVeraSans-Roman-72"/>
      <use x="329.29296875" xlink:href="#BitstreamVeraSans-Roman-74"/>
      <use x="368.501953125" xlink:href="#BitstreamVeraSans-Roman-69"/>
      <use x="396.28515625" xlink:href="#BitstreamVeraSans-Roman-6f"/>
      <use x="457.466796875" xlink:href="#BitstreamVeraSans-Roman-6e"/>
      <use x="520.845703125" xlink:href="#BitstreamVeraSans-Roman-20"/>
      <use x="552.6328125" xlink:href="#BitstreamVeraSans-Roman-6f"/>
      <use x="613.814453125" xlink:href="#BitstreamVeraSans-Roman-66"/>
      <use x="649.01953125" xlink:href="#BitstreamVeraSans-Roman-20"/>
      <use x="680.806640625" xlink:href="#BitstreamVeraSans-Roman-74"/>
      <use x="720.015625" xlink:href="#BitstreamVeraSans-Roman-72"/>
      <use x="761.12890625" xlink:href="#BitstreamVeraSans-Roman-69"/>
      <use x="788.912109375" xlink:href="#BitstreamVeraSans-Roman-61"/>
      <use x="850.19140625" xlink:href="#BitstreamVeraSans-Roman-6c"/>
      <use x="877.974609375" xlink:href="#BitstreamVeraSans-Roman-73"/>
     </g>
    </g>
   </g>
   <g id="text_14">
    <!-- {f20-f24}, 5-D -->
    <defs>
     <path d="
M11.7188 12.4062
L22.0156 12.4062
L22.0156 4
L14.0156 -11.625
L7.71875 -11.625
L11.7188 4
z
" id="BitstreamVeraSans-Roman-2c"/>
     <path d="
M12.5 -9.28125
L15.9219 -9.28125
Q22.75 -9.28125 24.8281 -7.17188
Q26.9062 -5.07812 26.9062 1.90625
L26.9062 14.0156
Q26.9062 21.625 29.0938 25.0938
Q31.2969 28.5625 36.7188 29.8906
Q31.2969 31.1094 29.0938 34.5625
Q26.9062 38.0312 26.9062 45.7031
L26.9062 57.8125
Q26.9062 64.75 24.8281 66.875
Q22.75 69 15.9219 69
L12.5 69
L12.5 75.9844
L15.5781 75.9844
Q27.7344 75.9844 31.8125 72.3906
Q35.8906 68.7969 35.8906 58.0156
L35.8906 46.2969
Q35.8906 39.0156 38.5156 36.2031
Q41.1562 33.4062 48.0938 33.4062
L51.125 33.4062
L51.125 26.4219
L48.0938 26.4219
Q41.1562 26.4219 38.5156 23.5781
Q35.8906 20.75 35.8906 13.375
L35.8906 1.70312
Q35.8906 -9.07812 31.8125 -12.6875
Q27.7344 -16.3125 15.5781 -16.3125
L12.5 -16.3125
z
" id="BitstreamVeraSans-Roman-7d"/>
     <path d="
M51.125 -9.28125
L51.125 -16.3125
L48.0938 -16.3125
Q35.9375 -16.3125 31.8125 -12.6875
Q27.6875 -9.07812 27.6875 1.70312
L27.6875 13.375
Q27.6875 20.75 25.0469 23.5781
Q22.4062 26.4219 15.4844 26.4219
L12.5 26.4219
L12.5 33.4062
L15.4844 33.4062
Q22.4688 33.4062 25.0781 36.2031
Q27.6875 39.0156 27.6875 46.2969
L27.6875 58.0156
Q27.6875 68.7969 31.8125 72.3906
Q35.9375 75.9844 48.0938 75.9844
L51.125 75.9844
L51.125 69
L47.7969 69
Q40.9219 69 38.8125 66.8438
Q36.7188 64.7031 36.7188 57.8125
L36.7188 45.7031
Q36.7188 38.0312 34.5 34.5625
Q32.2812 31.1094 26.9062 29.8906
Q32.3281 28.5625 34.5156 25.0938
Q36.7188 21.625 36.7188 14.0156
L36.7188 1.90625
Q36.7188 -4.98438 38.8125 -7.125
Q40.9219 -9.28125 47.7969 -9.28125
z
" id="BitstreamVeraSans-Roman-7b"/>
     <path d="
M4.89062 31.3906
L31.2031 31.3906
L31.2031 23.3906
L4.89062 23.3906
z
" id="BitstreamVeraSans-Roman-2d"/>
     <path d="
M10.7969 72.9062
L49.5156 72.9062
L49.5156 64.5938
L19.8281 64.5938
L19.8281 46.7344
Q21.9688 47.4688 24.1094 47.8281
Q26.2656 48.1875 28.4219 48.1875
Q40.625 48.1875 47.75 41.5
Q54.8906 34.8125 54.8906 23.3906
Q54.8906 11.625 47.5625 5.09375
Q40.2344 -1.42188 26.9062 -1.42188
Q22.3125 -1.42188 17.5469 -0.640625
Q12.7969 0.140625 7.71875 1.70312
L7.71875 11.625
Q12.1094 9.23438 16.7969 8.0625
Q21.4844 6.89062 26.7031 6.89062
Q35.1562 6.89062 40.0781 11.3281
Q45.0156 15.7656 45.0156 23.3906
Q45.0156 31 40.0781 35.4375
Q35.1562 39.8906 26.7031 39.8906
Q22.75 39.8906 18.8125 39.0156
Q14.8906 38.1406 10.7969 36.2812
z
" id="BitstreamVeraSans-Roman-35"/>
    </defs>
    <g transform="translate(215.8625 35.5652178218)scale(0.2 -0.2)">
     <use xlink:href="#BitstreamVeraSans-Roman-7b"/>
     <use x="63.623046875" xlink:href="#BitstreamVeraSans-Roman-66"/>
     <use x="98.828125" xlink:href="#BitstreamVeraSans-Roman-32"/>
     <use x="162.451171875" xlink:href="#BitstreamVeraSans-Roman-30"/>
     <use x="226.07421875" xlink:href="#BitstreamVeraSans-Roman-2d"/>
     <use x="262.158203125" xlink:href="#BitstreamVeraSans-Roman-66"/>
     <use x="297.36328125" xlink:href="#BitstreamVeraSans-Roman-32"/>
     <use x="360.986328125" xlink:href="#BitstreamVeraSans-Roman-34"/>
     <use x="424.609375" xlink:href="#BitstreamVeraSans-Roman-7d"/>
     <use x="488.232421875" xlink:href="#BitstreamVeraSans-Roman-2c"/>
     <use x="520.01953125" xlink:href="#BitstreamVeraSans-Roman-20"/>
     <use x="551.806640625" xlink:href="#BitstreamVeraSans-Roman-35"/>
     <use x="615.4296875" xlink:href="#BitstreamVeraSans-Roman-2d"/>
     <use x="651.513671875" xlink:href="#BitstreamVeraSans-Roman-44"/>
    </g>
   </g>
   <g id="text_15">
    <!-- absolute targets -->
    <defs>
     <path d="
M56.2031 29.5938
L56.2031 25.2031
L14.8906 25.2031
Q15.4844 15.9219 20.4844 11.0625
Q25.4844 6.20312 34.4219 6.20312
Q39.5938 6.20312 44.4531 7.46875
Q49.3125 8.73438 54.1094 11.2812
L54.1094 2.78125
Q49.2656 0.734375 44.1875 -0.34375
Q39.1094 -1.42188 33.8906 -1.42188
Q20.7969 -1.42188 13.1562 6.1875
Q5.51562 13.8125 5.51562 26.8125
Q5.51562 40.2344 12.7656 48.1094
Q20.0156 56 32.3281 56
Q43.3594 56 49.7812 48.8906
Q56.2031 41.7969 56.2031 29.5938
M47.2188 32.2344
Q47.125 39.5938 43.0938 43.9844
Q39.0625 48.3906 32.4219 48.3906
Q24.9062 48.3906 20.3906 44.1406
Q15.875 39.8906 15.1875 32.1719
z
" id="BitstreamVeraSans-Roman-65"/>
     <path d="
M8.5 21.5781
L8.5 54.6875
L17.4844 54.6875
L17.4844 21.9219
Q17.4844 14.1562 20.5 10.2656
Q23.5312 6.39062 29.5938 6.39062
Q36.8594 6.39062 41.0781 11.0312
Q45.3125 15.6719 45.3125 23.6875
L45.3125 54.6875
L54.2969 54.6875
L54.2969 0
L45.3125 0
L45.3125 8.40625
Q42.0469 3.42188 37.7188 1
Q33.4062 -1.42188 27.6875 -1.42188
Q18.2656 -1.42188 13.375 4.4375
Q8.5 10.2969 8.5 21.5781" id="BitstreamVeraSans-Roman-75"/>
     <path d="
M48.6875 27.2969
Q48.6875 37.2031 44.6094 42.8438
Q40.5312 48.4844 33.4062 48.4844
Q26.2656 48.4844 22.1875 42.8438
Q18.1094 37.2031 18.1094 27.2969
Q18.1094 17.3906 22.1875 11.75
Q26.2656 6.10938 33.4062 6.10938
Q40.5312 6.10938 44.6094 11.75
Q48.6875 17.3906 48.6875 27.2969
M18.1094 46.3906
Q20.9531 51.2656 25.2656 53.625
Q29.5938 56 35.5938 56
Q45.5625 56 51.7812 48.0938
Q58.0156 40.1875 58.0156 27.2969
Q58.0156 14.4062 51.7812 6.48438
Q45.5625 -1.42188 35.5938 -1.42188
Q29.5938 -1.42188 25.2656 0.953125
Q20.9531 3.32812 18.1094 8.20312
L18.1094 0
L9.07812 0
L9.07812 75.9844
L18.1094 75.9844
z
" id="BitstreamVeraSans-Roman-62"/>
    </defs>
    <g transform="translate(64.921875 359.056342822)scale(0.14 -0.14)">
     <use xlink:href="#BitstreamVeraSans-Roman-61"/>
     <use x="61.279296875" xlink:href="#BitstreamVeraSans-Roman-62"/>
     <use x="124.755859375" xlink:href="#BitstreamVeraSans-Roman-73"/>
     <use x="176.85546875" xlink:href="#BitstreamVeraSans-Roman-6f"/>
     <use x="238.037109375" xlink:href="#BitstreamVeraSans-Roman-6c"/>
     <use x="265.8203125" xlink:href="#BitstreamVeraSans-Roman-75"/>
     <use x="329.19921875" xlink:href="#BitstreamVeraSans-Roman-74"/>
     <use x="368.408203125" xlink:href="#BitstreamVeraSans-Roman-65"/>
     <use x="429.931640625" xlink:href="#BitstreamVeraSans-Roman-20"/>
     <use x="461.71875" xlink:href="#BitstreamVeraSans-Roman-74"/>
     <use x="500.927734375" xlink:href="#BitstreamVeraSans-Roman-61"/>
     <use x="562.20703125" xlink:href="#BitstreamVeraSans-Roman-72"/>
     <use x="601.5703125" xlink:href="#BitstreamVeraSans-Roman-67"/>
     <use x="665.046875" xlink:href="#BitstreamVeraSans-Roman-65"/>
     <use x="726.5703125" xlink:href="#BitstreamVeraSans-Roman-74"/>
     <use x="765.779296875" xlink:href="#BitstreamVeraSans-Roman-73"/>
    </g>
   </g>
   <g id="text_16">
    <!-- v2.1.1.3 -->
    <g style="fill:#808080;" transform="translate(268.2203125 353.520655322)scale(0.1 -0.1)">
     <use xlink:href="#BitstreamVeraSans-Roman-76"/>
     <use x="59.1796875" xlink:href="#BitstreamVeraSans-Roman-32"/>
     <use x="122.802734375" xlink:href="#BitstreamVeraSans-Roman-2e"/>
     <use x="154.58984375" xlink:href="#BitstreamVeraSans-Roman-31"/>
     <use x="218.212890625" xlink:href="#BitstreamVeraSans-Roman-2e"/>
     <use x="250.0" xlink:href="#BitstreamVeraSans-Roman-31"/>
     <use x="313.623046875" xlink:href="#BitstreamVeraSans-Roman-2e"/>
     <use x="345.41015625" xlink:href="#BitstreamVeraSans-Roman-33"/>
    </g>
   </g>
   <g id="legend_1">
    <g id="patch_7">
     <path d="
M74.9219 146.881
L210.397 146.881
L210.397 23.4563
L74.9219 23.4563
z
" style="fill:#ffffff;opacity:0.2;stroke:#000000;stroke-linejoin:miter;"/>
    </g>
    <g id="line2d_137">
     <path d="
M88.9219 39.6532
L116.922 39.6532" style="fill:none;stroke:#000000;stroke-linecap:square;"/>
    </g>
    <g id="line2d_138"/>
    <g id="text_17">
     <!-- 1: 5/5 -->
     <defs>
      <path d="
M11.7188 12.4062
L22.0156 12.4062
L22.0156 0
L11.7188 0
z

M11.7188 51.7031
L22.0156 51.7031
L22.0156 39.3125
L11.7188 39.3125
z
" id="BitstreamVeraSans-Roman-3a"/>
     </defs>
     <g transform="translate(138.921875 46.6532178218)scale(0.2 -0.2)">
      <use xlink:href="#BitstreamVeraSans-Roman-31"/>
      <use x="63.623046875" xlink:href="#BitstreamVeraSans-Roman-3a"/>
      <use x="97.314453125" xlink:href="#BitstreamVeraSans-Roman-20"/>
      <use x="129.1015625" xlink:href="#BitstreamVeraSans-Roman-35"/>
      <use x="192.724609375" xlink:href="#BitstreamVeraSans-Roman-2f"/>
      <use x="226.416015625" xlink:href="#BitstreamVeraSans-Roman-35"/>
     </g>
    </g>
    <g id="line2d_139">
     <path d="
M88.9219 69.0095
L116.922 69.0095" style="fill:none;stroke:#00bfbf;stroke-linecap:square;"/>
    </g>
    <g id="line2d_140"/>
    <g id="text_18">
     <!-- -1: 3/5 -->
     <g transform="translate(138.921875 76.0094678218)scale(0.2 -0.2)">
      <use xlink:href="#BitstreamVeraSans-Roman-2d"/>
      <use x="36.083984375" xlink:href="#BitstreamVeraSans-Roman-31"/>
      <use x="99.70703125" xlink:href="#BitstreamVeraSans-Roman-3a"/>
      <use x="133.3984375" xlink:href="#BitstreamVeraSans-Roman-20"/>
      <use x="165.185546875" xlink:href="#BitstreamVeraSans-Roman-33"/>
      <use x="228.80859375" xlink:href="#BitstreamVeraSans-Roman-2f"/>
      <use x="262.5" xlink:href="#BitstreamVeraSans-Roman-35"/>
     </g>
    </g>
    <g id="line2d_141">
     <path d="
M88.9219 98.3657
L116.922 98.3657" style="fill:none;stroke:#bf00bf;stroke-linecap:square;"/>
    </g>
    <g id="line2d_142"/>
    <g id="text_19">
     <!-- -4: 3/5 -->
     <g transform="translate(138.921875 105.365717822)scale(0.2 -0.2)">
      <use xlink:href="#BitstreamVeraSans-Roman-2d"/>
      <use x="36.083984375" xlink:href="#BitstreamVeraSans-Roman-34"/>
      <use x="99.70703125" xlink:href="#BitstreamVeraSans-Roman-3a"/>
      <use x="133.3984375" xlink:href="#BitstreamVeraSans-Roman-20"/>
      <use x="165.185546875" xlink:href="#BitstreamVeraSans-Roman-33"/>
      <use x="228.80859375" xlink:href="#BitstreamVeraSans-Roman-2f"/>
      <use x="262.5" xlink:href="#BitstreamVeraSans-Roman-35"/>
     </g>
    </g>
    <g id="line2d_143">
     <path d="
M88.9219 127.722
L116.922 127.722" style="fill:none;stroke:#ff0000;stroke-linecap:square;stroke-width:3.0;"/>
    </g>
    <g id="line2d_144"/>
    <g id="text_20">
     <!-- -8: 3/5 -->
     <g transform="translate(138.921875 134.721967822)scale(0.2 -0.2)">
      <use xlink:href="#BitstreamVeraSans-Roman-2d"/>
      <use x="36.083984375" xlink:href="#BitstreamVeraSans-Roman-38"/>
      <use x="99.70703125" xlink:href="#BitstreamVeraSans-Roman-3a"/>
      <use x="133.3984375" xlink:href="#BitstreamVeraSans-Roman-20"/>
      <use x="165.185546875" xlink:href="#BitstreamVeraSans-Roman-33"/>
      <use x="228.80859375" xlink:href="#BitstreamVeraSans-Roman-2f"/>
      <use x="262.5" xlink:href="#BitstreamVeraSans-Roman-35"/>
     </g>
    </g>
   </g>
  </g>
 </g>
 <defs>
  <clipPath id="p4b24e7e61f">
   <rect height="345.6" width="446.4" x="64.921875" y="13.4563428218"/>
  </clipPath>
 </defs>
</svg>
