<?xml version="1.0" encoding="utf-8" standalone="no"?>
<!DOCTYPE svg PUBLIC "-//W3C//DTD SVG 1.1//EN"
  "http://www.w3.org/Graphics/SVG/1.1/DTD/svg11.dtd">
<!-- Created with matplotlib (http://matplotlib.org/) -->
<svg height="413pt" version="1.1" viewBox="0 0 523 413" width="523pt" xmlns="http://www.w3.org/2000/svg" xmlns:xlink="http://www.w3.org/1999/xlink">
 <defs>
  <style type="text/css">
*{stroke-linecap:butt;stroke-linejoin:round;}
  </style>
 </defs>
 <g id="figure_1">
  <g id="patch_1">
   <path d="
M0 413.969
L523.002 413.969
L523.002 0
L0 0
z
" style="fill:#ffffff;"/>
  </g>
  <g id="axes_1">
   <g id="patch_2">
    <path d="
M64.9219 359.056
L511.322 359.056
L511.322 13.4563
L64.9219 13.4563
z
" style="fill:#ffffff;"/>
   </g>
   <g id="line2d_1">
    <path clip-path="url(#p4b24e7e61f)" d="
M234.74 359.056
L234.74 354.494
L238.345 354.494
L238.345 349.932
L239.476 349.932
L239.476 345.369
L240.824 345.369
L240.824 340.807
L240.989 340.807
L240.989 336.244
L241.318 336.244
L241.318 331.682
L245.791 331.682
L245.791 327.12
L247.779 327.12
L247.779 322.557
L250.453 322.557
L250.453 317.995
L254.381 317.995
L254.381 313.433
L255.474 313.433
L255.474 308.87
L262.083 308.87
L262.083 304.308
L269.663 304.308
L269.663 299.745
L274.985 299.745
L274.985 295.183
L275.766 295.183
L275.766 290.621
L276.499 290.621
L276.499 286.058
L277.25 286.058
L277.25 281.496
L277.54 281.496
L277.54 276.934
L280.357 276.934
L280.357 272.371
L281.271 272.371
L281.271 267.809
L294.548 267.809
L294.548 263.246
L295.549 263.246
L295.549 258.684
L296.78 258.684
L296.78 254.122
L299.387 254.122
L299.387 249.559
L308.726 249.559
L308.726 244.997
L312.875 244.997
L312.875 240.435
L316.045 240.435
L316.045 235.872
L327.675 235.872
L327.675 231.31
L327.675 231.31
L327.675 231.31
L511.322 231.31" style="fill:none;stroke:#f5deb3;stroke-linecap:square;"/>
   </g>
   <g id="line2d_2">
    <path clip-path="url(#p4b24e7e61f)" d="
M310.44 359.056
L310.44 345.369
L328.623 345.369
L328.623 331.682
L342.199 331.682
L342.199 317.995
L385.699 317.995
L385.699 304.308
L417.282 304.308
L417.282 290.621
L417.282 290.621
L417.282 290.621
L511.322 290.621" style="fill:none;stroke:#f5deb3;stroke-linecap:square;"/>
   </g>
   <g id="line2d_3">
    <path clip-path="url(#p4b24e7e61f)" d="
M196.47 359.056
L196.47 354.494
L201.121 354.494
L201.121 349.932
L237.722 349.932
L237.722 345.369
L239.218 345.369
L239.218 340.807
L241.481 340.807
L241.481 336.244
L248.055 336.244
L248.055 331.682
L252.035 331.682
L252.035 327.12
L255.474 327.12
L255.474 322.557
L258.37 322.557
L258.37 317.995
L258.841 317.995
L258.841 313.433
L263.214 313.433
L263.214 308.87
L265.383 308.87
L265.383 304.308
L271.769 304.308
L271.769 299.745
L273.624 299.745
L273.624 295.183
L280.416 295.183
L280.416 290.621
L288.536 290.621
L288.536 286.058
L297.285 286.058
L297.285 281.496
L308.104 281.496
L308.104 276.934
L308.755 276.934
L308.755 272.371
L310.809 272.371
L310.809 267.809
L314.665 267.809
L314.665 263.246
L318.897 263.246
L318.897 258.684
L319.792 258.684
L319.792 254.122
L332.952 254.122
L332.952 249.559
L336.342 249.559
L336.342 244.997
L366.115 244.997
L366.115 240.435
L368.481 240.435
L368.481 235.872
L369.051 235.872
L369.051 231.31
L379.561 231.31
L379.561 226.747
L395.987 226.747
L395.987 222.185
L395.987 222.185
L395.987 222.185
L511.322 222.185" style="fill:none;stroke:#f5deb3;stroke-linecap:square;"/>
   </g>
   <g id="line2d_4">
    <path clip-path="url(#p4b24e7e61f)" d="
M226.454 359.056
L226.454 354.494
L246.584 354.494
L246.584 349.932
L246.656 349.932
L246.656 345.369
L249.405 345.369
L249.405 340.807
L280.057 340.807
L280.057 336.244
L281.184 336.244
L281.184 331.682
L285.363 331.682
L285.363 327.12
L285.625 327.12
L285.625 322.557
L289.514 322.557
L289.514 317.995
L300.504 317.995
L300.504 313.433
L301.95 313.433
L301.95 308.87
L305.007 308.87
L305.007 304.308
L305.117 304.308
L305.117 299.745
L309.012 299.745
L309.012 295.183
L309.747 295.183
L309.747 290.621
L311.188 290.621
L311.188 286.058
L315.95 286.058
L315.95 281.496
L330.803 281.496
L330.803 276.934
L341.193 276.934
L341.193 272.371
L341.644 272.371
L341.644 267.809
L346.912 267.809
L346.912 263.246
L348.673 263.246
L348.673 258.684
L358.58 258.684
L358.58 254.122
L361.849 254.122
L361.849 249.559
L365.632 249.559
L365.632 244.997
L369.371 244.997
L369.371 240.435
L381.725 240.435
L381.725 235.872
L386.508 235.872
L386.508 231.31
L402.072 231.31
L402.072 226.747
L402.963 226.747
L402.963 222.185
L404.676 222.185
L404.676 217.623
L407.816 217.623
L407.816 213.06
L413.883 213.06
L413.883 208.498
L413.883 208.498
L413.883 208.498
L511.322 208.498" style="fill:none;stroke:#f5deb3;stroke-linecap:square;"/>
   </g>
   <g id="line2d_5">
    <path clip-path="url(#p4b24e7e61f)" d="
M236.073 359.056
L236.073 354.494
L245.204 354.494
L245.204 349.932
L280.087 349.932
L280.087 345.369
L292.941 345.369
L292.941 340.807
L317.089 340.807
L317.089 336.244
L332.433 336.244
L332.433 331.682
L337.596 331.682
L337.596 327.12
L338.565 327.12
L338.565 322.557
L338.968 322.557
L338.968 317.995
L347.376 317.995
L347.376 313.433
L350.017 313.433
L350.017 308.87
L350.026 308.87
L350.026 304.308
L352.959 304.308
L352.959 299.745
L356.073 299.745
L356.073 295.183
L358.564 295.183
L358.564 290.621
L361.291 290.621
L361.291 286.058
L361.406 286.058
L361.406 281.496
L362.946 281.496
L362.946 276.934
L366.418 276.934
L366.418 272.371
L370.771 272.371
L370.771 267.809
L375.878 267.809
L375.878 263.246
L379.297 263.246
L379.297 258.684
L379.693 258.684
L379.693 254.122
L391.733 254.122
L391.733 249.559
L392.172 249.559
L392.172 244.997
L393.322 244.997
L393.322 240.435
L396.069 240.435
L396.069 235.872
L398.49 235.872
L398.49 231.31
L399.557 231.31
L399.557 226.747
L404.429 226.747
L404.429 222.185
L471.065 222.185
L471.065 217.623
L471.065 217.623
L471.065 217.623
L511.322 217.623" style="fill:none;stroke:#f5deb3;stroke-linecap:square;"/>
   </g>
   <g id="line2d_6"/>
   <g id="line2d_7">
    <path clip-path="url(#p4b24e7e61f)" d="
M249.933 359.056
L249.933 354.494
L256.702 354.494
L256.702 349.932
L258.685 349.932
L258.685 345.369
L262.794 345.369
L262.794 340.807
L271.357 340.807
L271.357 336.244
L327.232 336.244
L327.232 331.682
L341.57 331.682
L341.57 327.12
L345.107 327.12
L345.107 322.557
L345.957 322.557
L345.957 317.995
L350.224 317.995
L350.224 313.433
L360.949 313.433
L360.949 308.87
L363.368 308.87
L363.368 304.308
L364.621 304.308
L364.621 299.745
L364.844 299.745
L364.844 295.183
L366.327 295.183
L366.327 290.621
L368.145 290.621
L368.145 286.058
L372.923 286.058
L372.923 281.496
L374.147 281.496
L374.147 276.934
L375.419 276.934
L375.419 272.371
L381.712 272.371
L381.712 267.809
L383.297 267.809
L383.297 263.246
L384.862 263.246
L384.862 258.684
L389.207 258.684
L389.207 254.122
L392.799 254.122
L392.799 249.559
L396.524 249.559
L396.524 244.997
L408.232 244.997
L408.232 240.435
L408.371 240.435
L408.371 235.872
L413.595 235.872
L413.595 231.31
L429.714 231.31
L429.714 226.747
L431.971 226.747
L431.971 222.185
L433.725 222.185
L433.725 217.623
L441.133 217.623
L441.133 213.06
L443.634 213.06
L443.634 208.498
L444.336 208.498
L444.336 203.936
L453.782 203.936
L453.782 199.373
L456.274 199.373
L456.274 194.811
L462.528 194.811
L462.528 190.248
L467.814 190.248
L467.814 185.686
L471.443 185.686
L471.443 181.124
L472.732 181.124
L472.732 176.561
L474.868 176.561
L474.868 171.999
L477.705 171.999
L477.705 167.437
L485.911 167.437
L485.911 162.874
L488.896 162.874
L488.896 158.312
L492.021 158.312
L492.021 153.749
L492.237 153.749
L492.237 149.187
L496.082 149.187
L496.082 144.625
L496.26 144.625
L496.26 140.062
L499.847 140.062
L499.847 135.5
L509.323 135.5
L509.323 130.938
L524.002 130.938" style="fill:none;stroke:#f5deb3;stroke-linecap:square;"/>
   </g>
   <g id="line2d_8">
    <path clip-path="url(#p4b24e7e61f)" d="
M379.483 359.056
L379.483 354.494
L386.248 354.494
L386.248 349.932
L389.043 349.932
L389.043 345.369
L391.469 345.369
L391.469 340.807
L392.088 340.807
L392.088 336.244
L393.028 336.244
L393.028 331.682
L397.155 331.682
L397.155 327.12
L421.3 327.12
L421.3 322.557
L421.484 322.557
L421.484 317.995
L421.504 317.995
L421.504 313.433
L422.446 313.433
L422.446 308.87
L423.29 308.87
L423.29 304.308
L423.984 304.308
L423.984 299.745
L451.233 299.745
L451.233 295.183
L451.644 295.183
L451.644 290.621
L451.694 290.621
L451.694 286.058
L452.6 286.058
L452.6 281.496
L452.897 281.496
L452.897 276.934
L461.983 276.934
L461.983 272.371
L462.805 272.371
L462.805 267.809
L485.858 267.809
L485.858 263.246
L485.929 263.246
L485.929 258.684
L486.266 258.684
L486.266 254.122
L489.836 254.122
L489.836 249.559
L503.361 249.559
L503.361 244.997
L511.073 244.997
L511.073 240.435
L511.073 240.435
L511.073 240.435
L511.322 240.435" style="fill:none;stroke:#f5deb3;stroke-linecap:square;"/>
   </g>
   <g id="line2d_9">
    <path clip-path="url(#p4b24e7e61f)" d="
M240.741 359.056
L240.741 354.494
L245.425 354.494
L245.425 349.932
L257.947 349.932
L257.947 345.369
L258.945 345.369
L258.945 340.807
L296.721 340.807
L296.721 336.244
L301.294 336.244
L301.294 331.682
L305.913 331.682
L305.913 327.12
L309.452 327.12
L309.452 322.557
L315.385 322.557
L315.385 317.995
L330.082 317.995
L330.082 313.433
L331.392 313.433
L331.392 308.87
L331.424 308.87
L331.424 304.308
L342.775 304.308
L342.775 299.745
L345.753 299.745
L345.753 295.183
L356.439 295.183
L356.439 290.621
L360.71 290.621
L360.71 286.058
L363.27 286.058
L363.27 281.496
L364.83 281.496
L364.83 276.934
L368.887 276.934
L368.887 272.371
L371.403 272.371
L371.403 267.809
L374.81 267.809
L374.81 263.246
L374.813 263.246
L374.813 258.684
L377.703 258.684
L377.703 254.122
L383.068 254.122
L383.068 249.559
L385.679 249.559
L385.679 244.997
L388.339 244.997
L388.339 240.435
L391.845 240.435
L391.845 235.872
L400.305 235.872
L400.305 231.31
L401.778 231.31
L401.778 226.747
L403.218 226.747
L403.218 222.185
L411.241 222.185
L411.241 217.623
L413.227 217.623
L413.227 213.06
L418.307 213.06
L418.307 208.498
L429.456 208.498
L429.456 203.936
L429.622 203.936
L429.622 199.373
L431.219 199.373
L431.219 194.811
L435.03 194.811
L435.03 190.248
L437.9 190.248
L437.9 185.686
L439.051 185.686
L439.051 181.124
L439.227 181.124
L439.227 176.561
L443.628 176.561
L443.628 171.999
L443.872 171.999
L443.872 167.437
L446.696 167.437
L446.696 162.874
L447.653 162.874
L447.653 158.312
L456.267 158.312
L456.267 153.749
L458.638 153.749
L458.638 149.187
L458.694 149.187
L458.694 144.625
L458.97 144.625
L458.97 140.062
L459.003 140.062
L459.003 135.5
L459.95 135.5
L459.95 130.938
L461.232 130.938
L461.232 126.375
L462.091 126.375
L462.091 121.813
L462.16 121.813
L462.16 117.25
L463.698 117.25
L463.698 112.688
L464.748 112.688
L464.748 108.126
L464.985 108.126
L464.985 103.563
L471.099 103.563
L471.099 99.0009
L475.397 99.0009
L475.397 94.4385
L489.762 94.4385
L489.762 89.8761
L494.903 89.8761
L494.903 85.3138
L505.772 85.3138
L505.772 80.7514
L524.002 80.7514" style="fill:none;stroke:#f5deb3;stroke-linecap:square;"/>
   </g>
   <g id="line2d_10">
    <path clip-path="url(#p4b24e7e61f)" d="
M362.764 359.056
L362.764 354.494
L379.577 354.494
L379.577 349.932
L384.182 349.932
L384.182 345.369
L387.764 345.369
L387.764 340.807
L399.102 340.807
L399.102 336.244
L401.517 336.244
L401.517 331.682
L402.802 331.682
L402.802 327.12
L403.771 327.12
L403.771 322.557
L407.334 322.557
L407.334 317.995
L436.706 317.995
L436.706 313.433
L445.331 313.433
L445.331 308.87
L448.863 308.87
L448.863 304.308
L453.302 304.308
L453.302 299.745
L457.062 299.745
L457.062 295.183
L459.087 295.183
L459.087 290.621
L459.271 290.621
L459.271 286.058
L479.998 286.058
L479.998 281.496
L488.404 281.496
L488.404 276.934
L492.019 276.934
L492.019 272.371
L492.019 272.371
L492.019 272.371
L511.322 272.371" style="fill:none;stroke:#f5deb3;stroke-linecap:square;"/>
   </g>
   <g id="line2d_11">
    <path clip-path="url(#p4b24e7e61f)" d="
M307.278 359.056
L307.278 354.494
L339.904 354.494
L339.904 349.932
L354.624 349.932
L354.624 345.369
L361.604 345.369
L361.604 340.807
L364.955 340.807
L364.955 336.244
L368.469 336.244
L368.469 331.682
L369.792 331.682
L369.792 327.12
L371.057 327.12
L371.057 322.557
L380.886 322.557
L380.886 317.995
L382.599 317.995
L382.599 313.433
L382.659 313.433
L382.659 308.87
L385.039 308.87
L385.039 304.308
L391.481 304.308
L391.481 299.745
L391.928 299.745
L391.928 295.183
L394.983 295.183
L394.983 290.621
L395.691 290.621
L395.691 286.058
L396.258 286.058
L396.258 281.496
L396.712 281.496
L396.712 276.934
L397.546 276.934
L397.546 272.371
L402.169 272.371
L402.169 267.809
L414.066 267.809
L414.066 263.246
L414.729 263.246
L414.729 258.684
L416.858 258.684
L416.858 254.122
L421.11 254.122
L421.11 249.559
L422.474 249.559
L422.474 244.997
L424.448 244.997
L424.448 240.435
L434.366 240.435
L434.366 235.872
L435.565 235.872
L435.565 231.31
L435.681 231.31
L435.681 226.747
L438.415 226.747
L438.415 222.185
L442.715 222.185
L442.715 217.623
L463.756 217.623
L463.756 213.06
L509.525 213.06
L509.525 208.498
L520.157 208.498
L520.157 203.936
L522.214 203.936
L522.214 199.373
L522.813 199.373
L522.813 194.811
L523.136 194.811
L523.136 190.248
L524.002 190.248" style="fill:none;stroke:#f5deb3;stroke-linecap:square;"/>
   </g>
   <g id="line2d_12">
    <path clip-path="url(#p4b24e7e61f)" d="
M244.231 359.056
L244.231 354.494
L247.71 354.494
L247.71 349.932
L249.339 349.932
L249.339 345.369
L263.538 345.369
L263.538 340.807
L263.814 340.807
L263.814 336.244
L278.679 336.244
L278.679 331.682
L280.684 331.682
L280.684 327.12
L282.079 327.12
L282.079 322.557
L282.927 322.557
L282.927 317.995
L287.804 317.995
L287.804 313.433
L294.568 313.433
L294.568 308.87
L296.623 308.87
L296.623 304.308
L298.124 304.308
L298.124 299.745
L300.003 299.745
L300.003 295.183
L300.111 295.183
L300.111 290.621
L300.326 290.621
L300.326 286.058
L302.205 286.058
L302.205 281.496
L306.541 281.496
L306.541 276.934
L314.801 276.934
L314.801 272.371
L323.298 272.371
L323.298 267.809
L332.097 267.809
L332.097 263.246
L336.587 263.246
L336.587 258.684
L340.383 258.684
L340.383 254.122
L342.96 254.122
L342.96 249.559
L355.222 249.559
L355.222 244.997
L360.548 244.997
L360.548 240.435
L366.57 240.435
L366.57 235.872
L367.261 235.872
L367.261 231.31
L379.464 231.31
L379.464 226.747
L379.961 226.747
L379.961 222.185
L379.961 222.185
L379.961 222.185
L511.322 222.185" style="fill:none;stroke:#f5deb3;stroke-linecap:square;"/>
   </g>
   <g id="line2d_13">
    <path clip-path="url(#p4b24e7e61f)" d="
M307.442 359.056
L307.442 354.494
L320.846 354.494
L320.846 349.932
L325.928 349.932
L325.928 345.369
L327.08 345.369
L327.08 340.807
L332.324 340.807
L332.324 336.244
L336.545 336.244
L336.545 331.682
L340.02 331.682
L340.02 327.12
L340.294 327.12
L340.294 322.557
L340.294 322.557
L340.294 317.995
L342.758 317.995
L342.758 313.433
L356.831 313.433
L356.831 308.87
L356.831 308.87
L356.831 308.87
L511.322 308.87" style="fill:none;stroke:#f5deb3;stroke-linecap:square;"/>
   </g>
   <g id="line2d_14">
    <path clip-path="url(#p4b24e7e61f)" d="
M209.023 359.056
L209.023 354.494
L219.936 354.494
L219.936 349.932
L277.923 349.932
L277.923 345.369
L314.923 345.369
L314.923 340.807
L323.972 340.807
L323.972 336.244
L328.537 336.244
L328.537 331.682
L329.758 331.682
L329.758 327.12
L337.136 327.12
L337.136 322.557
L338.023 322.557
L338.023 317.995
L342.823 317.995
L342.823 313.433
L345.504 313.433
L345.504 308.87
L346.039 308.87
L346.039 304.308
L346.34 304.308
L346.34 299.745
L348.328 299.745
L348.328 295.183
L351.292 295.183
L351.292 290.621
L355.126 290.621
L355.126 286.058
L358.829 286.058
L358.829 281.496
L377.458 281.496
L377.458 276.934
L378.007 276.934
L378.007 272.371
L379.381 272.371
L379.381 267.809
L380.263 267.809
L380.263 263.246
L390.866 263.246
L390.866 258.684
L394.457 258.684
L394.457 254.122
L398.888 254.122
L398.888 249.559
L401.413 249.559
L401.413 244.997
L404.775 244.997
L404.775 240.435
L415.097 240.435
L415.097 235.872
L415.097 235.872
L415.097 235.872
L511.322 235.872" style="fill:none;stroke:#f5deb3;stroke-linecap:square;"/>
   </g>
   <g id="line2d_15">
    <path clip-path="url(#p4b24e7e61f)" d="
M433.537 359.056
L433.537 354.494
L435.291 354.494
L435.291 349.932
L438.049 349.932
L438.049 345.369
L441.219 345.369
L441.219 340.807
L443.75 340.807
L443.75 336.244
L447.702 336.244
L447.702 331.682
L450.43 331.682
L450.43 327.12
L454.979 327.12
L454.979 322.557
L461.203 322.557
L461.203 317.995
L464.296 317.995
L464.296 313.433
L464.608 313.433
L464.608 308.87
L469.423 308.87
L469.423 304.308
L470.232 304.308
L470.232 299.745
L470.285 299.745
L470.285 295.183
L470.973 295.183
L470.973 290.621
L471.999 290.621
L471.999 286.058
L474.067 286.058
L474.067 281.496
L477.629 281.496
L477.629 276.934
L483.086 276.934
L483.086 272.371
L483.086 272.371
L483.086 272.371
L511.322 272.371" style="fill:none;stroke:#f5deb3;stroke-linecap:square;"/>
   </g>
   <g id="line2d_16">
    <path clip-path="url(#p4b24e7e61f)" d="
M313.222 359.056
L313.222 354.494
L392.21 354.494
L392.21 349.932
L417.748 349.932
L417.748 345.369
L418.624 345.369
L418.624 340.807
L426.507 340.807
L426.507 336.244
L433.664 336.244
L433.664 331.682
L450.594 331.682
L450.594 327.12
L459.723 327.12
L459.723 322.557
L460.916 322.557
L460.916 317.995
L463.066 317.995
L463.066 313.433
L470.317 313.433
L470.317 308.87
L474.837 308.87
L474.837 304.308
L477.608 304.308
L477.608 299.745
L478.927 299.745
L478.927 295.183
L480.555 295.183
L480.555 290.621
L480.758 290.621
L480.758 286.058
L485.198 286.058
L485.198 281.496
L485.454 281.496
L485.454 276.934
L487.699 276.934
L487.699 272.371
L492.718 272.371
L492.718 267.809
L492.985 267.809
L492.985 263.246
L500.21 263.246
L500.21 258.684
L503.553 258.684
L503.553 254.122
L504.899 254.122
L504.899 249.559
L511.319 249.559
L511.319 244.997
L514.591 244.997
L514.591 240.435
L515.834 240.435
L515.834 235.872
L517.011 235.872
L517.011 231.31
L518.113 231.31
L518.113 226.747
L518.395 226.747
L518.395 222.185
L519.275 222.185
L519.275 217.623
L524.002 217.623" style="fill:none;stroke:#f5deb3;stroke-linecap:square;"/>
   </g>
   <g id="line2d_17">
    <path clip-path="url(#p4b24e7e61f)" d="
M322.471 359.056
L322.471 354.494
L324.787 354.494
L324.787 349.932
L343.185 349.932
L343.185 345.369
L413.42 345.369
L413.42 340.807
L450.524 340.807
L450.524 336.244
L450.524 336.244
L450.524 336.244
L511.322 336.244" style="fill:none;stroke:#f5deb3;stroke-linecap:square;"/>
   </g>
   <g id="line2d_18">
    <path clip-path="url(#p4b24e7e61f)" d="
M218.93 359.056
L218.93 354.494
L237.271 354.494
L237.271 349.932
L244.907 349.932
L244.907 345.369
L246.513 345.369
L246.513 340.807
L246.869 340.807
L246.869 336.244
L258.685 336.244
L258.685 331.682
L265.95 331.682
L265.95 327.12
L267.353 327.12
L267.353 322.557
L270.171 322.557
L270.171 317.995
L274.118 317.995
L274.118 313.433
L282.505 313.433
L282.505 308.87
L283.371 308.87
L283.371 304.308
L285.021 304.308
L285.021 299.745
L285.599 299.745
L285.599 295.183
L296.936 295.183
L296.936 290.621
L298.649 290.621
L298.649 286.058
L299.057 286.058
L299.057 281.496
L299.533 281.496
L299.533 276.934
L300.504 276.934
L300.504 272.371
L311.829 272.371
L311.829 267.809
L312.539 267.809
L312.539 263.246
L318.139 263.246
L318.139 258.684
L321.056 258.684
L321.056 254.122
L327.525 254.122
L327.525 249.559
L337.5 249.559
L337.5 244.997
L341.199 244.997
L341.199 240.435
L344.382 240.435
L344.382 235.872
L348.846 235.872
L348.846 231.31
L364.658 231.31
L364.658 226.747
L370.852 226.747
L370.852 222.185
L370.852 222.185
L370.852 222.185
L511.322 222.185" style="fill:none;stroke:#f5deb3;stroke-linecap:square;"/>
   </g>
   <g id="line2d_19">
    <path clip-path="url(#p4b24e7e61f)" d="
M360.912 359.056
L360.912 357.387
L360.912 357.387
L360.912 357.387
L360.912 355.718
L360.912 355.718
L360.912 355.718
L360.912 354.049
L364.447 354.049
L364.447 349.041
L367.83 349.041
L367.83 344.034
L372.025 344.034
L372.025 339.026
L373.052 339.026
L373.052 334.019
L373.372 334.019
L373.372 329.011
L376.53 329.011
L376.53 324.004
L376.677 324.004
L376.677 318.996
L377.394 318.996
L377.394 313.989
L378.987 313.989
L378.987 308.981
L380.991 308.981
L380.991 303.974
L381.675 303.974
L381.675 298.967
L381.843 298.967
L381.843 293.959
L382.258 293.959
L382.258 288.952
L384.315 288.952
L384.315 283.944
L391.063 283.944
L391.063 278.937
L392.542 278.937
L392.542 273.929
L398.041 273.929
L398.041 268.922
L401.988 268.922
L401.988 263.914
L403.222 263.914
L403.222 258.907
L403.962 258.907
L403.962 253.899
L404.327 253.899
L404.329 243.884
L406.971 243.884
L407.045 233.869
L408.444 233.869
L408.444 228.862
L411.419 228.862
L411.419 223.854
L414.462 223.854
L414.462 218.847
L415.728 218.847
L415.728 213.839
L415.892 213.839
L415.892 208.832
L425.241 208.832
L425.241 203.824
L426.883 203.824
L426.915 193.809
L428.193 193.809
L428.193 188.802
L429.663 188.802
L429.663 183.794
L431.129 183.794
L431.129 178.787
L431.475 178.787
L431.475 173.779
L434.093 173.779
L434.093 168.772
L434.512 168.772
L434.512 163.764
L435.662 163.764
L435.662 158.757
L435.873 158.757
L435.873 153.749
L446.365 153.749
L446.365 148.742
L447.736 148.742
L447.736 143.734
L453.302 143.734
L453.302 138.727
L486.153 138.727
L486.153 133.719
L486.153 133.719
L511.322 133.719
L511.322 133.719" style="fill:none;stroke:#f5deb3;stroke-linecap:square;"/>
   </g>
   <g id="line2d_20">
    <path clip-path="url(#p4b24e7e61f)" d="
M214.292 359.056
L214.292 354.494
L214.292 354.494
L214.292 349.932
L218.342 349.932
L218.342 345.369
L220.5 345.369
L220.5 340.807
L233.258 340.807
L233.258 336.244
L250.966 336.244
L250.966 331.682
L255.417 331.682
L255.417 327.12
L262.226 327.12
L262.226 322.557
L270.596 322.557
L270.596 317.995
L280.147 317.995
L280.147 313.433
L281.446 313.433
L281.446 308.87
L283.454 308.87
L283.454 304.308
L285.021 304.308
L285.021 299.745
L288.342 299.745
L288.342 295.183
L288.439 295.183
L288.439 290.621
L294.98 290.621
L294.98 286.058
L298.068 286.058
L298.068 281.496
L298.761 281.496
L298.761 276.934
L299.46 276.934
L299.46 272.371
L300.45 272.371
L300.45 267.809
L303.558 267.809
L303.558 263.246
L307.189 263.246
L307.189 258.684
L313.299 258.684
L313.299 254.122
L313.312 254.122
L313.312 249.559
L314.886 249.559
L314.886 244.997
L325.604 244.997
L325.604 240.435
L326.721 240.435
L326.721 235.872
L328.208 235.872
L328.208 231.31
L347.317 231.31
L347.317 226.747
L348.984 226.747
L348.984 222.185
L445.747 222.185
L445.747 217.623
L445.747 217.623
L445.747 217.623
L511.322 217.623" style="fill:none;stroke:#f5deb3;stroke-linecap:square;"/>
   </g>
   <g id="line2d_21">
    <path clip-path="url(#p4b24e7e61f)" d="
M383.291 359.056
L383.291 354.494
L403.596 354.494
L403.596 349.932
L410.408 349.932
L410.408 345.369
L410.408 345.369
L410.408 345.369
L511.322 345.369" style="fill:none;stroke:#f5deb3;stroke-linecap:square;"/>
   </g>
   <g id="line2d_22">
    <path clip-path="url(#p4b24e7e61f)" d="
M199.95 359.056
L199.95 354.494
L205.89 354.494
L205.89 349.932
L213.63 349.932
L213.63 345.369
L214.619 345.369
L214.619 340.807
L220.5 340.807
L220.5 336.244
L223.72 336.244
L223.72 331.682
L272.434 331.682
L272.434 327.12
L296.78 327.12
L296.78 322.557
L298.761 322.557
L298.761 317.995
L302.426 317.995
L302.426 313.433
L304.737 313.433
L304.737 308.87
L312.028 308.87
L312.028 304.308
L315.349 304.308
L315.349 299.745
L322.842 299.745
L322.842 295.183
L327.098 295.183
L327.098 290.621
L331.655 290.621
L331.655 286.058
L350.834 286.058
L350.834 281.496
L351.397 281.496
L351.397 276.934
L354.62 276.934
L354.62 272.371
L355.886 272.371
L355.886 267.809
L358.971 267.809
L358.971 263.246
L367.996 263.246
L367.996 258.684
L377.793 258.684
L377.793 254.122
L384.085 254.122
L384.085 249.559
L384.904 249.559
L384.904 244.997
L385.626 244.997
L385.626 240.435
L399.044 240.435
L399.044 235.872
L409.209 235.872
L409.209 231.31
L415.617 231.31
L415.617 226.747
L425.431 226.747
L425.431 222.185
L428.512 222.185
L428.512 217.623
L432.827 217.623
L432.827 213.06
L438.679 213.06
L438.679 208.498
L442.045 208.498
L442.045 203.936
L444.63 203.936
L444.63 199.373
L456.623 199.373
L456.623 194.811
L457.754 194.811
L457.754 190.248
L461.501 190.248
L461.501 185.686
L472.427 185.686
L472.427 181.124
L488.163 181.124
L488.163 176.561
L490.504 176.561
L490.504 171.999
L492.409 171.999
L492.409 167.437
L498.977 167.437
L498.977 162.874
L499.112 162.874
L499.112 158.312
L499.112 158.312
L499.112 158.312
L511.322 158.312" style="fill:none;stroke:#f5deb3;stroke-linecap:square;"/>
   </g>
   <g id="line2d_23">
    <path clip-path="url(#p4b24e7e61f)" d="
M315.506 359.056
L315.506 354.494
L321.585 354.494
L321.585 349.932
L324.368 349.932
L324.368 345.369
L325.118 345.369
L325.118 340.807
L326.54 340.807
L326.54 336.244
L329.38 336.244
L329.38 331.682
L343.973 331.682
L343.973 327.12
L347.718 327.12
L347.718 322.557
L347.933 322.557
L347.933 317.995
L349.519 317.995
L349.519 313.433
L356.69 313.433
L356.69 308.87
L359.416 308.87
L359.416 304.308
L365.523 304.308
L365.523 299.745
L371.65 299.745
L371.65 295.183
L374.174 295.183
L374.174 290.621
L378.956 290.621
L378.956 286.058
L391.834 286.058
L391.834 281.496
L391.869 281.496
L391.869 276.934
L394.526 276.934
L394.526 272.371
L399.223 272.371
L399.223 267.809
L415.373 267.809
L415.373 263.246
L415.373 263.246
L415.373 263.246
L511.322 263.246" style="fill:none;stroke:#f5deb3;stroke-linecap:square;"/>
   </g>
   <g id="line2d_24">
    <path clip-path="url(#p4b24e7e61f)" d="
M274.258 359.056
L274.258 354.494
L275.564 354.494
L275.564 349.932
L281.735 349.932
L281.735 345.369
L282.787 345.369
L282.787 340.807
L288.68 340.807
L288.68 336.244
L289.562 336.244
L289.562 331.682
L298.406 331.682
L298.406 327.12
L321.575 327.12
L321.575 322.557
L347.137 322.557
L347.137 317.995
L348.027 317.995
L348.027 313.433
L349.348 313.433
L349.348 308.87
L350.659 308.87
L350.659 304.308
L352.41 304.308
L352.41 299.745
L353.234 299.745
L353.234 295.183
L353.456 295.183
L353.456 290.621
L356.014 290.621
L356.014 286.058
L364.549 286.058
L364.549 281.496
L365.25 281.496
L365.25 276.934
L366.32 276.934
L366.32 272.371
L375.596 272.371
L375.596 267.809
L380.918 267.809
L380.918 263.246
L381.999 263.246
L381.999 258.684
L383.242 258.684
L383.242 254.122
L383.414 254.122
L383.414 249.559
L385.895 249.559
L385.895 244.997
L392.189 244.997
L392.189 240.435
L393.847 240.435
L393.847 235.872
L394.468 235.872
L394.468 231.31
L400.183 231.31
L400.183 226.747
L403.777 226.747
L403.777 222.185
L405.483 222.185
L405.483 217.623
L409.72 217.623
L409.72 213.06
L411.266 213.06
L411.266 208.498
L415.614 208.498
L415.614 203.936
L421.577 203.936
L421.577 199.373
L422.983 199.373
L422.983 194.811
L428.129 194.811
L428.129 190.248
L443.491 190.248
L443.491 185.686
L445.875 185.686
L445.875 181.124
L448.244 181.124
L448.244 176.561
L458.449 176.561
L458.449 171.999
L462.168 171.999
L462.168 167.437
L480.3 167.437
L480.3 162.874
L483.166 162.874
L483.166 158.312
L484.394 158.312
L484.394 153.749
L484.699 153.749
L484.699 149.187
L485.204 149.187
L485.204 144.625
L487.193 144.625
L487.193 140.062
L487.691 140.062
L487.691 135.5
L490.147 135.5
L490.147 130.938
L505.247 130.938
L505.247 126.375
L505.802 126.375
L505.802 121.813
L509.866 121.813
L509.866 117.25
L521.286 117.25
L521.286 112.688
L522.984 112.688
L522.984 108.126
L524.002 108.126" style="fill:none;stroke:#f5deb3;stroke-linecap:square;"/>
   </g>
   <g id="line2d_25">
    <path clip-path="url(#p4b24e7e61f)" d="
M402.437 359.056
L402.437 354.494
L405.077 354.494
L405.077 349.932
L408.966 349.932
L408.966 345.369
L409.98 345.369
L409.98 340.807
L410.012 340.807
L410.012 336.244
L410.837 336.244
L410.837 331.682
L410.993 331.682
L410.993 327.12
L411.59 327.12
L411.59 322.557
L412.687 322.557
L412.687 317.995
L413.842 317.995
L413.842 313.433
L414.286 313.433
L414.286 308.87
L414.346 308.87
L414.346 304.308
L414.401 304.308
L414.401 299.745
L414.466 299.745
L414.466 295.183
L414.844 295.183
L414.844 290.621
L415.363 290.621
L415.363 286.058
L415.616 286.058
L415.616 281.496
L416.222 281.496
L416.222 276.934
L417.286 276.934
L417.286 272.371
L417.677 272.371
L417.677 267.809
L418.875 267.809
L418.875 263.246
L418.973 263.246
L418.973 258.684
L420.802 258.684
L420.802 254.122
L420.998 254.122
L420.998 249.559
L431.954 249.559
L431.954 244.997
L433.043 244.997
L433.043 240.435
L434.02 240.435
L434.02 235.872
L434.346 235.872
L434.346 231.31
L434.84 231.31
L434.84 226.747
L435.372 226.747
L435.372 222.185
L435.395 222.185
L435.395 217.623
L435.682 217.623
L435.682 213.06
L436.373 213.06
L436.373 208.498
L436.382 208.498
L436.382 203.936
L436.475 203.936
L436.475 199.373
L437.91 199.373
L437.91 194.811
L438.229 194.811
L438.229 190.248
L438.229 190.248
L438.229 190.248
L511.322 190.248" style="fill:none;stroke:#f5deb3;stroke-linecap:square;"/>
   </g>
   <g id="line2d_26">
    <path clip-path="url(#p4b24e7e61f)" d="
M289.514 359.056
L289.514 354.494
L290.926 354.494
L290.926 349.932
L291.266 349.932
L291.266 345.369
L291.714 345.369
L291.714 340.807
L291.892 340.807
L291.892 336.244
L292.898 336.244
L292.898 331.682
L293.626 331.682
L293.626 327.12
L293.879 327.12
L293.879 322.557
L296.994 322.557
L296.994 317.995
L306.19 317.995
L306.19 313.433
L307.084 313.433
L307.084 308.87
L308.177 308.87
L308.177 304.308
L308.582 304.308
L308.582 299.745
L311.47 299.745
L311.47 295.183
L319.128 295.183
L319.128 290.621
L319.846 290.621
L319.846 286.058
L319.868 286.058
L319.868 281.496
L320.413 281.496
L320.413 276.934
L322.097 276.934
L322.097 272.371
L322.35 272.371
L322.35 267.809
L323.249 267.809
L323.249 263.246
L334.117 263.246
L334.117 258.684
L336.748 258.684
L336.748 254.122
L336.845 254.122
L336.845 249.559
L337.766 249.559
L337.766 244.997
L339.303 244.997
L339.303 240.435
L344.542 240.435
L344.542 235.872
L344.741 235.872
L344.741 231.31
L347.959 231.31
L347.959 226.747
L348.953 226.747
L348.953 222.185
L358.659 222.185
L358.659 217.623
L359.829 217.623
L359.829 213.06
L363.693 213.06
L363.693 208.498
L366.369 208.498
L366.369 203.936
L384.842 203.936
L384.842 199.373
L387.006 199.373
L387.006 194.811
L412.787 194.811
L412.787 190.248
L413.137 190.248
L413.137 185.686
L428.539 185.686
L428.539 181.124
L432.965 181.124
L432.965 176.561
L435.956 176.561
L435.956 171.999
L436.435 171.999
L436.435 167.437
L439.462 167.437
L439.462 162.874
L439.885 162.874
L439.885 158.312
L440.283 158.312
L440.283 153.749
L442.622 153.749
L442.622 149.187
L444.3 149.187
L444.3 144.625
L444.373 144.625
L444.373 140.062
L444.439 140.062
L444.439 135.5
L450.245 135.5
L450.245 130.938
L450.245 130.938
L450.245 130.938
L511.322 130.938" style="fill:none;stroke:#f5deb3;stroke-linecap:square;"/>
   </g>
   <g id="line2d_27">
    <path clip-path="url(#p4b24e7e61f)" d="
M335.119 359.056
L335.119 354.494
L335.119 354.494
L335.119 354.494
L511.322 354.494" style="fill:none;stroke:#f5deb3;stroke-linecap:square;"/>
   </g>
   <g id="line2d_28">
    <path clip-path="url(#p4b24e7e61f)" d="
M251.911 359.056
L251.911 354.494
L252.528 354.494
L252.528 349.932
L260.62 349.932
L260.62 345.369
L269.859 345.369
L269.859 340.807
L288.584 340.807
L288.584 336.244
L311.948 336.244
L311.948 331.682
L325.863 331.682
L325.863 327.12
L348.447 327.12
L348.447 322.557
L350.718 322.557
L350.718 317.995
L352.706 317.995
L352.706 313.433
L352.739 313.433
L352.739 308.87
L354.523 308.87
L354.523 304.308
L354.891 304.308
L354.891 299.745
L357.355 299.745
L357.355 295.183
L362.32 295.183
L362.32 290.621
L363.672 290.621
L363.672 286.058
L380.546 286.058
L380.546 281.496
L381.712 281.496
L381.712 276.934
L382.295 276.934
L382.295 272.371
L382.625 272.371
L382.625 267.809
L383.284 267.809
L383.284 263.246
L384.321 263.246
L384.321 258.684
L385.366 258.684
L385.366 254.122
L385.858 254.122
L385.858 249.559
L386.494 249.559
L386.494 244.997
L391.064 244.997
L391.064 240.435
L391.15 240.435
L391.15 235.872
L395.421 235.872
L395.421 231.31
L396.488 231.31
L396.488 226.747
L396.625 226.747
L396.625 222.185
L400.097 222.185
L400.097 217.623
L400.375 217.623
L400.375 213.06
L412.587 213.06
L412.587 208.498
L416.573 208.498
L416.573 203.936
L419.95 203.936
L419.95 199.373
L421.811 199.373
L421.811 194.811
L422.551 194.811
L422.551 190.248
L425.113 190.248
L425.113 185.686
L433.418 185.686
L433.418 181.124
L439.518 181.124
L439.518 176.561
L442.514 176.561
L442.514 171.999
L443.876 171.999
L443.876 167.437
L446.411 167.437
L446.411 162.874
L466.572 162.874
L466.572 158.312
L478.492 158.312
L478.492 153.749
L490.603 153.749
L490.603 149.187
L495.334 149.187
L495.334 144.625
L511.485 144.625
L511.485 140.062
L512.421 140.062
L512.421 135.5
L523.203 135.5
L523.203 130.938
L523.92 130.938
L523.92 126.375
L524.002 126.375" style="fill:none;stroke:#f5deb3;stroke-linecap:square;"/>
   </g>
   <g id="line2d_29">
    <path clip-path="url(#p4b24e7e61f)" d="
M247.986 359.056
L247.986 354.494
L247.986 354.494
L247.986 349.932
L247.986 349.932
L247.986 345.369
L275.156 345.369
L275.156 340.807
L275.156 340.807
L275.156 336.244
L275.156 336.244
L275.156 331.682
L280.861 331.682
L280.861 327.12
L280.861 327.12
L280.861 322.557
L280.861 322.557
L280.861 317.995
L314.85 317.995
L314.85 313.433
L314.85 313.433
L314.85 308.87
L314.85 308.87
L314.85 304.308
L351.725 304.308
L351.725 299.745
L351.725 299.745
L351.725 295.183
L351.725 295.183
L351.725 290.621
L366.466 290.621
L366.466 286.058
L366.466 286.058
L366.466 281.496
L366.466 281.496
L366.466 276.934
L374.179 276.934
L374.179 272.371
L374.179 272.371
L374.179 267.809
L374.179 267.809
L374.179 263.246
L376.643 263.246
L376.643 258.684
L377.458 258.684
L377.458 254.122
L388.019 254.122
L388.019 249.559
L389.077 249.559
L389.077 244.997
L389.329 244.997
L389.329 240.435
L397.379 240.435
L397.379 235.872
L400.263 235.872
L400.263 231.31
L403.952 231.31
L403.952 226.747
L418.435 226.747
L418.435 222.185
L418.435 222.185
L418.435 222.185
L511.322 222.185" style="fill:none;stroke:#f5deb3;stroke-linecap:square;"/>
   </g>
   <g id="line2d_30">
    <path clip-path="url(#p4b24e7e61f)" d="
M343.173 359.056
L343.173 354.494
L345.593 354.494
L345.593 349.932
L386.43 349.932
L386.43 345.369
L397.752 345.369
L397.752 340.807
L413.657 340.807
L413.657 336.244
L419.203 336.244
L419.203 331.682
L420.408 331.682
L420.408 327.12
L420.721 327.12
L420.721 322.557
L421.04 322.557
L421.04 317.995
L421.375 317.995
L421.375 313.433
L421.375 313.433
L421.375 313.433
L511.322 313.433" style="fill:none;stroke:#f5deb3;stroke-linecap:square;"/>
   </g>
   <g id="line2d_31">
    <path clip-path="url(#p4b24e7e61f)" d="
M2.55091 359.056
L2.55091 354.494
L2.55091 354.494
L2.55091 354.494
L2.55091 349.932
L29.4126 349.932
L29.4126 327.12
L56.2743 327.12
L56.2743 313.433
L64.9219 313.433
L64.9219 308.87
L71.9874 308.87
L71.9874 299.745
L77.9613 299.745
L77.9613 295.183
L95.4772 295.183
L95.4772 281.496
L98.8491 281.496
L98.8491 267.809
L101.951 267.809
L101.951 263.246
L109.998 263.246
L109.998 258.684
L112.347 258.684
L112.347 254.122
L114.562 254.122
L114.562 249.559
L118.645 249.559
L118.645 244.997
L120.536 244.997
L120.536 240.435
L124.062 240.435
L124.062 235.872
L125.711 235.872
L125.711 231.31
L133.045 231.31
L133.045 222.185
L139.209 222.185
L139.209 217.623
L140.332 217.623
L140.332 213.06
L141.424 213.06
L141.424 208.498
L148.31 208.498
L148.31 203.936
L152.573 203.936
L152.573 199.373
L156.413 199.373
L156.413 190.248
L157.137 190.248
L157.137 181.124
L159.232 181.124
L159.232 176.561
L160.569 176.561
L160.569 167.437
L165.496 167.437
L165.496 162.874
L167.194 162.874
L167.194 158.312
L169.347 158.312
L169.347 153.749
L172.369 153.749
L172.369 149.187
L173.326 149.187
L173.326 144.625
L176.933 144.625
L176.933 140.062
L180.233 140.062
L180.233 135.5
L185.061 135.5
L185.061 130.938
L189.039 130.938
L189.039 126.375
L189.973 126.375
L189.973 121.813
L191.775 121.813
L191.775 117.25
L193.498 117.25
L193.498 112.688
L202.924 112.688
L202.924 108.126
L212.27 108.126
L212.27 103.563
L215.584 103.563
L215.584 99.0009
L258.317 99.0009
L258.317 94.4385
L270.711 94.4385
L270.711 89.8761
L270.826 89.8761
L270.826 85.3138
L272.507 85.3138
L272.507 80.7514
L273.16 80.7514
L273.16 76.189
L282.279 76.189
L282.279 71.6266
L283.482 71.6266
L283.482 67.0643
L283.947 67.0643
L283.947 62.5019
L287.382 62.5019
L287.382 57.9395
L290.006 57.9395
L290.006 53.3771
L290.561 53.3771
L290.561 48.8148
L291.266 48.8148
L291.266 44.2524
L295.83 44.2524
L295.83 39.69
L336.859 39.69
L336.859 35.1276
L338.698 35.1276
L338.698 30.5653
L342.12 30.5653
L342.12 26.0029
L371.037 26.0029
L371.037 21.4405
L376.177 21.4405
L376.177 16.8781
L376.177 16.8781
L511.322 16.8781
L511.322 16.8781" style="fill:none;stroke:#000000;stroke-linecap:square;"/>
   </g>
   <g id="line2d_32">
    <path clip-path="url(#p4b24e7e61f)" style="fill:none;stroke:#000000;stroke-linecap:square;"/>
   </g>
   <g id="line2d_33">
    <path clip-path="url(#p4b24e7e61f)" d="
M199.23 359.056
L199.23 354.494
L211.395 354.494
L211.395 349.932
L216.214 349.932
L216.214 345.369
L217.445 345.369
L217.445 340.807
L233.957 340.807
L233.957 336.244
L306.419 336.244
L306.419 331.682
L306.495 331.682
L306.495 327.12
L312.146 327.12
L312.146 322.557
L312.159 322.557
L312.159 317.995
L312.304 317.995
L312.304 313.433
L312.824 313.433
L312.824 308.87
L315.674 308.87
L315.674 304.308
L315.746 304.308
L315.746 299.745
L316.716 299.745
L316.716 295.183
L321.44 295.183
L321.44 290.621
L323.288 290.621
L323.288 286.058
L332.62 286.058
L332.62 281.496
L379.251 281.496
L379.251 276.934
L380.88 276.934
L380.88 272.371
L380.9 272.371
L380.9 267.809
L385.919 267.809
L385.919 263.246
L386.639 263.246
L386.639 258.684
L394.367 258.684
L394.367 254.122
L395.099 254.122
L395.099 249.559
L395.972 249.559
L395.972 244.997
L402.655 244.997
L402.655 240.435
L403.005 240.435
L403.005 235.872
L403.553 235.872
L403.553 231.31
L405.739 231.31
L405.739 226.747
L406.592 226.747
L406.592 222.185
L426.131 222.185
L426.131 217.623
L431.308 217.623
L431.308 213.06
L434.634 213.06
L434.634 208.498
L438.351 208.498
L438.351 203.936
L440.459 203.936
L440.459 199.373
L441.213 199.373
L441.213 194.811
L442.473 194.811
L442.473 190.248
L450.241 190.248
L450.241 185.686
L458.39 185.686
L458.39 181.124
L467.559 181.124
L467.559 176.561
L497.017 176.561
L497.017 171.999
L507.453 171.999
L507.453 167.437
L507.453 167.437
L507.453 167.437
L511.322 167.437" style="fill:none;stroke:#00bfbf;stroke-linecap:square;"/>
   </g>
   <g id="line2d_34">
    <path clip-path="url(#p4b24e7e61f)" style="fill:none;stroke:#00bfbf;stroke-linecap:square;"/>
   </g>
   <g id="line2d_35">
    <path clip-path="url(#p4b24e7e61f)" d="
M233.359 359.056
L233.359 354.494
L237.18 354.494
L237.18 349.932
L237.722 349.932
L237.722 345.369
L254.322 345.369
L254.322 340.807
L257.626 340.807
L257.626 336.244
L321.842 336.244
L321.842 331.682
L323.846 331.682
L323.846 327.12
L324.463 327.12
L324.463 322.557
L329.49 322.557
L329.49 317.995
L329.907 317.995
L329.907 313.433
L332.301 313.433
L332.301 308.87
L332.433 308.87
L332.433 304.308
L332.906 304.308
L332.906 299.745
L333.471 299.745
L333.471 295.183
L334.17 295.183
L334.17 290.621
L395.263 290.621
L395.263 286.058
L395.286 286.058
L395.286 281.496
L396.63 281.496
L396.63 276.934
L398.684 276.934
L398.684 272.371
L403.478 272.371
L403.478 267.809
L403.939 267.809
L403.939 263.246
L404.444 263.246
L404.444 258.684
L406.024 258.684
L406.024 254.122
L407.13 254.122
L407.13 249.559
L414.738 249.559
L414.738 244.997
L416.801 244.997
L416.801 240.435
L417.11 240.435
L417.11 235.872
L432.629 235.872
L432.629 231.31
L434.926 231.31
L434.926 226.747
L438.738 226.747
L438.738 222.185
L442.663 222.185
L442.663 217.623
L442.977 217.623
L442.977 213.06
L443.035 213.06
L443.035 208.498
L444.32 208.498
L444.32 203.936
L451.956 203.936
L451.956 199.373
L460.061 199.373
L460.061 194.811
L482.406 194.811
L482.406 190.248
L497.552 190.248
L497.552 185.686
L497.552 185.686
L497.552 185.686
L511.322 185.686" style="fill:none;stroke:#bf00bf;stroke-linecap:square;"/>
   </g>
   <g id="line2d_36">
    <path clip-path="url(#p4b24e7e61f)" style="fill:none;stroke:#bf00bf;stroke-linecap:square;"/>
   </g>
   <g id="line2d_37">
    <path clip-path="url(#p4b24e7e61f)" d="
M248.533 359.056
L248.533 354.494
L250.582 354.494
L250.582 349.932
L253.792 349.932
L253.792 345.369
L263.676 345.369
L263.676 340.807
L264.404 340.807
L264.404 336.244
L332.34 336.244
L332.34 331.682
L333.622 331.682
L333.622 327.12
L336.172 327.12
L336.172 322.557
L336.363 322.557
L336.363 317.995
L339.853 317.995
L339.853 313.433
L340.288 313.433
L340.288 308.87
L340.793 308.87
L340.793 304.308
L340.875 304.308
L340.875 299.745
L341.95 299.745
L341.95 295.183
L343.179 295.183
L343.179 290.621
L400.231 290.621
L400.231 286.058
L400.379 286.058
L400.379 281.496
L401.806 281.496
L401.806 276.934
L401.985 276.934
L401.985 272.371
L405.286 272.371
L405.286 267.809
L409.445 267.809
L409.445 263.246
L410.491 263.246
L410.491 258.684
L410.568 258.684
L410.568 254.122
L411.743 254.122
L411.743 249.559
L417.03 249.559
L417.03 244.997
L421.956 244.997
L421.956 240.435
L423.061 240.435
L423.061 235.872
L433.435 235.872
L433.435 231.31
L439.007 231.31
L439.007 226.747
L439.295 226.747
L439.295 222.185
L443.439 222.185
L443.439 217.623
L443.598 217.623
L443.598 213.06
L444.244 213.06
L444.244 208.498
L446.846 208.498
L446.846 203.936
L452.875 203.936
L452.875 199.373
L461.107 199.373
L461.107 194.811
L482.657 194.811
L482.657 190.248
L497.876 190.248
L497.876 185.686
L497.876 185.686
L497.876 185.686
L511.322 185.686" style="fill:none;stroke:#ff0000;stroke-linecap:square;stroke-width:3.0;"/>
   </g>
   <g id="line2d_38">
    <path clip-path="url(#p4b24e7e61f)" style="fill:none;stroke:#ff0000;stroke-linecap:square;stroke-width:3.0;"/>
   </g>
   <g id="line2d_39">
    <path clip-path="url(#p4b24e7e61f)" d="
M511.311 359.056
L511.311 13.4563" style="fill:none;stroke:#000000;stroke-linecap:square;"/>
   </g>
   <g id="patch_3">
    <path d="
M64.9219 13.4563
L511.322 13.4563" style="fill:none;stroke:#000000;stroke-linecap:square;stroke-linejoin:miter;"/>
   </g>
   <g id="patch_4">
    <path d="
M511.322 359.056
L511.322 13.4563" style="fill:none;stroke:#000000;stroke-linecap:square;stroke-linejoin:miter;"/>
   </g>
   <g id="patch_5">
    <path d="
M64.9219 359.056
L511.322 359.056" style="fill:none;stroke:#000000;stroke-linecap:square;stroke-linejoin:miter;"/>
   </g>
   <g id="patch_6">
    <path d="
M64.9219 359.056
L64.9219 13.4563" style="fill:none;stroke:#000000;stroke-linecap:square;stroke-linejoin:miter;"/>
   </g>
   <g id="matplotlib.axis_1">
    <g id="xtick_1">
     <g id="line2d_40">
      <path clip-path="url(#p4b24e7e61f)" d="
M64.9219 359.056
L64.9219 13.4563" style="fill:none;stroke:#000000;stroke-dasharray:1.000000,3.000000;stroke-dashoffset:0.0;stroke-width:0.5;"/>
     </g>
     <g id="line2d_41">
      <defs>
       <path d="
M0 0
L0 -4" id="m93b0483c22" style="stroke:#000000;stroke-width:0.5;"/>
      </defs>
      <g>
       <use style="stroke:#000000;stroke-width:0.5;" x="64.921875" xlink:href="#m93b0483c22" y="359.056342822"/>
      </g>
     </g>
     <g id="line2d_42">
      <defs>
       <path d="
M0 0
L0 4" id="m741efc42ff" style="stroke:#000000;stroke-width:0.5;"/>
      </defs>
      <g>
       <use style="stroke:#000000;stroke-width:0.5;" x="64.921875" xlink:href="#m741efc42ff" y="13.4563428218"/>
      </g>
     </g>
     <g id="text_1">
      <!-- 0 -->
      <defs>
       <path d="
M31.7812 66.4062
Q24.1719 66.4062 20.3281 58.9062
Q16.5 51.4219 16.5 36.375
Q16.5 21.3906 20.3281 13.8906
Q24.1719 6.39062 31.7812 6.39062
Q39.4531 6.39062 43.2812 13.8906
Q47.125 21.3906 47.125 36.375
Q47.125 51.4219 43.2812 58.9062
Q39.4531 66.4062 31.7812 66.4062
M31.7812 74.2188
Q44.0469 74.2188 50.5156 64.5156
Q56.9844 54.8281 56.9844 36.375
Q56.9844 17.9688 50.5156 8.26562
Q44.0469 -1.42188 31.7812 -1.42188
Q19.5312 -1.42188 13.0625 8.26562
Q6.59375 17.9688 6.59375 36.375
Q6.59375 54.8281 13.0625 64.5156
Q19.5312 74.2188 31.7812 74.2188" id="BitstreamVeraSans-Roman-30"/>
      </defs>
      <g transform="translate(59.8828125 378.253217822)scale(0.2 -0.2)">
       <use xlink:href="#BitstreamVeraSans-Roman-30"/>
      </g>
     </g>
    </g>
    <g id="xtick_2">
     <g id="line2d_43">
      <path clip-path="url(#p4b24e7e61f)" d="
M154.155 359.056
L154.155 13.4563" style="fill:none;stroke:#000000;stroke-dasharray:1.000000,3.000000;stroke-dashoffset:0.0;stroke-width:0.5;"/>
     </g>
     <g id="line2d_44">
      <g>
       <use style="stroke:#000000;stroke-width:0.5;" x="154.154554754" xlink:href="#m93b0483c22" y="359.056342822"/>
      </g>
     </g>
     <g id="line2d_45">
      <g>
       <use style="stroke:#000000;stroke-width:0.5;" x="154.154554754" xlink:href="#m741efc42ff" y="13.4563428218"/>
      </g>
     </g>
     <g id="text_2">
      <!-- 1 -->
      <defs>
       <path d="
M12.4062 8.29688
L28.5156 8.29688
L28.5156 63.9219
L10.9844 60.4062
L10.9844 69.3906
L28.4219 72.9062
L38.2812 72.9062
L38.2812 8.29688
L54.3906 8.29688
L54.3906 0
L12.4062 0
z
" id="BitstreamVeraSans-Roman-31"/>
      </defs>
      <g transform="translate(149.813929754 378.253217822)scale(0.2 -0.2)">
       <use xlink:href="#BitstreamVeraSans-Roman-31"/>
      </g>
     </g>
    </g>
    <g id="xtick_3">
     <g id="line2d_46">
      <path clip-path="url(#p4b24e7e61f)" d="
M243.387 359.056
L243.387 13.4563" style="fill:none;stroke:#000000;stroke-dasharray:1.000000,3.000000;stroke-dashoffset:0.0;stroke-width:0.5;"/>
     </g>
     <g id="line2d_47">
      <g>
       <use style="stroke:#000000;stroke-width:0.5;" x="243.387234508" xlink:href="#m93b0483c22" y="359.056342822"/>
      </g>
     </g>
     <g id="line2d_48">
      <g>
       <use style="stroke:#000000;stroke-width:0.5;" x="243.387234508" xlink:href="#m741efc42ff" y="13.4563428218"/>
      </g>
     </g>
     <g id="text_3">
      <!-- 2 -->
      <defs>
       <path d="
M19.1875 8.29688
L53.6094 8.29688
L53.6094 0
L7.32812 0
L7.32812 8.29688
Q12.9375 14.1094 22.625 23.8906
Q32.3281 33.6875 34.8125 36.5312
Q39.5469 41.8438 41.4219 45.5312
Q43.3125 49.2188 43.3125 52.7812
Q43.3125 58.5938 39.2344 62.25
Q35.1562 65.9219 28.6094 65.9219
Q23.9688 65.9219 18.8125 64.3125
Q13.6719 62.7031 7.8125 59.4219
L7.8125 69.3906
Q13.7656 71.7812 18.9375 73
Q24.125 74.2188 28.4219 74.2188
Q39.75 74.2188 46.4844 68.5469
Q53.2188 62.8906 53.2188 53.4219
Q53.2188 48.9219 51.5312 44.8906
Q49.8594 40.875 45.4062 35.4062
Q44.1875 33.9844 37.6406 27.2188
Q31.1094 20.4531 19.1875 8.29688" id="BitstreamVeraSans-Roman-32"/>
      </defs>
      <g transform="translate(238.759109508 378.253217822)scale(0.2 -0.2)">
       <use xlink:href="#BitstreamVeraSans-Roman-32"/>
      </g>
     </g>
    </g>
    <g id="xtick_4">
     <g id="line2d_49">
      <path clip-path="url(#p4b24e7e61f)" d="
M332.62 359.056
L332.62 13.4563" style="fill:none;stroke:#000000;stroke-dasharray:1.000000,3.000000;stroke-dashoffset:0.0;stroke-width:0.5;"/>
     </g>
     <g id="line2d_50">
      <g>
       <use style="stroke:#000000;stroke-width:0.5;" x="332.619914261" xlink:href="#m93b0483c22" y="359.056342822"/>
      </g>
     </g>
     <g id="line2d_51">
      <g>
       <use style="stroke:#000000;stroke-width:0.5;" x="332.619914261" xlink:href="#m741efc42ff" y="13.4563428218"/>
      </g>
     </g>
     <g id="text_4">
      <!-- 3 -->
      <defs>
       <path d="
M40.5781 39.3125
Q47.6562 37.7969 51.625 33
Q55.6094 28.2188 55.6094 21.1875
Q55.6094 10.4062 48.1875 4.48438
Q40.7656 -1.42188 27.0938 -1.42188
Q22.5156 -1.42188 17.6562 -0.515625
Q12.7969 0.390625 7.625 2.20312
L7.625 11.7188
Q11.7188 9.32812 16.5938 8.10938
Q21.4844 6.89062 26.8125 6.89062
Q36.0781 6.89062 40.9375 10.5469
Q45.7969 14.2031 45.7969 21.1875
Q45.7969 27.6406 41.2812 31.2656
Q36.7656 34.9062 28.7188 34.9062
L20.2188 34.9062
L20.2188 43.0156
L29.1094 43.0156
Q36.375 43.0156 40.2344 45.9219
Q44.0938 48.8281 44.0938 54.2969
Q44.0938 59.9062 40.1094 62.9062
Q36.1406 65.9219 28.7188 65.9219
Q24.6562 65.9219 20.0156 65.0312
Q15.375 64.1562 9.8125 62.3125
L9.8125 71.0938
Q15.4375 72.6562 20.3438 73.4375
Q25.25 74.2188 29.5938 74.2188
Q40.8281 74.2188 47.3594 69.1094
Q53.9062 64.0156 53.9062 55.3281
Q53.9062 49.2656 50.4375 45.0938
Q46.9688 40.9219 40.5781 39.3125" id="BitstreamVeraSans-Roman-33"/>
      </defs>
      <g transform="translate(327.821476761 378.253217822)scale(0.2 -0.2)">
       <use xlink:href="#BitstreamVeraSans-Roman-33"/>
      </g>
     </g>
    </g>
    <g id="xtick_5">
     <g id="line2d_52">
      <path clip-path="url(#p4b24e7e61f)" d="
M421.853 359.056
L421.853 13.4563" style="fill:none;stroke:#000000;stroke-dasharray:1.000000,3.000000;stroke-dashoffset:0.0;stroke-width:0.5;"/>
     </g>
     <g id="line2d_53">
      <g>
       <use style="stroke:#000000;stroke-width:0.5;" x="421.852594015" xlink:href="#m93b0483c22" y="359.056342822"/>
      </g>
     </g>
     <g id="line2d_54">
      <g>
       <use style="stroke:#000000;stroke-width:0.5;" x="421.852594015" xlink:href="#m741efc42ff" y="13.4563428218"/>
      </g>
     </g>
     <g id="text_5">
      <!-- 4 -->
      <defs>
       <path d="
M37.7969 64.3125
L12.8906 25.3906
L37.7969 25.3906
z

M35.2031 72.9062
L47.6094 72.9062
L47.6094 25.3906
L58.0156 25.3906
L58.0156 17.1875
L47.6094 17.1875
L47.6094 0
L37.7969 0
L37.7969 17.1875
L4.89062 17.1875
L4.89062 26.7031
z
" id="BitstreamVeraSans-Roman-34"/>
      </defs>
      <g transform="translate(416.540094015 378.253217822)scale(0.2 -0.2)">
       <use xlink:href="#BitstreamVeraSans-Roman-34"/>
      </g>
     </g>
    </g>
    <g id="xtick_6">
     <g id="line2d_55">
      <path clip-path="url(#p4b24e7e61f)" d="
M511.085 359.056
L511.085 13.4563" style="fill:none;stroke:#000000;stroke-dasharray:1.000000,3.000000;stroke-dashoffset:0.0;stroke-width:0.5;"/>
     </g>
     <g id="line2d_56">
      <g>
       <use style="stroke:#000000;stroke-width:0.5;" x="511.085273769" xlink:href="#m93b0483c22" y="359.056342822"/>
      </g>
     </g>
     <g id="line2d_57">
      <g>
       <use style="stroke:#000000;stroke-width:0.5;" x="511.085273769" xlink:href="#m741efc42ff" y="13.4563428218"/>
      </g>
     </g>
     <g id="text_6">
      <!-- 5 -->
      <defs>
       <path d="
M10.7969 72.9062
L49.5156 72.9062
L49.5156 64.5938
L19.8281 64.5938
L19.8281 46.7344
Q21.9688 47.4688 24.1094 47.8281
Q26.2656 48.1875 28.4219 48.1875
Q40.625 48.1875 47.75 41.5
Q54.8906 34.8125 54.8906 23.3906
Q54.8906 11.625 47.5625 5.09375
Q40.2344 -1.42188 26.9062 -1.42188
Q22.3125 -1.42188 17.5469 -0.640625
Q12.7969 0.140625 7.71875 1.70312
L7.71875 11.625
Q12.1094 9.23438 16.7969 8.0625
Q21.4844 6.89062 26.7031 6.89062
Q35.1562 6.89062 40.0781 11.3281
Q45.0156 15.7656 45.0156 23.3906
Q45.0156 31 40.0781 35.4375
Q35.1562 39.8906 26.7031 39.8906
Q22.75 39.8906 18.8125 39.0156
Q14.8906 38.1406 10.7969 36.2812
z
" id="BitstreamVeraSans-Roman-35"/>
      </defs>
      <g transform="translate(506.368086269 378.253217822)scale(0.2 -0.2)">
       <use xlink:href="#BitstreamVeraSans-Roman-35"/>
      </g>
     </g>
    </g>
    <g id="xtick_7">
     <g id="line2d_58">
      <defs>
       <path d="
M0 0
L0 -2" id="m177f7580d0" style="stroke:#000000;stroke-width:0.5;"/>
      </defs>
      <g>
       <use style="stroke:#000000;stroke-width:0.5;" x="91.7835881994" xlink:href="#m177f7580d0" y="359.056342822"/>
      </g>
     </g>
     <g id="line2d_59">
      <defs>
       <path d="
M0 0
L0 2" id="m5284c7e2a0" style="stroke:#000000;stroke-width:0.5;"/>
      </defs>
      <g>
       <use style="stroke:#000000;stroke-width:0.5;" x="91.7835881994" xlink:href="#m5284c7e2a0" y="13.4563428218"/>
      </g>
     </g>
    </g>
    <g id="xtick_8">
     <g id="line2d_60">
      <g>
       <use style="stroke:#000000;stroke-width:0.5;" x="107.496683126" xlink:href="#m177f7580d0" y="359.056342822"/>
      </g>
     </g>
     <g id="line2d_61">
      <g>
       <use style="stroke:#000000;stroke-width:0.5;" x="107.496683126" xlink:href="#m5284c7e2a0" y="13.4563428218"/>
      </g>
     </g>
    </g>
    <g id="xtick_9">
     <g id="line2d_62">
      <g>
       <use style="stroke:#000000;stroke-width:0.5;" x="118.645301399" xlink:href="#m177f7580d0" y="359.056342822"/>
      </g>
     </g>
     <g id="line2d_63">
      <g>
       <use style="stroke:#000000;stroke-width:0.5;" x="118.645301399" xlink:href="#m5284c7e2a0" y="13.4563428218"/>
      </g>
     </g>
    </g>
    <g id="xtick_10">
     <g id="line2d_64">
      <g>
       <use style="stroke:#000000;stroke-width:0.5;" x="127.292841554" xlink:href="#m177f7580d0" y="359.056342822"/>
      </g>
     </g>
     <g id="line2d_65">
      <g>
       <use style="stroke:#000000;stroke-width:0.5;" x="127.292841554" xlink:href="#m5284c7e2a0" y="13.4563428218"/>
      </g>
     </g>
    </g>
    <g id="xtick_11">
     <g id="line2d_66">
      <g>
       <use style="stroke:#000000;stroke-width:0.5;" x="134.358396325" xlink:href="#m177f7580d0" y="359.056342822"/>
      </g>
     </g>
     <g id="line2d_67">
      <g>
       <use style="stroke:#000000;stroke-width:0.5;" x="134.358396325" xlink:href="#m5284c7e2a0" y="13.4563428218"/>
      </g>
     </g>
    </g>
    <g id="xtick_12">
     <g id="line2d_68">
      <g>
       <use style="stroke:#000000;stroke-width:0.5;" x="140.332237765" xlink:href="#m177f7580d0" y="359.056342822"/>
      </g>
     </g>
     <g id="line2d_69">
      <g>
       <use style="stroke:#000000;stroke-width:0.5;" x="140.332237765" xlink:href="#m5284c7e2a0" y="13.4563428218"/>
      </g>
     </g>
    </g>
    <g id="xtick_13">
     <g id="line2d_70">
      <g>
       <use style="stroke:#000000;stroke-width:0.5;" x="145.507014598" xlink:href="#m177f7580d0" y="359.056342822"/>
      </g>
     </g>
     <g id="line2d_71">
      <g>
       <use style="stroke:#000000;stroke-width:0.5;" x="145.507014598" xlink:href="#m5284c7e2a0" y="13.4563428218"/>
      </g>
     </g>
    </g>
    <g id="xtick_14">
     <g id="line2d_72">
      <g>
       <use style="stroke:#000000;stroke-width:0.5;" x="150.071491252" xlink:href="#m177f7580d0" y="359.056342822"/>
      </g>
     </g>
     <g id="line2d_73">
      <g>
       <use style="stroke:#000000;stroke-width:0.5;" x="150.071491252" xlink:href="#m5284c7e2a0" y="13.4563428218"/>
      </g>
     </g>
    </g>
    <g id="xtick_15">
     <g id="line2d_74">
      <g>
       <use style="stroke:#000000;stroke-width:0.5;" x="181.016267953" xlink:href="#m177f7580d0" y="359.056342822"/>
      </g>
     </g>
     <g id="line2d_75">
      <g>
       <use style="stroke:#000000;stroke-width:0.5;" x="181.016267953" xlink:href="#m5284c7e2a0" y="13.4563428218"/>
      </g>
     </g>
    </g>
    <g id="xtick_16">
     <g id="line2d_76">
      <g>
       <use style="stroke:#000000;stroke-width:0.5;" x="196.72936288" xlink:href="#m177f7580d0" y="359.056342822"/>
      </g>
     </g>
     <g id="line2d_77">
      <g>
       <use style="stroke:#000000;stroke-width:0.5;" x="196.72936288" xlink:href="#m5284c7e2a0" y="13.4563428218"/>
      </g>
     </g>
    </g>
    <g id="xtick_17">
     <g id="line2d_78">
      <g>
       <use style="stroke:#000000;stroke-width:0.5;" x="207.877981153" xlink:href="#m177f7580d0" y="359.056342822"/>
      </g>
     </g>
     <g id="line2d_79">
      <g>
       <use style="stroke:#000000;stroke-width:0.5;" x="207.877981153" xlink:href="#m5284c7e2a0" y="13.4563428218"/>
      </g>
     </g>
    </g>
    <g id="xtick_18">
     <g id="line2d_80">
      <g>
       <use style="stroke:#000000;stroke-width:0.5;" x="216.525521308" xlink:href="#m177f7580d0" y="359.056342822"/>
      </g>
     </g>
     <g id="line2d_81">
      <g>
       <use style="stroke:#000000;stroke-width:0.5;" x="216.525521308" xlink:href="#m5284c7e2a0" y="13.4563428218"/>
      </g>
     </g>
    </g>
    <g id="xtick_19">
     <g id="line2d_82">
      <g>
       <use style="stroke:#000000;stroke-width:0.5;" x="223.591076079" xlink:href="#m177f7580d0" y="359.056342822"/>
      </g>
     </g>
     <g id="line2d_83">
      <g>
       <use style="stroke:#000000;stroke-width:0.5;" x="223.591076079" xlink:href="#m5284c7e2a0" y="13.4563428218"/>
      </g>
     </g>
    </g>
    <g id="xtick_20">
     <g id="line2d_84">
      <g>
       <use style="stroke:#000000;stroke-width:0.5;" x="229.564917519" xlink:href="#m177f7580d0" y="359.056342822"/>
      </g>
     </g>
     <g id="line2d_85">
      <g>
       <use style="stroke:#000000;stroke-width:0.5;" x="229.564917519" xlink:href="#m5284c7e2a0" y="13.4563428218"/>
      </g>
     </g>
    </g>
    <g id="xtick_21">
     <g id="line2d_86">
      <g>
       <use style="stroke:#000000;stroke-width:0.5;" x="234.739694352" xlink:href="#m177f7580d0" y="359.056342822"/>
      </g>
     </g>
     <g id="line2d_87">
      <g>
       <use style="stroke:#000000;stroke-width:0.5;" x="234.739694352" xlink:href="#m5284c7e2a0" y="13.4563428218"/>
      </g>
     </g>
    </g>
    <g id="xtick_22">
     <g id="line2d_88">
      <g>
       <use style="stroke:#000000;stroke-width:0.5;" x="239.304171006" xlink:href="#m177f7580d0" y="359.056342822"/>
      </g>
     </g>
     <g id="line2d_89">
      <g>
       <use style="stroke:#000000;stroke-width:0.5;" x="239.304171006" xlink:href="#m5284c7e2a0" y="13.4563428218"/>
      </g>
     </g>
    </g>
    <g id="xtick_23">
     <g id="line2d_90">
      <g>
       <use style="stroke:#000000;stroke-width:0.5;" x="270.248947707" xlink:href="#m177f7580d0" y="359.056342822"/>
      </g>
     </g>
     <g id="line2d_91">
      <g>
       <use style="stroke:#000000;stroke-width:0.5;" x="270.248947707" xlink:href="#m5284c7e2a0" y="13.4563428218"/>
      </g>
     </g>
    </g>
    <g id="xtick_24">
     <g id="line2d_92">
      <g>
       <use style="stroke:#000000;stroke-width:0.5;" x="285.962042634" xlink:href="#m177f7580d0" y="359.056342822"/>
      </g>
     </g>
     <g id="line2d_93">
      <g>
       <use style="stroke:#000000;stroke-width:0.5;" x="285.962042634" xlink:href="#m5284c7e2a0" y="13.4563428218"/>
      </g>
     </g>
    </g>
    <g id="xtick_25">
     <g id="line2d_94">
      <g>
       <use style="stroke:#000000;stroke-width:0.5;" x="297.110660906" xlink:href="#m177f7580d0" y="359.056342822"/>
      </g>
     </g>
     <g id="line2d_95">
      <g>
       <use style="stroke:#000000;stroke-width:0.5;" x="297.110660906" xlink:href="#m5284c7e2a0" y="13.4563428218"/>
      </g>
     </g>
    </g>
    <g id="xtick_26">
     <g id="line2d_96">
      <g>
       <use style="stroke:#000000;stroke-width:0.5;" x="305.758201062" xlink:href="#m177f7580d0" y="359.056342822"/>
      </g>
     </g>
     <g id="line2d_97">
      <g>
       <use style="stroke:#000000;stroke-width:0.5;" x="305.758201062" xlink:href="#m5284c7e2a0" y="13.4563428218"/>
      </g>
     </g>
    </g>
    <g id="xtick_27">
     <g id="line2d_98">
      <g>
       <use style="stroke:#000000;stroke-width:0.5;" x="312.823755833" xlink:href="#m177f7580d0" y="359.056342822"/>
      </g>
     </g>
     <g id="line2d_99">
      <g>
       <use style="stroke:#000000;stroke-width:0.5;" x="312.823755833" xlink:href="#m5284c7e2a0" y="13.4563428218"/>
      </g>
     </g>
    </g>
    <g id="xtick_28">
     <g id="line2d_100">
      <g>
       <use style="stroke:#000000;stroke-width:0.5;" x="318.797597273" xlink:href="#m177f7580d0" y="359.056342822"/>
      </g>
     </g>
     <g id="line2d_101">
      <g>
       <use style="stroke:#000000;stroke-width:0.5;" x="318.797597273" xlink:href="#m5284c7e2a0" y="13.4563428218"/>
      </g>
     </g>
    </g>
    <g id="xtick_29">
     <g id="line2d_102">
      <g>
       <use style="stroke:#000000;stroke-width:0.5;" x="323.972374106" xlink:href="#m177f7580d0" y="359.056342822"/>
      </g>
     </g>
     <g id="line2d_103">
      <g>
       <use style="stroke:#000000;stroke-width:0.5;" x="323.972374106" xlink:href="#m5284c7e2a0" y="13.4563428218"/>
      </g>
     </g>
    </g>
    <g id="xtick_30">
     <g id="line2d_104">
      <g>
       <use style="stroke:#000000;stroke-width:0.5;" x="328.53685076" xlink:href="#m177f7580d0" y="359.056342822"/>
      </g>
     </g>
     <g id="line2d_105">
      <g>
       <use style="stroke:#000000;stroke-width:0.5;" x="328.53685076" xlink:href="#m5284c7e2a0" y="13.4563428218"/>
      </g>
     </g>
    </g>
    <g id="xtick_31">
     <g id="line2d_106">
      <g>
       <use style="stroke:#000000;stroke-width:0.5;" x="359.481627461" xlink:href="#m177f7580d0" y="359.056342822"/>
      </g>
     </g>
     <g id="line2d_107">
      <g>
       <use style="stroke:#000000;stroke-width:0.5;" x="359.481627461" xlink:href="#m5284c7e2a0" y="13.4563428218"/>
      </g>
     </g>
    </g>
    <g id="xtick_32">
     <g id="line2d_108">
      <g>
       <use style="stroke:#000000;stroke-width:0.5;" x="375.194722387" xlink:href="#m177f7580d0" y="359.056342822"/>
      </g>
     </g>
     <g id="line2d_109">
      <g>
       <use style="stroke:#000000;stroke-width:0.5;" x="375.194722387" xlink:href="#m5284c7e2a0" y="13.4563428218"/>
      </g>
     </g>
    </g>
    <g id="xtick_33">
     <g id="line2d_110">
      <g>
       <use style="stroke:#000000;stroke-width:0.5;" x="386.34334066" xlink:href="#m177f7580d0" y="359.056342822"/>
      </g>
     </g>
     <g id="line2d_111">
      <g>
       <use style="stroke:#000000;stroke-width:0.5;" x="386.34334066" xlink:href="#m5284c7e2a0" y="13.4563428218"/>
      </g>
     </g>
    </g>
    <g id="xtick_34">
     <g id="line2d_112">
      <g>
       <use style="stroke:#000000;stroke-width:0.5;" x="394.990880816" xlink:href="#m177f7580d0" y="359.056342822"/>
      </g>
     </g>
     <g id="line2d_113">
      <g>
       <use style="stroke:#000000;stroke-width:0.5;" x="394.990880816" xlink:href="#m5284c7e2a0" y="13.4563428218"/>
      </g>
     </g>
    </g>
    <g id="xtick_35">
     <g id="line2d_114">
      <g>
       <use style="stroke:#000000;stroke-width:0.5;" x="402.056435587" xlink:href="#m177f7580d0" y="359.056342822"/>
      </g>
     </g>
     <g id="line2d_115">
      <g>
       <use style="stroke:#000000;stroke-width:0.5;" x="402.056435587" xlink:href="#m5284c7e2a0" y="13.4563428218"/>
      </g>
     </g>
    </g>
    <g id="xtick_36">
     <g id="line2d_116">
      <g>
       <use style="stroke:#000000;stroke-width:0.5;" x="408.030277027" xlink:href="#m177f7580d0" y="359.056342822"/>
      </g>
     </g>
     <g id="line2d_117">
      <g>
       <use style="stroke:#000000;stroke-width:0.5;" x="408.030277027" xlink:href="#m5284c7e2a0" y="13.4563428218"/>
      </g>
     </g>
    </g>
    <g id="xtick_37">
     <g id="line2d_118">
      <g>
       <use style="stroke:#000000;stroke-width:0.5;" x="413.205053859" xlink:href="#m177f7580d0" y="359.056342822"/>
      </g>
     </g>
     <g id="line2d_119">
      <g>
       <use style="stroke:#000000;stroke-width:0.5;" x="413.205053859" xlink:href="#m5284c7e2a0" y="13.4563428218"/>
      </g>
     </g>
    </g>
    <g id="xtick_38">
     <g id="line2d_120">
      <g>
       <use style="stroke:#000000;stroke-width:0.5;" x="417.769530514" xlink:href="#m177f7580d0" y="359.056342822"/>
      </g>
     </g>
     <g id="line2d_121">
      <g>
       <use style="stroke:#000000;stroke-width:0.5;" x="417.769530514" xlink:href="#m5284c7e2a0" y="13.4563428218"/>
      </g>
     </g>
    </g>
    <g id="xtick_39">
     <g id="line2d_122">
      <g>
       <use style="stroke:#000000;stroke-width:0.5;" x="448.714307215" xlink:href="#m177f7580d0" y="359.056342822"/>
      </g>
     </g>
     <g id="line2d_123">
      <g>
       <use style="stroke:#000000;stroke-width:0.5;" x="448.714307215" xlink:href="#m5284c7e2a0" y="13.4563428218"/>
      </g>
     </g>
    </g>
    <g id="xtick_40">
     <g id="line2d_124">
      <g>
       <use style="stroke:#000000;stroke-width:0.5;" x="464.427402141" xlink:href="#m177f7580d0" y="359.056342822"/>
      </g>
     </g>
     <g id="line2d_125">
      <g>
       <use style="stroke:#000000;stroke-width:0.5;" x="464.427402141" xlink:href="#m5284c7e2a0" y="13.4563428218"/>
      </g>
     </g>
    </g>
    <g id="xtick_41">
     <g id="line2d_126">
      <g>
       <use style="stroke:#000000;stroke-width:0.5;" x="475.576020414" xlink:href="#m177f7580d0" y="359.056342822"/>
      </g>
     </g>
     <g id="line2d_127">
      <g>
       <use style="stroke:#000000;stroke-width:0.5;" x="475.576020414" xlink:href="#m5284c7e2a0" y="13.4563428218"/>
      </g>
     </g>
    </g>
    <g id="xtick_42">
     <g id="line2d_128">
      <g>
       <use style="stroke:#000000;stroke-width:0.5;" x="484.22356057" xlink:href="#m177f7580d0" y="359.056342822"/>
      </g>
     </g>
     <g id="line2d_129">
      <g>
       <use style="stroke:#000000;stroke-width:0.5;" x="484.22356057" xlink:href="#m5284c7e2a0" y="13.4563428218"/>
      </g>
     </g>
    </g>
    <g id="xtick_43">
     <g id="line2d_130">
      <g>
       <use style="stroke:#000000;stroke-width:0.5;" x="491.289115341" xlink:href="#m177f7580d0" y="359.056342822"/>
      </g>
     </g>
     <g id="line2d_131">
      <g>
       <use style="stroke:#000000;stroke-width:0.5;" x="491.289115341" xlink:href="#m5284c7e2a0" y="13.4563428218"/>
      </g>
     </g>
    </g>
    <g id="xtick_44">
     <g id="line2d_132">
      <g>
       <use style="stroke:#000000;stroke-width:0.5;" x="497.26295678" xlink:href="#m177f7580d0" y="359.056342822"/>
      </g>
     </g>
     <g id="line2d_133">
      <g>
       <use style="stroke:#000000;stroke-width:0.5;" x="497.26295678" xlink:href="#m5284c7e2a0" y="13.4563428218"/>
      </g>
     </g>
    </g>
    <g id="xtick_45">
     <g id="line2d_134">
      <g>
       <use style="stroke:#000000;stroke-width:0.5;" x="502.437733613" xlink:href="#m177f7580d0" y="359.056342822"/>
      </g>
     </g>
     <g id="line2d_135">
      <g>
       <use style="stroke:#000000;stroke-width:0.5;" x="502.437733613" xlink:href="#m5284c7e2a0" y="13.4563428218"/>
      </g>
     </g>
    </g>
    <g id="xtick_46">
     <g id="line2d_136">
      <g>
       <use style="stroke:#000000;stroke-width:0.5;" x="507.002210267" xlink:href="#m177f7580d0" y="359.056342822"/>
      </g>
     </g>
     <g id="line2d_137">
      <g>
       <use style="stroke:#000000;stroke-width:0.5;" x="507.002210267" xlink:href="#m5284c7e2a0" y="13.4563428218"/>
      </g>
     </g>
    </g>
    <g id="text_7">
     <!-- log10 of FEvals / DIM -->
     <defs>
      <path id="BitstreamVeraSans-Roman-20"/>
      <path d="
M9.8125 72.9062
L24.5156 72.9062
L43.1094 23.2969
L61.8125 72.9062
L76.5156 72.9062
L76.5156 0
L66.8906 0
L66.8906 64.0156
L48.0938 14.0156
L38.1875 14.0156
L19.3906 64.0156
L19.3906 0
L9.8125 0
z
" id="BitstreamVeraSans-Roman-4d"/>
      <path d="
M30.6094 48.3906
Q23.3906 48.3906 19.1875 42.75
Q14.9844 37.1094 14.9844 27.2969
Q14.9844 17.4844 19.1562 11.8438
Q23.3438 6.20312 30.6094 6.20312
Q37.7969 6.20312 41.9844 11.8594
Q46.1875 17.5312 46.1875 27.2969
Q46.1875 37.0156 41.9844 42.7031
Q37.7969 48.3906 30.6094 48.3906
M30.6094 56
Q42.3281 56 49.0156 48.375
Q55.7188 40.7656 55.7188 27.2969
Q55.7188 13.875 49.0156 6.21875
Q42.3281 -1.42188 30.6094 -1.42188
Q18.8438 -1.42188 12.1719 6.21875
Q5.51562 13.875 5.51562 27.2969
Q5.51562 40.7656 12.1719 48.375
Q18.8438 56 30.6094 56" id="BitstreamVeraSans-Roman-6f"/>
      <path d="
M9.42188 75.9844
L18.4062 75.9844
L18.4062 0
L9.42188 0
z
" id="BitstreamVeraSans-Roman-6c"/>
      <path d="
M9.8125 72.9062
L51.7031 72.9062
L51.7031 64.5938
L19.6719 64.5938
L19.6719 43.1094
L48.5781 43.1094
L48.5781 34.8125
L19.6719 34.8125
L19.6719 0
L9.8125 0
z
" id="BitstreamVeraSans-Roman-46"/>
      <path d="
M9.8125 72.9062
L55.9062 72.9062
L55.9062 64.5938
L19.6719 64.5938
L19.6719 43.0156
L54.3906 43.0156
L54.3906 34.7188
L19.6719 34.7188
L19.6719 8.29688
L56.7812 8.29688
L56.7812 0
L9.8125 0
z
" id="BitstreamVeraSans-Roman-45"/>
      <path d="
M19.6719 64.7969
L19.6719 8.10938
L31.5938 8.10938
Q46.6875 8.10938 53.6875 14.9375
Q60.6875 21.7812 60.6875 36.5312
Q60.6875 51.1719 53.6875 57.9844
Q46.6875 64.7969 31.5938 64.7969
z

M9.8125 72.9062
L30.0781 72.9062
Q51.2656 72.9062 61.1719 64.0938
Q71.0938 55.2812 71.0938 36.5312
Q71.0938 17.6719 61.125 8.82812
Q51.1719 0 30.0781 0
L9.8125 0
z
" id="BitstreamVeraSans-Roman-44"/>
      <path d="
M25.3906 72.9062
L33.6875 72.9062
L8.29688 -9.28125
L0 -9.28125
z
" id="BitstreamVeraSans-Roman-2f"/>
      <path d="
M2.98438 54.6875
L12.5 54.6875
L29.5938 8.79688
L46.6875 54.6875
L56.2031 54.6875
L35.6875 0
L23.4844 0
z
" id="BitstreamVeraSans-Roman-76"/>
      <path d="
M45.4062 27.9844
Q45.4062 37.75 41.375 43.1094
Q37.3594 48.4844 30.0781 48.4844
Q22.8594 48.4844 18.8281 43.1094
Q14.7969 37.75 14.7969 27.9844
Q14.7969 18.2656 18.8281 12.8906
Q22.8594 7.51562 30.0781 7.51562
Q37.3594 7.51562 41.375 12.8906
Q45.4062 18.2656 45.4062 27.9844
M54.3906 6.78125
Q54.3906 -7.17188 48.1875 -13.9844
Q42 -20.7969 29.2031 -20.7969
Q24.4688 -20.7969 20.2656 -20.0938
Q16.0625 -19.3906 12.1094 -17.9219
L12.1094 -9.1875
Q16.0625 -11.3281 19.9219 -12.3438
Q23.7812 -13.375 27.7812 -13.375
Q36.625 -13.375 41.0156 -8.76562
Q45.4062 -4.15625 45.4062 5.17188
L45.4062 9.625
Q42.625 4.78125 38.2812 2.39062
Q33.9375 0 27.875 0
Q17.8281 0 11.6719 7.65625
Q5.51562 15.3281 5.51562 27.9844
Q5.51562 40.6719 11.6719 48.3281
Q17.8281 56 27.875 56
Q33.9375 56 38.2812 53.6094
Q42.625 51.2188 45.4062 46.3906
L45.4062 54.6875
L54.3906 54.6875
z
" id="BitstreamVeraSans-Roman-67"/>
      <path d="
M37.1094 75.9844
L37.1094 68.5
L28.5156 68.5
Q23.6875 68.5 21.7969 66.5469
Q19.9219 64.5938 19.9219 59.5156
L19.9219 54.6875
L34.7188 54.6875
L34.7188 47.7031
L19.9219 47.7031
L19.9219 0
L10.8906 0
L10.8906 47.7031
L2.29688 47.7031
L2.29688 54.6875
L10.8906 54.6875
L10.8906 58.5
Q10.8906 67.625 15.1406 71.7969
Q19.3906 75.9844 28.6094 75.9844
z
" id="BitstreamVeraSans-Roman-66"/>
      <path d="
M34.2812 27.4844
Q23.3906 27.4844 19.1875 25
Q14.9844 22.5156 14.9844 16.5
Q14.9844 11.7188 18.1406 8.90625
Q21.2969 6.10938 26.7031 6.10938
Q34.1875 6.10938 38.7031 11.4062
Q43.2188 16.7031 43.2188 25.4844
L43.2188 27.4844
z

M52.2031 31.2031
L52.2031 0
L43.2188 0
L43.2188 8.29688
Q40.1406 3.32812 35.5469 0.953125
Q30.9531 -1.42188 24.3125 -1.42188
Q15.9219 -1.42188 10.9531 3.29688
Q6 8.01562 6 15.9219
Q6 25.1406 12.1719 29.8281
Q18.3594 34.5156 30.6094 34.5156
L43.2188 34.5156
L43.2188 35.4062
Q43.2188 41.6094 39.1406 45
Q35.0625 48.3906 27.6875 48.3906
Q23 48.3906 18.5469 47.2656
Q14.1094 46.1406 10.0156 43.8906
L10.0156 52.2031
Q14.9375 54.1094 19.5781 55.0469
Q24.2188 56 28.6094 56
Q40.4844 56 46.3438 49.8438
Q52.2031 43.7031 52.2031 31.2031" id="BitstreamVeraSans-Roman-61"/>
      <path d="
M44.2812 53.0781
L44.2812 44.5781
Q40.4844 46.5312 36.375 47.5
Q32.2812 48.4844 27.875 48.4844
Q21.1875 48.4844 17.8438 46.4375
Q14.5 44.3906 14.5 40.2812
Q14.5 37.1562 16.8906 35.375
Q19.2812 33.5938 26.5156 31.9844
L29.5938 31.2969
Q39.1562 29.25 43.1875 25.5156
Q47.2188 21.7812 47.2188 15.0938
Q47.2188 7.46875 41.1875 3.01562
Q35.1562 -1.42188 24.6094 -1.42188
Q20.2188 -1.42188 15.4531 -0.5625
Q10.6875 0.296875 5.42188 2
L5.42188 11.2812
Q10.4062 8.6875 15.2344 7.39062
Q20.0625 6.10938 24.8125 6.10938
Q31.1562 6.10938 34.5625 8.28125
Q37.9844 10.4531 37.9844 14.4062
Q37.9844 18.0625 35.5156 20.0156
Q33.0625 21.9688 24.7031 23.7812
L21.5781 24.5156
Q13.2344 26.2656 9.51562 29.9062
Q5.8125 33.5469 5.8125 39.8906
Q5.8125 47.6094 11.2812 51.7969
Q16.75 56 26.8125 56
Q31.7812 56 36.1719 55.2656
Q40.5781 54.5469 44.2812 53.0781" id="BitstreamVeraSans-Roman-73"/>
      <path d="
M9.8125 72.9062
L19.6719 72.9062
L19.6719 0
L9.8125 0
z
" id="BitstreamVeraSans-Roman-49"/>
     </defs>
     <g transform="translate(184.025 402.609467822)scale(0.2 -0.2)">
      <use xlink:href="#BitstreamVeraSans-Roman-6c"/>
      <use x="27.783203125" xlink:href="#BitstreamVeraSans-Roman-6f"/>
      <use x="88.96484375" xlink:href="#BitstreamVeraSans-Roman-67"/>
      <use x="152.44140625" xlink:href="#BitstreamVeraSans-Roman-31"/>
      <use x="216.064453125" xlink:href="#BitstreamVeraSans-Roman-30"/>
      <use x="279.6875" xlink:href="#BitstreamVeraSans-Roman-20"/>
      <use x="311.474609375" xlink:href="#BitstreamVeraSans-Roman-6f"/>
      <use x="372.65625" xlink:href="#BitstreamVeraSans-Roman-66"/>
      <use x="407.861328125" xlink:href="#BitstreamVeraSans-Roman-20"/>
      <use x="439.6484375" xlink:href="#BitstreamVeraSans-Roman-46"/>
      <use x="497.16796875" xlink:href="#BitstreamVeraSans-Roman-45"/>
      <use x="560.3515625" xlink:href="#BitstreamVeraSans-Roman-76"/>
      <use x="619.53125" xlink:href="#BitstreamVeraSans-Roman-61"/>
      <use x="680.810546875" xlink:href="#BitstreamVeraSans-Roman-6c"/>
      <use x="708.59375" xlink:href="#BitstreamVeraSans-Roman-73"/>
      <use x="760.693359375" xlink:href="#BitstreamVeraSans-Roman-20"/>
      <use x="792.48046875" xlink:href="#BitstreamVeraSans-Roman-2f"/>
      <use x="826.171875" xlink:href="#BitstreamVeraSans-Roman-20"/>
      <use x="857.958984375" xlink:href="#BitstreamVeraSans-Roman-44"/>
      <use x="934.9609375" xlink:href="#BitstreamVeraSans-Roman-49"/>
      <use x="964.453125" xlink:href="#BitstreamVeraSans-Roman-4d"/>
     </g>
    </g>
   </g>
   <g id="matplotlib.axis_2">
    <g id="ytick_1">
     <g id="line2d_138">
      <path clip-path="url(#p4b24e7e61f)" d="
M64.9219 359.056
L511.322 359.056" style="fill:none;stroke:#000000;stroke-dasharray:1.000000,3.000000;stroke-dashoffset:0.0;stroke-width:0.5;"/>
     </g>
     <g id="line2d_139">
      <defs>
       <path d="
M0 0
L4 0" id="m728421d6d4" style="stroke:#000000;stroke-width:0.5;"/>
      </defs>
      <g>
       <use style="stroke:#000000;stroke-width:0.5;" x="64.921875" xlink:href="#m728421d6d4" y="359.056342822"/>
      </g>
     </g>
     <g id="line2d_140">
      <defs>
       <path d="
M0 0
L-4 0" id="mcb0005524f" style="stroke:#000000;stroke-width:0.5;"/>
      </defs>
      <g>
       <use style="stroke:#000000;stroke-width:0.5;" x="511.321875" xlink:href="#mcb0005524f" y="359.056342822"/>
      </g>
     </g>
     <g id="text_8">
      <!-- 0.0 -->
      <defs>
       <path d="
M10.6875 12.4062
L21 12.4062
L21 0
L10.6875 0
z
" id="BitstreamVeraSans-Roman-2e"/>
      </defs>
      <g transform="translate(31.7625 364.575092822)scale(0.2 -0.2)">
       <use xlink:href="#BitstreamVeraSans-Roman-30"/>
       <use x="63.623046875" xlink:href="#BitstreamVeraSans-Roman-2e"/>
       <use x="95.41015625" xlink:href="#BitstreamVeraSans-Roman-30"/>
      </g>
     </g>
    </g>
    <g id="ytick_2">
     <g id="line2d_141">
      <path clip-path="url(#p4b24e7e61f)" d="
M64.9219 290.621
L511.322 290.621" style="fill:none;stroke:#000000;stroke-dasharray:1.000000,3.000000;stroke-dashoffset:0.0;stroke-width:0.5;"/>
     </g>
     <g id="line2d_142">
      <g>
       <use style="stroke:#000000;stroke-width:0.5;" x="64.921875" xlink:href="#m728421d6d4" y="290.620699257"/>
      </g>
     </g>
     <g id="line2d_143">
      <g>
       <use style="stroke:#000000;stroke-width:0.5;" x="511.321875" xlink:href="#mcb0005524f" y="290.620699257"/>
      </g>
     </g>
     <g id="text_9">
      <!-- 0.2 -->
      <g transform="translate(32.4375 296.139449257)scale(0.2 -0.2)">
       <use xlink:href="#BitstreamVeraSans-Roman-30"/>
       <use x="63.623046875" xlink:href="#BitstreamVeraSans-Roman-2e"/>
       <use x="95.41015625" xlink:href="#BitstreamVeraSans-Roman-32"/>
      </g>
     </g>
    </g>
    <g id="ytick_3">
     <g id="line2d_144">
      <path clip-path="url(#p4b24e7e61f)" d="
M64.9219 222.185
L511.322 222.185" style="fill:none;stroke:#000000;stroke-dasharray:1.000000,3.000000;stroke-dashoffset:0.0;stroke-width:0.5;"/>
     </g>
     <g id="line2d_145">
      <g>
       <use style="stroke:#000000;stroke-width:0.5;" x="64.921875" xlink:href="#m728421d6d4" y="222.185055693"/>
      </g>
     </g>
     <g id="line2d_146">
      <g>
       <use style="stroke:#000000;stroke-width:0.5;" x="511.321875" xlink:href="#mcb0005524f" y="222.185055693"/>
      </g>
     </g>
     <g id="text_10">
      <!-- 0.4 -->
      <g transform="translate(31.55625 227.703805693)scale(0.2 -0.2)">
       <use xlink:href="#BitstreamVeraSans-Roman-30"/>
       <use x="63.623046875" xlink:href="#BitstreamVeraSans-Roman-2e"/>
       <use x="95.41015625" xlink:href="#BitstreamVeraSans-Roman-34"/>
      </g>
     </g>
    </g>
    <g id="ytick_4">
     <g id="line2d_147">
      <path clip-path="url(#p4b24e7e61f)" d="
M64.9219 153.749
L511.322 153.749" style="fill:none;stroke:#000000;stroke-dasharray:1.000000,3.000000;stroke-dashoffset:0.0;stroke-width:0.5;"/>
     </g>
     <g id="line2d_148">
      <g>
       <use style="stroke:#000000;stroke-width:0.5;" x="64.921875" xlink:href="#m728421d6d4" y="153.749412129"/>
      </g>
     </g>
     <g id="line2d_149">
      <g>
       <use style="stroke:#000000;stroke-width:0.5;" x="511.321875" xlink:href="#mcb0005524f" y="153.749412129"/>
      </g>
     </g>
     <g id="text_11">
      <!-- 0.6 -->
      <defs>
       <path d="
M33.0156 40.375
Q26.375 40.375 22.4844 35.8281
Q18.6094 31.2969 18.6094 23.3906
Q18.6094 15.5312 22.4844 10.9531
Q26.375 6.39062 33.0156 6.39062
Q39.6562 6.39062 43.5312 10.9531
Q47.4062 15.5312 47.4062 23.3906
Q47.4062 31.2969 43.5312 35.8281
Q39.6562 40.375 33.0156 40.375
M52.5938 71.2969
L52.5938 62.3125
Q48.875 64.0625 45.0938 64.9844
Q41.3125 65.9219 37.5938 65.9219
Q27.8281 65.9219 22.6719 59.3281
Q17.5312 52.7344 16.7969 39.4062
Q19.6719 43.6562 24.0156 45.9219
Q28.375 48.1875 33.5938 48.1875
Q44.5781 48.1875 50.9531 41.5156
Q57.3281 34.8594 57.3281 23.3906
Q57.3281 12.1562 50.6875 5.35938
Q44.0469 -1.42188 33.0156 -1.42188
Q20.3594 -1.42188 13.6719 8.26562
Q6.98438 17.9688 6.98438 36.375
Q6.98438 53.6562 15.1875 63.9375
Q23.3906 74.2188 37.2031 74.2188
Q40.9219 74.2188 44.7031 73.4844
Q48.4844 72.75 52.5938 71.2969" id="BitstreamVeraSans-Roman-36"/>
      </defs>
      <g transform="translate(31.69375 159.268162129)scale(0.2 -0.2)">
       <use xlink:href="#BitstreamVeraSans-Roman-30"/>
       <use x="63.623046875" xlink:href="#BitstreamVeraSans-Roman-2e"/>
       <use x="95.41015625" xlink:href="#BitstreamVeraSans-Roman-36"/>
      </g>
     </g>
    </g>
    <g id="ytick_5">
     <g id="line2d_150">
      <path clip-path="url(#p4b24e7e61f)" d="
M64.9219 85.3138
L511.322 85.3138" style="fill:none;stroke:#000000;stroke-dasharray:1.000000,3.000000;stroke-dashoffset:0.0;stroke-width:0.5;"/>
     </g>
     <g id="line2d_151">
      <g>
       <use style="stroke:#000000;stroke-width:0.5;" x="64.921875" xlink:href="#m728421d6d4" y="85.3137685644"/>
      </g>
     </g>
     <g id="line2d_152">
      <g>
       <use style="stroke:#000000;stroke-width:0.5;" x="511.321875" xlink:href="#mcb0005524f" y="85.3137685644"/>
      </g>
     </g>
     <g id="text_12">
      <!-- 0.8 -->
      <defs>
       <path d="
M31.7812 34.625
Q24.75 34.625 20.7188 30.8594
Q16.7031 27.0938 16.7031 20.5156
Q16.7031 13.9219 20.7188 10.1562
Q24.75 6.39062 31.7812 6.39062
Q38.8125 6.39062 42.8594 10.1719
Q46.9219 13.9688 46.9219 20.5156
Q46.9219 27.0938 42.8906 30.8594
Q38.875 34.625 31.7812 34.625
M21.9219 38.8125
Q15.5781 40.375 12.0312 44.7188
Q8.5 49.0781 8.5 55.3281
Q8.5 64.0625 14.7188 69.1406
Q20.9531 74.2188 31.7812 74.2188
Q42.6719 74.2188 48.875 69.1406
Q55.0781 64.0625 55.0781 55.3281
Q55.0781 49.0781 51.5312 44.7188
Q48 40.375 41.7031 38.8125
Q48.8281 37.1562 52.7969 32.3125
Q56.7812 27.4844 56.7812 20.5156
Q56.7812 9.90625 50.3125 4.23438
Q43.8438 -1.42188 31.7812 -1.42188
Q19.7344 -1.42188 13.25 4.23438
Q6.78125 9.90625 6.78125 20.5156
Q6.78125 27.4844 10.7812 32.3125
Q14.7969 37.1562 21.9219 38.8125
M18.3125 54.3906
Q18.3125 48.7344 21.8438 45.5625
Q25.3906 42.3906 31.7812 42.3906
Q38.1406 42.3906 41.7188 45.5625
Q45.3125 48.7344 45.3125 54.3906
Q45.3125 60.0625 41.7188 63.2344
Q38.1406 66.4062 31.7812 66.4062
Q25.3906 66.4062 21.8438 63.2344
Q18.3125 60.0625 18.3125 54.3906" id="BitstreamVeraSans-Roman-38"/>
      </defs>
      <g transform="translate(31.803125 90.8325185644)scale(0.2 -0.2)">
       <use xlink:href="#BitstreamVeraSans-Roman-30"/>
       <use x="63.623046875" xlink:href="#BitstreamVeraSans-Roman-2e"/>
       <use x="95.41015625" xlink:href="#BitstreamVeraSans-Roman-38"/>
      </g>
     </g>
    </g>
    <g id="ytick_6">
     <g id="line2d_153">
      <path clip-path="url(#p4b24e7e61f)" d="
M64.9219 16.8781
L511.322 16.8781" style="fill:none;stroke:#000000;stroke-dasharray:1.000000,3.000000;stroke-dashoffset:0.0;stroke-width:0.5;"/>
     </g>
     <g id="line2d_154">
      <g>
       <use style="stroke:#000000;stroke-width:0.5;" x="64.921875" xlink:href="#m728421d6d4" y="16.878125"/>
      </g>
     </g>
     <g id="line2d_155">
      <g>
       <use style="stroke:#000000;stroke-width:0.5;" x="511.321875" xlink:href="#mcb0005524f" y="16.878125"/>
      </g>
     </g>
     <g id="text_13">
      <!-- 1.0 -->
      <g transform="translate(32.640625 22.396875)scale(0.2 -0.2)">
       <use xlink:href="#BitstreamVeraSans-Roman-31"/>
       <use x="63.623046875" xlink:href="#BitstreamVeraSans-Roman-2e"/>
       <use x="95.41015625" xlink:href="#BitstreamVeraSans-Roman-30"/>
      </g>
     </g>
    </g>
    <g id="text_14">
     <!-- proportion of trials -->
     <defs>
      <path d="
M54.8906 33.0156
L54.8906 0
L45.9062 0
L45.9062 32.7188
Q45.9062 40.4844 42.875 44.3281
Q39.8438 48.1875 33.7969 48.1875
Q26.5156 48.1875 22.3125 43.5469
Q18.1094 38.9219 18.1094 30.9062
L18.1094 0
L9.07812 0
L9.07812 54.6875
L18.1094 54.6875
L18.1094 46.1875
Q21.3438 51.125 25.7031 53.5625
Q30.0781 56 35.7969 56
Q45.2188 56 50.0469 50.1719
Q54.8906 44.3438 54.8906 33.0156" id="BitstreamVeraSans-Roman-6e"/>
      <path d="
M9.42188 54.6875
L18.4062 54.6875
L18.4062 0
L9.42188 0
z

M9.42188 75.9844
L18.4062 75.9844
L18.4062 64.5938
L9.42188 64.5938
z
" id="BitstreamVeraSans-Roman-69"/>
      <path d="
M18.3125 70.2188
L18.3125 54.6875
L36.8125 54.6875
L36.8125 47.7031
L18.3125 47.7031
L18.3125 18.0156
Q18.3125 11.3281 20.1406 9.42188
Q21.9688 7.51562 27.5938 7.51562
L36.8125 7.51562
L36.8125 0
L27.5938 0
Q17.1875 0 13.2344 3.875
Q9.28125 7.76562 9.28125 18.0156
L9.28125 47.7031
L2.6875 47.7031
L2.6875 54.6875
L9.28125 54.6875
L9.28125 70.2188
z
" id="BitstreamVeraSans-Roman-74"/>
      <path d="
M41.1094 46.2969
Q39.5938 47.1719 37.8125 47.5781
Q36.0312 48 33.8906 48
Q26.2656 48 22.1875 43.0469
Q18.1094 38.0938 18.1094 28.8125
L18.1094 0
L9.07812 0
L9.07812 54.6875
L18.1094 54.6875
L18.1094 46.1875
Q20.9531 51.1719 25.4844 53.5781
Q30.0312 56 36.5312 56
Q37.4531 56 38.5781 55.875
Q39.7031 55.7656 41.0625 55.5156
z
" id="BitstreamVeraSans-Roman-72"/>
      <path d="
M18.1094 8.20312
L18.1094 -20.7969
L9.07812 -20.7969
L9.07812 54.6875
L18.1094 54.6875
L18.1094 46.3906
Q20.9531 51.2656 25.2656 53.625
Q29.5938 56 35.5938 56
Q45.5625 56 51.7812 48.0938
Q58.0156 40.1875 58.0156 27.2969
Q58.0156 14.4062 51.7812 6.48438
Q45.5625 -1.42188 35.5938 -1.42188
Q29.5938 -1.42188 25.2656 0.953125
Q20.9531 3.32812 18.1094 8.20312
M48.6875 27.2969
Q48.6875 37.2031 44.6094 42.8438
Q40.5312 48.4844 33.4062 48.4844
Q26.2656 48.4844 22.1875 42.8438
Q18.1094 37.2031 18.1094 27.2969
Q18.1094 17.3906 22.1875 11.75
Q26.2656 6.10938 33.4062 6.10938
Q40.5312 6.10938 44.6094 11.75
Q48.6875 17.3906 48.6875 27.2969" id="BitstreamVeraSans-Roman-70"/>
     </defs>
     <g transform="translate(22.396875 278.775092822)rotate(-90.0)scale(0.2 -0.2)">
      <use xlink:href="#BitstreamVeraSans-Roman-70"/>
      <use x="63.4765625" xlink:href="#BitstreamVeraSans-Roman-72"/>
      <use x="102.33984375" xlink:href="#BitstreamVeraSans-Roman-6f"/>
      <use x="163.521484375" xlink:href="#BitstreamVeraSans-Roman-70"/>
      <use x="226.998046875" xlink:href="#BitstreamVeraSans-Roman-6f"/>
      <use x="288.1796875" xlink:href="#BitstreamVeraSans-Roman-72"/>
      <use x="329.29296875" xlink:href="#BitstreamVeraSans-Roman-74"/>
      <use x="368.501953125" xlink:href="#BitstreamVeraSans-Roman-69"/>
      <use x="396.28515625" xlink:href="#BitstreamVeraSans-Roman-6f"/>
      <use x="457.466796875" xlink:href="#BitstreamVeraSans-Roman-6e"/>
      <use x="520.845703125" xlink:href="#BitstreamVeraSans-Roman-20"/>
      <use x="552.6328125" xlink:href="#BitstreamVeraSans-Roman-6f"/>
      <use x="613.814453125" xlink:href="#BitstreamVeraSans-Roman-66"/>
      <use x="649.01953125" xlink:href="#BitstreamVeraSans-Roman-20"/>
      <use x="680.806640625" xlink:href="#BitstreamVeraSans-Roman-74"/>
      <use x="720.015625" xlink:href="#BitstreamVeraSans-Roman-72"/>
      <use x="761.12890625" xlink:href="#BitstreamVeraSans-Roman-69"/>
      <use x="788.912109375" xlink:href="#BitstreamVeraSans-Roman-61"/>
      <use x="850.19140625" xlink:href="#BitstreamVeraSans-Roman-6c"/>
      <use x="877.974609375" xlink:href="#BitstreamVeraSans-Roman-73"/>
     </g>
    </g>
   </g>
   <g id="text_15">
    <!-- {f20-f24}, 5-D -->
    <defs>
     <path d="
M11.7188 12.4062
L22.0156 12.4062
L22.0156 4
L14.0156 -11.625
L7.71875 -11.625
L11.7188 4
z
" id="BitstreamVeraSans-Roman-2c"/>
     <path d="
M12.5 -9.28125
L15.9219 -9.28125
Q22.75 -9.28125 24.8281 -7.17188
Q26.9062 -5.07812 26.9062 1.90625
L26.9062 14.0156
Q26.9062 21.625 29.0938 25.0938
Q31.2969 28.5625 36.7188 29.8906
Q31.2969 31.1094 29.0938 34.5625
Q26.9062 38.0312 26.9062 45.7031
L26.9062 57.8125
Q26.9062 64.75 24.8281 66.875
Q22.75 69 15.9219 69
L12.5 69
L12.5 75.9844
L15.5781 75.9844
Q27.7344 75.9844 31.8125 72.3906
Q35.8906 68.7969 35.8906 58.0156
L35.8906 46.2969
Q35.8906 39.0156 38.5156 36.2031
Q41.1562 33.4062 48.0938 33.4062
L51.125 33.4062
L51.125 26.4219
L48.0938 26.4219
Q41.1562 26.4219 38.5156 23.5781
Q35.8906 20.75 35.8906 13.375
L35.8906 1.70312
Q35.8906 -9.07812 31.8125 -12.6875
Q27.7344 -16.3125 15.5781 -16.3125
L12.5 -16.3125
z
" id="BitstreamVeraSans-Roman-7d"/>
     <path d="
M51.125 -9.28125
L51.125 -16.3125
L48.0938 -16.3125
Q35.9375 -16.3125 31.8125 -12.6875
Q27.6875 -9.07812 27.6875 1.70312
L27.6875 13.375
Q27.6875 20.75 25.0469 23.5781
Q22.4062 26.4219 15.4844 26.4219
L12.5 26.4219
L12.5 33.4062
L15.4844 33.4062
Q22.4688 33.4062 25.0781 36.2031
Q27.6875 39.0156 27.6875 46.2969
L27.6875 58.0156
Q27.6875 68.7969 31.8125 72.3906
Q35.9375 75.9844 48.0938 75.9844
L51.125 75.9844
L51.125 69
L47.7969 69
Q40.9219 69 38.8125 66.8438
Q36.7188 64.7031 36.7188 57.8125
L36.7188 45.7031
Q36.7188 38.0312 34.5 34.5625
Q32.2812 31.1094 26.9062 29.8906
Q32.3281 28.5625 34.5156 25.0938
Q36.7188 21.625 36.7188 14.0156
L36.7188 1.90625
Q36.7188 -4.98438 38.8125 -7.125
Q40.9219 -9.28125 47.7969 -9.28125
z
" id="BitstreamVeraSans-Roman-7b"/>
     <path d="
M4.89062 31.3906
L31.2031 31.3906
L31.2031 23.3906
L4.89062 23.3906
z
" id="BitstreamVeraSans-Roman-2d"/>
    </defs>
    <g transform="translate(215.8625 35.5652178218)scale(0.2 -0.2)">
     <use xlink:href="#BitstreamVeraSans-Roman-7b"/>
     <use x="63.623046875" xlink:href="#BitstreamVeraSans-Roman-66"/>
     <use x="98.828125" xlink:href="#BitstreamVeraSans-Roman-32"/>
     <use x="162.451171875" xlink:href="#BitstreamVeraSans-Roman-30"/>
     <use x="226.07421875" xlink:href="#BitstreamVeraSans-Roman-2d"/>
     <use x="262.158203125" xlink:href="#BitstreamVeraSans-Roman-66"/>
     <use x="297.36328125" xlink:href="#BitstreamVeraSans-Roman-32"/>
     <use x="360.986328125" xlink:href="#BitstreamVeraSans-Roman-34"/>
     <use x="424.609375" xlink:href="#BitstreamVeraSans-Roman-7d"/>
     <use x="488.232421875" xlink:href="#BitstreamVeraSans-Roman-2c"/>
     <use x="520.01953125" xlink:href="#BitstreamVeraSans-Roman-20"/>
     <use x="551.806640625" xlink:href="#BitstreamVeraSans-Roman-35"/>
     <use x="615.4296875" xlink:href="#BitstreamVeraSans-Roman-2d"/>
     <use x="651.513671875" xlink:href="#BitstreamVeraSans-Roman-44"/>
    </g>
   </g>
   <g id="text_16">
    <!-- absolute targets -->
    <defs>
     <path d="
M56.2031 29.5938
L56.2031 25.2031
L14.8906 25.2031
Q15.4844 15.9219 20.4844 11.0625
Q25.4844 6.20312 34.4219 6.20312
Q39.5938 6.20312 44.4531 7.46875
Q49.3125 8.73438 54.1094 11.2812
L54.1094 2.78125
Q49.2656 0.734375 44.1875 -0.34375
Q39.1094 -1.42188 33.8906 -1.42188
Q20.7969 -1.42188 13.1562 6.1875
Q5.51562 13.8125 5.51562 26.8125
Q5.51562 40.2344 12.7656 48.1094
Q20.0156 56 32.3281 56
Q43.3594 56 49.7812 48.8906
Q56.2031 41.7969 56.2031 29.5938
M47.2188 32.2344
Q47.125 39.5938 43.0938 43.9844
Q39.0625 48.3906 32.4219 48.3906
Q24.9062 48.3906 20.3906 44.1406
Q15.875 39.8906 15.1875 32.1719
z
" id="BitstreamVeraSans-Roman-65"/>
     <path d="
M8.5 21.5781
L8.5 54.6875
L17.4844 54.6875
L17.4844 21.9219
Q17.4844 14.1562 20.5 10.2656
Q23.5312 6.39062 29.5938 6.39062
Q36.8594 6.39062 41.0781 11.0312
Q45.3125 15.6719 45.3125 23.6875
L45.3125 54.6875
L54.2969 54.6875
L54.2969 0
L45.3125 0
L45.3125 8.40625
Q42.0469 3.42188 37.7188 1
Q33.4062 -1.42188 27.6875 -1.42188
Q18.2656 -1.42188 13.375 4.4375
Q8.5 10.2969 8.5 21.5781" id="BitstreamVeraSans-Roman-75"/>
     <path d="
M48.6875 27.2969
Q48.6875 37.2031 44.6094 42.8438
Q40.5312 48.4844 33.4062 48.4844
Q26.2656 48.4844 22.1875 42.8438
Q18.1094 37.2031 18.1094 27.2969
Q18.1094 17.3906 22.1875 11.75
Q26.2656 6.10938 33.4062 6.10938
Q40.5312 6.10938 44.6094 11.75
Q48.6875 17.3906 48.6875 27.2969
M18.1094 46.3906
Q20.9531 51.2656 25.2656 53.625
Q29.5938 56 35.5938 56
Q45.5625 56 51.7812 48.0938
Q58.0156 40.1875 58.0156 27.2969
Q58.0156 14.4062 51.7812 6.48438
Q45.5625 -1.42188 35.5938 -1.42188
Q29.5938 -1.42188 25.2656 0.953125
Q20.9531 3.32812 18.1094 8.20312
L18.1094 0
L9.07812 0
L9.07812 75.9844
L18.1094 75.9844
z
" id="BitstreamVeraSans-Roman-62"/>
    </defs>
    <g transform="translate(64.921875 359.056342822)scale(0.14 -0.14)">
     <use xlink:href="#BitstreamVeraSans-Roman-61"/>
     <use x="61.279296875" xlink:href="#BitstreamVeraSans-Roman-62"/>
     <use x="124.755859375" xlink:href="#BitstreamVeraSans-Roman-73"/>
     <use x="176.85546875" xlink:href="#BitstreamVeraSans-Roman-6f"/>
     <use x="238.037109375" xlink:href="#BitstreamVeraSans-Roman-6c"/>
     <use x="265.8203125" xlink:href="#BitstreamVeraSans-Roman-75"/>
     <use x="329.19921875" xlink:href="#BitstreamVeraSans-Roman-74"/>
     <use x="368.408203125" xlink:href="#BitstreamVeraSans-Roman-65"/>
     <use x="429.931640625" xlink:href="#BitstreamVeraSans-Roman-20"/>
     <use x="461.71875" xlink:href="#BitstreamVeraSans-Roman-74"/>
     <use x="500.927734375" xlink:href="#BitstreamVeraSans-Roman-61"/>
     <use x="562.20703125" xlink:href="#BitstreamVeraSans-Roman-72"/>
     <use x="601.5703125" xlink:href="#BitstreamVeraSans-Roman-67"/>
     <use x="665.046875" xlink:href="#BitstreamVeraSans-Roman-65"/>
     <use x="726.5703125" xlink:href="#BitstreamVeraSans-Roman-74"/>
     <use x="765.779296875" xlink:href="#BitstreamVeraSans-Roman-73"/>
    </g>
   </g>
   <g id="text_17">
    <!-- v2.1.1.3 -->
    <g style="fill:#808080;" transform="translate(268.2203125 353.520655322)scale(0.1 -0.1)">
     <use xlink:href="#BitstreamVeraSans-Roman-76"/>
     <use x="59.1796875" xlink:href="#BitstreamVeraSans-Roman-32"/>
     <use x="122.802734375" xlink:href="#BitstreamVeraSans-Roman-2e"/>
     <use x="154.58984375" xlink:href="#BitstreamVeraSans-Roman-31"/>
     <use x="218.212890625" xlink:href="#BitstreamVeraSans-Roman-2e"/>
     <use x="250.0" xlink:href="#BitstreamVeraSans-Roman-31"/>
     <use x="313.623046875" xlink:href="#BitstreamVeraSans-Roman-2e"/>
     <use x="345.41015625" xlink:href="#BitstreamVeraSans-Roman-33"/>
    </g>
   </g>
   <g id="legend_1">
    <g id="patch_7">
     <path d="
M74.9219 146.881
L210.397 146.881
L210.397 23.4563
L74.9219 23.4563
z
" style="fill:#ffffff;opacity:0.2;stroke:#000000;stroke-linejoin:miter;"/>
    </g>
    <g id="line2d_156">
     <path d="
M88.9219 39.6532
L116.922 39.6532" style="fill:none;stroke:#000000;stroke-linecap:square;"/>
    </g>
    <g id="line2d_157"/>
    <g id="text_18">
     <!-- 1: 5/5 -->
     <defs>
      <path d="
M11.7188 12.4062
L22.0156 12.4062
L22.0156 0
L11.7188 0
z

M11.7188 51.7031
L22.0156 51.7031
L22.0156 39.3125
L11.7188 39.3125
z
" id="BitstreamVeraSans-Roman-3a"/>
     </defs>
     <g transform="translate(138.921875 46.6532178218)scale(0.2 -0.2)">
      <use xlink:href="#BitstreamVeraSans-Roman-31"/>
      <use x="63.623046875" xlink:href="#BitstreamVeraSans-Roman-3a"/>
      <use x="97.314453125" xlink:href="#BitstreamVeraSans-Roman-20"/>
      <use x="129.1015625" xlink:href="#BitstreamVeraSans-Roman-35"/>
      <use x="192.724609375" xlink:href="#BitstreamVeraSans-Roman-2f"/>
      <use x="226.416015625" xlink:href="#BitstreamVeraSans-Roman-35"/>
     </g>
    </g>
    <g id="line2d_158">
     <path d="
M88.9219 69.0095
L116.922 69.0095" style="fill:none;stroke:#00bfbf;stroke-linecap:square;"/>
    </g>
    <g id="line2d_159"/>
    <g id="text_19">
     <!-- -1: 4/5 -->
     <g transform="translate(138.921875 76.0094678218)scale(0.2 -0.2)">
      <use xlink:href="#BitstreamVeraSans-Roman-2d"/>
      <use x="36.083984375" xlink:href="#BitstreamVeraSans-Roman-31"/>
      <use x="99.70703125" xlink:href="#BitstreamVeraSans-Roman-3a"/>
      <use x="133.3984375" xlink:href="#BitstreamVeraSans-Roman-20"/>
      <use x="165.185546875" xlink:href="#BitstreamVeraSans-Roman-34"/>
      <use x="228.80859375" xlink:href="#BitstreamVeraSans-Roman-2f"/>
      <use x="262.5" xlink:href="#BitstreamVeraSans-Roman-35"/>
     </g>
    </g>
    <g id="line2d_160">
     <path d="
M88.9219 98.3657
L116.922 98.3657" style="fill:none;stroke:#bf00bf;stroke-linecap:square;"/>
    </g>
    <g id="line2d_161"/>
    <g id="text_20">
     <!-- -4: 3/5 -->
     <g transform="translate(138.921875 105.365717822)scale(0.2 -0.2)">
      <use xlink:href="#BitstreamVeraSans-Roman-2d"/>
      <use x="36.083984375" xlink:href="#BitstreamVeraSans-Roman-34"/>
      <use x="99.70703125" xlink:href="#BitstreamVeraSans-Roman-3a"/>
      <use x="133.3984375" xlink:href="#BitstreamVeraSans-Roman-20"/>
      <use x="165.185546875" xlink:href="#BitstreamVeraSans-Roman-33"/>
      <use x="228.80859375" xlink:href="#BitstreamVeraSans-Roman-2f"/>
      <use x="262.5" xlink:href="#BitstreamVeraSans-Roman-35"/>
     </g>
    </g>
    <g id="line2d_162">
     <path d="
M88.9219 127.722
L116.922 127.722" style="fill:none;stroke:#ff0000;stroke-linecap:square;stroke-width:3.0;"/>
    </g>
    <g id="line2d_163"/>
    <g id="text_21">
     <!-- -8: 3/5 -->
     <g transform="translate(138.921875 134.721967822)scale(0.2 -0.2)">
      <use xlink:href="#BitstreamVeraSans-Roman-2d"/>
      <use x="36.083984375" xlink:href="#BitstreamVeraSans-Roman-38"/>
      <use x="99.70703125" xlink:href="#BitstreamVeraSans-Roman-3a"/>
      <use x="133.3984375" xlink:href="#BitstreamVeraSans-Roman-20"/>
      <use x="165.185546875" xlink:href="#BitstreamVeraSans-Roman-33"/>
      <use x="228.80859375" xlink:href="#BitstreamVeraSans-Roman-2f"/>
      <use x="262.5" xlink:href="#BitstreamVeraSans-Roman-35"/>
     </g>
    </g>
   </g>
  </g>
 </g>
 <defs>
  <clipPath id="p4b24e7e61f">
   <rect height="345.6" width="446.4" x="64.921875" y="13.4563428218"/>
  </clipPath>
 </defs>
</svg>
