<?xml version="1.0" encoding="utf-8" standalone="no"?>
<!DOCTYPE svg PUBLIC "-//W3C//DTD SVG 1.1//EN"
  "http://www.w3.org/Graphics/SVG/1.1/DTD/svg11.dtd">
<!-- Created with matplotlib (http://matplotlib.org/) -->
<svg height="410pt" version="1.1" viewBox="0 0 477 410" width="477pt" xmlns="http://www.w3.org/2000/svg" xmlns:xlink="http://www.w3.org/1999/xlink">
 <defs>
  <style type="text/css">
*{stroke-linecap:butt;stroke-linejoin:round;}
  </style>
 </defs>
 <g id="figure_1">
  <g id="patch_1">
   <path d="
M0 410.464
L477.55 410.464
L477.55 0
L0 0
z
" style="fill:#ffffff;"/>
  </g>
  <g id="axes_1">
   <g id="patch_2">
    <path d="
M23.95 376.036
L470.35 376.036
L470.35 30.4362
L23.95 30.4362
z
" style="fill:#ffffff;"/>
   </g>
   <g id="line2d_1">
    <path clip-path="url(#pb011a55744)" d="
M38.5616 209.587
L94.7923 181.321
L165.635 137.837
L261.762 118.349
L357.889 94.9825
L454.016 70.2074" style="fill:none;stroke:#f5deb3;stroke-linecap:square;stroke-width:10;"/>
    <defs>
     <path d="
M-8.32667e-16 17.6777
L10.6066 0
L9.4369e-16 -17.6777
L-10.6066 -3.55271e-15
z
" id="m1b483a9f33" style="stroke:#000000;stroke-linejoin:miter;stroke-width:0.5;"/>
    </defs>
    <g clip-path="url(#pb011a55744)">
     <use style="fill:#f5deb3;stroke:#000000;stroke-linejoin:miter;stroke-width:0.5;" x="38.5616025434" xlink:href="#m1b483a9f33" y="209.586943255"/>
     <use style="fill:#f5deb3;stroke:#000000;stroke-linejoin:miter;stroke-width:0.5;" x="94.7922973907" xlink:href="#m1b483a9f33" y="181.320998857"/>
     <use style="fill:#f5deb3;stroke:#000000;stroke-linejoin:miter;stroke-width:0.5;" x="165.634594781" xlink:href="#m1b483a9f33" y="137.837182296"/>
     <use style="fill:#f5deb3;stroke:#000000;stroke-linejoin:miter;stroke-width:0.5;" x="261.761602543" xlink:href="#m1b483a9f33" y="118.349477494"/>
     <use style="fill:#f5deb3;stroke:#000000;stroke-linejoin:miter;stroke-width:0.5;" x="357.888610305" xlink:href="#m1b483a9f33" y="94.9824527978"/>
     <use style="fill:#f5deb3;stroke:#000000;stroke-linejoin:miter;stroke-width:0.5;" x="454.015618067" xlink:href="#m1b483a9f33" y="70.2073648793"/>
    </g>
   </g>
   <g id="line2d_2">
    <path clip-path="url(#pb011a55744)" d="
M162.33 177.9
L164.643 172.164
L162.33 170.777
L168.939 170.777
L166.626 172.164
L168.939 177.9
L162.33 177.9" style="fill:none;stroke:#000000;stroke-linecap:square;"/>
    <defs>
     <path d="
M0 0
C0 0 0 0 0 0
C0 0 0 0 0 0
C0 0 0 0 0 0
C0 0 0 0 0 0
C0 0 0 0 0 0
C0 0 0 0 0 0
C0 0 0 0 0 0
C0 0 0 0 0 0
z
" id="m927c9828cb" style="stroke:#000000;stroke-width:2;"/>
    </defs>
    <g clip-path="url(#pb011a55744)">
     <use style="stroke:#000000;stroke-width:2;" x="162.330144208" xlink:href="#m927c9828cb" y="177.900208559"/>
     <use style="stroke:#000000;stroke-width:2;" x="164.643259609" xlink:href="#m927c9828cb" y="172.164427161"/>
     <use style="stroke:#000000;stroke-width:2;" x="162.330144208" xlink:href="#m927c9828cb" y="170.777336043"/>
     <use style="stroke:#000000;stroke-width:2;" x="168.939045355" xlink:href="#m927c9828cb" y="170.777336043"/>
     <use style="stroke:#000000;stroke-width:2;" x="166.625929954" xlink:href="#m927c9828cb" y="172.164427161"/>
     <use style="stroke:#000000;stroke-width:2;" x="168.939045355" xlink:href="#m927c9828cb" y="177.900208559"/>
     <use style="stroke:#000000;stroke-width:2;" x="162.330144208" xlink:href="#m927c9828cb" y="177.900208559"/>
    </g>
   </g>
   <g id="line2d_3">
    <path clip-path="url(#pb011a55744)" d="
M162.33 177.9
L168.939 177.9
L168.939 170.777
L162.33 170.777
L162.33 177.9" style="fill:none;"/>
    <defs>
     <path d="
M0 3
C0.795609 3 1.55874 2.6839 2.12132 2.12132
C2.6839 1.55874 3 0.795609 3 0
C3 -0.795609 2.6839 -1.55874 2.12132 -2.12132
C1.55874 -2.6839 0.795609 -3 0 -3
C-0.795609 -3 -1.55874 -2.6839 -2.12132 -2.12132
C-2.6839 -1.55874 -3 -0.795609 -3 0
C-3 0.795609 -2.6839 1.55874 -2.12132 2.12132
C-1.55874 2.6839 -0.795609 3 0 3
z
" id="m5082eeedfc" style="stroke:#000000;stroke-width:2;"/>
    </defs>
    <g clip-path="url(#pb011a55744)">
     <use style="stroke:#000000;stroke-width:2;" x="162.330144208" xlink:href="#m5082eeedfc" y="177.900208559"/>
     <use style="stroke:#000000;stroke-width:2;" x="168.939045355" xlink:href="#m5082eeedfc" y="177.900208559"/>
     <use style="stroke:#000000;stroke-width:2;" x="168.939045355" xlink:href="#m5082eeedfc" y="170.777336043"/>
     <use style="stroke:#000000;stroke-width:2;" x="162.330144208" xlink:href="#m5082eeedfc" y="170.777336043"/>
     <use style="stroke:#000000;stroke-width:2;" x="162.330144208" xlink:href="#m5082eeedfc" y="177.900208559"/>
    </g>
   </g>
   <g id="line2d_4">
    <path clip-path="url(#pb011a55744)" d="
M162.33 172.164
L168.939 172.164" style="fill:none;stroke:#000000;stroke-linecap:square;stroke-width:2;"/>
    <g clip-path="url(#pb011a55744)">
     <use style="stroke:#000000;stroke-width:2;" x="162.330144208" xlink:href="#m927c9828cb" y="172.164427161"/>
     <use style="stroke:#000000;stroke-width:2;" x="168.939045355" xlink:href="#m927c9828cb" y="172.164427161"/>
    </g>
   </g>
   <g id="line2d_5">
    <path clip-path="url(#pb011a55744)" d="
M165.635 168.337" style="fill:none;"/>
    <defs>
     <path d="
M0 10
C2.65203 10 5.1958 8.94634 7.07107 7.07107
C8.94634 5.1958 10 2.65203 10 0
C10 -2.65203 8.94634 -5.1958 7.07107 -7.07107
C5.1958 -8.94634 2.65203 -10 0 -10
C-2.65203 -10 -5.1958 -8.94634 -7.07107 -7.07107
C-8.94634 -5.1958 -10 -2.65203 -10 0
C-10 2.65203 -8.94634 5.1958 -7.07107 7.07107
C-5.1958 8.94634 -2.65203 10 0 10
z
" id="mf88678cbc5" style="stroke:#000000;stroke-width:2;"/>
    </defs>
    <g clip-path="url(#pb011a55744)">
     <use style="stroke:#000000;stroke-width:2;" x="165.634594781" xlink:href="#mf88678cbc5" y="168.337438435"/>
    </g>
   </g>
   <g id="line2d_6">
    <path clip-path="url(#pb011a55744)" d="
M161.229 158.392
L164.313 155.581
L161.229 131.699
L170.041 131.699
L166.956 155.581
L170.041 158.392
L161.229 158.392" style="fill:none;stroke:#0000ff;stroke-linecap:square;"/>
    <defs>
     <path d="
M0 0
C0 0 0 0 0 0
C0 0 0 0 0 0
C0 0 0 0 0 0
C0 0 0 0 0 0
C0 0 0 0 0 0
C0 0 0 0 0 0
C0 0 0 0 0 0
C0 0 0 0 0 0
z
" id="m4443aac91f" style="stroke:#0000ff;stroke-width:0.5;"/>
    </defs>
    <g clip-path="url(#pb011a55744)">
     <use style="fill:#0000ff;stroke:#0000ff;stroke-width:0.5;" x="161.228660683" xlink:href="#m4443aac91f" y="158.392112425"/>
     <use style="fill:#0000ff;stroke:#0000ff;stroke-width:0.5;" x="164.312814552" xlink:href="#m4443aac91f" y="155.581056962"/>
     <use style="fill:#0000ff;stroke:#0000ff;stroke-width:0.5;" x="161.228660683" xlink:href="#m4443aac91f" y="131.698941005"/>
     <use style="fill:#0000ff;stroke:#0000ff;stroke-width:0.5;" x="170.04052888" xlink:href="#m4443aac91f" y="131.698941005"/>
     <use style="fill:#0000ff;stroke:#0000ff;stroke-width:0.5;" x="166.956375011" xlink:href="#m4443aac91f" y="155.581056962"/>
     <use style="fill:#0000ff;stroke:#0000ff;stroke-width:0.5;" x="170.04052888" xlink:href="#m4443aac91f" y="158.392112425"/>
     <use style="fill:#0000ff;stroke:#0000ff;stroke-width:0.5;" x="161.228660683" xlink:href="#m4443aac91f" y="158.392112425"/>
    </g>
   </g>
   <g id="line2d_7">
    <path clip-path="url(#pb011a55744)" d="
M161.229 158.392
L170.041 158.392
L170.041 131.699
L161.229 131.699
L161.229 158.392" style="fill:none;"/>
    <defs>
     <path d="
M0 1.5
C0.397805 1.5 0.77937 1.34195 1.06066 1.06066
C1.34195 0.77937 1.5 0.397805 1.5 0
C1.5 -0.397805 1.34195 -0.77937 1.06066 -1.06066
C0.77937 -1.34195 0.397805 -1.5 0 -1.5
C-0.397805 -1.5 -0.77937 -1.34195 -1.06066 -1.06066
C-1.34195 -0.77937 -1.5 -0.397805 -1.5 0
C-1.5 0.397805 -1.34195 0.77937 -1.06066 1.06066
C-0.77937 1.34195 -0.397805 1.5 0 1.5
z
" id="m76a7ce5b4a" style="stroke:#0000ff;stroke-width:0.5;"/>
    </defs>
    <g clip-path="url(#pb011a55744)">
     <use style="fill:#0000ff;stroke:#0000ff;stroke-width:0.5;" x="161.228660683" xlink:href="#m76a7ce5b4a" y="158.392112425"/>
     <use style="fill:#0000ff;stroke:#0000ff;stroke-width:0.5;" x="170.04052888" xlink:href="#m76a7ce5b4a" y="158.392112425"/>
     <use style="fill:#0000ff;stroke:#0000ff;stroke-width:0.5;" x="170.04052888" xlink:href="#m76a7ce5b4a" y="131.698941005"/>
     <use style="fill:#0000ff;stroke:#0000ff;stroke-width:0.5;" x="161.228660683" xlink:href="#m76a7ce5b4a" y="131.698941005"/>
     <use style="fill:#0000ff;stroke:#0000ff;stroke-width:0.5;" x="161.228660683" xlink:href="#m76a7ce5b4a" y="158.392112425"/>
    </g>
   </g>
   <g id="line2d_8">
    <path clip-path="url(#pb011a55744)" d="
M161.229 155.581
L170.041 155.581" style="fill:none;stroke:#0000ff;stroke-linecap:square;stroke-width:2;"/>
    <g clip-path="url(#pb011a55744)">
     <use style="fill:#0000ff;stroke:#0000ff;stroke-width:0.5;" x="161.228660683" xlink:href="#m4443aac91f" y="155.581056962"/>
     <use style="fill:#0000ff;stroke:#0000ff;stroke-width:0.5;" x="170.04052888" xlink:href="#m4443aac91f" y="155.581056962"/>
    </g>
   </g>
   <g id="line2d_9">
    <path clip-path="url(#pb011a55744)" d="
M165.635 141.3" style="fill:none;"/>
    <defs>
     <path d="
M0 5
C1.32602 5 2.5979 4.47317 3.53553 3.53553
C4.47317 2.5979 5 1.32602 5 0
C5 -1.32602 4.47317 -2.5979 3.53553 -3.53553
C2.5979 -4.47317 1.32602 -5 0 -5
C-1.32602 -5 -2.5979 -4.47317 -3.53553 -3.53553
C-4.47317 -2.5979 -5 -1.32602 -5 0
C-5 1.32602 -4.47317 2.5979 -3.53553 3.53553
C-2.5979 4.47317 -1.32602 5 0 5
z
" id="m6f1fcf6525" style="stroke:#0000ff;stroke-width:0.5;"/>
    </defs>
    <g clip-path="url(#pb011a55744)">
     <use style="fill:#0000ff;stroke:#0000ff;stroke-width:0.5;" x="165.634594781" xlink:href="#m6f1fcf6525" y="141.300023738"/>
    </g>
   </g>
   <g id="line2d_10">
    <path clip-path="url(#pb011a55744)" d="
M160.127 128.962
L163.982 122.917
L160.127 119.962
L171.142 119.962
L167.287 122.917
L171.142 128.962
L160.127 128.962" style="fill:none;stroke:#00bfbf;stroke-linecap:square;"/>
    <defs>
     <path d="
M0 0
L0 0
L0 0
z
" id="m9ac02d4b70" style="stroke:#00bfbf;stroke-linejoin:miter;stroke-width:2;"/>
    </defs>
    <g clip-path="url(#pb011a55744)">
     <use style="fill:#00bfbf;stroke:#00bfbf;stroke-linejoin:miter;stroke-width:2;" x="160.127177159" xlink:href="#m9ac02d4b70" y="128.962152003"/>
     <use style="fill:#00bfbf;stroke:#00bfbf;stroke-linejoin:miter;stroke-width:2;" x="163.982369495" xlink:href="#m9ac02d4b70" y="122.916999443"/>
     <use style="fill:#00bfbf;stroke:#00bfbf;stroke-linejoin:miter;stroke-width:2;" x="160.127177159" xlink:href="#m9ac02d4b70" y="119.962362145"/>
     <use style="fill:#00bfbf;stroke:#00bfbf;stroke-linejoin:miter;stroke-width:2;" x="171.142012404" xlink:href="#m9ac02d4b70" y="119.962362145"/>
     <use style="fill:#00bfbf;stroke:#00bfbf;stroke-linejoin:miter;stroke-width:2;" x="167.286820068" xlink:href="#m9ac02d4b70" y="122.916999443"/>
     <use style="fill:#00bfbf;stroke:#00bfbf;stroke-linejoin:miter;stroke-width:2;" x="171.142012404" xlink:href="#m9ac02d4b70" y="128.962152003"/>
     <use style="fill:#00bfbf;stroke:#00bfbf;stroke-linejoin:miter;stroke-width:2;" x="160.127177159" xlink:href="#m9ac02d4b70" y="128.962152003"/>
    </g>
   </g>
   <g id="line2d_11">
    <path clip-path="url(#pb011a55744)" d="
M160.127 128.962
L171.142 128.962
L171.142 119.962
L160.127 119.962
L160.127 128.962" style="fill:none;"/>
    <defs>
     <path d="
M-3.67394e-16 3
L3 -3
L-3 -3
z
" id="mf178d8dd23" style="stroke:#00bfbf;stroke-linejoin:miter;stroke-width:2;"/>
    </defs>
    <g clip-path="url(#pb011a55744)">
     <use style="fill:#00bfbf;stroke:#00bfbf;stroke-linejoin:miter;stroke-width:2;" x="160.127177159" xlink:href="#mf178d8dd23" y="128.962152003"/>
     <use style="fill:#00bfbf;stroke:#00bfbf;stroke-linejoin:miter;stroke-width:2;" x="171.142012404" xlink:href="#mf178d8dd23" y="128.962152003"/>
     <use style="fill:#00bfbf;stroke:#00bfbf;stroke-linejoin:miter;stroke-width:2;" x="171.142012404" xlink:href="#mf178d8dd23" y="119.962362145"/>
     <use style="fill:#00bfbf;stroke:#00bfbf;stroke-linejoin:miter;stroke-width:2;" x="160.127177159" xlink:href="#mf178d8dd23" y="119.962362145"/>
     <use style="fill:#00bfbf;stroke:#00bfbf;stroke-linejoin:miter;stroke-width:2;" x="160.127177159" xlink:href="#mf178d8dd23" y="128.962152003"/>
    </g>
   </g>
   <g id="line2d_12">
    <path clip-path="url(#pb011a55744)" d="
M160.127 122.917
L171.142 122.917" style="fill:none;stroke:#00bfbf;stroke-linecap:square;stroke-width:2;"/>
    <g clip-path="url(#pb011a55744)">
     <use style="fill:#00bfbf;stroke:#00bfbf;stroke-linejoin:miter;stroke-width:2;" x="160.127177159" xlink:href="#m9ac02d4b70" y="122.916999443"/>
     <use style="fill:#00bfbf;stroke:#00bfbf;stroke-linejoin:miter;stroke-width:2;" x="171.142012404" xlink:href="#m9ac02d4b70" y="122.916999443"/>
    </g>
   </g>
   <g id="line2d_13">
    <path clip-path="url(#pb011a55744)" d="
M165.635 123.033" style="fill:none;"/>
    <defs>
     <path d="
M-1.22465e-15 10
L10 -10
L-10 -10
z
" id="m3e14c286d9" style="stroke:#000000;stroke-linejoin:miter;stroke-width:2;"/>
    </defs>
    <g clip-path="url(#pb011a55744)">
     <use style="fill:#00bfbf;stroke:#000000;stroke-linejoin:miter;stroke-width:2;" x="165.634594781" xlink:href="#m3e14c286d9" y="123.033171567"/>
    </g>
   </g>
   <g id="line2d_14">
    <path clip-path="url(#pb011a55744)" d="
M159.026 131.748
L163.652 116.822
L159.026 104.788
L172.243 104.788
L167.617 116.822
L172.243 131.748
L159.026 131.748" style="fill:none;stroke:#008000;stroke-linecap:square;"/>
    <defs>
     <path d="
M0 0
C0 0 0 0 0 0
C0 0 0 0 0 0
C0 0 0 0 0 0
C0 0 0 0 0 0
C0 0 0 0 0 0
C0 0 0 0 0 0
C0 0 0 0 0 0
C0 0 0 0 0 0
z
" id="mf3da2ae3b2" style="stroke:#008000;stroke-width:0.5;"/>
    </defs>
    <g clip-path="url(#pb011a55744)">
     <use style="fill:#008000;stroke:#008000;stroke-width:0.5;" x="159.025693634" xlink:href="#mf3da2ae3b2" y="131.747594829"/>
     <use style="fill:#008000;stroke:#008000;stroke-width:0.5;" x="163.651924437" xlink:href="#mf3da2ae3b2" y="116.822283311"/>
     <use style="fill:#008000;stroke:#008000;stroke-width:0.5;" x="159.025693634" xlink:href="#mf3da2ae3b2" y="104.787729702"/>
     <use style="fill:#008000;stroke:#008000;stroke-width:0.5;" x="172.243495929" xlink:href="#mf3da2ae3b2" y="104.787729702"/>
     <use style="fill:#008000;stroke:#008000;stroke-width:0.5;" x="167.617265126" xlink:href="#mf3da2ae3b2" y="116.822283311"/>
     <use style="fill:#008000;stroke:#008000;stroke-width:0.5;" x="172.243495929" xlink:href="#mf3da2ae3b2" y="131.747594829"/>
     <use style="fill:#008000;stroke:#008000;stroke-width:0.5;" x="159.025693634" xlink:href="#mf3da2ae3b2" y="131.747594829"/>
    </g>
   </g>
   <g id="line2d_15">
    <path clip-path="url(#pb011a55744)" d="
M159.026 131.748
L172.243 131.748
L172.243 104.788
L159.026 104.788
L159.026 131.748" style="fill:none;"/>
    <defs>
     <path d="
M0 1.5
C0.397805 1.5 0.77937 1.34195 1.06066 1.06066
C1.34195 0.77937 1.5 0.397805 1.5 0
C1.5 -0.397805 1.34195 -0.77937 1.06066 -1.06066
C0.77937 -1.34195 0.397805 -1.5 0 -1.5
C-0.397805 -1.5 -0.77937 -1.34195 -1.06066 -1.06066
C-1.34195 -0.77937 -1.5 -0.397805 -1.5 0
C-1.5 0.397805 -1.34195 0.77937 -1.06066 1.06066
C-0.77937 1.34195 -0.397805 1.5 0 1.5
z
" id="mb0b177905e" style="stroke:#008000;stroke-width:0.5;"/>
    </defs>
    <g clip-path="url(#pb011a55744)">
     <use style="fill:#008000;stroke:#008000;stroke-width:0.5;" x="159.025693634" xlink:href="#mb0b177905e" y="131.747594829"/>
     <use style="fill:#008000;stroke:#008000;stroke-width:0.5;" x="172.243495929" xlink:href="#mb0b177905e" y="131.747594829"/>
     <use style="fill:#008000;stroke:#008000;stroke-width:0.5;" x="172.243495929" xlink:href="#mb0b177905e" y="104.787729702"/>
     <use style="fill:#008000;stroke:#008000;stroke-width:0.5;" x="159.025693634" xlink:href="#mb0b177905e" y="104.787729702"/>
     <use style="fill:#008000;stroke:#008000;stroke-width:0.5;" x="159.025693634" xlink:href="#mb0b177905e" y="131.747594829"/>
    </g>
   </g>
   <g id="line2d_16">
    <path clip-path="url(#pb011a55744)" d="
M159.026 116.822
L172.243 116.822" style="fill:none;stroke:#008000;stroke-linecap:square;stroke-width:2;"/>
    <g clip-path="url(#pb011a55744)">
     <use style="fill:#008000;stroke:#008000;stroke-width:0.5;" x="159.025693634" xlink:href="#mf3da2ae3b2" y="116.822283311"/>
     <use style="fill:#008000;stroke:#008000;stroke-width:0.5;" x="172.243495929" xlink:href="#mf3da2ae3b2" y="116.822283311"/>
    </g>
   </g>
   <g id="line2d_17">
    <path clip-path="url(#pb011a55744)" d="
M165.635 115.021" style="fill:none;"/>
    <defs>
     <path d="
M0 5
C1.32602 5 2.5979 4.47317 3.53553 3.53553
C4.47317 2.5979 5 1.32602 5 0
C5 -1.32602 4.47317 -2.5979 3.53553 -3.53553
C2.5979 -4.47317 1.32602 -5 0 -5
C-1.32602 -5 -2.5979 -4.47317 -3.53553 -3.53553
C-4.47317 -2.5979 -5 -1.32602 -5 0
C-5 1.32602 -4.47317 2.5979 -3.53553 3.53553
C-2.5979 4.47317 -1.32602 5 0 5
z
" id="mcecd3d9643" style="stroke:#008000;stroke-width:0.5;"/>
    </defs>
    <g clip-path="url(#pb011a55744)">
     <use style="fill:#008000;stroke:#008000;stroke-width:0.5;" x="165.634594781" xlink:href="#mcecd3d9643" y="115.02149412"/>
    </g>
   </g>
   <g id="line2d_18">
    <path clip-path="url(#pb011a55744)" d="
M157.924 126.055
L163.321 116.341
L157.924 113.803
L173.345 113.803
L167.948 116.341
L173.345 126.055
L157.924 126.055" style="fill:none;stroke:#bfbf00;stroke-linecap:square;"/>
    <defs>
     <path d="
M0 0
L0 0
L0 0
z
" id="m305ae481a1" style="stroke:#bfbf00;stroke-linejoin:miter;stroke-width:2;"/>
    </defs>
    <g clip-path="url(#pb011a55744)">
     <use style="fill:#bfbf00;stroke:#bfbf00;stroke-linejoin:miter;stroke-width:2;" x="157.924210109" xlink:href="#m305ae481a1" y="126.054989766"/>
     <use style="fill:#bfbf00;stroke:#bfbf00;stroke-linejoin:miter;stroke-width:2;" x="163.32147938" xlink:href="#m305ae481a1" y="116.340564483"/>
     <use style="fill:#bfbf00;stroke:#bfbf00;stroke-linejoin:miter;stroke-width:2;" x="157.924210109" xlink:href="#m305ae481a1" y="113.803121161"/>
     <use style="fill:#bfbf00;stroke:#bfbf00;stroke-linejoin:miter;stroke-width:2;" x="173.344979453" xlink:href="#m305ae481a1" y="113.803121161"/>
     <use style="fill:#bfbf00;stroke:#bfbf00;stroke-linejoin:miter;stroke-width:2;" x="167.947710183" xlink:href="#m305ae481a1" y="116.340564483"/>
     <use style="fill:#bfbf00;stroke:#bfbf00;stroke-linejoin:miter;stroke-width:2;" x="173.344979453" xlink:href="#m305ae481a1" y="126.054989766"/>
     <use style="fill:#bfbf00;stroke:#bfbf00;stroke-linejoin:miter;stroke-width:2;" x="157.924210109" xlink:href="#m305ae481a1" y="126.054989766"/>
    </g>
   </g>
   <g id="line2d_19">
    <path clip-path="url(#pb011a55744)" d="
M157.924 126.055
L173.345 126.055
L173.345 113.803
L157.924 113.803
L157.924 126.055" style="fill:none;"/>
    <defs>
     <path d="
M0 -3
L-3 3
L3 3
z
" id="m7e6fbcf688" style="stroke:#bfbf00;stroke-linejoin:miter;stroke-width:2;"/>
    </defs>
    <g clip-path="url(#pb011a55744)">
     <use style="fill:#bfbf00;stroke:#bfbf00;stroke-linejoin:miter;stroke-width:2;" x="157.924210109" xlink:href="#m7e6fbcf688" y="126.054989766"/>
     <use style="fill:#bfbf00;stroke:#bfbf00;stroke-linejoin:miter;stroke-width:2;" x="173.344979453" xlink:href="#m7e6fbcf688" y="126.054989766"/>
     <use style="fill:#bfbf00;stroke:#bfbf00;stroke-linejoin:miter;stroke-width:2;" x="173.344979453" xlink:href="#m7e6fbcf688" y="113.803121161"/>
     <use style="fill:#bfbf00;stroke:#bfbf00;stroke-linejoin:miter;stroke-width:2;" x="157.924210109" xlink:href="#m7e6fbcf688" y="113.803121161"/>
     <use style="fill:#bfbf00;stroke:#bfbf00;stroke-linejoin:miter;stroke-width:2;" x="157.924210109" xlink:href="#m7e6fbcf688" y="126.054989766"/>
    </g>
   </g>
   <g id="line2d_20">
    <path clip-path="url(#pb011a55744)" d="
M157.924 116.341
L173.345 116.341" style="fill:none;stroke:#bfbf00;stroke-linecap:square;stroke-width:2;"/>
    <g clip-path="url(#pb011a55744)">
     <use style="fill:#bfbf00;stroke:#bfbf00;stroke-linejoin:miter;stroke-width:2;" x="157.924210109" xlink:href="#m305ae481a1" y="116.340564483"/>
     <use style="fill:#bfbf00;stroke:#bfbf00;stroke-linejoin:miter;stroke-width:2;" x="173.344979453" xlink:href="#m305ae481a1" y="116.340564483"/>
    </g>
   </g>
   <g id="line2d_21">
    <path clip-path="url(#pb011a55744)" d="
M165.635 110.426" style="fill:none;"/>
    <defs>
     <path d="
M0 -10
L-10 10
L10 10
z
" id="m0b3fcd2f2a" style="stroke:#000000;stroke-linejoin:miter;stroke-width:2;"/>
    </defs>
    <g clip-path="url(#pb011a55744)">
     <use style="fill:#bfbf00;stroke:#000000;stroke-linejoin:miter;stroke-width:2;" x="165.634594781" xlink:href="#m0b3fcd2f2a" y="110.426350687"/>
    </g>
   </g>
   <g id="line2d_22">
    <path clip-path="url(#pb011a55744)" d="
M156.823 97.4452
L162.991 83.7646
L156.823 74.157
L174.446 74.157
L168.278 83.7646
L174.446 97.4452
L156.823 97.4452" style="fill:none;stroke:#bf00bf;stroke-linecap:square;"/>
    <defs>
     <path d="
M0 0
C0 0 0 0 0 0
C0 0 0 0 0 0
C0 0 0 0 0 0
C0 0 0 0 0 0
C0 0 0 0 0 0
C0 0 0 0 0 0
C0 0 0 0 0 0
C0 0 0 0 0 0
z
" id="ma7358f3653" style="stroke:#bf00bf;stroke-width:0.5;"/>
    </defs>
    <g clip-path="url(#pb011a55744)">
     <use style="fill:#bf00bf;stroke:#bf00bf;stroke-width:0.5;" x="156.822726585" xlink:href="#ma7358f3653" y="97.4452010447"/>
     <use style="fill:#bf00bf;stroke:#bf00bf;stroke-width:0.5;" x="162.991034322" xlink:href="#ma7358f3653" y="83.764647244"/>
     <use style="fill:#bf00bf;stroke:#bf00bf;stroke-width:0.5;" x="156.822726585" xlink:href="#ma7358f3653" y="74.1569694867"/>
     <use style="fill:#bf00bf;stroke:#bf00bf;stroke-width:0.5;" x="174.446462978" xlink:href="#ma7358f3653" y="74.1569694867"/>
     <use style="fill:#bf00bf;stroke:#bf00bf;stroke-width:0.5;" x="168.27815524" xlink:href="#ma7358f3653" y="83.764647244"/>
     <use style="fill:#bf00bf;stroke:#bf00bf;stroke-width:0.5;" x="174.446462978" xlink:href="#ma7358f3653" y="97.4452010447"/>
     <use style="fill:#bf00bf;stroke:#bf00bf;stroke-width:0.5;" x="156.822726585" xlink:href="#ma7358f3653" y="97.4452010447"/>
    </g>
   </g>
   <g id="line2d_23">
    <path clip-path="url(#pb011a55744)" d="
M156.823 97.4452
L174.446 97.4452
L174.446 74.157
L156.823 74.157
L156.823 97.4452" style="fill:none;"/>
    <defs>
     <path d="
M0 1.5
C0.397805 1.5 0.77937 1.34195 1.06066 1.06066
C1.34195 0.77937 1.5 0.397805 1.5 0
C1.5 -0.397805 1.34195 -0.77937 1.06066 -1.06066
C0.77937 -1.34195 0.397805 -1.5 0 -1.5
C-0.397805 -1.5 -0.77937 -1.34195 -1.06066 -1.06066
C-1.34195 -0.77937 -1.5 -0.397805 -1.5 0
C-1.5 0.397805 -1.34195 0.77937 -1.06066 1.06066
C-0.77937 1.34195 -0.397805 1.5 0 1.5
z
" id="m56b4842580" style="stroke:#bf00bf;stroke-width:0.5;"/>
    </defs>
    <g clip-path="url(#pb011a55744)">
     <use style="fill:#bf00bf;stroke:#bf00bf;stroke-width:0.5;" x="156.822726585" xlink:href="#m56b4842580" y="97.4452010447"/>
     <use style="fill:#bf00bf;stroke:#bf00bf;stroke-width:0.5;" x="174.446462978" xlink:href="#m56b4842580" y="97.4452010447"/>
     <use style="fill:#bf00bf;stroke:#bf00bf;stroke-width:0.5;" x="174.446462978" xlink:href="#m56b4842580" y="74.1569694867"/>
     <use style="fill:#bf00bf;stroke:#bf00bf;stroke-width:0.5;" x="156.822726585" xlink:href="#m56b4842580" y="74.1569694867"/>
     <use style="fill:#bf00bf;stroke:#bf00bf;stroke-width:0.5;" x="156.822726585" xlink:href="#m56b4842580" y="97.4452010447"/>
    </g>
   </g>
   <g id="line2d_24">
    <path clip-path="url(#pb011a55744)" d="
M156.823 83.7646
L174.446 83.7646" style="fill:none;stroke:#bf00bf;stroke-linecap:square;stroke-width:2;"/>
    <g clip-path="url(#pb011a55744)">
     <use style="fill:#bf00bf;stroke:#bf00bf;stroke-width:0.5;" x="156.822726585" xlink:href="#ma7358f3653" y="83.764647244"/>
     <use style="fill:#bf00bf;stroke:#bf00bf;stroke-width:0.5;" x="174.446462978" xlink:href="#ma7358f3653" y="83.764647244"/>
    </g>
   </g>
   <g id="line2d_25">
    <path clip-path="url(#pb011a55744)" d="
M165.635 82.6521" style="fill:none;"/>
    <defs>
     <path d="
M0 5
C1.32602 5 2.5979 4.47317 3.53553 3.53553
C4.47317 2.5979 5 1.32602 5 0
C5 -1.32602 4.47317 -2.5979 3.53553 -3.53553
C2.5979 -4.47317 1.32602 -5 0 -5
C-1.32602 -5 -2.5979 -4.47317 -3.53553 -3.53553
C-4.47317 -2.5979 -5 -1.32602 -5 0
C-5 1.32602 -4.47317 2.5979 -3.53553 3.53553
C-2.5979 4.47317 -1.32602 5 0 5
z
" id="m536e98b0b7" style="stroke:#bf00bf;stroke-width:0.5;"/>
    </defs>
    <g clip-path="url(#pb011a55744)">
     <use style="fill:#bf00bf;stroke:#bf00bf;stroke-width:0.5;" x="165.634594781" xlink:href="#m536e98b0b7" y="82.6520733828"/>
    </g>
   </g>
   <g id="line2d_26">
    <path clip-path="url(#pb011a55744)" d="
M155.721 90.9935
L162.661 60.7582
L155.721 53.5245
L175.548 53.5245
L168.609 60.7582
L175.548 90.9935
L155.721 90.9935" style="fill:none;stroke:#ff0000;stroke-linecap:square;"/>
    <defs>
     <path d="
M0 0
C0 0 0 0 0 0
C0 0 0 0 0 0
C0 0 0 0 0 0
C0 0 0 0 0 0
C0 0 0 0 0 0
C0 0 0 0 0 0
C0 0 0 0 0 0
C0 0 0 0 0 0
z
" id="mf83d596818" style="stroke:#ff0000;stroke-width:2;"/>
    </defs>
    <g clip-path="url(#pb011a55744)">
     <use style="fill:#ff0000;stroke:#ff0000;stroke-width:2;" x="155.72124306" xlink:href="#mf83d596818" y="90.9934741125"/>
     <use style="fill:#ff0000;stroke:#ff0000;stroke-width:2;" x="162.660589265" xlink:href="#mf83d596818" y="60.758185921"/>
     <use style="fill:#ff0000;stroke:#ff0000;stroke-width:2;" x="155.72124306" xlink:href="#mf83d596818" y="53.5244896361"/>
     <use style="fill:#ff0000;stroke:#ff0000;stroke-width:2;" x="175.547946503" xlink:href="#mf83d596818" y="53.5244896361"/>
     <use style="fill:#ff0000;stroke:#ff0000;stroke-width:2;" x="168.608600298" xlink:href="#mf83d596818" y="60.758185921"/>
     <use style="fill:#ff0000;stroke:#ff0000;stroke-width:2;" x="175.547946503" xlink:href="#mf83d596818" y="90.9934741125"/>
     <use style="fill:#ff0000;stroke:#ff0000;stroke-width:2;" x="155.72124306" xlink:href="#mf83d596818" y="90.9934741125"/>
    </g>
   </g>
   <g id="line2d_27">
    <path clip-path="url(#pb011a55744)" d="
M155.721 90.9935
L175.548 90.9935
L175.548 53.5245
L155.721 53.5245
L155.721 90.9935" style="fill:none;"/>
    <defs>
     <path d="
M0 3
C0.795609 3 1.55874 2.6839 2.12132 2.12132
C2.6839 1.55874 3 0.795609 3 0
C3 -0.795609 2.6839 -1.55874 2.12132 -2.12132
C1.55874 -2.6839 0.795609 -3 0 -3
C-0.795609 -3 -1.55874 -2.6839 -2.12132 -2.12132
C-2.6839 -1.55874 -3 -0.795609 -3 0
C-3 0.795609 -2.6839 1.55874 -2.12132 2.12132
C-1.55874 2.6839 -0.795609 3 0 3
z
" id="m6d6f70f495" style="stroke:#ff0000;stroke-width:2;"/>
    </defs>
    <g clip-path="url(#pb011a55744)">
     <use style="fill:#ff0000;stroke:#ff0000;stroke-width:2;" x="155.72124306" xlink:href="#m6d6f70f495" y="90.9934741125"/>
     <use style="fill:#ff0000;stroke:#ff0000;stroke-width:2;" x="175.547946503" xlink:href="#m6d6f70f495" y="90.9934741125"/>
     <use style="fill:#ff0000;stroke:#ff0000;stroke-width:2;" x="175.547946503" xlink:href="#m6d6f70f495" y="53.5244896361"/>
     <use style="fill:#ff0000;stroke:#ff0000;stroke-width:2;" x="155.72124306" xlink:href="#m6d6f70f495" y="53.5244896361"/>
     <use style="fill:#ff0000;stroke:#ff0000;stroke-width:2;" x="155.72124306" xlink:href="#m6d6f70f495" y="90.9934741125"/>
    </g>
   </g>
   <g id="line2d_28">
    <path clip-path="url(#pb011a55744)" d="
M155.721 60.7582
L175.548 60.7582" style="fill:none;stroke:#ff0000;stroke-linecap:square;stroke-width:2;"/>
    <g clip-path="url(#pb011a55744)">
     <use style="fill:#ff0000;stroke:#ff0000;stroke-width:2;" x="155.72124306" xlink:href="#mf83d596818" y="60.758185921"/>
     <use style="fill:#ff0000;stroke:#ff0000;stroke-width:2;" x="175.547946503" xlink:href="#mf83d596818" y="60.758185921"/>
    </g>
   </g>
   <g id="line2d_29">
    <path clip-path="url(#pb011a55744)" d="
M165.635 66.4922" style="fill:none;"/>
    <defs>
     <path d="
M0 10
C2.65203 10 5.1958 8.94634 7.07107 7.07107
C8.94634 5.1958 10 2.65203 10 0
C10 -2.65203 8.94634 -5.1958 7.07107 -7.07107
C5.1958 -8.94634 2.65203 -10 0 -10
C-2.65203 -10 -5.1958 -8.94634 -7.07107 -7.07107
C-8.94634 -5.1958 -10 -2.65203 -10 0
C-10 2.65203 -8.94634 5.1958 -7.07107 7.07107
C-5.1958 8.94634 -2.65203 10 0 10
z
" id="m1474c30724" style="stroke:#000000;stroke-width:2;"/>
    </defs>
    <g clip-path="url(#pb011a55744)">
     <use style="fill:#ff0000;stroke:#000000;stroke-width:2;" x="165.634594781" xlink:href="#m1474c30724" y="66.4922494004"/>
    </g>
   </g>
   <g id="line2d_30"/>
   <g id="line2d_31"/>
   <g id="line2d_32"/>
   <g id="line2d_33"/>
   <g id="line2d_34"/>
   <g id="line2d_35"/>
   <g id="line2d_36"/>
   <g id="line2d_37">
    <defs>
     <path d="
M-10 10
L10 -10
M-10 -10
L10 10" id="mc708e8a258" style="stroke:#ff0000;stroke-width:0.5;"/>
    </defs>
    <g clip-path="url(#pb011a55744)">
     <use style="fill:#ff0000;stroke:#ff0000;stroke-width:0.5;" x="165.634594781" xlink:href="#mc708e8a258" y="34.7407713249"/>
    </g>
   </g>
   <g id="line2d_38">
    <path clip-path="url(#pb011a55744)" d="
M-280.765 524.151
M156.539 411.464
L478.55 328.487" style="fill:none;stroke:#000000;stroke-dasharray:1.000000,3.000000;stroke-dashoffset:0.0;stroke-width:0.5;"/>
   </g>
   <g id="line2d_39">
    <path clip-path="url(#pb011a55744)" d="
M-280.765 441.865
M-1 369.774
L478.55 246.201" style="fill:none;stroke:#000000;stroke-dasharray:1.000000,3.000000;stroke-dashoffset:0.0;stroke-width:0.5;"/>
   </g>
   <g id="line2d_40">
    <path clip-path="url(#pb011a55744)" d="
M-280.765 359.579
M-1 287.488
L478.55 163.915" style="fill:none;stroke:#000000;stroke-dasharray:1.000000,3.000000;stroke-dashoffset:0.0;stroke-width:0.5;"/>
   </g>
   <g id="line2d_41">
    <path clip-path="url(#pb011a55744)" d="
M-280.765 277.293
M-1 205.202
L478.55 81.6294" style="fill:none;stroke:#000000;stroke-dasharray:1.000000,3.000000;stroke-dashoffset:0.0;stroke-width:0.5;"/>
   </g>
   <g id="line2d_42">
    <path clip-path="url(#pb011a55744)" d="
M-280.765 195.008
M-1 122.916
L478.55 -0.656316" style="fill:none;stroke:#000000;stroke-dasharray:1.000000,3.000000;stroke-dashoffset:0.0;stroke-width:0.5;"/>
   </g>
   <g id="line2d_43">
    <path clip-path="url(#pb011a55744)" d="
M-280.765 112.722
M-1 40.6307
L160.557 -1" style="fill:none;stroke:#000000;stroke-dasharray:1.000000,3.000000;stroke-dashoffset:0.0;stroke-width:0.5;"/>
   </g>
   <g id="line2d_44">
    <path clip-path="url(#pb011a55744)" d="
M-280.765 30.4363" style="fill:none;stroke:#000000;stroke-dasharray:1.000000,3.000000;stroke-dashoffset:0.0;stroke-width:0.5;"/>
   </g>
   <g id="line2d_45">
    <path clip-path="url(#pb011a55744)" d="
M-280.765 -51.8494" style="fill:none;stroke:#000000;stroke-dasharray:1.000000,3.000000;stroke-dashoffset:0.0;stroke-width:0.5;"/>
   </g>
   <g id="line2d_46">
    <path clip-path="url(#pb011a55744)" d="
M-280.765 -134.135" style="fill:none;stroke:#000000;stroke-dasharray:1.000000,3.000000;stroke-dashoffset:0.0;stroke-width:0.5;"/>
   </g>
   <g id="patch_3">
    <path d="
M23.95 30.4362
L470.35 30.4362" style="fill:none;stroke:#000000;stroke-linecap:square;stroke-linejoin:miter;"/>
   </g>
   <g id="patch_4">
    <path d="
M470.35 376.036
L470.35 30.4362" style="fill:none;stroke:#000000;stroke-linecap:square;stroke-linejoin:miter;"/>
   </g>
   <g id="patch_5">
    <path d="
M23.95 376.036
L470.35 376.036" style="fill:none;stroke:#000000;stroke-linecap:square;stroke-linejoin:miter;"/>
   </g>
   <g id="patch_6">
    <path d="
M23.95 376.036
L23.95 30.4362" style="fill:none;stroke:#000000;stroke-linecap:square;stroke-linejoin:miter;"/>
   </g>
   <g id="matplotlib.axis_1">
    <g id="xtick_1">
     <g id="line2d_47">
      <defs>
       <path d="
M0 0
L0 -4" id="m93b0483c22" style="stroke:#000000;stroke-width:0.5;"/>
      </defs>
      <g>
       <use style="stroke:#000000;stroke-width:0.5;" x="38.5616025434" xlink:href="#m93b0483c22" y="376.03625"/>
      </g>
     </g>
     <g id="line2d_48">
      <defs>
       <path d="
M0 0
L0 4" id="m741efc42ff" style="stroke:#000000;stroke-width:0.5;"/>
      </defs>
      <g>
       <use style="stroke:#000000;stroke-width:0.5;" x="38.5616025434" xlink:href="#m741efc42ff" y="30.43625"/>
      </g>
     </g>
     <g id="text_1">
      <!-- 2 -->
      <defs>
       <path d="
M19.1875 8.29688
L53.6094 8.29688
L53.6094 0
L7.32812 0
L7.32812 8.29688
Q12.9375 14.1094 22.625 23.8906
Q32.3281 33.6875 34.8125 36.5312
Q39.5469 41.8438 41.4219 45.5312
Q43.3125 49.2188 43.3125 52.7812
Q43.3125 58.5938 39.2344 62.25
Q35.1562 65.9219 28.6094 65.9219
Q23.9688 65.9219 18.8125 64.3125
Q13.6719 62.7031 7.8125 59.4219
L7.8125 69.3906
Q13.7656 71.7812 18.9375 73
Q24.125 74.2188 28.4219 74.2188
Q39.75 74.2188 46.4844 68.5469
Q53.2188 62.8906 53.2188 53.4219
Q53.2188 48.9219 51.5312 44.8906
Q49.8594 40.875 45.4062 35.4062
Q44.1875 33.9844 37.6406 27.2188
Q31.1094 20.4531 19.1875 8.29688" id="BitstreamVeraSans-Roman-32"/>
      </defs>
      <g transform="translate(33.0078525434 398.2725)scale(0.24 -0.24)">
       <use xlink:href="#BitstreamVeraSans-Roman-32"/>
      </g>
     </g>
    </g>
    <g id="xtick_2">
     <g id="line2d_49">
      <g>
       <use style="stroke:#000000;stroke-width:0.5;" x="94.7922973907" xlink:href="#m93b0483c22" y="376.03625"/>
      </g>
     </g>
     <g id="line2d_50">
      <g>
       <use style="stroke:#000000;stroke-width:0.5;" x="94.7922973907" xlink:href="#m741efc42ff" y="30.43625"/>
      </g>
     </g>
     <g id="text_2">
      <!-- 3 -->
      <defs>
       <path d="
M40.5781 39.3125
Q47.6562 37.7969 51.625 33
Q55.6094 28.2188 55.6094 21.1875
Q55.6094 10.4062 48.1875 4.48438
Q40.7656 -1.42188 27.0938 -1.42188
Q22.5156 -1.42188 17.6562 -0.515625
Q12.7969 0.390625 7.625 2.20312
L7.625 11.7188
Q11.7188 9.32812 16.5938 8.10938
Q21.4844 6.89062 26.8125 6.89062
Q36.0781 6.89062 40.9375 10.5469
Q45.7969 14.2031 45.7969 21.1875
Q45.7969 27.6406 41.2812 31.2656
Q36.7656 34.9062 28.7188 34.9062
L20.2188 34.9062
L20.2188 43.0156
L29.1094 43.0156
Q36.375 43.0156 40.2344 45.9219
Q44.0938 48.8281 44.0938 54.2969
Q44.0938 59.9062 40.1094 62.9062
Q36.1406 65.9219 28.7188 65.9219
Q24.6562 65.9219 20.0156 65.0312
Q15.375 64.1562 9.8125 62.3125
L9.8125 71.0938
Q15.4375 72.6562 20.3438 73.4375
Q25.25 74.2188 29.5938 74.2188
Q40.8281 74.2188 47.3594 69.1094
Q53.9062 64.0156 53.9062 55.3281
Q53.9062 49.2656 50.4375 45.0938
Q46.9688 40.9219 40.5781 39.3125" id="BitstreamVeraSans-Roman-33"/>
      </defs>
      <g transform="translate(89.0341723907 398.2725)scale(0.24 -0.24)">
       <use xlink:href="#BitstreamVeraSans-Roman-33"/>
      </g>
     </g>
    </g>
    <g id="xtick_3">
     <g id="line2d_51">
      <g>
       <use style="stroke:#000000;stroke-width:0.5;" x="165.634594781" xlink:href="#m93b0483c22" y="376.03625"/>
      </g>
     </g>
     <g id="line2d_52">
      <g>
       <use style="stroke:#000000;stroke-width:0.5;" x="165.634594781" xlink:href="#m741efc42ff" y="30.43625"/>
      </g>
     </g>
     <g id="text_3">
      <!-- 5 -->
      <defs>
       <path d="
M10.7969 72.9062
L49.5156 72.9062
L49.5156 64.5938
L19.8281 64.5938
L19.8281 46.7344
Q21.9688 47.4688 24.1094 47.8281
Q26.2656 48.1875 28.4219 48.1875
Q40.625 48.1875 47.75 41.5
Q54.8906 34.8125 54.8906 23.3906
Q54.8906 11.625 47.5625 5.09375
Q40.2344 -1.42188 26.9062 -1.42188
Q22.3125 -1.42188 17.5469 -0.640625
Q12.7969 0.140625 7.71875 1.70312
L7.71875 11.625
Q12.1094 9.23438 16.7969 8.0625
Q21.4844 6.89062 26.7031 6.89062
Q35.1562 6.89062 40.0781 11.3281
Q45.0156 15.7656 45.0156 23.3906
Q45.0156 31 40.0781 35.4375
Q35.1562 39.8906 26.7031 39.8906
Q22.75 39.8906 18.8125 39.0156
Q14.8906 38.1406 10.7969 36.2812
z
" id="BitstreamVeraSans-Roman-35"/>
      </defs>
      <g transform="translate(159.973969781 398.2725)scale(0.24 -0.24)">
       <use xlink:href="#BitstreamVeraSans-Roman-35"/>
      </g>
     </g>
    </g>
    <g id="xtick_4">
     <g id="line2d_53">
      <g>
       <use style="stroke:#000000;stroke-width:0.5;" x="261.761602543" xlink:href="#m93b0483c22" y="376.03625"/>
      </g>
     </g>
     <g id="line2d_54">
      <g>
       <use style="stroke:#000000;stroke-width:0.5;" x="261.761602543" xlink:href="#m741efc42ff" y="30.43625"/>
      </g>
     </g>
     <g id="text_4">
      <!-- 10 -->
      <defs>
       <path d="
M31.7812 66.4062
Q24.1719 66.4062 20.3281 58.9062
Q16.5 51.4219 16.5 36.375
Q16.5 21.3906 20.3281 13.8906
Q24.1719 6.39062 31.7812 6.39062
Q39.4531 6.39062 43.2812 13.8906
Q47.125 21.3906 47.125 36.375
Q47.125 51.4219 43.2812 58.9062
Q39.4531 66.4062 31.7812 66.4062
M31.7812 74.2188
Q44.0469 74.2188 50.5156 64.5156
Q56.9844 54.8281 56.9844 36.375
Q56.9844 17.9688 50.5156 8.26562
Q44.0469 -1.42188 31.7812 -1.42188
Q19.5312 -1.42188 13.0625 8.26562
Q6.59375 17.9688 6.59375 36.375
Q6.59375 54.8281 13.0625 64.5156
Q19.5312 74.2188 31.7812 74.2188" id="BitstreamVeraSans-Roman-30"/>
       <path d="
M12.4062 8.29688
L28.5156 8.29688
L28.5156 63.9219
L10.9844 60.4062
L10.9844 69.3906
L28.4219 72.9062
L38.2812 72.9062
L38.2812 8.29688
L54.3906 8.29688
L54.3906 0
L12.4062 0
z
" id="BitstreamVeraSans-Roman-31"/>
      </defs>
      <g transform="translate(248.606602543 398.2725)scale(0.24 -0.24)">
       <use xlink:href="#BitstreamVeraSans-Roman-31"/>
       <use x="63.623046875" xlink:href="#BitstreamVeraSans-Roman-30"/>
      </g>
     </g>
    </g>
    <g id="xtick_5">
     <g id="line2d_55">
      <g>
       <use style="stroke:#000000;stroke-width:0.5;" x="357.888610305" xlink:href="#m93b0483c22" y="376.03625"/>
      </g>
     </g>
     <g id="line2d_56">
      <g>
       <use style="stroke:#000000;stroke-width:0.5;" x="357.888610305" xlink:href="#m741efc42ff" y="30.43625"/>
      </g>
     </g>
     <g id="text_5">
      <!-- 20 -->
      <g transform="translate(344.294860305 398.2725)scale(0.24 -0.24)">
       <use xlink:href="#BitstreamVeraSans-Roman-32"/>
       <use x="63.623046875" xlink:href="#BitstreamVeraSans-Roman-30"/>
      </g>
     </g>
    </g>
    <g id="xtick_6">
     <g id="line2d_57">
      <g>
       <use style="stroke:#000000;stroke-width:0.5;" x="454.015618067" xlink:href="#m93b0483c22" y="376.03625"/>
      </g>
     </g>
     <g id="line2d_58">
      <g>
       <use style="stroke:#000000;stroke-width:0.5;" x="454.015618067" xlink:href="#m741efc42ff" y="30.43625"/>
      </g>
     </g>
     <g id="text_6">
      <!-- 40 -->
      <defs>
       <path d="
M37.7969 64.3125
L12.8906 25.3906
L37.7969 25.3906
z

M35.2031 72.9062
L47.6094 72.9062
L47.6094 25.3906
L58.0156 25.3906
L58.0156 17.1875
L47.6094 17.1875
L47.6094 0
L37.7969 0
L37.7969 17.1875
L4.89062 17.1875
L4.89062 26.7031
z
" id="BitstreamVeraSans-Roman-34"/>
      </defs>
      <g transform="translate(440.129368067 398.2725)scale(0.24 -0.24)">
       <use xlink:href="#BitstreamVeraSans-Roman-34"/>
       <use x="63.623046875" xlink:href="#BitstreamVeraSans-Roman-30"/>
      </g>
     </g>
    </g>
    <g id="xtick_7">
     <g id="line2d_59">
      <defs>
       <path d="
M0 0
L0 -2" id="m177f7580d0" style="stroke:#000000;stroke-width:0.5;"/>
      </defs>
      <g>
       <use style="stroke:#000000;stroke-width:0.5;" x="38.5616025434" xlink:href="#m177f7580d0" y="376.03625"/>
      </g>
     </g>
     <g id="line2d_60">
      <defs>
       <path d="
M0 0
L0 2" id="m5284c7e2a0" style="stroke:#000000;stroke-width:0.5;"/>
      </defs>
      <g>
       <use style="stroke:#000000;stroke-width:0.5;" x="38.5616025434" xlink:href="#m5284c7e2a0" y="30.43625"/>
      </g>
     </g>
    </g>
    <g id="xtick_8">
     <g id="line2d_61">
      <g>
       <use style="stroke:#000000;stroke-width:0.5;" x="94.7922973907" xlink:href="#m177f7580d0" y="376.03625"/>
      </g>
     </g>
     <g id="line2d_62">
      <g>
       <use style="stroke:#000000;stroke-width:0.5;" x="94.7922973907" xlink:href="#m5284c7e2a0" y="30.43625"/>
      </g>
     </g>
    </g>
    <g id="xtick_9">
     <g id="line2d_63">
      <g>
       <use style="stroke:#000000;stroke-width:0.5;" x="134.688610305" xlink:href="#m177f7580d0" y="376.03625"/>
      </g>
     </g>
     <g id="line2d_64">
      <g>
       <use style="stroke:#000000;stroke-width:0.5;" x="134.688610305" xlink:href="#m5284c7e2a0" y="30.43625"/>
      </g>
     </g>
    </g>
    <g id="xtick_10">
     <g id="line2d_65">
      <g>
       <use style="stroke:#000000;stroke-width:0.5;" x="165.634594781" xlink:href="#m177f7580d0" y="376.03625"/>
      </g>
     </g>
     <g id="line2d_66">
      <g>
       <use style="stroke:#000000;stroke-width:0.5;" x="165.634594781" xlink:href="#m5284c7e2a0" y="30.43625"/>
      </g>
     </g>
    </g>
    <g id="xtick_11">
     <g id="line2d_67">
      <g>
       <use style="stroke:#000000;stroke-width:0.5;" x="190.919305153" xlink:href="#m177f7580d0" y="376.03625"/>
      </g>
     </g>
     <g id="line2d_68">
      <g>
       <use style="stroke:#000000;stroke-width:0.5;" x="190.919305153" xlink:href="#m5284c7e2a0" y="30.43625"/>
      </g>
     </g>
    </g>
    <g id="xtick_12">
     <g id="line2d_69">
      <g>
       <use style="stroke:#000000;stroke-width:0.5;" x="212.297223165" xlink:href="#m177f7580d0" y="376.03625"/>
      </g>
     </g>
     <g id="line2d_70">
      <g>
       <use style="stroke:#000000;stroke-width:0.5;" x="212.297223165" xlink:href="#m5284c7e2a0" y="30.43625"/>
      </g>
     </g>
    </g>
    <g id="xtick_13">
     <g id="line2d_71">
      <g>
       <use style="stroke:#000000;stroke-width:0.5;" x="230.815618067" xlink:href="#m177f7580d0" y="376.03625"/>
      </g>
     </g>
     <g id="line2d_72">
      <g>
       <use style="stroke:#000000;stroke-width:0.5;" x="230.815618067" xlink:href="#m5284c7e2a0" y="30.43625"/>
      </g>
     </g>
    </g>
    <g id="xtick_14">
     <g id="line2d_73">
      <g>
       <use style="stroke:#000000;stroke-width:0.5;" x="247.15" xlink:href="#m177f7580d0" y="376.03625"/>
      </g>
     </g>
     <g id="line2d_74">
      <g>
       <use style="stroke:#000000;stroke-width:0.5;" x="247.15" xlink:href="#m5284c7e2a0" y="30.43625"/>
      </g>
     </g>
    </g>
    <g id="xtick_15">
     <g id="line2d_75">
      <g>
       <use style="stroke:#000000;stroke-width:0.5;" x="357.888610305" xlink:href="#m177f7580d0" y="376.03625"/>
      </g>
     </g>
     <g id="line2d_76">
      <g>
       <use style="stroke:#000000;stroke-width:0.5;" x="357.888610305" xlink:href="#m5284c7e2a0" y="30.43625"/>
      </g>
     </g>
    </g>
    <g id="xtick_16">
     <g id="line2d_77">
      <g>
       <use style="stroke:#000000;stroke-width:0.5;" x="414.119305153" xlink:href="#m177f7580d0" y="376.03625"/>
      </g>
     </g>
     <g id="line2d_78">
      <g>
       <use style="stroke:#000000;stroke-width:0.5;" x="414.119305153" xlink:href="#m5284c7e2a0" y="30.43625"/>
      </g>
     </g>
    </g>
    <g id="xtick_17">
     <g id="line2d_79">
      <g>
       <use style="stroke:#000000;stroke-width:0.5;" x="454.015618067" xlink:href="#m177f7580d0" y="376.03625"/>
      </g>
     </g>
     <g id="line2d_80">
      <g>
       <use style="stroke:#000000;stroke-width:0.5;" x="454.015618067" xlink:href="#m5284c7e2a0" y="30.43625"/>
      </g>
     </g>
    </g>
   </g>
   <g id="matplotlib.axis_2">
    <g id="ytick_1">
     <g id="line2d_81">
      <path clip-path="url(#pb011a55744)" d="
M23.95 359.579
L470.35 359.579" style="fill:none;stroke:#000000;stroke-dasharray:1.000000,3.000000;stroke-dashoffset:0.0;stroke-width:0.5;"/>
     </g>
     <g id="line2d_82">
      <defs>
       <path d="
M0 0
L4 0" id="m728421d6d4" style="stroke:#000000;stroke-width:0.5;"/>
      </defs>
      <g>
       <use style="stroke:#000000;stroke-width:0.5;" x="23.95" xlink:href="#m728421d6d4" y="359.579108845"/>
      </g>
     </g>
     <g id="line2d_83">
      <defs>
       <path d="
M0 0
L-4 0" id="mcb0005524f" style="stroke:#000000;stroke-width:0.5;"/>
      </defs>
      <g>
       <use style="stroke:#000000;stroke-width:0.5;" x="470.35" xlink:href="#mcb0005524f" y="359.579108845"/>
      </g>
     </g>
     <g id="text_7">
      <!-- 0 -->
      <g transform="translate(7.85625 366.201608845)scale(0.24 -0.24)">
       <use xlink:href="#BitstreamVeraSans-Roman-30"/>
      </g>
     </g>
    </g>
    <g id="ytick_2">
     <g id="line2d_84">
      <path clip-path="url(#pb011a55744)" d="
M23.95 277.293
L470.35 277.293" style="fill:none;stroke:#000000;stroke-dasharray:1.000000,3.000000;stroke-dashoffset:0.0;stroke-width:0.5;"/>
     </g>
     <g id="line2d_85">
      <g>
       <use style="stroke:#000000;stroke-width:0.5;" x="23.95" xlink:href="#m728421d6d4" y="277.293403067"/>
      </g>
     </g>
     <g id="line2d_86">
      <g>
       <use style="stroke:#000000;stroke-width:0.5;" x="470.35" xlink:href="#mcb0005524f" y="277.293403067"/>
      </g>
     </g>
     <g id="text_8">
      <!-- 1 -->
      <g transform="translate(9.5325 283.915903067)scale(0.24 -0.24)">
       <use xlink:href="#BitstreamVeraSans-Roman-31"/>
      </g>
     </g>
    </g>
    <g id="ytick_3">
     <g id="line2d_87">
      <path clip-path="url(#pb011a55744)" d="
M23.95 195.008
L470.35 195.008" style="fill:none;stroke:#000000;stroke-dasharray:1.000000,3.000000;stroke-dashoffset:0.0;stroke-width:0.5;"/>
     </g>
     <g id="line2d_88">
      <g>
       <use style="stroke:#000000;stroke-width:0.5;" x="23.95" xlink:href="#m728421d6d4" y="195.00769729"/>
      </g>
     </g>
     <g id="line2d_89">
      <g>
       <use style="stroke:#000000;stroke-width:0.5;" x="470.35" xlink:href="#mcb0005524f" y="195.00769729"/>
      </g>
     </g>
     <g id="text_9">
      <!-- 2 -->
      <g transform="translate(8.8425 201.63019729)scale(0.24 -0.24)">
       <use xlink:href="#BitstreamVeraSans-Roman-32"/>
      </g>
     </g>
    </g>
    <g id="ytick_4">
     <g id="line2d_90">
      <path clip-path="url(#pb011a55744)" d="
M23.95 112.722
L470.35 112.722" style="fill:none;stroke:#000000;stroke-dasharray:1.000000,3.000000;stroke-dashoffset:0.0;stroke-width:0.5;"/>
     </g>
     <g id="line2d_91">
      <g>
       <use style="stroke:#000000;stroke-width:0.5;" x="23.95" xlink:href="#m728421d6d4" y="112.721991513"/>
      </g>
     </g>
     <g id="line2d_92">
      <g>
       <use style="stroke:#000000;stroke-width:0.5;" x="470.35" xlink:href="#mcb0005524f" y="112.721991513"/>
      </g>
     </g>
     <g id="text_10">
      <!-- 3 -->
      <g transform="translate(8.43375 119.344491513)scale(0.24 -0.24)">
       <use xlink:href="#BitstreamVeraSans-Roman-33"/>
      </g>
     </g>
    </g>
    <g id="ytick_5">
     <g id="line2d_93">
      <path clip-path="url(#pb011a55744)" d="
M23.95 30.4363
L470.35 30.4363" style="fill:none;stroke:#000000;stroke-dasharray:1.000000,3.000000;stroke-dashoffset:0.0;stroke-width:0.5;"/>
     </g>
     <g id="line2d_94">
      <g>
       <use style="stroke:#000000;stroke-width:0.5;" x="23.95" xlink:href="#m728421d6d4" y="30.4362857362"/>
      </g>
     </g>
     <g id="line2d_95">
      <g>
       <use style="stroke:#000000;stroke-width:0.5;" x="470.35" xlink:href="#mcb0005524f" y="30.4362857362"/>
      </g>
     </g>
     <g id="text_11">
      <!-- 4 -->
      <g transform="translate(7.2 37.0587857362)scale(0.24 -0.24)">
       <use xlink:href="#BitstreamVeraSans-Roman-34"/>
      </g>
     </g>
    </g>
    <g id="ytick_6">
     <g id="line2d_96">
      <defs>
       <path d="
M0 0
L2 0" id="mf0c55a9a47" style="stroke:#000000;stroke-width:0.5;"/>
      </defs>
      <g>
       <use style="stroke:#000000;stroke-width:0.5;" x="23.95" xlink:href="#mf0c55a9a47" y="372.325325948"/>
      </g>
     </g>
     <g id="line2d_97">
      <defs>
       <path d="
M0 0
L-2 0" id="ma4f294b3af" style="stroke:#000000;stroke-width:0.5;"/>
      </defs>
      <g>
       <use style="stroke:#000000;stroke-width:0.5;" x="470.35" xlink:href="#ma4f294b3af" y="372.325325948"/>
      </g>
     </g>
    </g>
    <g id="ytick_7">
     <g id="line2d_98">
      <g>
       <use style="stroke:#000000;stroke-width:0.5;" x="23.95" xlink:href="#mf0c55a9a47" y="367.553417662"/>
      </g>
     </g>
     <g id="line2d_99">
      <g>
       <use style="stroke:#000000;stroke-width:0.5;" x="470.35" xlink:href="#ma4f294b3af" y="367.553417662"/>
      </g>
     </g>
    </g>
    <g id="ytick_8">
     <g id="line2d_100">
      <g>
       <use style="stroke:#000000;stroke-width:0.5;" x="23.95" xlink:href="#mf0c55a9a47" y="363.34429625"/>
      </g>
     </g>
     <g id="line2d_101">
      <g>
       <use style="stroke:#000000;stroke-width:0.5;" x="470.35" xlink:href="#ma4f294b3af" y="363.34429625"/>
      </g>
     </g>
    </g>
    <g id="ytick_9">
     <g id="line2d_102">
      <g>
       <use style="stroke:#000000;stroke-width:0.5;" x="23.95" xlink:href="#mf0c55a9a47" y="334.808643191"/>
      </g>
     </g>
     <g id="line2d_103">
      <g>
       <use style="stroke:#000000;stroke-width:0.5;" x="470.35" xlink:href="#ma4f294b3af" y="334.808643191"/>
      </g>
     </g>
    </g>
    <g id="ytick_10">
     <g id="line2d_104">
      <g>
       <use style="stroke:#000000;stroke-width:0.5;" x="23.95" xlink:href="#mf0c55a9a47" y="320.318849659"/>
      </g>
     </g>
     <g id="line2d_105">
      <g>
       <use style="stroke:#000000;stroke-width:0.5;" x="470.35" xlink:href="#ma4f294b3af" y="320.318849659"/>
      </g>
     </g>
    </g>
    <g id="ytick_11">
     <g id="line2d_106">
      <g>
       <use style="stroke:#000000;stroke-width:0.5;" x="23.95" xlink:href="#mf0c55a9a47" y="310.038177538"/>
      </g>
     </g>
     <g id="line2d_107">
      <g>
       <use style="stroke:#000000;stroke-width:0.5;" x="470.35" xlink:href="#ma4f294b3af" y="310.038177538"/>
      </g>
     </g>
    </g>
    <g id="ytick_12">
     <g id="line2d_108">
      <g>
       <use style="stroke:#000000;stroke-width:0.5;" x="23.95" xlink:href="#mf0c55a9a47" y="302.063868721"/>
      </g>
     </g>
     <g id="line2d_109">
      <g>
       <use style="stroke:#000000;stroke-width:0.5;" x="470.35" xlink:href="#ma4f294b3af" y="302.063868721"/>
      </g>
     </g>
    </g>
    <g id="ytick_13">
     <g id="line2d_110">
      <g>
       <use style="stroke:#000000;stroke-width:0.5;" x="23.95" xlink:href="#mf0c55a9a47" y="295.548384005"/>
      </g>
     </g>
     <g id="line2d_111">
      <g>
       <use style="stroke:#000000;stroke-width:0.5;" x="470.35" xlink:href="#ma4f294b3af" y="295.548384005"/>
      </g>
     </g>
    </g>
    <g id="ytick_14">
     <g id="line2d_112">
      <g>
       <use style="stroke:#000000;stroke-width:0.5;" x="23.95" xlink:href="#mf0c55a9a47" y="290.039620171"/>
      </g>
     </g>
     <g id="line2d_113">
      <g>
       <use style="stroke:#000000;stroke-width:0.5;" x="470.35" xlink:href="#ma4f294b3af" y="290.039620171"/>
      </g>
     </g>
    </g>
    <g id="ytick_15">
     <g id="line2d_114">
      <g>
       <use style="stroke:#000000;stroke-width:0.5;" x="23.95" xlink:href="#mf0c55a9a47" y="285.267711885"/>
      </g>
     </g>
     <g id="line2d_115">
      <g>
       <use style="stroke:#000000;stroke-width:0.5;" x="470.35" xlink:href="#ma4f294b3af" y="285.267711885"/>
      </g>
     </g>
    </g>
    <g id="ytick_16">
     <g id="line2d_116">
      <g>
       <use style="stroke:#000000;stroke-width:0.5;" x="23.95" xlink:href="#mf0c55a9a47" y="281.058590473"/>
      </g>
     </g>
     <g id="line2d_117">
      <g>
       <use style="stroke:#000000;stroke-width:0.5;" x="470.35" xlink:href="#ma4f294b3af" y="281.058590473"/>
      </g>
     </g>
    </g>
    <g id="ytick_17">
     <g id="line2d_118">
      <g>
       <use style="stroke:#000000;stroke-width:0.5;" x="23.95" xlink:href="#mf0c55a9a47" y="252.522937414"/>
      </g>
     </g>
     <g id="line2d_119">
      <g>
       <use style="stroke:#000000;stroke-width:0.5;" x="470.35" xlink:href="#ma4f294b3af" y="252.522937414"/>
      </g>
     </g>
    </g>
    <g id="ytick_18">
     <g id="line2d_120">
      <g>
       <use style="stroke:#000000;stroke-width:0.5;" x="23.95" xlink:href="#mf0c55a9a47" y="238.033143882"/>
      </g>
     </g>
     <g id="line2d_121">
      <g>
       <use style="stroke:#000000;stroke-width:0.5;" x="470.35" xlink:href="#ma4f294b3af" y="238.033143882"/>
      </g>
     </g>
    </g>
    <g id="ytick_19">
     <g id="line2d_122">
      <g>
       <use style="stroke:#000000;stroke-width:0.5;" x="23.95" xlink:href="#mf0c55a9a47" y="227.752471761"/>
      </g>
     </g>
     <g id="line2d_123">
      <g>
       <use style="stroke:#000000;stroke-width:0.5;" x="470.35" xlink:href="#ma4f294b3af" y="227.752471761"/>
      </g>
     </g>
    </g>
    <g id="ytick_20">
     <g id="line2d_124">
      <g>
       <use style="stroke:#000000;stroke-width:0.5;" x="23.95" xlink:href="#mf0c55a9a47" y="219.778162944"/>
      </g>
     </g>
     <g id="line2d_125">
      <g>
       <use style="stroke:#000000;stroke-width:0.5;" x="470.35" xlink:href="#ma4f294b3af" y="219.778162944"/>
      </g>
     </g>
    </g>
    <g id="ytick_21">
     <g id="line2d_126">
      <g>
       <use style="stroke:#000000;stroke-width:0.5;" x="23.95" xlink:href="#mf0c55a9a47" y="213.262678228"/>
      </g>
     </g>
     <g id="line2d_127">
      <g>
       <use style="stroke:#000000;stroke-width:0.5;" x="470.35" xlink:href="#ma4f294b3af" y="213.262678228"/>
      </g>
     </g>
    </g>
    <g id="ytick_22">
     <g id="line2d_128">
      <g>
       <use style="stroke:#000000;stroke-width:0.5;" x="23.95" xlink:href="#mf0c55a9a47" y="207.753914394"/>
      </g>
     </g>
     <g id="line2d_129">
      <g>
       <use style="stroke:#000000;stroke-width:0.5;" x="470.35" xlink:href="#ma4f294b3af" y="207.753914394"/>
      </g>
     </g>
    </g>
    <g id="ytick_23">
     <g id="line2d_130">
      <g>
       <use style="stroke:#000000;stroke-width:0.5;" x="23.95" xlink:href="#mf0c55a9a47" y="202.982006108"/>
      </g>
     </g>
     <g id="line2d_131">
      <g>
       <use style="stroke:#000000;stroke-width:0.5;" x="470.35" xlink:href="#ma4f294b3af" y="202.982006108"/>
      </g>
     </g>
    </g>
    <g id="ytick_24">
     <g id="line2d_132">
      <g>
       <use style="stroke:#000000;stroke-width:0.5;" x="23.95" xlink:href="#mf0c55a9a47" y="198.772884696"/>
      </g>
     </g>
     <g id="line2d_133">
      <g>
       <use style="stroke:#000000;stroke-width:0.5;" x="470.35" xlink:href="#ma4f294b3af" y="198.772884696"/>
      </g>
     </g>
    </g>
    <g id="ytick_25">
     <g id="line2d_134">
      <g>
       <use style="stroke:#000000;stroke-width:0.5;" x="23.95" xlink:href="#mf0c55a9a47" y="170.237231637"/>
      </g>
     </g>
     <g id="line2d_135">
      <g>
       <use style="stroke:#000000;stroke-width:0.5;" x="470.35" xlink:href="#ma4f294b3af" y="170.237231637"/>
      </g>
     </g>
    </g>
    <g id="ytick_26">
     <g id="line2d_136">
      <g>
       <use style="stroke:#000000;stroke-width:0.5;" x="23.95" xlink:href="#mf0c55a9a47" y="155.747438105"/>
      </g>
     </g>
     <g id="line2d_137">
      <g>
       <use style="stroke:#000000;stroke-width:0.5;" x="470.35" xlink:href="#ma4f294b3af" y="155.747438105"/>
      </g>
     </g>
    </g>
    <g id="ytick_27">
     <g id="line2d_138">
      <g>
       <use style="stroke:#000000;stroke-width:0.5;" x="23.95" xlink:href="#mf0c55a9a47" y="145.466765984"/>
      </g>
     </g>
     <g id="line2d_139">
      <g>
       <use style="stroke:#000000;stroke-width:0.5;" x="470.35" xlink:href="#ma4f294b3af" y="145.466765984"/>
      </g>
     </g>
    </g>
    <g id="ytick_28">
     <g id="line2d_140">
      <g>
       <use style="stroke:#000000;stroke-width:0.5;" x="23.95" xlink:href="#mf0c55a9a47" y="137.492457167"/>
      </g>
     </g>
     <g id="line2d_141">
      <g>
       <use style="stroke:#000000;stroke-width:0.5;" x="470.35" xlink:href="#ma4f294b3af" y="137.492457167"/>
      </g>
     </g>
    </g>
    <g id="ytick_29">
     <g id="line2d_142">
      <g>
       <use style="stroke:#000000;stroke-width:0.5;" x="23.95" xlink:href="#mf0c55a9a47" y="130.976972451"/>
      </g>
     </g>
     <g id="line2d_143">
      <g>
       <use style="stroke:#000000;stroke-width:0.5;" x="470.35" xlink:href="#ma4f294b3af" y="130.976972451"/>
      </g>
     </g>
    </g>
    <g id="ytick_30">
     <g id="line2d_144">
      <g>
       <use style="stroke:#000000;stroke-width:0.5;" x="23.95" xlink:href="#mf0c55a9a47" y="125.468208617"/>
      </g>
     </g>
     <g id="line2d_145">
      <g>
       <use style="stroke:#000000;stroke-width:0.5;" x="470.35" xlink:href="#ma4f294b3af" y="125.468208617"/>
      </g>
     </g>
    </g>
    <g id="ytick_31">
     <g id="line2d_146">
      <g>
       <use style="stroke:#000000;stroke-width:0.5;" x="23.95" xlink:href="#mf0c55a9a47" y="120.696300331"/>
      </g>
     </g>
     <g id="line2d_147">
      <g>
       <use style="stroke:#000000;stroke-width:0.5;" x="470.35" xlink:href="#ma4f294b3af" y="120.696300331"/>
      </g>
     </g>
    </g>
    <g id="ytick_32">
     <g id="line2d_148">
      <g>
       <use style="stroke:#000000;stroke-width:0.5;" x="23.95" xlink:href="#mf0c55a9a47" y="116.487178919"/>
      </g>
     </g>
     <g id="line2d_149">
      <g>
       <use style="stroke:#000000;stroke-width:0.5;" x="470.35" xlink:href="#ma4f294b3af" y="116.487178919"/>
      </g>
     </g>
    </g>
    <g id="ytick_33">
     <g id="line2d_150">
      <g>
       <use style="stroke:#000000;stroke-width:0.5;" x="23.95" xlink:href="#mf0c55a9a47" y="87.95152586"/>
      </g>
     </g>
     <g id="line2d_151">
      <g>
       <use style="stroke:#000000;stroke-width:0.5;" x="470.35" xlink:href="#ma4f294b3af" y="87.95152586"/>
      </g>
     </g>
    </g>
    <g id="ytick_34">
     <g id="line2d_152">
      <g>
       <use style="stroke:#000000;stroke-width:0.5;" x="23.95" xlink:href="#mf0c55a9a47" y="73.4617323274"/>
      </g>
     </g>
     <g id="line2d_153">
      <g>
       <use style="stroke:#000000;stroke-width:0.5;" x="470.35" xlink:href="#ma4f294b3af" y="73.4617323274"/>
      </g>
     </g>
    </g>
    <g id="ytick_35">
     <g id="line2d_154">
      <g>
       <use style="stroke:#000000;stroke-width:0.5;" x="23.95" xlink:href="#mf0c55a9a47" y="63.1810602067"/>
      </g>
     </g>
     <g id="line2d_155">
      <g>
       <use style="stroke:#000000;stroke-width:0.5;" x="470.35" xlink:href="#ma4f294b3af" y="63.1810602067"/>
      </g>
     </g>
    </g>
    <g id="ytick_36">
     <g id="line2d_156">
      <g>
       <use style="stroke:#000000;stroke-width:0.5;" x="23.95" xlink:href="#mf0c55a9a47" y="55.2067513895"/>
      </g>
     </g>
     <g id="line2d_157">
      <g>
       <use style="stroke:#000000;stroke-width:0.5;" x="470.35" xlink:href="#ma4f294b3af" y="55.2067513895"/>
      </g>
     </g>
    </g>
    <g id="ytick_37">
     <g id="line2d_158">
      <g>
       <use style="stroke:#000000;stroke-width:0.5;" x="23.95" xlink:href="#mf0c55a9a47" y="48.6912666742"/>
      </g>
     </g>
     <g id="line2d_159">
      <g>
       <use style="stroke:#000000;stroke-width:0.5;" x="470.35" xlink:href="#ma4f294b3af" y="48.6912666742"/>
      </g>
     </g>
    </g>
    <g id="ytick_38">
     <g id="line2d_160">
      <g>
       <use style="stroke:#000000;stroke-width:0.5;" x="23.95" xlink:href="#mf0c55a9a47" y="43.1825028399"/>
      </g>
     </g>
     <g id="line2d_161">
      <g>
       <use style="stroke:#000000;stroke-width:0.5;" x="470.35" xlink:href="#ma4f294b3af" y="43.1825028399"/>
      </g>
     </g>
    </g>
    <g id="ytick_39">
     <g id="line2d_162">
      <g>
       <use style="stroke:#000000;stroke-width:0.5;" x="23.95" xlink:href="#mf0c55a9a47" y="38.4105945534"/>
      </g>
     </g>
     <g id="line2d_163">
      <g>
       <use style="stroke:#000000;stroke-width:0.5;" x="470.35" xlink:href="#ma4f294b3af" y="38.4105945534"/>
      </g>
     </g>
    </g>
    <g id="ytick_40">
     <g id="line2d_164">
      <g>
       <use style="stroke:#000000;stroke-width:0.5;" x="23.95" xlink:href="#mf0c55a9a47" y="34.2014731416"/>
      </g>
     </g>
     <g id="line2d_165">
      <g>
       <use style="stroke:#000000;stroke-width:0.5;" x="470.35" xlink:href="#ma4f294b3af" y="34.2014731416"/>
      </g>
     </g>
    </g>
   </g>
   <g id="text_12">
    <!-- 15 instances -->
    <defs>
     <path id="BitstreamVeraSans-Roman-20"/>
     <path d="
M54.8906 33.0156
L54.8906 0
L45.9062 0
L45.9062 32.7188
Q45.9062 40.4844 42.875 44.3281
Q39.8438 48.1875 33.7969 48.1875
Q26.5156 48.1875 22.3125 43.5469
Q18.1094 38.9219 18.1094 30.9062
L18.1094 0
L9.07812 0
L9.07812 54.6875
L18.1094 54.6875
L18.1094 46.1875
Q21.3438 51.125 25.7031 53.5625
Q30.0781 56 35.7969 56
Q45.2188 56 50.0469 50.1719
Q54.8906 44.3438 54.8906 33.0156" id="BitstreamVeraSans-Roman-6e"/>
     <path d="
M9.42188 54.6875
L18.4062 54.6875
L18.4062 0
L9.42188 0
z

M9.42188 75.9844
L18.4062 75.9844
L18.4062 64.5938
L9.42188 64.5938
z
" id="BitstreamVeraSans-Roman-69"/>
     <path d="
M56.2031 29.5938
L56.2031 25.2031
L14.8906 25.2031
Q15.4844 15.9219 20.4844 11.0625
Q25.4844 6.20312 34.4219 6.20312
Q39.5938 6.20312 44.4531 7.46875
Q49.3125 8.73438 54.1094 11.2812
L54.1094 2.78125
Q49.2656 0.734375 44.1875 -0.34375
Q39.1094 -1.42188 33.8906 -1.42188
Q20.7969 -1.42188 13.1562 6.1875
Q5.51562 13.8125 5.51562 26.8125
Q5.51562 40.2344 12.7656 48.1094
Q20.0156 56 32.3281 56
Q43.3594 56 49.7812 48.8906
Q56.2031 41.7969 56.2031 29.5938
M47.2188 32.2344
Q47.125 39.5938 43.0938 43.9844
Q39.0625 48.3906 32.4219 48.3906
Q24.9062 48.3906 20.3906 44.1406
Q15.875 39.8906 15.1875 32.1719
z
" id="BitstreamVeraSans-Roman-65"/>
     <path d="
M18.3125 70.2188
L18.3125 54.6875
L36.8125 54.6875
L36.8125 47.7031
L18.3125 47.7031
L18.3125 18.0156
Q18.3125 11.3281 20.1406 9.42188
Q21.9688 7.51562 27.5938 7.51562
L36.8125 7.51562
L36.8125 0
L27.5938 0
Q17.1875 0 13.2344 3.875
Q9.28125 7.76562 9.28125 18.0156
L9.28125 47.7031
L2.6875 47.7031
L2.6875 54.6875
L9.28125 54.6875
L9.28125 70.2188
z
" id="BitstreamVeraSans-Roman-74"/>
     <path d="
M34.2812 27.4844
Q23.3906 27.4844 19.1875 25
Q14.9844 22.5156 14.9844 16.5
Q14.9844 11.7188 18.1406 8.90625
Q21.2969 6.10938 26.7031 6.10938
Q34.1875 6.10938 38.7031 11.4062
Q43.2188 16.7031 43.2188 25.4844
L43.2188 27.4844
z

M52.2031 31.2031
L52.2031 0
L43.2188 0
L43.2188 8.29688
Q40.1406 3.32812 35.5469 0.953125
Q30.9531 -1.42188 24.3125 -1.42188
Q15.9219 -1.42188 10.9531 3.29688
Q6 8.01562 6 15.9219
Q6 25.1406 12.1719 29.8281
Q18.3594 34.5156 30.6094 34.5156
L43.2188 34.5156
L43.2188 35.4062
Q43.2188 41.6094 39.1406 45
Q35.0625 48.3906 27.6875 48.3906
Q23 48.3906 18.5469 47.2656
Q14.1094 46.1406 10.0156 43.8906
L10.0156 52.2031
Q14.9375 54.1094 19.5781 55.0469
Q24.2188 56 28.6094 56
Q40.4844 56 46.3438 49.8438
Q52.2031 43.7031 52.2031 31.2031" id="BitstreamVeraSans-Roman-61"/>
     <path d="
M44.2812 53.0781
L44.2812 44.5781
Q40.4844 46.5312 36.375 47.5
Q32.2812 48.4844 27.875 48.4844
Q21.1875 48.4844 17.8438 46.4375
Q14.5 44.3906 14.5 40.2812
Q14.5 37.1562 16.8906 35.375
Q19.2812 33.5938 26.5156 31.9844
L29.5938 31.2969
Q39.1562 29.25 43.1875 25.5156
Q47.2188 21.7812 47.2188 15.0938
Q47.2188 7.46875 41.1875 3.01562
Q35.1562 -1.42188 24.6094 -1.42188
Q20.2188 -1.42188 15.4531 -0.5625
Q10.6875 0.296875 5.42188 2
L5.42188 11.2812
Q10.4062 8.6875 15.2344 7.39062
Q20.0625 6.10938 24.8125 6.10938
Q31.1562 6.10938 34.5625 8.28125
Q37.9844 10.4531 37.9844 14.4062
Q37.9844 18.0625 35.5156 20.0156
Q33.0625 21.9688 24.7031 23.7812
L21.5781 24.5156
Q13.2344 26.2656 9.51562 29.9062
Q5.8125 33.5469 5.8125 39.8906
Q5.8125 47.6094 11.2812 51.7969
Q16.75 56 26.8125 56
Q31.7812 56 36.1719 55.2656
Q40.5781 54.5469 44.2812 53.0781" id="BitstreamVeraSans-Roman-73"/>
     <path d="
M48.7812 52.5938
L48.7812 44.1875
Q44.9688 46.2969 41.1406 47.3438
Q37.3125 48.3906 33.4062 48.3906
Q24.6562 48.3906 19.8125 42.8438
Q14.9844 37.3125 14.9844 27.2969
Q14.9844 17.2812 19.8125 11.7344
Q24.6562 6.20312 33.4062 6.20312
Q37.3125 6.20312 41.1406 7.25
Q44.9688 8.29688 48.7812 10.4062
L48.7812 2.09375
Q45.0156 0.34375 40.9844 -0.53125
Q36.9688 -1.42188 32.4219 -1.42188
Q20.0625 -1.42188 12.7812 6.34375
Q5.51562 14.1094 5.51562 27.2969
Q5.51562 40.6719 12.8594 48.3281
Q20.2188 56 33.0156 56
Q37.1562 56 41.1094 55.1406
Q45.0625 54.2969 48.7812 52.5938" id="BitstreamVeraSans-Roman-63"/>
    </defs>
    <g transform="translate(23.95 357.44775)scale(0.14 -0.14)">
     <use xlink:href="#BitstreamVeraSans-Roman-31"/>
     <use x="63.623046875" xlink:href="#BitstreamVeraSans-Roman-35"/>
     <use x="127.24609375" xlink:href="#BitstreamVeraSans-Roman-20"/>
     <use x="159.033203125" xlink:href="#BitstreamVeraSans-Roman-69"/>
     <use x="186.81640625" xlink:href="#BitstreamVeraSans-Roman-6e"/>
     <use x="250.1953125" xlink:href="#BitstreamVeraSans-Roman-73"/>
     <use x="302.294921875" xlink:href="#BitstreamVeraSans-Roman-74"/>
     <use x="341.50390625" xlink:href="#BitstreamVeraSans-Roman-61"/>
     <use x="402.783203125" xlink:href="#BitstreamVeraSans-Roman-6e"/>
     <use x="466.162109375" xlink:href="#BitstreamVeraSans-Roman-63"/>
     <use x="521.142578125" xlink:href="#BitstreamVeraSans-Roman-65"/>
     <use x="582.666015625" xlink:href="#BitstreamVeraSans-Roman-73"/>
    </g>
    <!-- absolute targets -->
    <defs>
     <path d="
M30.6094 48.3906
Q23.3906 48.3906 19.1875 42.75
Q14.9844 37.1094 14.9844 27.2969
Q14.9844 17.4844 19.1562 11.8438
Q23.3438 6.20312 30.6094 6.20312
Q37.7969 6.20312 41.9844 11.8594
Q46.1875 17.5312 46.1875 27.2969
Q46.1875 37.0156 41.9844 42.7031
Q37.7969 48.3906 30.6094 48.3906
M30.6094 56
Q42.3281 56 49.0156 48.375
Q55.7188 40.7656 55.7188 27.2969
Q55.7188 13.875 49.0156 6.21875
Q42.3281 -1.42188 30.6094 -1.42188
Q18.8438 -1.42188 12.1719 6.21875
Q5.51562 13.875 5.51562 27.2969
Q5.51562 40.7656 12.1719 48.375
Q18.8438 56 30.6094 56" id="BitstreamVeraSans-Roman-6f"/>
     <path d="
M9.42188 75.9844
L18.4062 75.9844
L18.4062 0
L9.42188 0
z
" id="BitstreamVeraSans-Roman-6c"/>
     <path d="
M45.4062 27.9844
Q45.4062 37.75 41.375 43.1094
Q37.3594 48.4844 30.0781 48.4844
Q22.8594 48.4844 18.8281 43.1094
Q14.7969 37.75 14.7969 27.9844
Q14.7969 18.2656 18.8281 12.8906
Q22.8594 7.51562 30.0781 7.51562
Q37.3594 7.51562 41.375 12.8906
Q45.4062 18.2656 45.4062 27.9844
M54.3906 6.78125
Q54.3906 -7.17188 48.1875 -13.9844
Q42 -20.7969 29.2031 -20.7969
Q24.4688 -20.7969 20.2656 -20.0938
Q16.0625 -19.3906 12.1094 -17.9219
L12.1094 -9.1875
Q16.0625 -11.3281 19.9219 -12.3438
Q23.7812 -13.375 27.7812 -13.375
Q36.625 -13.375 41.0156 -8.76562
Q45.4062 -4.15625 45.4062 5.17188
L45.4062 9.625
Q42.625 4.78125 38.2812 2.39062
Q33.9375 0 27.875 0
Q17.8281 0 11.6719 7.65625
Q5.51562 15.3281 5.51562 27.9844
Q5.51562 40.6719 11.6719 48.3281
Q17.8281 56 27.875 56
Q33.9375 56 38.2812 53.6094
Q42.625 51.2188 45.4062 46.3906
L45.4062 54.6875
L54.3906 54.6875
z
" id="BitstreamVeraSans-Roman-67"/>
     <path d="
M8.5 21.5781
L8.5 54.6875
L17.4844 54.6875
L17.4844 21.9219
Q17.4844 14.1562 20.5 10.2656
Q23.5312 6.39062 29.5938 6.39062
Q36.8594 6.39062 41.0781 11.0312
Q45.3125 15.6719 45.3125 23.6875
L45.3125 54.6875
L54.2969 54.6875
L54.2969 0
L45.3125 0
L45.3125 8.40625
Q42.0469 3.42188 37.7188 1
Q33.4062 -1.42188 27.6875 -1.42188
Q18.2656 -1.42188 13.375 4.4375
Q8.5 10.2969 8.5 21.5781" id="BitstreamVeraSans-Roman-75"/>
     <path d="
M41.1094 46.2969
Q39.5938 47.1719 37.8125 47.5781
Q36.0312 48 33.8906 48
Q26.2656 48 22.1875 43.0469
Q18.1094 38.0938 18.1094 28.8125
L18.1094 0
L9.07812 0
L9.07812 54.6875
L18.1094 54.6875
L18.1094 46.1875
Q20.9531 51.1719 25.4844 53.5781
Q30.0312 56 36.5312 56
Q37.4531 56 38.5781 55.875
Q39.7031 55.7656 41.0625 55.5156
z
" id="BitstreamVeraSans-Roman-72"/>
     <path d="
M48.6875 27.2969
Q48.6875 37.2031 44.6094 42.8438
Q40.5312 48.4844 33.4062 48.4844
Q26.2656 48.4844 22.1875 42.8438
Q18.1094 37.2031 18.1094 27.2969
Q18.1094 17.3906 22.1875 11.75
Q26.2656 6.10938 33.4062 6.10938
Q40.5312 6.10938 44.6094 11.75
Q48.6875 17.3906 48.6875 27.2969
M18.1094 46.3906
Q20.9531 51.2656 25.2656 53.625
Q29.5938 56 35.5938 56
Q45.5625 56 51.7812 48.0938
Q58.0156 40.1875 58.0156 27.2969
Q58.0156 14.4062 51.7812 6.48438
Q45.5625 -1.42188 35.5938 -1.42188
Q29.5938 -1.42188 25.2656 0.953125
Q20.9531 3.32812 18.1094 8.20312
L18.1094 0
L9.07812 0
L9.07812 75.9844
L18.1094 75.9844
z
" id="BitstreamVeraSans-Roman-62"/>
    </defs>
    <g transform="translate(23.95 373.1246875)scale(0.14 -0.14)">
     <use xlink:href="#BitstreamVeraSans-Roman-61"/>
     <use x="61.279296875" xlink:href="#BitstreamVeraSans-Roman-62"/>
     <use x="124.755859375" xlink:href="#BitstreamVeraSans-Roman-73"/>
     <use x="176.85546875" xlink:href="#BitstreamVeraSans-Roman-6f"/>
     <use x="238.037109375" xlink:href="#BitstreamVeraSans-Roman-6c"/>
     <use x="265.8203125" xlink:href="#BitstreamVeraSans-Roman-75"/>
     <use x="329.19921875" xlink:href="#BitstreamVeraSans-Roman-74"/>
     <use x="368.408203125" xlink:href="#BitstreamVeraSans-Roman-65"/>
     <use x="429.931640625" xlink:href="#BitstreamVeraSans-Roman-20"/>
     <use x="461.71875" xlink:href="#BitstreamVeraSans-Roman-74"/>
     <use x="500.927734375" xlink:href="#BitstreamVeraSans-Roman-61"/>
     <use x="562.20703125" xlink:href="#BitstreamVeraSans-Roman-72"/>
     <use x="601.5703125" xlink:href="#BitstreamVeraSans-Roman-67"/>
     <use x="665.046875" xlink:href="#BitstreamVeraSans-Roman-65"/>
     <use x="726.5703125" xlink:href="#BitstreamVeraSans-Roman-74"/>
     <use x="765.779296875" xlink:href="#BitstreamVeraSans-Roman-73"/>
    </g>
   </g>
   <g id="text_13">
    <!-- v2.1.1.3 -->
    <defs>
     <path d="
M2.98438 54.6875
L12.5 54.6875
L29.5938 8.79688
L46.6875 54.6875
L56.2031 54.6875
L35.6875 0
L23.4844 0
z
" id="BitstreamVeraSans-Roman-76"/>
     <path d="
M10.6875 12.4062
L21 12.4062
L21 0
L10.6875 0
z
" id="BitstreamVeraSans-Roman-2e"/>
    </defs>
    <g style="fill:#808080;" transform="translate(227.2484375 370.5005625)scale(0.1 -0.1)">
     <use xlink:href="#BitstreamVeraSans-Roman-76"/>
     <use x="59.1796875" xlink:href="#BitstreamVeraSans-Roman-32"/>
     <use x="122.802734375" xlink:href="#BitstreamVeraSans-Roman-2e"/>
     <use x="154.58984375" xlink:href="#BitstreamVeraSans-Roman-31"/>
     <use x="218.212890625" xlink:href="#BitstreamVeraSans-Roman-2e"/>
     <use x="250.0" xlink:href="#BitstreamVeraSans-Roman-31"/>
     <use x="313.623046875" xlink:href="#BitstreamVeraSans-Roman-2e"/>
     <use x="345.41015625" xlink:href="#BitstreamVeraSans-Roman-33"/>
    </g>
   </g>
   <g id="text_14">
    <!-- 13 Sharp ridge -->
    <defs>
     <path d="
M45.4062 46.3906
L45.4062 75.9844
L54.3906 75.9844
L54.3906 0
L45.4062 0
L45.4062 8.20312
Q42.5781 3.32812 38.25 0.953125
Q33.9375 -1.42188 27.875 -1.42188
Q17.9688 -1.42188 11.7344 6.48438
Q5.51562 14.4062 5.51562 27.2969
Q5.51562 40.1875 11.7344 48.0938
Q17.9688 56 27.875 56
Q33.9375 56 38.25 53.625
Q42.5781 51.2656 45.4062 46.3906
M14.7969 27.2969
Q14.7969 17.3906 18.875 11.75
Q22.9531 6.10938 30.0781 6.10938
Q37.2031 6.10938 41.2969 11.75
Q45.4062 17.3906 45.4062 27.2969
Q45.4062 37.2031 41.2969 42.8438
Q37.2031 48.4844 30.0781 48.4844
Q22.9531 48.4844 18.875 42.8438
Q14.7969 37.2031 14.7969 27.2969" id="BitstreamVeraSans-Roman-64"/>
     <path d="
M53.5156 70.5156
L53.5156 60.8906
Q47.9062 63.5781 42.9219 64.8906
Q37.9375 66.2188 33.2969 66.2188
Q25.25 66.2188 20.875 63.0938
Q16.5 59.9688 16.5 54.2031
Q16.5 49.3594 19.4062 46.8906
Q22.3125 44.4375 30.4219 42.9219
L36.375 41.7031
Q47.4062 39.5938 52.6562 34.2969
Q57.9062 29 57.9062 20.125
Q57.9062 9.51562 50.7969 4.04688
Q43.7031 -1.42188 29.9844 -1.42188
Q24.8125 -1.42188 18.9688 -0.25
Q13.1406 0.921875 6.89062 3.21875
L6.89062 13.375
Q12.8906 10.0156 18.6562 8.29688
Q24.4219 6.59375 29.9844 6.59375
Q38.4219 6.59375 43.0156 9.90625
Q47.6094 13.2344 47.6094 19.3906
Q47.6094 24.75 44.3125 27.7812
Q41.0156 30.8125 33.5 32.3281
L27.4844 33.5
Q16.4531 35.6875 11.5156 40.375
Q6.59375 45.0625 6.59375 53.4219
Q6.59375 63.0938 13.4062 68.6562
Q20.2188 74.2188 32.1719 74.2188
Q37.3125 74.2188 42.625 73.2812
Q47.9531 72.3594 53.5156 70.5156" id="BitstreamVeraSans-Roman-53"/>
     <path d="
M54.8906 33.0156
L54.8906 0
L45.9062 0
L45.9062 32.7188
Q45.9062 40.4844 42.875 44.3281
Q39.8438 48.1875 33.7969 48.1875
Q26.5156 48.1875 22.3125 43.5469
Q18.1094 38.9219 18.1094 30.9062
L18.1094 0
L9.07812 0
L9.07812 75.9844
L18.1094 75.9844
L18.1094 46.1875
Q21.3438 51.125 25.7031 53.5625
Q30.0781 56 35.7969 56
Q45.2188 56 50.0469 50.1719
Q54.8906 44.3438 54.8906 33.0156" id="BitstreamVeraSans-Roman-68"/>
     <path d="
M18.1094 8.20312
L18.1094 -20.7969
L9.07812 -20.7969
L9.07812 54.6875
L18.1094 54.6875
L18.1094 46.3906
Q20.9531 51.2656 25.2656 53.625
Q29.5938 56 35.5938 56
Q45.5625 56 51.7812 48.0938
Q58.0156 40.1875 58.0156 27.2969
Q58.0156 14.4062 51.7812 6.48438
Q45.5625 -1.42188 35.5938 -1.42188
Q29.5938 -1.42188 25.2656 0.953125
Q20.9531 3.32812 18.1094 8.20312
M48.6875 27.2969
Q48.6875 37.2031 44.6094 42.8438
Q40.5312 48.4844 33.4062 48.4844
Q26.2656 48.4844 22.1875 42.8438
Q18.1094 37.2031 18.1094 27.2969
Q18.1094 17.3906 22.1875 11.75
Q26.2656 6.10938 33.4062 6.10938
Q40.5312 6.10938 44.6094 11.75
Q48.6875 17.3906 48.6875 27.2969" id="BitstreamVeraSans-Roman-70"/>
    </defs>
    <g transform="translate(158.876875 25.43625)scale(0.24 -0.24)">
     <use xlink:href="#BitstreamVeraSans-Roman-31"/>
     <use x="63.623046875" xlink:href="#BitstreamVeraSans-Roman-33"/>
     <use x="127.24609375" xlink:href="#BitstreamVeraSans-Roman-20"/>
     <use x="159.033203125" xlink:href="#BitstreamVeraSans-Roman-53"/>
     <use x="222.509765625" xlink:href="#BitstreamVeraSans-Roman-68"/>
     <use x="285.888671875" xlink:href="#BitstreamVeraSans-Roman-61"/>
     <use x="347.16796875" xlink:href="#BitstreamVeraSans-Roman-72"/>
     <use x="388.28125" xlink:href="#BitstreamVeraSans-Roman-70"/>
     <use x="451.7578125" xlink:href="#BitstreamVeraSans-Roman-20"/>
     <use x="483.544921875" xlink:href="#BitstreamVeraSans-Roman-72"/>
     <use x="524.658203125" xlink:href="#BitstreamVeraSans-Roman-69"/>
     <use x="552.44140625" xlink:href="#BitstreamVeraSans-Roman-64"/>
     <use x="615.91796875" xlink:href="#BitstreamVeraSans-Roman-67"/>
     <use x="679.39453125" xlink:href="#BitstreamVeraSans-Roman-65"/>
    </g>
   </g>
  </g>
 </g>
 <defs>
  <clipPath id="pb011a55744">
   <rect height="345.6" width="446.4" x="23.95" y="30.43625"/>
  </clipPath>
 </defs>
</svg>
