<?xml version="1.0" encoding="utf-8" standalone="no"?>
<!DOCTYPE svg PUBLIC "-//W3C//DTD SVG 1.1//EN"
  "http://www.w3.org/Graphics/SVG/1.1/DTD/svg11.dtd">
<!-- Created with matplotlib (http://matplotlib.org/) -->
<svg height="407pt" version="1.1" viewBox="0 0 460 407" width="460pt" xmlns="http://www.w3.org/2000/svg" xmlns:xlink="http://www.w3.org/1999/xlink">
 <defs>
  <style type="text/css">
*{stroke-linecap:butt;stroke-linejoin:round;}
  </style>
 </defs>
 <g id="figure_1">
  <g id="patch_1">
   <path d="
M0 407.712
L460.8 407.712
L460.8 0
L0 0
z
" style="fill:#ffffff;"/>
  </g>
  <g id="axes_1">
   <g id="patch_2">
    <path d="
M7.2 352.8
L453.6 352.8
L453.6 7.2
L7.2 7.2
z
" style="fill:#ffffff;"/>
   </g>
   <g id="line2d_1">
    <path clip-path="url(#p99b4b0da67)" d="
M-1 65.3703
L-0.474734 65.3703
L-0.474734 60.8079
L0.55798 60.8079
L0.55798 56.2455
L1.1142 56.2455
L1.1142 51.6832
L1.64103 51.6832
L1.64103 47.1208
L2.25135 47.1208
L2.25135 42.5584
L3.47553 42.5584
L3.47553 37.996
L3.9532 37.996
L3.9532 33.4337
L4.53288 33.4337
L4.53288 28.8713
L4.76401 28.8713
L4.76401 24.3089
L5.19565 24.3089
L5.19565 19.7465
L5.42944 19.7465
L5.42944 15.1842
L6.77258 15.1842
L6.77258 10.6218
L6.77258 10.6218
L453.6 10.6218
L453.6 10.6218" style="fill:none;stroke:#ff0000;stroke-linecap:square;stroke-width:3.0;"/>
   </g>
   <g id="line2d_2">
    <path clip-path="url(#p99b4b0da67)" d="
M227.742 352.8
L227.742 348.238
L228.868 348.238
L228.868 343.675
L232.133 343.675
L232.133 339.113
L234.395 339.113
L234.395 334.55
L237.889 334.55
L237.889 329.988
L238.366 329.988
L238.366 325.426
L241.238 325.426
L241.238 320.863
L241.428 320.863
L241.428 316.301
L242.305 316.301
L242.305 311.739
L245.695 311.739
L245.695 307.176
L248.021 307.176
L248.021 302.614
L251.18 302.614
L251.18 298.051
L256.495 298.051
L256.495 293.489
L263.255 293.489
L263.255 288.927
L267.868 288.927
L267.868 284.364
L268.287 284.364
L268.287 279.802
L268.96 279.802
L268.96 275.24
L269.422 275.24
L269.422 270.677
L270.422 270.677
L270.494 261.552
L271.125 261.552
L271.125 256.99
L271.553 256.99
L271.553 252.428
L272.416 252.428
L272.416 247.865
L272.949 247.865
L272.949 243.303
L273.32 243.303
L273.32 238.741
L273.496 238.741
L273.496 234.178
L273.952 234.178
L273.952 229.616
L275.692 229.616
L275.692 225.053
L276.248 225.053
L276.248 220.491
L276.977 220.491
L276.977 215.929
L293.651 215.929
L293.651 211.366
L326.255 211.366
L326.255 206.804
L326.746 206.804
L326.746 202.242
L337.8 202.242
L337.8 197.679
L342.672 197.679
L342.672 193.117
L343.286 193.117
L343.286 188.554
L344.011 188.554
L344.011 183.992
L345.218 183.992
L345.218 179.43
L345.836 179.43
L345.836 174.867
L347.021 174.867
L347.021 170.305
L350.745 170.305
L350.745 165.743
L351.126 165.743
L351.126 161.18
L351.75 161.18
L351.75 156.618
L353.354 156.618
L353.354 152.055
L354.016 152.055
L354.016 147.493
L355.044 147.493
L355.044 142.931
L356.631 142.931
L356.631 138.368
L356.939 138.368
L356.939 133.806
L363.269 133.806
L363.269 129.244
L363.963 129.244
L363.963 124.681
L366.798 124.681
L366.798 120.119
L368.645 120.119
L368.726 110.994
L368.928 110.994
L368.928 106.432
L369.727 106.432
L369.727 101.869
L370.148 101.869
L370.148 97.3069
L373.925 97.3069
L373.925 92.7446
L374.686 92.7446
L374.686 88.1822
L375.282 88.1822
L375.282 83.6198
L376.045 83.6198
L376.045 79.0574
L381.233 79.0574
L381.233 74.495
L381.709 74.495
L381.709 69.9327
L382.089 69.9327
L382.089 65.3703
L383.084 65.3703
L383.084 60.8079
L384.979 60.8079
L384.979 56.2455
L386.865 56.2455
L386.865 51.6832
L387.401 51.6832
L387.401 47.1208
L388.271 47.1208
L388.271 42.5584
L388.56 42.5584
L388.56 37.996
L392.48 37.996
L392.48 33.4337
L394.905 33.4337
L394.905 28.8713
L403.143 28.8713
L403.143 24.3089
L416.497 24.3089
L416.497 19.7465
L421.358 19.7465
L421.358 15.1842
L446.49 15.1842
L446.49 10.6218
L446.49 10.6218
L453.6 10.6218
L453.6 10.6218" style="fill:none;stroke:#00bfbf;stroke-linecap:square;"/>
   </g>
   <g id="line2d_3">
    <path clip-path="url(#p99b4b0da67)" d="
M222.42 352.8
L222.42 348.238
L227.742 348.238
L227.742 343.675
L228.868 343.675
L228.868 339.113
L229.426 339.113
L229.426 334.55
L232.133 334.55
L232.133 329.988
L232.487 329.988
L232.487 325.426
L233.176 325.426
L233.176 320.863
L234.395 320.863
L234.395 316.301
L237.093 316.301
L237.093 311.739
L237.889 311.739
L237.889 307.176
L238.366 307.176
L238.366 302.614
L239.408 302.614
L239.408 298.051
L244.204 298.051
L244.204 293.489
L245.599 293.489
L245.599 288.927
L250.87 288.927
L250.87 284.364
L264.567 284.364
L264.567 279.802
L267.405 279.802
L267.405 275.24
L267.521 275.24
L267.521 270.677
L267.783 270.677
L267.783 266.115
L268.262 266.115
L268.262 261.552
L268.498 261.552
L268.498 256.99
L268.95 256.99
L268.95 252.428
L269.667 252.428
L269.667 247.865
L270.058 247.865
L270.058 243.303
L270.439 243.303
L270.439 238.741
L271.099 238.741
L271.099 234.178
L271.553 234.178
L271.553 229.616
L271.761 229.616
L271.761 225.053
L272.949 225.053
L272.949 220.491
L273.069 220.491
L273.069 215.929
L284.8 215.929
L284.8 211.366
L293.651 211.366
L293.651 206.804
L315.345 206.804
L315.345 202.242
L323.093 202.242
L323.093 197.679
L324.741 197.679
L324.741 193.117
L326.746 193.117
L326.746 188.554
L332.486 188.554
L332.486 183.992
L332.598 183.992
L332.598 179.43
L335.441 179.43
L335.441 174.867
L335.848 174.867
L335.848 170.305
L335.994 170.305
L335.994 165.743
L336.471 165.743
L336.471 161.18
L337.8 161.18
L337.8 156.618
L341.206 156.618
L341.206 152.055
L341.901 152.055
L341.901 147.493
L342.672 147.493
L342.672 142.931
L343.286 142.931
L343.287 133.806
L344.429 133.806
L344.429 129.244
L345.218 129.244
L345.218 124.681
L345.474 124.681
L345.474 120.119
L345.836 120.119
L345.836 115.556
L346.189 115.556
L346.189 110.994
L348.248 110.994
L348.248 106.432
L348.43 106.432
L348.43 101.869
L351.75 101.869
L351.75 97.3069
L355.044 97.3069
L355.044 92.7446
L356.939 92.7446
L356.939 88.1822
L357.12 88.1822
L357.12 83.6198
L366.187 83.6198
L366.187 79.0574
L368.726 79.0574
L368.726 74.495
L373.925 74.495
L373.925 69.9327
L374.968 69.9327
L374.968 65.3703
L375.668 65.3703
L375.668 60.8079
L376.694 60.8079
L376.694 56.2455
L378.764 56.2455
L378.764 51.6832
L380.209 51.6832
L380.209 47.1208
L384.568 47.1208
L384.596 37.996
L385.632 37.996
L385.632 33.4337
L385.945 33.4337
L385.945 28.8713
L392.48 28.8713
L392.48 24.3089
L394.905 24.3089
L394.905 19.7465
L409.601 19.7465
L409.601 15.1842
L420.858 15.1842
L420.858 10.6218
L420.858 10.6218
L453.6 10.6218
L453.6 10.6218" style="fill:none;stroke:#bf00bf;stroke-linecap:square;"/>
   </g>
   <g id="line2d_4">
    <path clip-path="url(#p99b4b0da67)" d="
M211.583 352.8
L211.583 348.238
L214.608 348.238
L214.608 343.675
L215.374 343.675
L215.374 339.113
L220.975 339.113
L220.975 334.55
L221.776 334.55
L221.776 329.988
L222.42 329.988
L222.42 325.426
L222.648 325.426
L222.648 320.863
L224.222 320.863
L224.222 316.301
L224.393 316.301
L224.393 311.739
L224.569 311.739
L224.569 307.176
L225.291 307.176
L225.291 302.614
L225.477 302.614
L225.477 298.051
L228.825 298.051
L228.825 293.489
L230.987 293.489
L230.987 288.927
L231.142 288.927
L231.142 284.364
L254.431 284.364
L254.431 279.802
L257.707 279.802
L257.707 275.24
L259.736 275.24
L259.736 270.677
L259.928 270.677
L259.928 261.552
L262.42 261.552
L262.42 256.99
L263.189 256.99
L263.189 252.428
L263.551 252.428
L263.551 247.865
L264.181 247.865
L264.181 243.303
L264.961 243.303
L264.961 238.741
L265.368 238.741
L265.418 229.616
L267.561 229.616
L267.561 225.053
L268.03 225.053
L268.03 220.491
L269.756 220.491
L269.756 215.929
L271.865 215.929
L271.865 211.366
L275.572 211.366
L275.572 206.804
L284.8 206.804
L284.8 202.242
L287.136 202.242
L287.136 197.679
L290.54 197.679
L290.54 193.117
L291.423 193.117
L291.423 188.554
L293.651 188.554
L293.651 183.992
L304.01 183.992
L304.055 174.867
L306.262 174.867
L306.262 170.305
L311.176 170.305
L311.176 165.743
L315.309 165.743
L315.309 161.18
L315.676 161.18
L315.676 156.618
L319.677 156.618
L319.677 152.055
L320.178 152.055
L320.178 147.493
L322.462 147.493
L322.462 142.931
L324.741 142.931
L324.741 138.368
L326.746 138.368
L326.746 133.806
L327.101 133.806
L327.101 129.244
L327.301 129.244
L327.301 124.681
L327.5 124.681
L327.5 120.119
L330.356 120.119
L330.356 115.556
L331.51 115.556
L331.51 110.994
L334.915 110.994
L334.915 106.432
L337.8 106.432
L337.8 101.869
L339.523 101.869
L339.523 97.3069
L340.386 97.3069
L340.386 92.7446
L341.699 92.7446
L341.699 88.1822
L341.989 88.1822
L341.989 83.6198
L345.795 83.6198
L345.795 79.0574
L355.432 79.0574
L355.432 74.495
L358.749 74.495
L358.749 69.9327
L360.152 69.9327
L360.152 65.3703
L360.369 65.3703
L360.369 60.8079
L362.407 60.8079
L362.407 56.2455
L363.142 56.2455
L363.142 51.6832
L365.956 51.6832
L365.956 47.1208
L366.385 47.1208
L366.494 37.996
L368.612 37.996
L368.612 33.4337
L368.726 33.4337
L368.726 28.8713
L370.392 28.8713
L370.392 24.3089
L374.968 24.3089
L374.968 19.7465
L378.3 19.7465
L378.3 15.1842
L384.661 15.1842
L384.661 10.6218
L384.661 10.6218
L453.6 10.6218
L453.6 10.6218" style="fill:none;stroke:#000000;stroke-linecap:square;"/>
   </g>
   <g id="line2d_5">
    <path clip-path="url(#p99b4b0da67)" d="
M194.163 352.8
L194.163 348.238
L209.771 348.238
L209.771 343.675
L210.95 343.675
L210.967 334.55
L211.583 334.55
L211.655 325.426
L212.089 325.426
L212.089 320.863
L212.506 320.863
L212.506 316.301
L212.644 316.301
L212.644 311.739
L214.608 311.739
L214.608 307.176
L218.125 307.176
L218.125 302.614
L221.646 302.614
L221.646 298.051
L224.06 298.051
L224.06 293.489
L224.559 293.489
L224.559 288.927
L229.778 288.927
L229.778 284.364
L246.912 284.364
L246.912 279.802
L250.271 279.802
L250.271 275.24
L254.431 275.24
L254.431 270.677
L255.594 270.677
L255.594 266.115
L255.912 266.115
L255.912 261.552
L256.149 261.552
L256.149 256.99
L258.106 256.99
L258.106 252.428
L258.67 252.428
L258.768 243.303
L259.164 243.303
L259.164 238.741
L259.334 238.741
L259.334 234.178
L260.152 234.178
L260.152 229.616
L260.32 229.616
L260.32 225.053
L262.689 225.053
L262.689 220.491
L263.755 220.491
L263.755 215.929
L266.394 215.929
L266.394 211.366
L267.474 211.366
L267.474 206.804
L267.835 206.804
L267.835 202.242
L275.111 202.242
L275.111 197.679
L276.049 197.679
L276.049 193.117
L277.651 193.117
L277.651 188.554
L279.538 188.554
L279.538 183.992
L286.98 183.992
L286.98 179.43
L287.136 179.43
L287.136 174.867
L288.365 174.867
L288.365 170.305
L290.54 170.305
L290.54 165.743
L293.651 165.743
L293.651 161.18
L295.738 161.18
L295.738 156.618
L297.699 156.618
L297.699 152.055
L303.01 152.055
L303.01 147.493
L304.055 147.493
L304.055 142.931
L305.826 142.931
L305.826 138.368
L306.925 138.368
L306.925 133.806
L312.119 133.806
L312.119 129.244
L313.725 129.244
L313.732 120.119
L316.752 120.119
L316.752 115.556
L320.27 115.556
L320.27 110.994
L320.4 110.994
L320.4 106.432
L324.741 106.432
L324.741 101.869
L325.489 101.869
L325.489 97.3069
L326.746 97.3069
L326.746 92.7446
L330.285 92.7446
L330.285 88.1822
L333.983 88.1822
L333.983 83.6198
L340.921 83.6198
L340.921 79.0574
L348.852 79.0574
L348.852 74.495
L352.467 74.495
L352.467 69.9327
L355.04 69.9327
L355.04 65.3703
L356.009 65.3703
L356.009 60.8079
L358.608 60.8079
L358.608 56.2455
L359.02 56.2455
L359.02 51.6832
L359.321 51.6832
L359.321 47.1208
L360.822 47.1208
L360.822 42.5584
L361.569 42.5584
L361.569 37.996
L362.048 37.996
L362.048 33.4337
L362.251 33.4337
L362.251 28.8713
L363.142 28.8713
L363.142 24.3089
L364.062 24.3089
L364.062 19.7465
L372.42 19.7465
L372.42 15.1842
L382.684 15.1842
L382.684 10.6218
L382.684 10.6218
L453.6 10.6218
L453.6 10.6218" style="fill:none;stroke:#00bfbf;stroke-linecap:square;"/>
   </g>
   <g id="line2d_6">
    <path clip-path="url(#p99b4b0da67)" d="
M157.708 352.8
L157.708 348.238
L164.597 348.238
L164.597 343.675
L166.916 343.675
L166.916 339.113
L168.4 339.113
L168.4 334.55
L170.46 334.55
L170.46 329.988
L171.929 329.988
L171.929 325.426
L173.86 325.426
L173.86 320.863
L174.755 320.863
L174.755 316.301
L175.726 316.301
L175.726 311.739
L179.163 311.739
L179.163 307.176
L179.683 307.176
L179.683 302.614
L185.347 302.614
L185.347 298.051
L185.653 298.051
L185.653 293.489
L189.597 293.489
L189.597 288.927
L205.478 288.927
L205.478 284.364
L223.16 284.364
L223.16 279.802
L224.121 279.802
L224.121 275.24
L224.263 275.24
L224.263 270.677
L226.313 270.677
L226.406 261.552
L227.859 261.552
L227.859 256.99
L228.66 256.99
L228.66 252.428
L229.359 252.428
L229.359 247.865
L229.503 247.865
L229.503 243.303
L230.998 243.303
L231.018 234.178
L232.963 234.178
L232.963 229.616
L233.363 229.616
L233.363 225.053
L234.165 225.053
L234.165 220.491
L234.326 220.491
L234.326 215.929
L234.958 215.929
L234.958 211.366
L235.962 211.366
L235.962 206.804
L237.827 206.804
L237.827 202.242
L238.362 202.242
L238.362 197.679
L239.154 197.679
L239.232 188.554
L239.348 188.554
L239.348 183.992
L239.842 183.992
L239.916 174.867
L240.143 174.867
L240.143 170.305
L246.521 170.305
L246.521 165.743
L246.695 165.743
L246.695 161.18
L247.503 161.18
L247.503 156.618
L247.757 156.618
L247.757 152.055
L248.385 152.055
L248.385 147.493
L249.488 147.493
L249.488 142.931
L256.141 142.931
L256.141 138.368
L258.651 138.368
L258.651 133.806
L260.242 133.806
L260.242 129.244
L266.478 129.244
L266.478 124.681
L272.394 124.681
L272.487 115.556
L275.311 115.556
L275.311 110.994
L275.726 110.994
L275.726 106.432
L277.061 106.432
L277.061 101.869
L279.431 101.869
L279.431 97.3069
L281.553 97.3069
L281.553 92.7446
L282.983 92.7446
L282.983 88.1822
L283.844 88.1822
L283.844 83.6198
L287.911 83.6198
L287.911 79.0574
L297.01 79.0574
L297.01 74.495
L298.681 74.495
L298.681 69.9327
L300.343 69.9327
L300.343 65.3703
L301.308 65.3703
L301.308 60.8079
L301.849 60.8079
L301.849 56.2455
L305.87 56.2455
L305.87 51.6832
L308.087 51.6832
L308.087 47.1208
L309.656 47.1208
L309.656 42.5584
L310.726 42.5584
L310.726 37.996
L310.861 37.996
L310.861 33.4337
L314.519 33.4337
L314.519 28.8713
L321.499 28.8713
L321.499 24.3089
L324.454 24.3089
L324.454 19.7465
L329.022 19.7465
L329.022 15.1842
L338.169 15.1842
L338.169 10.6218
L338.169 10.6218
L453.6 10.6218
L453.6 10.6218" style="fill:none;stroke:#bf00bf;stroke-linecap:square;"/>
   </g>
   <g id="line2d_7">
    <path clip-path="url(#p99b4b0da67)" d="
M-1 234.178
L0.387242 234.178
L0.387242 229.616
L2.25135 229.616
L2.25135 225.053
L3.47553 225.053
L3.47553 220.491
L4.40887 220.491
L4.40887 215.929
L5.19565 215.929
L5.19565 211.366
L8.28066 211.366
L8.28066 206.804
L11.523 206.804
L11.523 202.242
L28.7253 202.242
L28.7253 197.679
L39.5175 197.679
L39.5175 193.117
L56.0936 193.117
L56.0936 188.554
L57.5457 188.554
L57.5457 183.992
L63.9238 183.992
L63.9238 179.43
L66.2474 179.43
L66.2474 174.867
L70.277 174.867
L70.277 170.305
L72.6106 170.305
L72.6106 165.743
L91.5149 165.743
L91.5149 161.18
L91.8142 161.18
L91.8142 156.618
L100.924 156.618
L100.924 152.055
L101.658 152.055
L101.658 147.493
L103.312 147.493
L103.312 142.931
L104.438 142.931
L104.438 138.368
L107.393 138.368
L107.393 133.806
L108.29 133.806
L108.29 129.244
L109.229 129.244
L109.229 124.681
L111.933 124.681
L111.933 120.119
L120.814 120.119
L120.814 115.556
L126.478 115.556
L126.478 110.994
L132.756 110.994
L132.756 106.432
L137.688 106.432
L137.688 101.869
L149.082 101.869
L149.082 97.3069
L156.49 97.3069
L156.49 92.7446
L160.082 92.7446
L160.082 88.1822
L170.332 88.1822
L170.332 83.6198
L172.902 83.6198
L172.902 79.0574
L174.593 79.0574
L174.593 74.495
L176.561 74.495
L176.561 69.9327
L182.44 69.9327
L182.44 65.3703
L185.532 65.3703
L185.532 60.8079
L188.279 60.8079
L188.279 56.2455
L189.989 56.2455
L189.989 51.6832
L197.447 51.6832
L197.447 47.1208
L202.097 47.1208
L202.097 42.5584
L212.969 42.5584
L212.969 37.996
L219.418 37.996
L219.418 33.4337
L223.044 33.4337
L223.044 28.8713
L223.343 28.8713
L223.343 24.3089
L234.79 24.3089
L234.79 19.7465
L236.714 19.7465
L236.714 15.1842
L272.407 15.1842
L272.407 10.6218
L272.407 10.6218
L453.6 10.6218
L453.6 10.6218" style="fill:none;stroke:#000000;stroke-linecap:square;"/>
   </g>
   <g id="patch_3">
    <path d="
M7.2 7.2
L453.6 7.2" style="fill:none;stroke:#000000;stroke-linecap:square;stroke-linejoin:miter;"/>
   </g>
   <g id="patch_4">
    <path d="
M453.6 352.8
L453.6 7.2" style="fill:none;stroke:#000000;stroke-linecap:square;stroke-linejoin:miter;"/>
   </g>
   <g id="patch_5">
    <path d="
M7.2 352.8
L453.6 352.8" style="fill:none;stroke:#000000;stroke-linecap:square;stroke-linejoin:miter;"/>
   </g>
   <g id="patch_6">
    <path d="
M7.2 352.8
L7.2 7.2" style="fill:none;stroke:#000000;stroke-linecap:square;stroke-linejoin:miter;"/>
   </g>
   <g id="matplotlib.axis_1">
    <g id="xtick_1"/>
    <g id="xtick_2">
     <g id="line2d_8">
      <path clip-path="url(#p99b4b0da67)" d="
M54.0986 352.8
L54.0986 7.2" style="fill:none;stroke:#000000;stroke-dasharray:1.000000,3.000000;stroke-dashoffset:0.0;stroke-width:0.5;"/>
     </g>
     <g id="line2d_9">
      <defs>
       <path d="
M0 0
L0 -4" id="m93b0483c22" style="stroke:#000000;stroke-width:0.5;"/>
      </defs>
      <g>
       <use style="stroke:#000000;stroke-width:0.5;" x="54.0986107985" xlink:href="#m93b0483c22" y="352.8"/>
      </g>
     </g>
     <g id="line2d_10">
      <defs>
       <path d="
M0 0
L0 4" id="m741efc42ff" style="stroke:#000000;stroke-width:0.5;"/>
      </defs>
      <g>
       <use style="stroke:#000000;stroke-width:0.5;" x="54.0986107985" xlink:href="#m741efc42ff" y="7.2"/>
      </g>
     </g>
     <g id="text_1">
      <!-- -6 -->
      <defs>
       <path d="
M33.0156 40.375
Q26.375 40.375 22.4844 35.8281
Q18.6094 31.2969 18.6094 23.3906
Q18.6094 15.5312 22.4844 10.9531
Q26.375 6.39062 33.0156 6.39062
Q39.6562 6.39062 43.5312 10.9531
Q47.4062 15.5312 47.4062 23.3906
Q47.4062 31.2969 43.5312 35.8281
Q39.6562 40.375 33.0156 40.375
M52.5938 71.2969
L52.5938 62.3125
Q48.875 64.0625 45.0938 64.9844
Q41.3125 65.9219 37.5938 65.9219
Q27.8281 65.9219 22.6719 59.3281
Q17.5312 52.7344 16.7969 39.4062
Q19.6719 43.6562 24.0156 45.9219
Q28.375 48.1875 33.5938 48.1875
Q44.5781 48.1875 50.9531 41.5156
Q57.3281 34.8594 57.3281 23.3906
Q57.3281 12.1562 50.6875 5.35938
Q44.0469 -1.42188 33.0156 -1.42188
Q20.3594 -1.42188 13.6719 8.26562
Q6.98438 17.9688 6.98438 36.375
Q6.98438 53.6562 15.1875 63.9375
Q23.3906 74.2188 37.2031 74.2188
Q40.9219 74.2188 44.7031 73.4844
Q48.4844 72.75 52.5938 71.2969" id="BitstreamVeraSans-Roman-36"/>
       <path d="
M4.89062 31.3906
L31.2031 31.3906
L31.2031 23.3906
L4.89062 23.3906
z
" id="BitstreamVeraSans-Roman-2d"/>
      </defs>
      <g transform="translate(45.2470482985 371.996875)scale(0.2 -0.2)">
       <use xlink:href="#BitstreamVeraSans-Roman-2d"/>
       <use x="36.083984375" xlink:href="#BitstreamVeraSans-Roman-36"/>
      </g>
     </g>
    </g>
    <g id="xtick_3">
     <g id="line2d_11">
      <path clip-path="url(#p99b4b0da67)" d="
M101.099 352.8
L101.099 7.2" style="fill:none;stroke:#000000;stroke-dasharray:1.000000,3.000000;stroke-dashoffset:0.0;stroke-width:0.5;"/>
     </g>
     <g id="line2d_12">
      <g>
       <use style="stroke:#000000;stroke-width:0.5;" x="101.098774234" xlink:href="#m93b0483c22" y="352.8"/>
      </g>
     </g>
     <g id="line2d_13">
      <g>
       <use style="stroke:#000000;stroke-width:0.5;" x="101.098774234" xlink:href="#m741efc42ff" y="7.2"/>
      </g>
     </g>
     <g id="text_2">
      <!-- -4 -->
      <defs>
       <path d="
M37.7969 64.3125
L12.8906 25.3906
L37.7969 25.3906
z

M35.2031 72.9062
L47.6094 72.9062
L47.6094 25.3906
L58.0156 25.3906
L58.0156 17.1875
L47.6094 17.1875
L47.6094 0
L37.7969 0
L37.7969 17.1875
L4.89062 17.1875
L4.89062 26.7031
z
" id="BitstreamVeraSans-Roman-34"/>
      </defs>
      <g transform="translate(92.1784617339 371.996875)scale(0.2 -0.2)">
       <use xlink:href="#BitstreamVeraSans-Roman-2d"/>
       <use x="36.083984375" xlink:href="#BitstreamVeraSans-Roman-34"/>
      </g>
     </g>
    </g>
    <g id="xtick_4">
     <g id="line2d_14">
      <path clip-path="url(#p99b4b0da67)" d="
M148.099 352.8
L148.099 7.2" style="fill:none;stroke:#000000;stroke-dasharray:1.000000,3.000000;stroke-dashoffset:0.0;stroke-width:0.5;"/>
     </g>
     <g id="line2d_15">
      <g>
       <use style="stroke:#000000;stroke-width:0.5;" x="148.098937669" xlink:href="#m93b0483c22" y="352.8"/>
      </g>
     </g>
     <g id="line2d_16">
      <g>
       <use style="stroke:#000000;stroke-width:0.5;" x="148.098937669" xlink:href="#m741efc42ff" y="7.2"/>
      </g>
     </g>
     <g id="text_3">
      <!-- -2 -->
      <defs>
       <path d="
M19.1875 8.29688
L53.6094 8.29688
L53.6094 0
L7.32812 0
L7.32812 8.29688
Q12.9375 14.1094 22.625 23.8906
Q32.3281 33.6875 34.8125 36.5312
Q39.5469 41.8438 41.4219 45.5312
Q43.3125 49.2188 43.3125 52.7812
Q43.3125 58.5938 39.2344 62.25
Q35.1562 65.9219 28.6094 65.9219
Q23.9688 65.9219 18.8125 64.3125
Q13.6719 62.7031 7.8125 59.4219
L7.8125 69.3906
Q13.7656 71.7812 18.9375 73
Q24.125 74.2188 28.4219 74.2188
Q39.75 74.2188 46.4844 68.5469
Q53.2188 62.8906 53.2188 53.4219
Q53.2188 48.9219 51.5312 44.8906
Q49.8594 40.875 45.4062 35.4062
Q44.1875 33.9844 37.6406 27.2188
Q31.1094 20.4531 19.1875 8.29688" id="BitstreamVeraSans-Roman-32"/>
      </defs>
      <g transform="translate(139.619250169 371.996875)scale(0.2 -0.2)">
       <use xlink:href="#BitstreamVeraSans-Roman-2d"/>
       <use x="36.083984375" xlink:href="#BitstreamVeraSans-Roman-32"/>
      </g>
     </g>
    </g>
    <g id="xtick_5">
     <g id="line2d_17">
      <path clip-path="url(#p99b4b0da67)" d="
M195.099 352.8
L195.099 7.2" style="fill:none;stroke:#000000;stroke-dasharray:1.000000,3.000000;stroke-dashoffset:0.0;stroke-width:0.5;"/>
     </g>
     <g id="line2d_18">
      <g>
       <use style="stroke:#000000;stroke-width:0.5;" x="195.099101105" xlink:href="#m93b0483c22" y="352.8"/>
      </g>
     </g>
     <g id="line2d_19">
      <g>
       <use style="stroke:#000000;stroke-width:0.5;" x="195.099101105" xlink:href="#m741efc42ff" y="7.2"/>
      </g>
     </g>
     <g id="text_4">
      <!-- 0 -->
      <defs>
       <path d="
M31.7812 66.4062
Q24.1719 66.4062 20.3281 58.9062
Q16.5 51.4219 16.5 36.375
Q16.5 21.3906 20.3281 13.8906
Q24.1719 6.39062 31.7812 6.39062
Q39.4531 6.39062 43.2812 13.8906
Q47.125 21.3906 47.125 36.375
Q47.125 51.4219 43.2812 58.9062
Q39.4531 66.4062 31.7812 66.4062
M31.7812 74.2188
Q44.0469 74.2188 50.5156 64.5156
Q56.9844 54.8281 56.9844 36.375
Q56.9844 17.9688 50.5156 8.26562
Q44.0469 -1.42188 31.7812 -1.42188
Q19.5312 -1.42188 13.0625 8.26562
Q6.59375 17.9688 6.59375 36.375
Q6.59375 54.8281 13.0625 64.5156
Q19.5312 74.2188 31.7812 74.2188" id="BitstreamVeraSans-Roman-30"/>
      </defs>
      <g transform="translate(190.060038605 371.996875)scale(0.2 -0.2)">
       <use xlink:href="#BitstreamVeraSans-Roman-30"/>
      </g>
     </g>
    </g>
    <g id="xtick_6">
     <g id="line2d_20">
      <path clip-path="url(#p99b4b0da67)" d="
M242.099 352.8
L242.099 7.2" style="fill:none;stroke:#000000;stroke-dasharray:1.000000,3.000000;stroke-dashoffset:0.0;stroke-width:0.5;"/>
     </g>
     <g id="line2d_21">
      <g>
       <use style="stroke:#000000;stroke-width:0.5;" x="242.09926454" xlink:href="#m93b0483c22" y="352.8"/>
      </g>
     </g>
     <g id="line2d_22">
      <g>
       <use style="stroke:#000000;stroke-width:0.5;" x="242.09926454" xlink:href="#m741efc42ff" y="7.2"/>
      </g>
     </g>
     <g id="text_5">
      <!-- 2 -->
      <g transform="translate(237.47113954 371.996875)scale(0.2 -0.2)">
       <use xlink:href="#BitstreamVeraSans-Roman-32"/>
      </g>
     </g>
    </g>
    <g id="xtick_7">
     <g id="line2d_23">
      <path clip-path="url(#p99b4b0da67)" d="
M289.099 352.8
L289.099 7.2" style="fill:none;stroke:#000000;stroke-dasharray:1.000000,3.000000;stroke-dashoffset:0.0;stroke-width:0.5;"/>
     </g>
     <g id="line2d_24">
      <g>
       <use style="stroke:#000000;stroke-width:0.5;" x="289.099427976" xlink:href="#m93b0483c22" y="352.8"/>
      </g>
     </g>
     <g id="line2d_25">
      <g>
       <use style="stroke:#000000;stroke-width:0.5;" x="289.099427976" xlink:href="#m741efc42ff" y="7.2"/>
      </g>
     </g>
     <g id="text_6">
      <!-- 4 -->
      <g transform="translate(283.786927976 371.996875)scale(0.2 -0.2)">
       <use xlink:href="#BitstreamVeraSans-Roman-34"/>
      </g>
     </g>
    </g>
    <g id="xtick_8">
     <g id="line2d_26">
      <path clip-path="url(#p99b4b0da67)" d="
M336.1 352.8
L336.1 7.2" style="fill:none;stroke:#000000;stroke-dasharray:1.000000,3.000000;stroke-dashoffset:0.0;stroke-width:0.5;"/>
     </g>
     <g id="line2d_27">
      <g>
       <use style="stroke:#000000;stroke-width:0.5;" x="336.099591411" xlink:href="#m93b0483c22" y="352.8"/>
      </g>
     </g>
     <g id="line2d_28">
      <g>
       <use style="stroke:#000000;stroke-width:0.5;" x="336.099591411" xlink:href="#m741efc42ff" y="7.2"/>
      </g>
     </g>
     <g id="text_7">
      <!-- 6 -->
      <g transform="translate(331.065216411 371.996875)scale(0.2 -0.2)">
       <use xlink:href="#BitstreamVeraSans-Roman-36"/>
      </g>
     </g>
    </g>
    <g id="xtick_9">
     <g id="line2d_29">
      <path clip-path="url(#p99b4b0da67)" d="
M383.1 352.8
L383.1 7.2" style="fill:none;stroke:#000000;stroke-dasharray:1.000000,3.000000;stroke-dashoffset:0.0;stroke-width:0.5;"/>
     </g>
     <g id="line2d_30">
      <g>
       <use style="stroke:#000000;stroke-width:0.5;" x="383.099754847" xlink:href="#m93b0483c22" y="352.8"/>
      </g>
     </g>
     <g id="line2d_31">
      <g>
       <use style="stroke:#000000;stroke-width:0.5;" x="383.099754847" xlink:href="#m741efc42ff" y="7.2"/>
      </g>
     </g>
     <g id="text_8">
      <!-- 8 -->
      <defs>
       <path d="
M31.7812 34.625
Q24.75 34.625 20.7188 30.8594
Q16.7031 27.0938 16.7031 20.5156
Q16.7031 13.9219 20.7188 10.1562
Q24.75 6.39062 31.7812 6.39062
Q38.8125 6.39062 42.8594 10.1719
Q46.9219 13.9688 46.9219 20.5156
Q46.9219 27.0938 42.8906 30.8594
Q38.875 34.625 31.7812 34.625
M21.9219 38.8125
Q15.5781 40.375 12.0312 44.7188
Q8.5 49.0781 8.5 55.3281
Q8.5 64.0625 14.7188 69.1406
Q20.9531 74.2188 31.7812 74.2188
Q42.6719 74.2188 48.875 69.1406
Q55.0781 64.0625 55.0781 55.3281
Q55.0781 49.0781 51.5312 44.7188
Q48 40.375 41.7031 38.8125
Q48.8281 37.1562 52.7969 32.3125
Q56.7812 27.4844 56.7812 20.5156
Q56.7812 9.90625 50.3125 4.23438
Q43.8438 -1.42188 31.7812 -1.42188
Q19.7344 -1.42188 13.25 4.23438
Q6.78125 9.90625 6.78125 20.5156
Q6.78125 27.4844 10.7812 32.3125
Q14.7969 37.1562 21.9219 38.8125
M18.3125 54.3906
Q18.3125 48.7344 21.8438 45.5625
Q25.3906 42.3906 31.7812 42.3906
Q38.1406 42.3906 41.7188 45.5625
Q45.3125 48.7344 45.3125 54.3906
Q45.3125 60.0625 41.7188 63.2344
Q38.1406 66.4062 31.7812 66.4062
Q25.3906 66.4062 21.8438 63.2344
Q18.3125 60.0625 18.3125 54.3906" id="BitstreamVeraSans-Roman-38"/>
      </defs>
      <g transform="translate(378.099754847 371.996875)scale(0.2 -0.2)">
       <use xlink:href="#BitstreamVeraSans-Roman-38"/>
      </g>
     </g>
    </g>
    <g id="xtick_10">
     <g id="line2d_32">
      <path clip-path="url(#p99b4b0da67)" d="
M430.1 352.8
L430.1 7.2" style="fill:none;stroke:#000000;stroke-dasharray:1.000000,3.000000;stroke-dashoffset:0.0;stroke-width:0.5;"/>
     </g>
     <g id="line2d_33">
      <g>
       <use style="stroke:#000000;stroke-width:0.5;" x="430.099918282" xlink:href="#m93b0483c22" y="352.8"/>
      </g>
     </g>
     <g id="line2d_34">
      <g>
       <use style="stroke:#000000;stroke-width:0.5;" x="430.099918282" xlink:href="#m741efc42ff" y="7.2"/>
      </g>
     </g>
     <g id="text_9">
      <!-- 10 -->
      <defs>
       <path d="
M12.4062 8.29688
L28.5156 8.29688
L28.5156 63.9219
L10.9844 60.4062
L10.9844 69.3906
L28.4219 72.9062
L38.2812 72.9062
L38.2812 8.29688
L54.3906 8.29688
L54.3906 0
L12.4062 0
z
" id="BitstreamVeraSans-Roman-31"/>
      </defs>
      <g transform="translate(419.137418282 371.996875)scale(0.2 -0.2)">
       <use xlink:href="#BitstreamVeraSans-Roman-31"/>
       <use x="63.623046875" xlink:href="#BitstreamVeraSans-Roman-30"/>
      </g>
     </g>
    </g>
    <g id="xtick_11"/>
    <g id="xtick_12">
     <g id="line2d_35">
      <defs>
       <path d="
M0 0
L0 -2" id="m177f7580d0" style="stroke:#000000;stroke-width:0.5;"/>
      </defs>
      <g>
       <use style="stroke:#000000;stroke-width:0.5;" x="54.0986107985" xlink:href="#m177f7580d0" y="352.8"/>
      </g>
     </g>
     <g id="line2d_36">
      <defs>
       <path d="
M0 0
L0 2" id="m5284c7e2a0" style="stroke:#000000;stroke-width:0.5;"/>
      </defs>
      <g>
       <use style="stroke:#000000;stroke-width:0.5;" x="54.0986107985" xlink:href="#m5284c7e2a0" y="7.2"/>
      </g>
     </g>
    </g>
    <g id="xtick_13">
     <g id="line2d_37">
      <g>
       <use style="stroke:#000000;stroke-width:0.5;" x="101.098774234" xlink:href="#m177f7580d0" y="352.8"/>
      </g>
     </g>
     <g id="line2d_38">
      <g>
       <use style="stroke:#000000;stroke-width:0.5;" x="101.098774234" xlink:href="#m5284c7e2a0" y="7.2"/>
      </g>
     </g>
    </g>
    <g id="xtick_14">
     <g id="line2d_39">
      <g>
       <use style="stroke:#000000;stroke-width:0.5;" x="148.098937669" xlink:href="#m177f7580d0" y="352.8"/>
      </g>
     </g>
     <g id="line2d_40">
      <g>
       <use style="stroke:#000000;stroke-width:0.5;" x="148.098937669" xlink:href="#m5284c7e2a0" y="7.2"/>
      </g>
     </g>
    </g>
    <g id="xtick_15">
     <g id="line2d_41">
      <g>
       <use style="stroke:#000000;stroke-width:0.5;" x="195.099101105" xlink:href="#m177f7580d0" y="352.8"/>
      </g>
     </g>
     <g id="line2d_42">
      <g>
       <use style="stroke:#000000;stroke-width:0.5;" x="195.099101105" xlink:href="#m5284c7e2a0" y="7.2"/>
      </g>
     </g>
    </g>
    <g id="xtick_16">
     <g id="line2d_43">
      <g>
       <use style="stroke:#000000;stroke-width:0.5;" x="242.09926454" xlink:href="#m177f7580d0" y="352.8"/>
      </g>
     </g>
     <g id="line2d_44">
      <g>
       <use style="stroke:#000000;stroke-width:0.5;" x="242.09926454" xlink:href="#m5284c7e2a0" y="7.2"/>
      </g>
     </g>
    </g>
    <g id="xtick_17">
     <g id="line2d_45">
      <g>
       <use style="stroke:#000000;stroke-width:0.5;" x="289.099427976" xlink:href="#m177f7580d0" y="352.8"/>
      </g>
     </g>
     <g id="line2d_46">
      <g>
       <use style="stroke:#000000;stroke-width:0.5;" x="289.099427976" xlink:href="#m5284c7e2a0" y="7.2"/>
      </g>
     </g>
    </g>
    <g id="xtick_18">
     <g id="line2d_47">
      <g>
       <use style="stroke:#000000;stroke-width:0.5;" x="336.099591411" xlink:href="#m177f7580d0" y="352.8"/>
      </g>
     </g>
     <g id="line2d_48">
      <g>
       <use style="stroke:#000000;stroke-width:0.5;" x="336.099591411" xlink:href="#m5284c7e2a0" y="7.2"/>
      </g>
     </g>
    </g>
    <g id="xtick_19">
     <g id="line2d_49">
      <g>
       <use style="stroke:#000000;stroke-width:0.5;" x="383.099754847" xlink:href="#m177f7580d0" y="352.8"/>
      </g>
     </g>
     <g id="line2d_50">
      <g>
       <use style="stroke:#000000;stroke-width:0.5;" x="383.099754847" xlink:href="#m5284c7e2a0" y="7.2"/>
      </g>
     </g>
    </g>
    <g id="xtick_20">
     <g id="line2d_51">
      <g>
       <use style="stroke:#000000;stroke-width:0.5;" x="430.099918282" xlink:href="#m177f7580d0" y="352.8"/>
      </g>
     </g>
     <g id="line2d_52">
      <g>
       <use style="stroke:#000000;stroke-width:0.5;" x="430.099918282" xlink:href="#m5284c7e2a0" y="7.2"/>
      </g>
     </g>
    </g>
    <g id="text_10">
     <!-- log10 of Df -->
     <defs>
      <path id="BitstreamVeraSans-Roman-20"/>
      <path d="
M30.6094 48.3906
Q23.3906 48.3906 19.1875 42.75
Q14.9844 37.1094 14.9844 27.2969
Q14.9844 17.4844 19.1562 11.8438
Q23.3438 6.20312 30.6094 6.20312
Q37.7969 6.20312 41.9844 11.8594
Q46.1875 17.5312 46.1875 27.2969
Q46.1875 37.0156 41.9844 42.7031
Q37.7969 48.3906 30.6094 48.3906
M30.6094 56
Q42.3281 56 49.0156 48.375
Q55.7188 40.7656 55.7188 27.2969
Q55.7188 13.875 49.0156 6.21875
Q42.3281 -1.42188 30.6094 -1.42188
Q18.8438 -1.42188 12.1719 6.21875
Q5.51562 13.875 5.51562 27.2969
Q5.51562 40.7656 12.1719 48.375
Q18.8438 56 30.6094 56" id="BitstreamVeraSans-Roman-6f"/>
      <path d="
M9.42188 75.9844
L18.4062 75.9844
L18.4062 0
L9.42188 0
z
" id="BitstreamVeraSans-Roman-6c"/>
      <path d="
M19.6719 64.7969
L19.6719 8.10938
L31.5938 8.10938
Q46.6875 8.10938 53.6875 14.9375
Q60.6875 21.7812 60.6875 36.5312
Q60.6875 51.1719 53.6875 57.9844
Q46.6875 64.7969 31.5938 64.7969
z

M9.8125 72.9062
L30.0781 72.9062
Q51.2656 72.9062 61.1719 64.0938
Q71.0938 55.2812 71.0938 36.5312
Q71.0938 17.6719 61.125 8.82812
Q51.1719 0 30.0781 0
L9.8125 0
z
" id="BitstreamVeraSans-Roman-44"/>
      <path d="
M45.4062 27.9844
Q45.4062 37.75 41.375 43.1094
Q37.3594 48.4844 30.0781 48.4844
Q22.8594 48.4844 18.8281 43.1094
Q14.7969 37.75 14.7969 27.9844
Q14.7969 18.2656 18.8281 12.8906
Q22.8594 7.51562 30.0781 7.51562
Q37.3594 7.51562 41.375 12.8906
Q45.4062 18.2656 45.4062 27.9844
M54.3906 6.78125
Q54.3906 -7.17188 48.1875 -13.9844
Q42 -20.7969 29.2031 -20.7969
Q24.4688 -20.7969 20.2656 -20.0938
Q16.0625 -19.3906 12.1094 -17.9219
L12.1094 -9.1875
Q16.0625 -11.3281 19.9219 -12.3438
Q23.7812 -13.375 27.7812 -13.375
Q36.625 -13.375 41.0156 -8.76562
Q45.4062 -4.15625 45.4062 5.17188
L45.4062 9.625
Q42.625 4.78125 38.2812 2.39062
Q33.9375 0 27.875 0
Q17.8281 0 11.6719 7.65625
Q5.51562 15.3281 5.51562 27.9844
Q5.51562 40.6719 11.6719 48.3281
Q17.8281 56 27.875 56
Q33.9375 56 38.2812 53.6094
Q42.625 51.2188 45.4062 46.3906
L45.4062 54.6875
L54.3906 54.6875
z
" id="BitstreamVeraSans-Roman-67"/>
      <path d="
M37.1094 75.9844
L37.1094 68.5
L28.5156 68.5
Q23.6875 68.5 21.7969 66.5469
Q19.9219 64.5938 19.9219 59.5156
L19.9219 54.6875
L34.7188 54.6875
L34.7188 47.7031
L19.9219 47.7031
L19.9219 0
L10.8906 0
L10.8906 47.7031
L2.29688 47.7031
L2.29688 54.6875
L10.8906 54.6875
L10.8906 58.5
Q10.8906 67.625 15.1406 71.7969
Q19.3906 75.9844 28.6094 75.9844
z
" id="BitstreamVeraSans-Roman-66"/>
     </defs>
     <g transform="translate(175.0234375 396.353125)scale(0.2 -0.2)">
      <use xlink:href="#BitstreamVeraSans-Roman-6c"/>
      <use x="27.783203125" xlink:href="#BitstreamVeraSans-Roman-6f"/>
      <use x="88.96484375" xlink:href="#BitstreamVeraSans-Roman-67"/>
      <use x="152.44140625" xlink:href="#BitstreamVeraSans-Roman-31"/>
      <use x="216.064453125" xlink:href="#BitstreamVeraSans-Roman-30"/>
      <use x="279.6875" xlink:href="#BitstreamVeraSans-Roman-20"/>
      <use x="311.474609375" xlink:href="#BitstreamVeraSans-Roman-6f"/>
      <use x="372.65625" xlink:href="#BitstreamVeraSans-Roman-66"/>
      <use x="407.861328125" xlink:href="#BitstreamVeraSans-Roman-20"/>
      <use x="439.6484375" xlink:href="#BitstreamVeraSans-Roman-44"/>
      <use x="516.650390625" xlink:href="#BitstreamVeraSans-Roman-66"/>
     </g>
    </g>
   </g>
   <g id="matplotlib.axis_2">
    <g id="ytick_1">
     <g id="line2d_53">
      <path clip-path="url(#p99b4b0da67)" d="
M7.2 352.8
L453.6 352.8" style="fill:none;stroke:#000000;stroke-dasharray:1.000000,3.000000;stroke-dashoffset:0.0;stroke-width:0.5;"/>
     </g>
     <g id="line2d_54">
      <defs>
       <path d="
M0 0
L4 0" id="m728421d6d4" style="stroke:#000000;stroke-width:0.5;"/>
      </defs>
      <g>
       <use style="stroke:#000000;stroke-width:0.5;" x="7.2" xlink:href="#m728421d6d4" y="352.8"/>
      </g>
     </g>
     <g id="line2d_55">
      <defs>
       <path d="
M0 0
L-4 0" id="mcb0005524f" style="stroke:#000000;stroke-width:0.5;"/>
      </defs>
      <g>
       <use style="stroke:#000000;stroke-width:0.5;" x="453.6" xlink:href="#mcb0005524f" y="352.8"/>
      </g>
     </g>
    </g>
    <g id="ytick_2">
     <g id="line2d_56">
      <path clip-path="url(#p99b4b0da67)" d="
M7.2 284.364
L453.6 284.364" style="fill:none;stroke:#000000;stroke-dasharray:1.000000,3.000000;stroke-dashoffset:0.0;stroke-width:0.5;"/>
     </g>
     <g id="line2d_57">
      <g>
       <use style="stroke:#000000;stroke-width:0.5;" x="7.2" xlink:href="#m728421d6d4" y="284.364356436"/>
      </g>
     </g>
     <g id="line2d_58">
      <g>
       <use style="stroke:#000000;stroke-width:0.5;" x="453.6" xlink:href="#mcb0005524f" y="284.364356436"/>
      </g>
     </g>
    </g>
    <g id="ytick_3">
     <g id="line2d_59">
      <path clip-path="url(#p99b4b0da67)" d="
M7.2 215.929
L453.6 215.929" style="fill:none;stroke:#000000;stroke-dasharray:1.000000,3.000000;stroke-dashoffset:0.0;stroke-width:0.5;"/>
     </g>
     <g id="line2d_60">
      <g>
       <use style="stroke:#000000;stroke-width:0.5;" x="7.2" xlink:href="#m728421d6d4" y="215.928712871"/>
      </g>
     </g>
     <g id="line2d_61">
      <g>
       <use style="stroke:#000000;stroke-width:0.5;" x="453.6" xlink:href="#mcb0005524f" y="215.928712871"/>
      </g>
     </g>
    </g>
    <g id="ytick_4">
     <g id="line2d_62">
      <path clip-path="url(#p99b4b0da67)" d="
M7.2 147.493
L453.6 147.493" style="fill:none;stroke:#000000;stroke-dasharray:1.000000,3.000000;stroke-dashoffset:0.0;stroke-width:0.5;"/>
     </g>
     <g id="line2d_63">
      <g>
       <use style="stroke:#000000;stroke-width:0.5;" x="7.2" xlink:href="#m728421d6d4" y="147.493069307"/>
      </g>
     </g>
     <g id="line2d_64">
      <g>
       <use style="stroke:#000000;stroke-width:0.5;" x="453.6" xlink:href="#mcb0005524f" y="147.493069307"/>
      </g>
     </g>
    </g>
    <g id="ytick_5">
     <g id="line2d_65">
      <path clip-path="url(#p99b4b0da67)" d="
M7.2 79.0574
L453.6 79.0574" style="fill:none;stroke:#000000;stroke-dasharray:1.000000,3.000000;stroke-dashoffset:0.0;stroke-width:0.5;"/>
     </g>
     <g id="line2d_66">
      <g>
       <use style="stroke:#000000;stroke-width:0.5;" x="7.2" xlink:href="#m728421d6d4" y="79.0574257426"/>
      </g>
     </g>
     <g id="line2d_67">
      <g>
       <use style="stroke:#000000;stroke-width:0.5;" x="453.6" xlink:href="#mcb0005524f" y="79.0574257426"/>
      </g>
     </g>
    </g>
    <g id="ytick_6">
     <g id="line2d_68">
      <path clip-path="url(#p99b4b0da67)" d="
M7.2 10.6218
L453.6 10.6218" style="fill:none;stroke:#000000;stroke-dasharray:1.000000,3.000000;stroke-dashoffset:0.0;stroke-width:0.5;"/>
     </g>
     <g id="line2d_69">
      <g>
       <use style="stroke:#000000;stroke-width:0.5;" x="7.2" xlink:href="#m728421d6d4" y="10.6217821782"/>
      </g>
     </g>
     <g id="line2d_70">
      <g>
       <use style="stroke:#000000;stroke-width:0.5;" x="453.6" xlink:href="#mcb0005524f" y="10.6217821782"/>
      </g>
     </g>
    </g>
   </g>
   <g id="text_11">
    <!-- {f10-f14}, 5-D -->
    <defs>
     <path d="
M12.5 -9.28125
L15.9219 -9.28125
Q22.75 -9.28125 24.8281 -7.17188
Q26.9062 -5.07812 26.9062 1.90625
L26.9062 14.0156
Q26.9062 21.625 29.0938 25.0938
Q31.2969 28.5625 36.7188 29.8906
Q31.2969 31.1094 29.0938 34.5625
Q26.9062 38.0312 26.9062 45.7031
L26.9062 57.8125
Q26.9062 64.75 24.8281 66.875
Q22.75 69 15.9219 69
L12.5 69
L12.5 75.9844
L15.5781 75.9844
Q27.7344 75.9844 31.8125 72.3906
Q35.8906 68.7969 35.8906 58.0156
L35.8906 46.2969
Q35.8906 39.0156 38.5156 36.2031
Q41.1562 33.4062 48.0938 33.4062
L51.125 33.4062
L51.125 26.4219
L48.0938 26.4219
Q41.1562 26.4219 38.5156 23.5781
Q35.8906 20.75 35.8906 13.375
L35.8906 1.70312
Q35.8906 -9.07812 31.8125 -12.6875
Q27.7344 -16.3125 15.5781 -16.3125
L12.5 -16.3125
z
" id="BitstreamVeraSans-Roman-7d"/>
     <path d="
M51.125 -9.28125
L51.125 -16.3125
L48.0938 -16.3125
Q35.9375 -16.3125 31.8125 -12.6875
Q27.6875 -9.07812 27.6875 1.70312
L27.6875 13.375
Q27.6875 20.75 25.0469 23.5781
Q22.4062 26.4219 15.4844 26.4219
L12.5 26.4219
L12.5 33.4062
L15.4844 33.4062
Q22.4688 33.4062 25.0781 36.2031
Q27.6875 39.0156 27.6875 46.2969
L27.6875 58.0156
Q27.6875 68.7969 31.8125 72.3906
Q35.9375 75.9844 48.0938 75.9844
L51.125 75.9844
L51.125 69
L47.7969 69
Q40.9219 69 38.8125 66.8438
Q36.7188 64.7031 36.7188 57.8125
L36.7188 45.7031
Q36.7188 38.0312 34.5 34.5625
Q32.2812 31.1094 26.9062 29.8906
Q32.3281 28.5625 34.5156 25.0938
Q36.7188 21.625 36.7188 14.0156
L36.7188 1.90625
Q36.7188 -4.98438 38.8125 -7.125
Q40.9219 -9.28125 47.7969 -9.28125
z
" id="BitstreamVeraSans-Roman-7b"/>
     <path d="
M11.7188 12.4062
L22.0156 12.4062
L22.0156 4
L14.0156 -11.625
L7.71875 -11.625
L11.7188 4
z
" id="BitstreamVeraSans-Roman-2c"/>
     <path d="
M10.7969 72.9062
L49.5156 72.9062
L49.5156 64.5938
L19.8281 64.5938
L19.8281 46.7344
Q21.9688 47.4688 24.1094 47.8281
Q26.2656 48.1875 28.4219 48.1875
Q40.625 48.1875 47.75 41.5
Q54.8906 34.8125 54.8906 23.3906
Q54.8906 11.625 47.5625 5.09375
Q40.2344 -1.42188 26.9062 -1.42188
Q22.3125 -1.42188 17.5469 -0.640625
Q12.7969 0.140625 7.71875 1.70312
L7.71875 11.625
Q12.1094 9.23438 16.7969 8.0625
Q21.4844 6.89062 26.7031 6.89062
Q35.1562 6.89062 40.0781 11.3281
Q45.0156 15.7656 45.0156 23.3906
Q45.0156 31 40.0781 35.4375
Q35.1562 39.8906 26.7031 39.8906
Q22.75 39.8906 18.8125 39.0156
Q14.8906 38.1406 10.7969 36.2812
z
" id="BitstreamVeraSans-Roman-35"/>
    </defs>
    <g transform="translate(300.15325 345.888)scale(0.2 -0.2)">
     <use xlink:href="#BitstreamVeraSans-Roman-7b"/>
     <use x="63.623046875" xlink:href="#BitstreamVeraSans-Roman-66"/>
     <use x="98.828125" xlink:href="#BitstreamVeraSans-Roman-31"/>
     <use x="162.451171875" xlink:href="#BitstreamVeraSans-Roman-30"/>
     <use x="226.07421875" xlink:href="#BitstreamVeraSans-Roman-2d"/>
     <use x="262.158203125" xlink:href="#BitstreamVeraSans-Roman-66"/>
     <use x="297.36328125" xlink:href="#BitstreamVeraSans-Roman-31"/>
     <use x="360.986328125" xlink:href="#BitstreamVeraSans-Roman-34"/>
     <use x="424.609375" xlink:href="#BitstreamVeraSans-Roman-7d"/>
     <use x="488.232421875" xlink:href="#BitstreamVeraSans-Roman-2c"/>
     <use x="520.01953125" xlink:href="#BitstreamVeraSans-Roman-20"/>
     <use x="551.806640625" xlink:href="#BitstreamVeraSans-Roman-35"/>
     <use x="615.4296875" xlink:href="#BitstreamVeraSans-Roman-2d"/>
     <use x="651.513671875" xlink:href="#BitstreamVeraSans-Roman-44"/>
    </g>
   </g>
   <g id="text_12">
    <!-- v2.1.1.3 -->
    <defs>
     <path d="
M2.98438 54.6875
L12.5 54.6875
L29.5938 8.79688
L46.6875 54.6875
L56.2031 54.6875
L35.6875 0
L23.4844 0
z
" id="BitstreamVeraSans-Roman-76"/>
     <path d="
M40.5781 39.3125
Q47.6562 37.7969 51.625 33
Q55.6094 28.2188 55.6094 21.1875
Q55.6094 10.4062 48.1875 4.48438
Q40.7656 -1.42188 27.0938 -1.42188
Q22.5156 -1.42188 17.6562 -0.515625
Q12.7969 0.390625 7.625 2.20312
L7.625 11.7188
Q11.7188 9.32812 16.5938 8.10938
Q21.4844 6.89062 26.8125 6.89062
Q36.0781 6.89062 40.9375 10.5469
Q45.7969 14.2031 45.7969 21.1875
Q45.7969 27.6406 41.2812 31.2656
Q36.7656 34.9062 28.7188 34.9062
L20.2188 34.9062
L20.2188 43.0156
L29.1094 43.0156
Q36.375 43.0156 40.2344 45.9219
Q44.0938 48.8281 44.0938 54.2969
Q44.0938 59.9062 40.1094 62.9062
Q36.1406 65.9219 28.7188 65.9219
Q24.6562 65.9219 20.0156 65.0312
Q15.375 64.1562 9.8125 62.3125
L9.8125 71.0938
Q15.4375 72.6562 20.3438 73.4375
Q25.25 74.2188 29.5938 74.2188
Q40.8281 74.2188 47.3594 69.1094
Q53.9062 64.0156 53.9062 55.3281
Q53.9062 49.2656 50.4375 45.0938
Q46.9688 40.9219 40.5781 39.3125" id="BitstreamVeraSans-Roman-33"/>
     <path d="
M10.6875 12.4062
L21 12.4062
L21 0
L10.6875 0
z
" id="BitstreamVeraSans-Roman-2e"/>
    </defs>
    <g style="fill:#808080;" transform="translate(210.4984375 347.2643125)scale(0.1 -0.1)">
     <use xlink:href="#BitstreamVeraSans-Roman-76"/>
     <use x="59.1796875" xlink:href="#BitstreamVeraSans-Roman-32"/>
     <use x="122.802734375" xlink:href="#BitstreamVeraSans-Roman-2e"/>
     <use x="154.58984375" xlink:href="#BitstreamVeraSans-Roman-31"/>
     <use x="218.212890625" xlink:href="#BitstreamVeraSans-Roman-2e"/>
     <use x="250.0" xlink:href="#BitstreamVeraSans-Roman-31"/>
     <use x="313.623046875" xlink:href="#BitstreamVeraSans-Roman-2e"/>
     <use x="345.41015625" xlink:href="#BitstreamVeraSans-Roman-33"/>
    </g>
   </g>
  </g>
 </g>
 <defs>
  <clipPath id="p99b4b0da67">
   <rect height="345.6" width="446.4" x="7.2" y="7.2"/>
  </clipPath>
 </defs>
</svg>
