bbob_f015_i01_d02,60,true,14.1421,-5.0,5.0,-5.0,5.0,-3.857429038914029,3.584310638090324,1000.9949590571242
bbob_f015_i01_d02,70,true,5.348,-5.0,-1.357429038914029,1.084310638090324,5.0,-3.432419190897834,2.847367392891346,1000.9949590570964
bbob_f015_i01_d02,50,true,3.5355,-4.682419190897834,-2.182419190897834,1.5973673928913459,4.097367392891346,-3.473582020564756,3.764564626928272,1001.9899181142022
bbob_f015_i01_d02,40,true,1.7678,-4.057419190897834,-2.807419190897834,2.222367392891346,3.472367392891346,-3.0567999766054728,3.0016003147184405,1000.0000000001379
bbob_f015_i02_d02,70,true,14.1421,-5.0,5.0,-5.0,5.0,0.9456336939968536,-3.1115001992825855,74.00983119055408
bbob_f015_i02_d02,30,true,6.6527,-1.5543663060031463,3.4456336939968537,-5.0,-0.6115001992825855,-0.8503995823857274,-2.496001779216641,70.0300000047269
bbob_f015_i03_d02,80,true,14.1421,-5.0,5.0,-5.0,5.0,-1.842399996055161,-1.00720005299212,-48.21999999999938
bbob_f015_i04_d02,90,true,14.1421,-5.0,5.0,-5.0,5.0,-3.888789274780834,-1.339119956335801,26.464959057097165
bbob_f015_i04_d02,70,true,6.1677,-5.0,-1.3887892747808341,-3.839119956335801,1.160880043664199,-3.7109473964690993,-2.435368367949019,26.46495905709858
bbob_f015_i04_d02,60,true,3.4388,-5.0,-2.638789274780834,-2.589119956335801,-0.08911995633580094,-3.710947356342825,-2.4353684935793343,26.464959057093612
bbob_f015_i04_d02,60,false,1.7678,-4.335947356342825,-3.085947356342825,-3.0603684935793343,-1.8103684935793343,-3.085313788331721,-2.5219851415520673,26.464959057107585
bbob_f015_i04_d02,60,true,0.8839,-4.023447356342825,-3.398447356342825,-2.7478684935793343,-2.1228684935793343,-3.710947353317368,-2.435368430163252,26.464959057095214
bbob_f015_i04_d02,60,true,0.4419,-3.867197356342825,-3.554697356342825,-2.5916184935793343,-2.2791184935793343,-3.7109474247214083,-2.435368470043412,26.464959057100433
bbob_f015_i04_d02,60,true,0.221,-3.789072356342825,-3.632822356342825,-2.5134934935793343,-2.3572434935793343,-3.71094737222245,-2.4353683482102078,26.464959057102305
bbob_f015_i04_d02,50,true,0.1105,-3.750009856342825,-3.671884856342825,-2.4744309935793343,-2.3963059935793343,-3.7109474804511255,-2.435368354783308,26.464959057106388
bbob_f015_i04_d02,70,true,0.0552,-3.730478606342825,-3.691416106342825,-2.4548997435793343,-2.4158372435793343,-3.7109473438672533,-2.4353684684411165,26.464959057093708
bbob_f015_i04_d02,60,true,0.0276,-3.720712981342825,-3.701181731342825,-2.4451341185793343,-2.4256028685793343,-3.7109474172395234,-2.435368356463682,26.4649590570996
bbob_f015_i04_d02,50,true,0.0138,-3.715830168842825,-3.706064543842825,-2.4402513060793343,-2.4304856810793343,-3.710947465832482,-2.4353687854807666,26.46495905721209
bbob_f015_i04_d02,40,true,0.0069,-3.713388762592825,-3.708505950092825,-2.4378098998293343,-2.4329270873293343,-3.7109472580484577,-2.4353685091244177,26.464959057100792
bbob_f015_i04_d02,40,true,0.0035,-3.712168059467825,-3.709726653217825,-2.4365891967043343,-2.4341477904543343,-3.7109470807750897,-2.4353690917300073,26.464959057199962
bbob_f015_i04_d02,40,true,0.0017,-3.711557707905325,-3.710337004780325,-2.4359788451418343,-2.4347581420168343,-3.710947331121063,-2.4353687978492125,26.46495905714538
bbob_f015_i04_d02,40,true,9.0E-4,-3.711252532124075,-3.710642180561575,-2.4356736693605843,-2.4350633177980843,-3.7109473944658933,-2.4353685633485034,26.464959057104604
bbob_f015_i04_d02,40,true,4.0E-4,-3.71109994423345,-3.7107947684522,-2.4355210814699593,-2.4352159056887093,-3.7109473503820247,-2.4353684742136457,26.464959057093488
bbob_f015_i04_d02,40,true,2.0E-4,-3.7110236443273372,-3.7108710564367122,-2.435444768158958,-2.435292180268333,-3.710947327991357,-2.4353684841455165,26.464959057093775
bbob_f015_i04_d02,40,true,1.0E-4,-3.710985497354681,-3.7109092034093685,-2.435406621186302,-2.4353303272409894,-3.710947293890862,-2.4353685934240064,26.46495905709592
bbob_f015_i04_d02,100,false,11.7508,-1.1710759630647098,5.0,-5.0,5.0,-3.085313893984213,-2.5219849478834195,26.46495905709343
bbob_f015_i04_d02,70,true,4.3636,-4.62808288475039,-1.5425449032180356,-4.064753938649597,-0.9792159571172421,-2.405882069902799,-3.661694775123569,30.44479024770981
bbob_f015_i04_d02,60,true,2.1818,-3.8566983893673017,-2.3139293986011245,-3.293369443266508,-1.750600452500331,-3.161816866293741,-1.9873226087126283,27.459918114325884
bbob_f015_i04_d02,60,false,1.0909,-3.4710061416757574,-2.6996216462926688,-2.907677195574964,-2.1362927001918752,-2.405881521818368,-3.661695278696655,30.444790247647738
bbob_f015_i04_d02,60,true,0.5455,-3.2781600178299852,-2.892467770138441,-2.7148310717291917,-2.3291388240376474,-3.085313941101834,-2.5219850936062778,26.464959057113635
bbob_f015_i04_d02,50,true,0.2727,-3.181736955907099,-2.988890832061327,-2.6184080098063056,-2.4255618859605335,-3.0853139428937046,-2.5219848766298676,26.464959057095378
bbob_f015_i04_d02,50,true,0.1364,-3.133525424945656,-3.03710236302277,-2.5701964788448626,-2.4737734169219765,-3.085314019738167,-2.521985051853109,26.464959057134422
bbob_f015_i04_d02,50,true,0.0682,-3.1094196594649346,-3.0612081285034916,-2.546090713364141,-2.497879182402698,-3.085313903187327,-2.521984962300702,26.46495905709337
bbob_f015_i04_d02,60,true,0.0341,-3.097366785927688,-3.073261020446966,-2.534037845041063,-2.509932079560341,-3.085313904773184,-2.5219849636279696,26.464959057093424
bbob_f015_i04_d02,60,true,0.017,-3.091340344557507,-3.0792874618171466,-2.5280114036708823,-2.5159585209305217,-3.0853139164689636,-2.521984924315859,26.464959057093566
bbob_f015_i04_d02,40,true,0.0085,-3.0883271238724173,-3.0823006825022365,-2.5249981829857924,-2.5189717416156117,-3.085314022621046,-2.521984895787957,26.46495905710941
bbob_f015_i04_d02,50,true,0.0043,-3.086820513529872,-3.083807292844782,-2.523491572643247,-2.520478351958157,-3.085314303212004,-2.521984169214927,26.464959057310036
bbob_f015_i04_d02,40,true,0.0021,-3.0860672083585996,-3.084560598016054,-2.5227382674719747,-2.5212316571294293,-3.0853139110523133,-2.521984932445432,26.46495905709342
bbob_f015_i04_d02,40,true,0.0011,-3.0856905557729633,-3.0849372506016906,-2.5223616148863384,-2.5216083097150657,-3.085313840334095,-2.521985051332839,26.464959057097353
bbob_f015_i04_d02,40,true,5.0E-4,-3.085502229480145,-3.0851255768945087,-2.52217328859352,-2.521796636007884,-3.0853136471387517,-2.5219852471294653,26.46495905715213
bbob_f015_i04_d02,40,true,3.0E-4,-3.085408066333736,-3.085219740040918,-2.522079125447111,-2.521890799154293,-3.0853137649658264,-2.5219852952585144,26.46495905713223
bbob_f015_i04_d02,70,false,0.495,-3.2894353402729317,-2.9320159603972917,-2.6666307667709006,-2.3241251347643552,-3.161817764159947,-1.9873219172095817,27.459918114187072
bbob_f015_i04_d02,50,true,0.2422,-3.2474441721615834,-3.0761913561583105,-2.072948325211218,-1.9016955092079453,-3.161817348047809,-1.98732247669881,27.459918114247223
bbob_f015_i04_d02,80,false,0.1211,-3.204630968160765,-3.1190045601591287,-2.0301351212104,-1.9445087132087635,-3.7848028516069876,-1.9119993080106856,25.47000000666627
bbob_f015_i05_d02,70,true,14.1421,-5.0,5.0,-5.0,5.0,-0.6958862737845272,-0.5746550196522999,-96.83016880944375
bbob_f015_i05_d02,70,true,7.0711,-3.1958862737845273,1.8041137262154727,-3.0746550196523,1.9253449803477,0.615331383509571,0.6680207233660186,-99.81504094290226
bbob_f015_i05_d02,50,true,3.5355,-0.634668616490429,1.865331383509571,-0.5819792766339814,1.9180207233660185,-0.0981601806632415,0.15580559849659809,-98.82008188581239
bbob_f015_i05_d02,70,true,1.7678,-0.00966861649042905,1.240331383509571,0.04302072336601859,1.2930207233660185,0.27986595082347754,0.8279487507064385,-96.83016880944513
bbob_f015_i05_d02,30,false,0.8839,0.30283138350957095,0.927831383509571,0.3555207233660186,0.9805207233660186,0.9920000443640298,0.4879999568582158,-100.80999999999327
bbob_f015_i71_d02,80,true,14.1421,-5.0,5.0,-5.0,5.0,-2.804965896635966,0.7595801566415683,-352.1350409428973
bbob_f015_i71_d02,70,true,6.8588,-5.0,-0.30496589663596607,-1.7404198433584317,3.2595801566415683,-2.804965713393998,0.7595801481629608,-352.13504094290425
bbob_f015_i71_d02,30,true,3.5355,-4.054965713393997,-1.5549657133939978,-0.4904198518370392,2.0095801481629607,-2.180000200172953,0.4975999431668505,-353.1299999999753
bbob_f015_i72_d02,80,true,14.1421,-5.0,5.0,-5.0,5.0,2.8495302614924243,0.41608848208523747,88.15495905709558
bbob_f015_i72_d02,60,true,6.8284,0.3495302614924243,5.0,-2.0839115179147627,2.9160884820852373,1.1071102678962246,1.6188056451135002,88.1549590570955
bbob_f015_i72_d02,60,true,3.5355,-0.14288973210377542,2.357110267896225,0.3688056451135002,2.8688056451135004,1.107110728772907,1.6188052137248814,88.15495905718701
bbob_f015_i72_d02,60,true,1.7678,0.4821102678962246,1.7321102678962246,0.9938056451135002,2.2438056451135004,1.1071103049029556,1.6188055467130007,88.15495905709375
bbob_f015_i72_d02,60,true,0.8839,0.7946103049029556,1.4196103049029556,1.3063055467130007,1.9313055467130007,1.107110038648543,1.6188058113030774,88.15495905711713
bbob_f015_i72_d02,50,true,0.4419,0.9508603049029556,1.2633603049029556,1.4625555467130007,1.7750555467130007,1.1071101708687507,1.6188055273207358,88.1549590571191
bbob_f015_i72_d02,50,true,0.221,1.0289853049029556,1.1852353049029556,1.5406805467130007,1.6969305467130007,1.107110312360907,1.6188055557159764,88.15495905709395
bbob_f015_i72_d02,50,true,0.1105,1.0680478049029556,1.1461728049029556,1.5797430467130007,1.6578680467130007,1.1071103650011032,1.6188054789094048,88.15495905709699
bbob_f015_i72_d02,60,true,0.0552,1.0875790549029556,1.1266415549029556,1.5992742967130007,1.6383367967130007,1.1071102733092193,1.6188056454441906,88.15495905709598
bbob_f015_i72_d02,50,true,0.0276,1.0973446799029556,1.1168759299029556,1.6090399217130007,1.6285711717130007,1.1071101868732567,1.618805726419293,88.15495905709874
bbob_f015_i72_d02,50,true,0.0138,1.1022274924029556,1.1119931174029556,1.6139227342130007,1.6236883592130007,1.107110298406938,1.6188056806432396,88.15495905710475
bbob_f015_i72_d02,50,true,0.0069,1.1046688986529556,1.1095517111529556,1.6163641404630007,1.6212469529630007,1.1071099468030223,1.6188060303800327,88.15495905714957
bbob_f015_i72_d02,40,true,0.0035,1.1058896017779556,1.1083310080279556,1.6175848435880007,1.6200262498380007,1.1071103188343372,1.6188055914225041,88.15495905709611
bbob_f015_i72_d02,40,true,0.0017,1.1064999533404556,1.1077206564654556,1.6181951951505007,1.6194158982755007,1.1071105819499554,1.6188051284465577,88.15495905715117
bbob_f015_i72_d02,70,true,9.0E-4,1.1068051291217056,1.1074154806842056,1.6185003709317507,1.6191107224942507,1.1071109964824875,1.6188050733210115,88.154959057352
bbob_f015_i72_d02,40,true,4.0E-4,1.1069577170123306,1.1072628927935806,1.6186529588223757,1.6189581346036257,1.107110324008991,1.6188056692070587,88.15495905710843
bbob_f015_i72_d02,40,true,2.0E-4,1.107034010957643,1.107186598848268,1.6187292527676882,1.6188818406583132,1.1071101114848152,1.6188053508082743,88.15495905723195
bbob_f015_i72_d02,40,true,1.0E-4,1.1070721579302993,1.1071484518756118,1.6187673997403444,1.618843693685657,1.1071102776283606,1.6188055775020007,88.15495905709332
bbob_f015_i72_d02,60,false,0.2596,0.9154583215977292,1.1687102876501028,1.5844948164247694,1.6416453105116147,0.9784909352708704,1.3004898345128841,89.14991811421461
bbob_f015_i72_d02,60,true,0.0404,0.9642033117491591,0.9927785587925817,1.2862022109911728,1.3147774580345954,0.9784910666814561,1.3004897975518213,89.14991811418794
bbob_f015_i72_d02,50,true,0.0202,0.9713472549206005,0.9856348784423118,1.2933459857909657,1.3076336093126768,0.978490923591363,1.3004899204667644,89.14991811420421
bbob_f015_i72_d02,50,true,0.0101,0.9749191608010284,0.9820629725618839,1.2969178916713935,1.304061703432249,0.9784910293871428,1.3004897660773937,89.14991811420106
bbob_f015_i72_d02,40,true,0.0051,0.9767051137412422,0.98027701962167,1.2987038446116073,1.3022757504920353,0.9784910512965407,1.3004898617980556,89.14991811418975
bbob_f015_i72_d02,40,true,0.0025,0.9775980902113491,0.9793840431515631,1.2995968210817144,1.3013827740219281,0.9784911877791048,1.3004899042815041,89.14991811424905
bbob_f015_i72_d02,40,true,0.0013,0.9780445784464027,0.9789375549165096,1.3000433093167678,1.3009362857868747,0.9784910366568893,1.3004898789305857,89.14991811419142
bbob_f015_i72_d02,50,true,6.0E-4,0.9782678225639294,0.9787143107989829,1.3002665534342945,1.300713041669348,0.9784911954466938,1.3004899684341522,89.14991811430416
bbob_f015_i72_d02,40,true,3.0E-4,0.9783794446226928,0.9786026887402195,1.300378175493058,1.3006014196105846,0.978491078269113,1.3004897489895773,89.14991811419338
bbob_f015_i72_d02,40,true,2.0E-4,0.9784352556520745,0.9785468777108378,1.3004339865224395,1.300545608581203,0.9784910243843138,1.3004897654585965,89.1499181142028
bbob_f015_i72_d02,40,true,1.0E-4,0.9784631611667652,0.978518972196147,1.3004618920371305,1.300517703066512,0.9784909830884979,1.3004898193252643,89.14991811420133
bbob_f015_i72_d02,60,false,0.1879,1.026999637256538,1.0802175812462824,1.3186616512258653,1.4988222297821647,1.1071102141874967,1.6188055219717086,88.15495905710729
bbob_f015_i72_d02,50,true,0.0376,1.0938057281900606,1.1204147001849327,1.6055010359742725,1.6321100079691446,1.1071104194621313,1.618805343719407,88.15495905710969
bbob_f015_i72_d02,60,true,0.0188,1.1004579711887785,1.1137624571862148,1.6121532789729904,1.6254577649704267,1.1071101042939397,1.6188056951520777,88.15495905710874
bbob_f015_i72_d02,50,true,0.0094,1.1037840926881377,1.1104363356868556,1.6154794004723496,1.6221316434710675,1.1071103082451712,1.6188054998476231,88.15495905709597
bbob_f015_i72_d02,130,true,0.4435,0.9455453711890232,1.2905273802171573,1.3893378693797331,1.668062986985309,1.1071094045569327,1.6188063389552099,88.15495905742803
bbob_f015_i72_d02,60,true,0.1971,1.0374281251555388,1.1767906839583266,1.549125059553816,1.6884876183566038,1.1071102639618915,1.6188055855976242,88.15495905709344
bbob_f015_i72_d02,50,true,0.0985,1.0722696242611944,1.1419509036625886,1.5839649458969272,1.6536462252983213,1.107110005477595,1.6188058804754717,88.1549590571246
bbob_f015_i72_d02,60,true,0.0493,1.089689944111543,1.12453058381224,1.6013852657472758,1.6362259054479726,1.107110269263398,1.6188055701691584,88.15495905709366
bbob_f015_i72_d02,50,true,0.0246,1.0984001040367173,1.1158204238870657,1.61009542567245,1.6275157455227984,1.1071098219251667,1.6188060622548663,88.15495905718099
bbob_f015_i72_d02,40,true,0.0123,1.1027551839993044,1.1114653439244786,1.6144505056350371,1.6231606655602113,1.107110031985298,1.618806012314017,88.15495905714486
bbob_f015_i72_d02,70,true,0.3515,1.061491635781185,1.2889058952869208,1.5909054066138797,1.8589715175726726,1.1071114499717556,1.618804224881486,88.15495905770803
bbob_f015_i72_d02,50,true,0.1608,1.0502578850953217,1.1639650148481895,1.5619506600050521,1.67565778975792,1.1071101254627334,1.6188058052350487,88.15495905710658
bbob_f015_i72_d02,50,true,0.0804,1.0786833430245164,1.1355369079009503,1.5903790227968317,1.6472325876732656,1.1071094966347257,1.6188067665631465,88.1549590574777
bbob_f015_i72_d02,50,true,0.0402,1.0928967342436249,1.1213235166818418,1.6045924140159402,1.6330191964541572,1.1071102601786185,1.6188056654374714,88.15495905709673
bbob_f015_i72_d02,70,false,0.1063,0.9905080527814678,1.0897350959767522,1.4328520679627637,1.4710209810541943,0.9784911098616895,1.3004898019012603,89.14991811418716
bbob_f015_i72_d02,60,true,0.027,0.9689488815888319,0.9880333381345472,1.2909475736284026,1.310032030174118,0.9784911449681406,1.3004897299847382,89.14991811418922
bbob_f015_i72_d02,40,false,10.9038,-5.0,-0.6533364623321054,-5.0,5.0,1.9664007699456618,0.989600418710724,87.16000000127842
bbob_f015_i73_d02,30,true,14.1421,-5.0,5.0,-5.0,5.0,2.331200127933567,2.363999972496159,-34.74999999998048
bbob_f015_i74_d02,40,true,14.1421,-5.0,5.0,-5.0,5.0,-3.761600600573574,-3.2287996051355945,-999.9999999998298
bbob_f015_i75_d02,60,true,14.1421,-5.0,5.0,-5.0,5.0,4.337769990992569,0.06805525158362272,-88.49016880943998
bbob_f015_i75_d02,50,true,5.9161,1.8377699909925687,5.0,-2.4319447484163774,2.5680552515836226,2.7137234697769155,-0.6476640291919892,-90.4800818858134
bbob_f015_i75_d02,50,true,3.5355,1.4637234697769155,3.9637234697769155,-1.897664029191989,0.6023359708080108,2.054336308538447,-0.465098421129989,-91.4750409429067
bbob_f015_i75_d02,60,true,1.7678,1.429336308538447,2.679336308538447,-1.090098421129989,0.159901578870011,1.437021195002908,-0.5955416502430105,-88.49016880943459
bbob_f015_i75_d02,40,true,0.8839,1.741836308538447,2.366836308538447,-0.777598421129989,-0.152598421129989,2.0543363130136583,-0.46509841940080576,-91.4750409429067
bbob_f015_i75_d02,50,true,0.4419,1.898086308538447,2.210586308538447,-0.621348421129989,-0.308848421129989,2.0543363153381335,-0.4650984229427995,-91.4750409429067
bbob_f015_i75_d02,50,true,0.221,1.976211308538447,2.132461308538447,-0.543223421129989,-0.386973421129989,2.054336320364661,-0.46509841959623627,-91.47504094290669
bbob_f015_i75_d02,40,true,0.1105,2.015273808538447,2.093398808538447,-0.504160921129989,-0.426035921129989,2.0543363111103683,-0.4650984201613759,-91.4750409429067
bbob_f015_i75_d02,40,true,0.0552,2.034805058538447,2.073867558538447,-0.484629671129989,-0.445567171129989,2.054336313367033,-0.46509842005144925,-91.4750409429067
bbob_f015_i75_d02,40,true,0.0276,2.044570683538447,2.064101933538447,-0.474864046129989,-0.455332796129989,2.0543363897960667,-0.4650984110226198,-91.47504094290497
bbob_f015_i75_d02,40,true,0.0138,2.049453496038447,2.059219121038447,-0.469981233629989,-0.460215608629989,2.0543365006742684,-0.46509844472766165,-91.47504094289579
bbob_f015_i75_d02,40,true,0.0069,2.051894902288447,2.056777714788447,-0.467539827379989,-0.462657014879989,2.054336325298518,-0.4650983999728588,-91.47504094290555
bbob_f015_i75_d02,40,true,0.0035,2.053115605413447,2.055557011663447,-0.466319124254989,-0.463877718004989,2.054336079392987,-0.46509842505964705,-91.47504094289266
bbob_f015_i75_d02,40,true,0.0017,2.053725956975947,2.054946660100947,-0.465708772692489,-0.464488069567489,2.0543363624208775,-0.46509841600419094,-91.47504094290602
bbob_f015_i75_d02,40,true,9.0E-4,2.054031132757197,2.054641484319697,-0.465403596911239,-0.464793245348739,2.05433631140453,-0.46509841890647713,-91.4750409429067
bbob_f015_i75_d02,40,true,4.0E-4,2.054183720647822,2.054488896429072,-0.465251009020614,-0.464945833239364,2.0543363036873017,-0.4650984178957669,-91.47504094290666
bbob_f015_i75_d02,40,true,2.0E-4,2.0542600145931345,2.0544126024837595,-0.4651747150753015,-0.4650221271846765,2.0543365447839066,-0.46509842816714525,-91.47504094289248
bbob_f015_i75_d02,40,true,1.0E-4,2.0542981615657907,2.054374455511103,-0.46513656810264525,-0.46506027415733275,2.0543363260951253,-0.4650984359013365,-91.47504094290609
bbob_f015_i75_d02,40,true,0.3832,1.9602524679747848,2.2401307868064078,-0.6585570216095733,-0.396813250612641,2.0543362597003934,-0.4650984035344518,-91.47504094288541
bbob_f015_i75_d02,40,true,0.1851,1.9889003169511603,2.1197722024496266,-0.5305343462836849,-0.3996624607852187,2.0543363112793696,-0.4650984212126883,-91.4750409429067
bbob_f015_i75_d02,70,true,0.5013,2.0059056757317104,2.274991025687071,-0.6749610881096867,-0.25200779155291353,2.0543360369870216,-0.4650985338127951,-91.47504094285716
bbob_f015_i75_d02,40,true,0.1903,1.9870646994981813,2.121607374475862,-0.5323698713016353,-0.3978271963239549,2.054336304656019,-0.46509842112152316,-91.47504094290669
bbob_f015_i75_d02,40,false,10.2081,-5.0,-2.9491257084254636,-5.0,5.0,2.8824000094603393,-0.20799999666669922,-92.46999999999997
bbob_f015_i76_d02,60,true,14.1421,-5.0,5.0,-5.0,5.0,-2.979999893956272,3.4824005261858457,-215.29999999988223
bbob_f015_i77_d02,50,true,14.1421,-5.0,5.0,-5.0,5.0,2.0531079493338873,-0.9693433205679901,-52.50008188581339
bbob_f015_i77_d02,40,true,7.0711,-0.4468920506661127,4.553107949333887,-3.46934332056799,1.5306566794320098,3.3879975806159717,-1.1831991453182076,-54.48999999882813
bbob_f015_i78_d02,30,true,14.1421,-5.0,5.0,-5.0,5.0,3.5823999501467743,-0.1664000038974498,50.49000000000062
bbob_f015_i79_d02,50,true,14.1421,-5.0,5.0,-5.0,5.0,-4.9388622007755725,-0.4608669631162162,-362.1400818858134
bbob_f015_i79_d02,70,true,5.6178,-5.0,-2.4388622007755725,-2.9608669631162163,2.0391330368837837,-2.5345312419122137,-0.7405855772415575,-362.1400818858094
bbob_f015_i79_d02,60,true,2.823,-5.0,-3.6888622007755725,-1.7108669631162163,0.7891330368837838,-4.463304367323671,-1.0721287983274657,-362.1400818858133
bbob_f015_i79_d02,50,true,1.4259,-5.0,-4.3138622007755725,-1.0858669631162163,0.16413303688378378,-4.4633043783876625,-1.0721287947289477,-362.1400818858132
bbob_f015_i79_d02,50,true,0.7282,-5.0,-4.6263622007755725,-0.7733669631162162,-0.14836696311621622,-4.729174166221004,-0.7666556527306088,-363.13504094290647
bbob_f015_i79_d02,60,true,0.4419,-4.885424166221004,-4.572924166221004,-0.9229056527306088,-0.6104056527306088,-4.729174163743579,-0.7666556537287477,-363.1350409429064
bbob_f015_i79_d02,60,true,0.221,-4.807299166221004,-4.651049166221004,-0.8447806527306088,-0.6885306527306088,-4.729174212209384,-0.7666556445796544,-363.13504094290465
bbob_f015_i79_d02,50,true,0.1105,-4.768236666221004,-4.690111666221004,-0.8057181527306088,-0.7275931527306088,-4.7291741848102875,-0.7666555805957693,-363.1350409428962
bbob_f015_i79_d02,50,true,0.0552,-4.748705416221004,-4.709642916221004,-0.7861869027306088,-0.7471244027306088,-4.729174149480526,-0.7666556349111072,-363.13504094290613
bbob_f015_i79_d02,100,true,0.0276,-4.738939791221004,-4.719408541221004,-0.7764212777306088,-0.7568900277306088,-4.729174108832011,-0.7666556543550878,-363.13504094290437
bbob_f015_i79_d02,60,true,0.0138,-4.734056978721004,-4.724291353721004,-0.7715384652306088,-0.7617728402306088,-4.729174148266729,-0.7666556460594576,-363.1350409429065
bbob_f015_i79_d02,60,true,0.0069,-4.731615554516729,-4.726732742016729,-0.7690970523094576,-0.7642142398094576,-4.729174160779342,-0.7666556451934876,-363.1350409429067
bbob_f015_i79_d02,50,true,0.0035,-4.730394863904342,-4.727953457654342,-0.7678763483184876,-0.7654349420684876,-4.729174195457032,-0.7666556244550208,-363.13504094290545
bbob_f015_i79_d02,50,true,0.0017,-4.729784512341842,-4.728563809216842,-0.7672659967559876,-0.7660452936309876,-4.729174164789333,-0.7666556531597769,-363.1350409429064
bbob_f015_i79_d02,40,true,9.0E-4,-4.729479336560592,-4.728868984998092,-0.7669608209747376,-0.7663504694122376,-4.729174230777348,-0.7666556544546803,-363.1350409429017
bbob_f015_i79_d02,40,true,4.0E-4,-4.729326748669967,-4.729021572888717,-0.7668082330841126,-0.7665030573028626,-4.729174154356036,-0.7666556354170513,-363.13504094290636
bbob_f015_i79_d02,40,true,2.0E-4,-4.729250454724655,-4.72909786683403,-0.7667319391388001,-0.7665793512481751,-4.729174037663014,-0.7666556097527106,-363.13504094288464
bbob_f015_i79_d02,40,true,1.0E-4,-4.7292123077519985,-4.729136013806686,-0.7666937921661439,-0.7666174982208314,-4.7291743785141085,-0.7666556121939161,-363.135040942871
bbob_f015_i79_d02,70,false,10.1509,3.2559381944736123,5.0,-5.0,5.0,-2.53453134625569,-0.740585608087059,-362.140081885799
bbob_f015_i79_d02,60,true,1.2332,-2.970546797637287,-2.0985158948740934,-1.176601059468656,-0.30457015670546206,-2.534531139386274,-0.7405856010971597,-362.1400818858124
bbob_f015_i79_d02,60,true,0.6166,-2.7525388650770726,-2.3165234136954753,-0.958593326787958,-0.5225778754063612,-2.534531152310008,-0.7405856286498395,-362.1400818858134
bbob_f015_i79_d02,60,true,0.3083,-2.643535015155407,-2.425527289464609,-0.8495894914952387,-0.6315817658044403,-2.5345311494579255,-0.7405856351597118,-362.1400818858134
bbob_f015_i79_d02,50,true,0.1542,-2.5890330837327076,-2.4800292208873085,-0.7950875600725391,-0.6860836972271398,-2.5345312281208914,-0.7405856005929407,-362.140081885811
bbob_f015_i79_d02,50,true,0.0771,-2.561782118021358,-2.507280186598658,-0.7678365943611892,-0.7133346629384897,-2.53453100406873,-0.7405855727153382,-362.1400818857972
bbob_f015_i79_d02,50,true,0.0385,-2.548156635165683,-2.5209056694543333,-0.7542111115055143,-0.7269601457941646,-2.5345310662047025,-0.7405855936143009,-362.1400818858078
bbob_f015_i79_d02,50,true,0.0193,-2.5413438937378454,-2.5277184108821706,-0.747398370077677,-0.733772887222002,-2.5345311041417085,-0.7405856937753739,-362.1400818858099
bbob_f015_i79_d02,50,true,0.0096,-2.5379375230239267,-2.5311247815960893,-0.7439919993637581,-0.7371792579359208,-2.534531247102906,-0.7405855926012183,-362.1400818858098
bbob_f015_i79_d02,40,true,0.0048,-2.5362343376669676,-2.5328279669530485,-0.7422888140067988,-0.7388824432928801,-2.5345311022070223,-0.7405857738151347,-362.14008188579396
bbob_f015_i79_d02,40,true,0.0024,-2.5353827449884876,-2.5336795596315285,-0.7414372213283191,-0.7397340359713598,-2.5345310047743803,-0.7405855052402601,-362.14008188577884
bbob_f015_i79_d02,60,false,0.4418,-3.8065446627581627,-3.3649730031901264,-0.7594223173442841,-0.7453225470132043,-3.4285846190930207,-0.8641788869474021,-363.13504094290556
bbob_f015_i79_d02,50,true,0.01,-3.432109561675791,-3.4250596765102506,-0.867703829530172,-0.8606539443646322,-3.428584477388763,-0.8641788406313295,-363.13504094290494
bbob_f015_i79_d02,20,false,0.3914,-4.800192451161946,-4.645729196912207,-0.8843632471494753,-0.5247131667376533,-3.760796975536626,-0.5983985374307794,-364.1299999955038
bbob_f015_i80_d02,80,true,14.1421,-5.0,5.0,-5.0,5.0,-2.454274172374456,-2.003701290113635,160.26495905709425
bbob_f015_i80_d02,70,true,7.0711,-4.954274172374456,0.04572582762554411,-4.503701290113635,0.49629870988636515,-1.6639970478938417,-1.4464001359388026,159.27000000699726
