<?xml version="1.0" encoding="utf-8" standalone="no"?>
<!DOCTYPE svg PUBLIC "-//W3C//DTD SVG 1.1//EN"
  "http://www.w3.org/Graphics/SVG/1.1/DTD/svg11.dtd">
<!-- Created with matplotlib (http://matplotlib.org/) -->
<svg height="407pt" version="1.1" viewBox="0 0 460 407" width="460pt" xmlns="http://www.w3.org/2000/svg" xmlns:xlink="http://www.w3.org/1999/xlink">
 <defs>
  <style type="text/css">
*{stroke-linecap:butt;stroke-linejoin:round;}
  </style>
 </defs>
 <g id="figure_1">
  <g id="patch_1">
   <path d="
M0 407.712
L460.8 407.712
L460.8 0
L0 0
z
" style="fill:#ffffff;"/>
  </g>
  <g id="axes_1">
   <g id="patch_2">
    <path d="
M7.2 352.8
L453.6 352.8
L453.6 7.2
L7.2 7.2
z
" style="fill:#ffffff;"/>
   </g>
   <g id="line2d_1">
    <path clip-path="url(#p99b4b0da67)" d="
M-1 343.675
L0.661571 343.675
L0.661571 339.113
L1.40623 339.113
L1.40623 334.55
L3.37309 334.55
L3.38423 325.426
L3.80644 325.426
L3.80644 320.863
L3.94042 320.863
L4.02635 311.739
L4.12871 311.739
L4.12871 307.176
L4.32557 307.176
L4.32557 302.614
L4.71489 302.614
L4.81147 288.927
L4.87293 288.927
L4.87293 284.364
L5.06748 284.364
L5.06748 279.802
L5.22929 279.802
L5.22929 275.24
L5.3643 275.24
L5.3643 270.677
L5.6785 270.677
L5.6785 266.115
L6.01477 266.115
L6.01477 261.552
L6.1736 261.552
L6.1736 256.99
L6.37608 256.99
L6.42407 247.865
L6.56615 247.865
L6.5944 238.741
L6.72078 238.741
L6.80585 229.616
L6.85195 229.616
L6.89449 220.491
L6.98196 220.491
L7.03411 211.366
L84.2515 211.366
L84.2875 202.242
L89.5221 202.242
L89.5221 197.679
L149.015 197.679
L149.015 193.117
L159.729 193.117
L159.729 188.554
L160.461 188.554
L160.461 183.992
L161.254 183.992
L161.254 179.43
L161.924 179.43
L161.924 174.867
L162.051 174.867
L162.051 170.305
L162.176 170.305
L162.176 165.743
L164.492 165.743
L164.492 161.18
L164.791 161.18
L164.791 156.618
L165.99 156.618
L165.99 152.055
L167.658 152.055
L167.658 147.493
L170.416 147.493
L170.416 142.931
L171.145 142.931
L171.145 138.368
L172.891 138.368
L172.891 133.806
L173.235 133.806
L173.274 124.681
L173.839 124.681
L173.839 120.119
L174.456 120.119
L174.456 115.556
L176.947 115.556
L176.947 110.994
L180.476 110.994
L180.476 106.432
L181.54 106.432
L181.54 101.869
L184.18 101.869
L184.18 97.3069
L184.361 97.3069
L184.361 92.7446
L186.34 92.7446
L186.403 83.6198
L186.524 83.6198
L186.524 79.0574
L188.189 79.0574
L188.189 74.495
L191.53 74.495
L191.53 69.9327
L192.398 69.9327
L192.398 65.3703
L194.073 65.3703
L194.073 60.8079
L217.153 60.8079
L217.153 19.7465
L225.06 19.7465
L225.06 10.6218
L225.06 10.6218
L453.6 10.6218
L453.6 10.6218" style="fill:none;stroke:#ff0000;stroke-linecap:square;stroke-width:3.0;"/>
   </g>
   <g id="line2d_2">
    <path clip-path="url(#p99b4b0da67)" d="
M241.251 352.8
L241.251 348.238
L243.785 348.238
L243.785 343.675
L244.222 343.675
L244.222 339.113
L247.145 339.113
L247.145 334.55
L248.219 334.55
L248.219 329.988
L248.703 329.988
L248.763 320.863
L249.141 320.863
L249.141 316.301
L249.946 316.301
L249.946 311.739
L250.12 311.739
L250.12 307.176
L250.416 307.176
L250.416 302.614
L251.659 302.614
L251.659 298.051
L252.24 298.051
L252.24 293.489
L252.44 293.489
L252.521 284.364
L253.778 284.364
L253.865 275.24
L254.368 275.24
L254.368 270.677
L254.67 270.677
L254.67 266.115
L255.601 266.115
L255.601 261.552
L255.93 261.552
L255.93 256.99
L256.391 256.99
L256.391 252.428
L256.76 252.428
L256.76 247.865
L257.102 247.865
L257.102 243.303
L257.784 243.303
L257.784 238.741
L258.507 238.741
L258.507 234.178
L259.254 234.178
L259.265 225.053
L259.702 225.053
L259.806 215.929
L260.335 215.929
L260.335 211.366
L260.982 211.366
L260.982 206.804
L261.204 206.804
L261.204 202.242
L261.481 202.242
L261.481 197.679
L261.714 197.679
L261.714 193.117
L261.984 193.117
L262.065 183.992
L262.995 183.992
L262.995 179.43
L263.329 179.43
L263.329 174.867
L263.537 174.867
L263.6 165.743
L263.777 165.743
L263.777 161.18
L264.683 161.18
L264.683 156.618
L265.124 156.618
L265.124 152.055
L265.609 152.055
L265.609 147.493
L266.564 147.493
L266.564 142.931
L266.744 142.931
L266.752 133.806
L267.936 133.806
L267.936 129.244
L269.097 129.244
L269.097 124.681
L269.819 124.681
L269.819 120.119
L271.128 120.119
L271.128 115.556
L271.601 115.556
L271.601 110.994
L271.95 110.994
L271.95 106.432
L272.075 106.432
L272.075 101.869
L272.308 101.869
L272.398 92.7446
L273.354 92.7446
L273.387 83.6198
L275.337 83.6198
L275.337 79.0574
L275.991 79.0574
L275.991 74.495
L277.364 74.495
L277.364 69.9327
L277.703 69.9327
L277.703 65.3703
L278.051 65.3703
L278.051 60.8079
L279.306 60.8079
L279.306 56.2455
L280.622 56.2455
L280.622 51.6832
L282.096 51.6832
L282.096 47.1208
L283.692 47.1208
L283.692 42.5584
L284.593 42.5584
L284.593 37.996
L285.998 37.996
L285.998 33.4337
L286.165 33.4337
L286.165 28.8713
L287.232 28.8713
L287.232 24.3089
L291.087 24.3089
L291.087 19.7465
L295.572 19.7465
L295.572 15.1842
L296.412 15.1842
L296.412 10.6218
L296.412 10.6218
L453.6 10.6218
L453.6 10.6218" style="fill:none;stroke:#00bfbf;stroke-linecap:square;"/>
   </g>
   <g id="line2d_3">
    <path clip-path="url(#p99b4b0da67)" d="
M235.174 352.8
L235.174 348.238
L237.44 348.238
L237.44 343.675
L240.969 343.675
L240.969 339.113
L242.231 339.113
L242.231 334.55
L243.713 334.55
L243.713 329.988
L244.031 329.988
L244.031 325.426
L244.222 325.426
L244.222 320.863
L245.293 320.863
L245.362 311.739
L246.777 311.739
L246.882 302.614
L247.145 302.614
L247.145 298.051
L247.271 298.051
L247.271 293.489
L247.813 293.489
L247.813 288.927
L248.703 288.927
L248.703 284.364
L249.141 284.364
L249.141 279.802
L249.82 279.802
L249.82 275.24
L249.946 275.24
L249.946 270.677
L250.12 270.677
L250.12 266.115
L250.395 266.115
L250.482 252.428
L251.224 252.428
L251.224 247.865
L252.24 247.865
L252.24 243.303
L252.521 243.303
L252.521 238.741
L252.738 238.741
L252.738 234.178
L253.152 234.178
L253.152 229.616
L253.778 229.616
L253.778 225.053
L254.67 225.053
L254.735 211.366
L254.843 211.366
L254.843 206.804
L255.24 206.804
L255.24 202.242
L255.511 202.242
L255.511 197.679
L256.391 197.679
L256.391 193.117
L256.76 193.117
L256.783 183.992
L257.102 183.992
L257.102 179.43
L257.58 179.43
L257.58 174.867
L258.965 174.867
L258.965 170.305
L259.254 170.305
L259.254 165.743
L259.905 165.743
L259.905 161.18
L260.335 161.18
L260.335 156.618
L260.84 156.618
L260.84 152.055
L261.481 152.055
L261.481 147.493
L261.714 147.493
L261.801 138.368
L261.984 138.368
L262.076 129.244
L262.197 129.244
L262.197 124.681
L263.111 124.681
L263.111 120.119
L263.329 120.119
L263.329 115.556
L263.767 115.556
L263.767 110.994
L263.902 110.994
L263.902 106.432
L265.124 106.432
L265.124 101.869
L265.465 101.869
L265.465 97.3069
L265.951 97.3069
L265.951 92.7446
L267.535 92.7446
L267.535 88.1822
L267.936 88.1822
L267.936 83.6198
L269.577 83.6198
L269.577 79.0574
L269.699 79.0574
L269.699 74.495
L271.601 74.495
L271.62 65.3703
L271.95 65.3703
L271.95 60.8079
L272.865 60.8079
L272.865 56.2455
L273.354 56.2455
L273.354 51.6832
L274.281 51.6832
L274.281 47.1208
L274.47 47.1208
L274.47 42.5584
L276.504 42.5584
L276.504 37.996
L278.468 37.996
L278.468 33.4337
L280.622 33.4337
L280.622 28.8713
L283.313 28.8713
L283.364 19.7465
L284.07 19.7465
L284.07 15.1842
L285.998 15.1842
L285.998 10.6218
L285.998 10.6218
L453.6 10.6218
L453.6 10.6218" style="fill:none;stroke:#bf00bf;stroke-linecap:square;"/>
   </g>
   <g id="line2d_4">
    <path clip-path="url(#p99b4b0da67)" d="
M232.871 352.8
L232.871 348.238
L235.174 348.238
L235.174 343.675
L235.766 343.675
L235.766 339.113
L237.44 339.113
L237.44 334.55
L238.294 334.55
L238.294 329.988
L239.654 329.988
L239.692 320.863
L241.838 320.863
L241.838 316.301
L242.191 316.301
L242.191 311.739
L242.525 311.739
L242.525 307.176
L243.78 307.176
L243.847 293.489
L244.142 293.489
L244.222 284.364
L244.504 284.364
L244.504 279.802
L244.953 279.802
L244.953 275.24
L245.293 275.24
L245.293 270.677
L246.193 270.677
L246.193 266.115
L246.442 266.115
L246.442 261.552
L246.777 261.552
L246.777 256.99
L247.225 256.99
L247.271 247.865
L247.435 247.865
L247.435 243.303
L248.137 243.303
L248.164 234.178
L248.281 234.178
L248.281 229.616
L248.55 229.616
L248.55 225.053
L248.703 225.053
L248.703 220.491
L250.395 220.491
L250.482 206.804
L250.676 206.804
L250.774 193.117
L251.586 193.117
L251.586 188.554
L251.917 188.554
L251.917 183.992
L252.24 183.992
L252.24 179.43
L252.748 179.43
L252.748 174.867
L252.868 174.867
L252.868 170.305
L254.281 170.305
L254.281 165.743
L254.452 165.743
L254.538 156.618
L254.843 156.618
L254.843 152.055
L255.24 152.055
L255.24 147.493
L256.783 147.493
L256.783 142.931
L257.093 142.931
L257.093 138.368
L257.679 138.368
L257.679 133.806
L257.839 133.806
L257.842 124.681
L257.961 124.681
L257.961 120.119
L258.955 120.119
L258.955 115.556
L259.254 115.556
L259.358 106.432
L259.905 106.432
L259.905 101.869
L261.256 101.869
L261.291 92.7446
L261.416 92.7446
L261.416 88.1822
L265.951 88.1822
L265.951 83.6198
L266.199 83.6198
L266.199 79.0574
L268.375 79.0574
L268.375 74.495
L269.156 74.495
L269.156 69.9327
L269.699 69.9327
L269.699 65.3703
L270.459 65.3703
L270.459 60.8079
L271.103 60.8079
L271.103 56.2455
L271.454 56.2455
L271.454 51.6832
L271.62 51.6832
L271.652 42.5584
L272.245 42.5584
L272.245 37.996
L272.433 37.996
L272.433 33.4337
L272.865 33.4337
L272.865 28.8713
L273.806 28.8713
L273.806 24.3089
L276.504 24.3089
L276.504 19.7465
L276.739 19.7465
L276.739 15.1842
L283.898 15.1842
L283.898 10.6218
L283.898 10.6218
L453.6 10.6218
L453.6 10.6218" style="fill:none;stroke:#000000;stroke-linecap:square;"/>
   </g>
   <g id="line2d_5">
    <path clip-path="url(#p99b4b0da67)" d="
M225.999 352.8
L225.999 348.238
L228.505 348.238
L228.505 343.675
L229.588 343.675
L229.674 334.55
L230.581 334.55
L230.581 329.988
L232.871 329.988
L232.871 325.426
L233.626 325.426
L233.626 320.863
L234.343 320.863
L234.383 311.739
L234.465 311.739
L234.465 307.176
L236.165 307.176
L236.198 298.051
L237.095 298.051
L237.195 288.927
L237.58 288.927
L237.58 284.364
L237.797 284.364
L237.797 279.802
L238.294 279.802
L238.294 275.24
L238.499 275.24
L238.554 266.115
L238.622 266.115
L238.711 256.99
L239.186 256.99
L239.234 247.865
L239.548 247.865
L239.654 238.741
L240.513 238.741
L240.513 234.178
L240.662 234.178
L240.662 229.616
L242.659 229.616
L242.659 225.053
L244.093 225.053
L244.093 220.491
L244.222 220.491
L244.222 215.929
L245.573 215.929
L245.573 211.366
L245.748 211.366
L245.748 206.804
L246.442 206.804
L246.443 197.679
L246.92 197.679
L246.92 193.117
L247.271 193.117
L247.271 188.554
L247.665 188.554
L247.665 183.992
L248.049 183.992
L248.069 174.867
L248.55 174.867
L248.55 170.305
L248.851 170.305
L248.899 161.18
L249.948 161.18
L249.948 156.618
L250.275 156.618
L250.275 152.055
L250.395 152.055
L250.482 142.931
L250.671 142.931
L250.671 138.368
L252.24 138.368
L252.327 124.681
L252.517 124.681
L252.517 120.119
L252.805 120.119
L252.805 115.556
L253.607 115.556
L253.607 110.994
L254.149 110.994
L254.149 106.432
L254.376 106.432
L254.376 101.869
L255.962 101.869
L255.962 97.3069
L256.276 97.3069
L256.276 92.7446
L257.961 92.7446
L257.961 88.1822
L259.219 88.1822
L259.219 83.6198
L262.297 83.6198
L262.297 79.0574
L264.978 79.0574
L264.978 74.495
L265.134 74.495
L265.134 69.9327
L265.951 69.9327
L265.951 65.3703
L266.5 65.3703
L266.5 60.8079
L268.875 60.8079
L268.984 51.6832
L269.753 51.6832
L269.856 42.5584
L270.382 42.5584
L270.382 37.996
L270.832 37.996
L270.832 33.4337
L271.475 33.4337
L271.475 28.8713
L271.652 28.8713
L271.652 24.3089
L272.692 24.3089
L272.735 15.1842
L274.736 15.1842
L274.736 10.6218
L274.736 10.6218
L453.6 10.6218
L453.6 10.6218" style="fill:none;stroke:#00bfbf;stroke-linecap:square;"/>
   </g>
   <g id="line2d_6">
    <path clip-path="url(#p99b4b0da67)" d="
M205.939 352.8
L205.939 348.238
L207.559 348.238
L207.559 343.675
L210.577 343.675
L210.577 339.113
L212.713 339.113
L212.713 334.55
L214.037 334.55
L214.037 329.988
L214.245 329.988
L214.245 325.426
L214.837 325.426
L214.837 320.863
L215.033 320.863
L215.033 316.301
L215.689 316.301
L215.689 311.739
L216.415 311.739
L216.415 307.176
L217.854 307.176
L217.854 302.614
L218.817 302.614
L218.817 298.051
L219.157 298.051
L219.157 293.489
L219.455 293.489
L219.455 288.927
L220.616 288.927
L220.695 275.24
L222.431 275.24
L222.431 270.677
L222.917 270.677
L222.917 266.115
L224.893 266.115
L224.893 261.552
L225.389 261.552
L225.395 252.428
L225.648 252.428
L225.705 238.741
L226.054 238.741
L226.054 234.178
L226.539 234.178
L226.567 225.053
L226.952 225.053
L226.952 220.491
L227.244 220.491
L227.244 215.929
L227.457 215.929
L227.457 211.366
L227.619 211.366
L227.619 206.804
L228.176 206.804
L228.176 202.242
L228.505 202.242
L228.583 193.117
L229.166 193.117
L229.166 188.554
L230.762 188.554
L230.762 183.992
L231.725 183.992
L231.725 179.43
L232.155 179.43
L232.155 174.867
L233.683 174.867
L233.683 170.305
L234.81 170.305
L234.81 165.743
L235.068 165.743
L235.068 161.18
L235.485 161.18
L235.485 156.618
L236.198 156.618
L236.198 152.055
L237.139 152.055
L237.139 147.493
L237.322 147.493
L237.322 142.931
L237.974 142.931
L237.974 138.368
L238.439 138.368
L238.439 133.806
L238.627 133.806
L238.627 129.244
L239.04 129.244
L239.04 124.681
L239.478 124.681
L239.478 120.119
L240.41 120.119
L240.41 115.556
L241.859 115.556
L241.945 106.432
L242.791 106.432
L242.791 101.869
L243.443 101.869
L243.443 97.3069
L243.607 97.3069
L243.607 92.7446
L244.591 92.7446
L244.594 83.6198
L244.785 83.6198
L244.785 79.0574
L245.008 79.0574
L245.008 74.495
L247.235 74.495
L247.235 69.9327
L249.914 69.9327
L249.914 65.3703
L250.187 65.3703
L250.247 56.2455
L251.183 56.2455
L251.183 51.6832
L252.339 51.6832
L252.339 47.1208
L252.891 47.1208
L252.959 37.996
L253.056 37.996
L253.056 33.4337
L253.893 33.4337
L253.893 28.8713
L254.11 28.8713
L254.11 24.3089
L254.635 24.3089
L254.684 15.1842
L256.413 15.1842
L256.413 10.6218
L256.413 10.6218
L453.6 10.6218
L453.6 10.6218" style="fill:none;stroke:#bf00bf;stroke-linecap:square;"/>
   </g>
   <g id="line2d_7">
    <path clip-path="url(#p99b4b0da67)" d="
M95.0463 352.8
L95.0463 348.238
L107.481 348.238
L107.481 343.675
L109.641 343.675
L109.641 339.113
L114.874 339.113
L114.874 334.55
L116.423 334.55
L116.423 329.988
L117.748 329.988
L117.748 325.426
L120.65 325.426
L120.65 320.863
L123.219 320.863
L123.219 316.301
L125.158 316.301
L125.24 307.176
L133.915 307.176
L133.915 302.614
L136.522 302.614
L136.522 298.051
L138.226 298.051
L138.226 293.489
L138.457 293.489
L138.515 279.802
L144.072 279.802
L144.072 275.24
L144.84 275.24
L144.84 270.677
L145.369 270.677
L145.369 266.115
L145.872 266.115
L145.872 261.552
L146.482 261.552
L146.482 256.99
L151.258 256.99
L151.258 252.428
L152.532 252.428
L152.532 247.865
L155.379 247.865
L155.379 243.303
L158.234 243.303
L158.234 238.741
L159.088 238.741
L159.088 234.178
L159.246 234.178
L159.246 229.616
L171.784 229.616
L171.784 225.053
L172.31 225.053
L172.31 220.491
L178.867 220.491
L178.867 215.929
L200.453 215.929
L200.453 211.366
L201.587 211.366
L201.587 206.804
L207.555 206.804
L207.555 202.242
L210.137 202.242
L210.137 197.679
L210.556 197.679
L210.556 193.117
L210.755 193.117
L210.755 188.554
L210.873 188.554
L210.873 183.992
L211.197 183.992
L211.197 179.43
L211.385 179.43
L211.385 174.867
L212.746 174.867
L212.847 165.743
L212.93 165.743
L212.93 161.18
L213.156 161.18
L213.156 156.618
L213.485 156.618
L213.485 152.055
L214.976 152.055
L214.976 147.493
L215.622 147.493
L215.622 142.931
L216.098 142.931
L216.098 138.368
L216.415 138.368
L216.415 133.806
L218.157 133.806
L218.157 129.244
L218.674 129.244
L218.674 124.681
L218.927 124.681
L218.927 120.119
L222.039 120.119
L222.039 115.556
L222.332 115.556
L222.332 110.994
L223.275 110.994
L223.275 106.432
L223.743 106.432
L223.743 101.869
L223.906 101.869
L224 92.7446
L225.737 92.7446
L225.737 88.1822
L226.231 88.1822
L226.232 79.0574
L228.677 79.0574
L228.677 74.495
L229.034 74.495
L229.034 69.9327
L230.082 69.9327
L230.082 65.3703
L230.489 65.3703
L230.489 60.8079
L230.852 60.8079
L230.86 51.6832
L230.981 51.6832
L230.981 47.1208
L231.3 47.1208
L231.3 42.5584
L233.823 42.5584
L233.928 33.4337
L234.319 33.4337
L234.319 28.8713
L234.603 28.8713
L234.603 24.3089
L236.278 24.3089
L236.278 19.7465
L237.006 19.7465
L237.006 15.1842
L237.139 15.1842
L237.139 10.6218
L237.139 10.6218
L453.6 10.6218
L453.6 10.6218" style="fill:none;stroke:#000000;stroke-linecap:square;"/>
   </g>
   <g id="line2d_8">
    <path clip-path="url(#p99b4b0da67)" d="
M-1 343.675
L0.661571 343.675
L0.661571 339.113
L3.37309 339.113
L3.38423 329.988
L3.80644 329.988
L3.80644 325.426
L3.94042 325.426
L4.02635 316.301
L4.12871 316.301
L4.12871 311.739
L4.32557 311.739
L4.32557 307.176
L4.71489 307.176
L4.81147 293.489
L4.87293 293.489
L4.87293 288.927
L5.06748 288.927
L5.06748 284.364
L5.22929 284.364
L5.22929 279.802
L5.3643 279.802
L5.3643 275.24
L5.6785 275.24
L5.6785 270.677
L6.1736 270.677
L6.1736 266.115
L6.37608 266.115
L6.42407 256.99
L6.56615 256.99
L6.5944 247.865
L6.72078 247.865
L6.80585 238.741
L6.85195 238.741
L6.89449 229.616
L6.98196 229.616
L7.03411 220.491
L90.0628 220.491
L90.0628 215.929
L113.743 215.929
L113.743 211.366
L134.405 211.366
L134.405 206.804
L143.267 206.804
L143.267 202.242
L161.925 202.242
L161.925 197.679
L163.033 197.679
L163.033 193.117
L169.329 193.117
L169.329 188.554
L172.277 188.554
L172.277 183.992
L172.732 183.992
L172.732 179.43
L174.456 179.43
L174.456 174.867
L175.798 174.867
L175.798 170.305
L175.931 170.305
L175.931 165.743
L177.739 165.743
L177.739 161.18
L178.963 161.18
L178.963 156.618
L179.994 156.618
L179.994 152.055
L181.442 152.055
L181.442 147.493
L185.67 147.493
L185.67 142.931
L186.221 142.931
L186.221 138.368
L186.656 138.368
L186.656 133.806
L189.605 133.806
L189.605 129.244
L191.904 129.244
L191.933 120.119
L194.097 120.119
L194.186 110.994
L195.853 110.994
L195.853 106.432
L195.994 106.432
L195.994 101.869
L196.501 101.869
L196.501 97.3069
L197.284 97.3069
L197.284 92.7446
L198.546 92.7446
L198.546 88.1822
L198.952 88.1822
L198.952 83.6198
L199.287 83.6198
L199.306 74.495
L201.266 74.495
L201.365 65.3703
L217.157 65.3703
L217.234 24.3089
L217.32 24.3089
L217.32 19.7465
L225.063 19.7465
L225.07 10.6218
L225.07 10.6218
L453.6 10.6218
L453.6 10.6218" style="fill:none;stroke:#00bfbf;stroke-linecap:square;"/>
   </g>
   <g id="patch_3">
    <path d="
M7.2 7.2
L453.6 7.2" style="fill:none;stroke:#000000;stroke-linecap:square;stroke-linejoin:miter;"/>
   </g>
   <g id="patch_4">
    <path d="
M453.6 352.8
L453.6 7.2" style="fill:none;stroke:#000000;stroke-linecap:square;stroke-linejoin:miter;"/>
   </g>
   <g id="patch_5">
    <path d="
M7.2 352.8
L453.6 352.8" style="fill:none;stroke:#000000;stroke-linecap:square;stroke-linejoin:miter;"/>
   </g>
   <g id="patch_6">
    <path d="
M7.2 352.8
L7.2 7.2" style="fill:none;stroke:#000000;stroke-linecap:square;stroke-linejoin:miter;"/>
   </g>
   <g id="matplotlib.axis_1">
    <g id="xtick_1"/>
    <g id="xtick_2">
     <g id="line2d_9">
      <path clip-path="url(#p99b4b0da67)" d="
M59.6175 352.8
L59.6175 7.2" style="fill:none;stroke:#000000;stroke-dasharray:1.000000,3.000000;stroke-dashoffset:0.0;stroke-width:0.5;"/>
     </g>
     <g id="line2d_10">
      <defs>
       <path d="
M0 0
L0 -4" id="m93b0483c22" style="stroke:#000000;stroke-width:0.5;"/>
      </defs>
      <g>
       <use style="stroke:#000000;stroke-width:0.5;" x="59.6174973142" xlink:href="#m93b0483c22" y="352.8"/>
      </g>
     </g>
     <g id="line2d_11">
      <defs>
       <path d="
M0 0
L0 4" id="m741efc42ff" style="stroke:#000000;stroke-width:0.5;"/>
      </defs>
      <g>
       <use style="stroke:#000000;stroke-width:0.5;" x="59.6174973142" xlink:href="#m741efc42ff" y="7.2"/>
      </g>
     </g>
     <g id="text_1">
      <!-- -6 -->
      <defs>
       <path d="
M33.0156 40.375
Q26.375 40.375 22.4844 35.8281
Q18.6094 31.2969 18.6094 23.3906
Q18.6094 15.5312 22.4844 10.9531
Q26.375 6.39062 33.0156 6.39062
Q39.6562 6.39062 43.5312 10.9531
Q47.4062 15.5312 47.4062 23.3906
Q47.4062 31.2969 43.5312 35.8281
Q39.6562 40.375 33.0156 40.375
M52.5938 71.2969
L52.5938 62.3125
Q48.875 64.0625 45.0938 64.9844
Q41.3125 65.9219 37.5938 65.9219
Q27.8281 65.9219 22.6719 59.3281
Q17.5312 52.7344 16.7969 39.4062
Q19.6719 43.6562 24.0156 45.9219
Q28.375 48.1875 33.5938 48.1875
Q44.5781 48.1875 50.9531 41.5156
Q57.3281 34.8594 57.3281 23.3906
Q57.3281 12.1562 50.6875 5.35938
Q44.0469 -1.42188 33.0156 -1.42188
Q20.3594 -1.42188 13.6719 8.26562
Q6.98438 17.9688 6.98438 36.375
Q6.98438 53.6562 15.1875 63.9375
Q23.3906 74.2188 37.2031 74.2188
Q40.9219 74.2188 44.7031 73.4844
Q48.4844 72.75 52.5938 71.2969" id="BitstreamVeraSans-Roman-36"/>
       <path d="
M4.89062 31.3906
L31.2031 31.3906
L31.2031 23.3906
L4.89062 23.3906
z
" id="BitstreamVeraSans-Roman-2d"/>
      </defs>
      <g transform="translate(50.7659348142 371.996875)scale(0.2 -0.2)">
       <use xlink:href="#BitstreamVeraSans-Roman-2d"/>
       <use x="36.083984375" xlink:href="#BitstreamVeraSans-Roman-36"/>
      </g>
     </g>
    </g>
    <g id="xtick_3">
     <g id="line2d_12">
      <path clip-path="url(#p99b4b0da67)" d="
M112.148 352.8
L112.148 7.2" style="fill:none;stroke:#000000;stroke-dasharray:1.000000,3.000000;stroke-dashoffset:0.0;stroke-width:0.5;"/>
     </g>
     <g id="line2d_13">
      <g>
       <use style="stroke:#000000;stroke-width:0.5;" x="112.148497672" xlink:href="#m93b0483c22" y="352.8"/>
      </g>
     </g>
     <g id="line2d_14">
      <g>
       <use style="stroke:#000000;stroke-width:0.5;" x="112.148497672" xlink:href="#m741efc42ff" y="7.2"/>
      </g>
     </g>
     <g id="text_2">
      <!-- -4 -->
      <defs>
       <path d="
M37.7969 64.3125
L12.8906 25.3906
L37.7969 25.3906
z

M35.2031 72.9062
L47.6094 72.9062
L47.6094 25.3906
L58.0156 25.3906
L58.0156 17.1875
L47.6094 17.1875
L47.6094 0
L37.7969 0
L37.7969 17.1875
L4.89062 17.1875
L4.89062 26.7031
z
" id="BitstreamVeraSans-Roman-34"/>
      </defs>
      <g transform="translate(103.228185172 371.996875)scale(0.2 -0.2)">
       <use xlink:href="#BitstreamVeraSans-Roman-2d"/>
       <use x="36.083984375" xlink:href="#BitstreamVeraSans-Roman-34"/>
      </g>
     </g>
    </g>
    <g id="xtick_4">
     <g id="line2d_15">
      <path clip-path="url(#p99b4b0da67)" d="
M164.679 352.8
L164.679 7.2" style="fill:none;stroke:#000000;stroke-dasharray:1.000000,3.000000;stroke-dashoffset:0.0;stroke-width:0.5;"/>
     </g>
     <g id="line2d_16">
      <g>
       <use style="stroke:#000000;stroke-width:0.5;" x="164.67949803" xlink:href="#m93b0483c22" y="352.8"/>
      </g>
     </g>
     <g id="line2d_17">
      <g>
       <use style="stroke:#000000;stroke-width:0.5;" x="164.67949803" xlink:href="#m741efc42ff" y="7.2"/>
      </g>
     </g>
     <g id="text_3">
      <!-- -2 -->
      <defs>
       <path d="
M19.1875 8.29688
L53.6094 8.29688
L53.6094 0
L7.32812 0
L7.32812 8.29688
Q12.9375 14.1094 22.625 23.8906
Q32.3281 33.6875 34.8125 36.5312
Q39.5469 41.8438 41.4219 45.5312
Q43.3125 49.2188 43.3125 52.7812
Q43.3125 58.5938 39.2344 62.25
Q35.1562 65.9219 28.6094 65.9219
Q23.9688 65.9219 18.8125 64.3125
Q13.6719 62.7031 7.8125 59.4219
L7.8125 69.3906
Q13.7656 71.7812 18.9375 73
Q24.125 74.2188 28.4219 74.2188
Q39.75 74.2188 46.4844 68.5469
Q53.2188 62.8906 53.2188 53.4219
Q53.2188 48.9219 51.5312 44.8906
Q49.8594 40.875 45.4062 35.4062
Q44.1875 33.9844 37.6406 27.2188
Q31.1094 20.4531 19.1875 8.29688" id="BitstreamVeraSans-Roman-32"/>
      </defs>
      <g transform="translate(156.19981053 371.996875)scale(0.2 -0.2)">
       <use xlink:href="#BitstreamVeraSans-Roman-2d"/>
       <use x="36.083984375" xlink:href="#BitstreamVeraSans-Roman-32"/>
      </g>
     </g>
    </g>
    <g id="xtick_5">
     <g id="line2d_18">
      <path clip-path="url(#p99b4b0da67)" d="
M217.21 352.8
L217.21 7.2" style="fill:none;stroke:#000000;stroke-dasharray:1.000000,3.000000;stroke-dashoffset:0.0;stroke-width:0.5;"/>
     </g>
     <g id="line2d_19">
      <g>
       <use style="stroke:#000000;stroke-width:0.5;" x="217.210498389" xlink:href="#m93b0483c22" y="352.8"/>
      </g>
     </g>
     <g id="line2d_20">
      <g>
       <use style="stroke:#000000;stroke-width:0.5;" x="217.210498389" xlink:href="#m741efc42ff" y="7.2"/>
      </g>
     </g>
     <g id="text_4">
      <!-- 0 -->
      <defs>
       <path d="
M31.7812 66.4062
Q24.1719 66.4062 20.3281 58.9062
Q16.5 51.4219 16.5 36.375
Q16.5 21.3906 20.3281 13.8906
Q24.1719 6.39062 31.7812 6.39062
Q39.4531 6.39062 43.2812 13.8906
Q47.125 21.3906 47.125 36.375
Q47.125 51.4219 43.2812 58.9062
Q39.4531 66.4062 31.7812 66.4062
M31.7812 74.2188
Q44.0469 74.2188 50.5156 64.5156
Q56.9844 54.8281 56.9844 36.375
Q56.9844 17.9688 50.5156 8.26562
Q44.0469 -1.42188 31.7812 -1.42188
Q19.5312 -1.42188 13.0625 8.26562
Q6.59375 17.9688 6.59375 36.375
Q6.59375 54.8281 13.0625 64.5156
Q19.5312 74.2188 31.7812 74.2188" id="BitstreamVeraSans-Roman-30"/>
      </defs>
      <g transform="translate(212.171435889 371.996875)scale(0.2 -0.2)">
       <use xlink:href="#BitstreamVeraSans-Roman-30"/>
      </g>
     </g>
    </g>
    <g id="xtick_6">
     <g id="line2d_21">
      <path clip-path="url(#p99b4b0da67)" d="
M269.741 352.8
L269.741 7.2" style="fill:none;stroke:#000000;stroke-dasharray:1.000000,3.000000;stroke-dashoffset:0.0;stroke-width:0.5;"/>
     </g>
     <g id="line2d_22">
      <g>
       <use style="stroke:#000000;stroke-width:0.5;" x="269.741498747" xlink:href="#m93b0483c22" y="352.8"/>
      </g>
     </g>
     <g id="line2d_23">
      <g>
       <use style="stroke:#000000;stroke-width:0.5;" x="269.741498747" xlink:href="#m741efc42ff" y="7.2"/>
      </g>
     </g>
     <g id="text_5">
      <!-- 2 -->
      <g transform="translate(265.113373747 371.996875)scale(0.2 -0.2)">
       <use xlink:href="#BitstreamVeraSans-Roman-32"/>
      </g>
     </g>
    </g>
    <g id="xtick_7">
     <g id="line2d_24">
      <path clip-path="url(#p99b4b0da67)" d="
M322.272 352.8
L322.272 7.2" style="fill:none;stroke:#000000;stroke-dasharray:1.000000,3.000000;stroke-dashoffset:0.0;stroke-width:0.5;"/>
     </g>
     <g id="line2d_25">
      <g>
       <use style="stroke:#000000;stroke-width:0.5;" x="322.272499105" xlink:href="#m93b0483c22" y="352.8"/>
      </g>
     </g>
     <g id="line2d_26">
      <g>
       <use style="stroke:#000000;stroke-width:0.5;" x="322.272499105" xlink:href="#m741efc42ff" y="7.2"/>
      </g>
     </g>
     <g id="text_6">
      <!-- 4 -->
      <g transform="translate(316.959999105 371.996875)scale(0.2 -0.2)">
       <use xlink:href="#BitstreamVeraSans-Roman-34"/>
      </g>
     </g>
    </g>
    <g id="xtick_8">
     <g id="line2d_27">
      <path clip-path="url(#p99b4b0da67)" d="
M374.803 352.8
L374.803 7.2" style="fill:none;stroke:#000000;stroke-dasharray:1.000000,3.000000;stroke-dashoffset:0.0;stroke-width:0.5;"/>
     </g>
     <g id="line2d_28">
      <g>
       <use style="stroke:#000000;stroke-width:0.5;" x="374.803499463" xlink:href="#m93b0483c22" y="352.8"/>
      </g>
     </g>
     <g id="line2d_29">
      <g>
       <use style="stroke:#000000;stroke-width:0.5;" x="374.803499463" xlink:href="#m741efc42ff" y="7.2"/>
      </g>
     </g>
     <g id="text_7">
      <!-- 6 -->
      <g transform="translate(369.769124463 371.996875)scale(0.2 -0.2)">
       <use xlink:href="#BitstreamVeraSans-Roman-36"/>
      </g>
     </g>
    </g>
    <g id="xtick_9">
     <g id="line2d_30">
      <path clip-path="url(#p99b4b0da67)" d="
M427.334 352.8
L427.334 7.2" style="fill:none;stroke:#000000;stroke-dasharray:1.000000,3.000000;stroke-dashoffset:0.0;stroke-width:0.5;"/>
     </g>
     <g id="line2d_31">
      <g>
       <use style="stroke:#000000;stroke-width:0.5;" x="427.334499821" xlink:href="#m93b0483c22" y="352.8"/>
      </g>
     </g>
     <g id="line2d_32">
      <g>
       <use style="stroke:#000000;stroke-width:0.5;" x="427.334499821" xlink:href="#m741efc42ff" y="7.2"/>
      </g>
     </g>
     <g id="text_8">
      <!-- 8 -->
      <defs>
       <path d="
M31.7812 34.625
Q24.75 34.625 20.7188 30.8594
Q16.7031 27.0938 16.7031 20.5156
Q16.7031 13.9219 20.7188 10.1562
Q24.75 6.39062 31.7812 6.39062
Q38.8125 6.39062 42.8594 10.1719
Q46.9219 13.9688 46.9219 20.5156
Q46.9219 27.0938 42.8906 30.8594
Q38.875 34.625 31.7812 34.625
M21.9219 38.8125
Q15.5781 40.375 12.0312 44.7188
Q8.5 49.0781 8.5 55.3281
Q8.5 64.0625 14.7188 69.1406
Q20.9531 74.2188 31.7812 74.2188
Q42.6719 74.2188 48.875 69.1406
Q55.0781 64.0625 55.0781 55.3281
Q55.0781 49.0781 51.5312 44.7188
Q48 40.375 41.7031 38.8125
Q48.8281 37.1562 52.7969 32.3125
Q56.7812 27.4844 56.7812 20.5156
Q56.7812 9.90625 50.3125 4.23438
Q43.8438 -1.42188 31.7812 -1.42188
Q19.7344 -1.42188 13.25 4.23438
Q6.78125 9.90625 6.78125 20.5156
Q6.78125 27.4844 10.7812 32.3125
Q14.7969 37.1562 21.9219 38.8125
M18.3125 54.3906
Q18.3125 48.7344 21.8438 45.5625
Q25.3906 42.3906 31.7812 42.3906
Q38.1406 42.3906 41.7188 45.5625
Q45.3125 48.7344 45.3125 54.3906
Q45.3125 60.0625 41.7188 63.2344
Q38.1406 66.4062 31.7812 66.4062
Q25.3906 66.4062 21.8438 63.2344
Q18.3125 60.0625 18.3125 54.3906" id="BitstreamVeraSans-Roman-38"/>
      </defs>
      <g transform="translate(422.334499821 371.996875)scale(0.2 -0.2)">
       <use xlink:href="#BitstreamVeraSans-Roman-38"/>
      </g>
     </g>
    </g>
    <g id="xtick_10"/>
    <g id="xtick_11">
     <g id="line2d_33">
      <defs>
       <path d="
M0 0
L0 -2" id="m177f7580d0" style="stroke:#000000;stroke-width:0.5;"/>
      </defs>
      <g>
       <use style="stroke:#000000;stroke-width:0.5;" x="59.6174973142" xlink:href="#m177f7580d0" y="352.8"/>
      </g>
     </g>
     <g id="line2d_34">
      <defs>
       <path d="
M0 0
L0 2" id="m5284c7e2a0" style="stroke:#000000;stroke-width:0.5;"/>
      </defs>
      <g>
       <use style="stroke:#000000;stroke-width:0.5;" x="59.6174973142" xlink:href="#m5284c7e2a0" y="7.2"/>
      </g>
     </g>
    </g>
    <g id="xtick_12">
     <g id="line2d_35">
      <g>
       <use style="stroke:#000000;stroke-width:0.5;" x="112.148497672" xlink:href="#m177f7580d0" y="352.8"/>
      </g>
     </g>
     <g id="line2d_36">
      <g>
       <use style="stroke:#000000;stroke-width:0.5;" x="112.148497672" xlink:href="#m5284c7e2a0" y="7.2"/>
      </g>
     </g>
    </g>
    <g id="xtick_13">
     <g id="line2d_37">
      <g>
       <use style="stroke:#000000;stroke-width:0.5;" x="164.67949803" xlink:href="#m177f7580d0" y="352.8"/>
      </g>
     </g>
     <g id="line2d_38">
      <g>
       <use style="stroke:#000000;stroke-width:0.5;" x="164.67949803" xlink:href="#m5284c7e2a0" y="7.2"/>
      </g>
     </g>
    </g>
    <g id="xtick_14">
     <g id="line2d_39">
      <g>
       <use style="stroke:#000000;stroke-width:0.5;" x="217.210498389" xlink:href="#m177f7580d0" y="352.8"/>
      </g>
     </g>
     <g id="line2d_40">
      <g>
       <use style="stroke:#000000;stroke-width:0.5;" x="217.210498389" xlink:href="#m5284c7e2a0" y="7.2"/>
      </g>
     </g>
    </g>
    <g id="xtick_15">
     <g id="line2d_41">
      <g>
       <use style="stroke:#000000;stroke-width:0.5;" x="269.741498747" xlink:href="#m177f7580d0" y="352.8"/>
      </g>
     </g>
     <g id="line2d_42">
      <g>
       <use style="stroke:#000000;stroke-width:0.5;" x="269.741498747" xlink:href="#m5284c7e2a0" y="7.2"/>
      </g>
     </g>
    </g>
    <g id="xtick_16">
     <g id="line2d_43">
      <g>
       <use style="stroke:#000000;stroke-width:0.5;" x="322.272499105" xlink:href="#m177f7580d0" y="352.8"/>
      </g>
     </g>
     <g id="line2d_44">
      <g>
       <use style="stroke:#000000;stroke-width:0.5;" x="322.272499105" xlink:href="#m5284c7e2a0" y="7.2"/>
      </g>
     </g>
    </g>
    <g id="xtick_17">
     <g id="line2d_45">
      <g>
       <use style="stroke:#000000;stroke-width:0.5;" x="374.803499463" xlink:href="#m177f7580d0" y="352.8"/>
      </g>
     </g>
     <g id="line2d_46">
      <g>
       <use style="stroke:#000000;stroke-width:0.5;" x="374.803499463" xlink:href="#m5284c7e2a0" y="7.2"/>
      </g>
     </g>
    </g>
    <g id="xtick_18">
     <g id="line2d_47">
      <g>
       <use style="stroke:#000000;stroke-width:0.5;" x="427.334499821" xlink:href="#m177f7580d0" y="352.8"/>
      </g>
     </g>
     <g id="line2d_48">
      <g>
       <use style="stroke:#000000;stroke-width:0.5;" x="427.334499821" xlink:href="#m5284c7e2a0" y="7.2"/>
      </g>
     </g>
    </g>
    <g id="text_9">
     <!-- log10 of Df -->
     <defs>
      <path id="BitstreamVeraSans-Roman-20"/>
      <path d="
M12.4062 8.29688
L28.5156 8.29688
L28.5156 63.9219
L10.9844 60.4062
L10.9844 69.3906
L28.4219 72.9062
L38.2812 72.9062
L38.2812 8.29688
L54.3906 8.29688
L54.3906 0
L12.4062 0
z
" id="BitstreamVeraSans-Roman-31"/>
      <path d="
M30.6094 48.3906
Q23.3906 48.3906 19.1875 42.75
Q14.9844 37.1094 14.9844 27.2969
Q14.9844 17.4844 19.1562 11.8438
Q23.3438 6.20312 30.6094 6.20312
Q37.7969 6.20312 41.9844 11.8594
Q46.1875 17.5312 46.1875 27.2969
Q46.1875 37.0156 41.9844 42.7031
Q37.7969 48.3906 30.6094 48.3906
M30.6094 56
Q42.3281 56 49.0156 48.375
Q55.7188 40.7656 55.7188 27.2969
Q55.7188 13.875 49.0156 6.21875
Q42.3281 -1.42188 30.6094 -1.42188
Q18.8438 -1.42188 12.1719 6.21875
Q5.51562 13.875 5.51562 27.2969
Q5.51562 40.7656 12.1719 48.375
Q18.8438 56 30.6094 56" id="BitstreamVeraSans-Roman-6f"/>
      <path d="
M9.42188 75.9844
L18.4062 75.9844
L18.4062 0
L9.42188 0
z
" id="BitstreamVeraSans-Roman-6c"/>
      <path d="
M19.6719 64.7969
L19.6719 8.10938
L31.5938 8.10938
Q46.6875 8.10938 53.6875 14.9375
Q60.6875 21.7812 60.6875 36.5312
Q60.6875 51.1719 53.6875 57.9844
Q46.6875 64.7969 31.5938 64.7969
z

M9.8125 72.9062
L30.0781 72.9062
Q51.2656 72.9062 61.1719 64.0938
Q71.0938 55.2812 71.0938 36.5312
Q71.0938 17.6719 61.125 8.82812
Q51.1719 0 30.0781 0
L9.8125 0
z
" id="BitstreamVeraSans-Roman-44"/>
      <path d="
M45.4062 27.9844
Q45.4062 37.75 41.375 43.1094
Q37.3594 48.4844 30.0781 48.4844
Q22.8594 48.4844 18.8281 43.1094
Q14.7969 37.75 14.7969 27.9844
Q14.7969 18.2656 18.8281 12.8906
Q22.8594 7.51562 30.0781 7.51562
Q37.3594 7.51562 41.375 12.8906
Q45.4062 18.2656 45.4062 27.9844
M54.3906 6.78125
Q54.3906 -7.17188 48.1875 -13.9844
Q42 -20.7969 29.2031 -20.7969
Q24.4688 -20.7969 20.2656 -20.0938
Q16.0625 -19.3906 12.1094 -17.9219
L12.1094 -9.1875
Q16.0625 -11.3281 19.9219 -12.3438
Q23.7812 -13.375 27.7812 -13.375
Q36.625 -13.375 41.0156 -8.76562
Q45.4062 -4.15625 45.4062 5.17188
L45.4062 9.625
Q42.625 4.78125 38.2812 2.39062
Q33.9375 0 27.875 0
Q17.8281 0 11.6719 7.65625
Q5.51562 15.3281 5.51562 27.9844
Q5.51562 40.6719 11.6719 48.3281
Q17.8281 56 27.875 56
Q33.9375 56 38.2812 53.6094
Q42.625 51.2188 45.4062 46.3906
L45.4062 54.6875
L54.3906 54.6875
z
" id="BitstreamVeraSans-Roman-67"/>
      <path d="
M37.1094 75.9844
L37.1094 68.5
L28.5156 68.5
Q23.6875 68.5 21.7969 66.5469
Q19.9219 64.5938 19.9219 59.5156
L19.9219 54.6875
L34.7188 54.6875
L34.7188 47.7031
L19.9219 47.7031
L19.9219 0
L10.8906 0
L10.8906 47.7031
L2.29688 47.7031
L2.29688 54.6875
L10.8906 54.6875
L10.8906 58.5
Q10.8906 67.625 15.1406 71.7969
Q19.3906 75.9844 28.6094 75.9844
z
" id="BitstreamVeraSans-Roman-66"/>
     </defs>
     <g transform="translate(175.0234375 396.353125)scale(0.2 -0.2)">
      <use xlink:href="#BitstreamVeraSans-Roman-6c"/>
      <use x="27.783203125" xlink:href="#BitstreamVeraSans-Roman-6f"/>
      <use x="88.96484375" xlink:href="#BitstreamVeraSans-Roman-67"/>
      <use x="152.44140625" xlink:href="#BitstreamVeraSans-Roman-31"/>
      <use x="216.064453125" xlink:href="#BitstreamVeraSans-Roman-30"/>
      <use x="279.6875" xlink:href="#BitstreamVeraSans-Roman-20"/>
      <use x="311.474609375" xlink:href="#BitstreamVeraSans-Roman-6f"/>
      <use x="372.65625" xlink:href="#BitstreamVeraSans-Roman-66"/>
      <use x="407.861328125" xlink:href="#BitstreamVeraSans-Roman-20"/>
      <use x="439.6484375" xlink:href="#BitstreamVeraSans-Roman-44"/>
      <use x="516.650390625" xlink:href="#BitstreamVeraSans-Roman-66"/>
     </g>
    </g>
   </g>
   <g id="matplotlib.axis_2">
    <g id="ytick_1">
     <g id="line2d_49">
      <path clip-path="url(#p99b4b0da67)" d="
M7.2 352.8
L453.6 352.8" style="fill:none;stroke:#000000;stroke-dasharray:1.000000,3.000000;stroke-dashoffset:0.0;stroke-width:0.5;"/>
     </g>
     <g id="line2d_50">
      <defs>
       <path d="
M0 0
L4 0" id="m728421d6d4" style="stroke:#000000;stroke-width:0.5;"/>
      </defs>
      <g>
       <use style="stroke:#000000;stroke-width:0.5;" x="7.2" xlink:href="#m728421d6d4" y="352.8"/>
      </g>
     </g>
     <g id="line2d_51">
      <defs>
       <path d="
M0 0
L-4 0" id="mcb0005524f" style="stroke:#000000;stroke-width:0.5;"/>
      </defs>
      <g>
       <use style="stroke:#000000;stroke-width:0.5;" x="453.6" xlink:href="#mcb0005524f" y="352.8"/>
      </g>
     </g>
    </g>
    <g id="ytick_2">
     <g id="line2d_52">
      <path clip-path="url(#p99b4b0da67)" d="
M7.2 284.364
L453.6 284.364" style="fill:none;stroke:#000000;stroke-dasharray:1.000000,3.000000;stroke-dashoffset:0.0;stroke-width:0.5;"/>
     </g>
     <g id="line2d_53">
      <g>
       <use style="stroke:#000000;stroke-width:0.5;" x="7.2" xlink:href="#m728421d6d4" y="284.364356436"/>
      </g>
     </g>
     <g id="line2d_54">
      <g>
       <use style="stroke:#000000;stroke-width:0.5;" x="453.6" xlink:href="#mcb0005524f" y="284.364356436"/>
      </g>
     </g>
    </g>
    <g id="ytick_3">
     <g id="line2d_55">
      <path clip-path="url(#p99b4b0da67)" d="
M7.2 215.929
L453.6 215.929" style="fill:none;stroke:#000000;stroke-dasharray:1.000000,3.000000;stroke-dashoffset:0.0;stroke-width:0.5;"/>
     </g>
     <g id="line2d_56">
      <g>
       <use style="stroke:#000000;stroke-width:0.5;" x="7.2" xlink:href="#m728421d6d4" y="215.928712871"/>
      </g>
     </g>
     <g id="line2d_57">
      <g>
       <use style="stroke:#000000;stroke-width:0.5;" x="453.6" xlink:href="#mcb0005524f" y="215.928712871"/>
      </g>
     </g>
    </g>
    <g id="ytick_4">
     <g id="line2d_58">
      <path clip-path="url(#p99b4b0da67)" d="
M7.2 147.493
L453.6 147.493" style="fill:none;stroke:#000000;stroke-dasharray:1.000000,3.000000;stroke-dashoffset:0.0;stroke-width:0.5;"/>
     </g>
     <g id="line2d_59">
      <g>
       <use style="stroke:#000000;stroke-width:0.5;" x="7.2" xlink:href="#m728421d6d4" y="147.493069307"/>
      </g>
     </g>
     <g id="line2d_60">
      <g>
       <use style="stroke:#000000;stroke-width:0.5;" x="453.6" xlink:href="#mcb0005524f" y="147.493069307"/>
      </g>
     </g>
    </g>
    <g id="ytick_5">
     <g id="line2d_61">
      <path clip-path="url(#p99b4b0da67)" d="
M7.2 79.0574
L453.6 79.0574" style="fill:none;stroke:#000000;stroke-dasharray:1.000000,3.000000;stroke-dashoffset:0.0;stroke-width:0.5;"/>
     </g>
     <g id="line2d_62">
      <g>
       <use style="stroke:#000000;stroke-width:0.5;" x="7.2" xlink:href="#m728421d6d4" y="79.0574257426"/>
      </g>
     </g>
     <g id="line2d_63">
      <g>
       <use style="stroke:#000000;stroke-width:0.5;" x="453.6" xlink:href="#mcb0005524f" y="79.0574257426"/>
      </g>
     </g>
    </g>
    <g id="ytick_6">
     <g id="line2d_64">
      <path clip-path="url(#p99b4b0da67)" d="
M7.2 10.6218
L453.6 10.6218" style="fill:none;stroke:#000000;stroke-dasharray:1.000000,3.000000;stroke-dashoffset:0.0;stroke-width:0.5;"/>
     </g>
     <g id="line2d_65">
      <g>
       <use style="stroke:#000000;stroke-width:0.5;" x="7.2" xlink:href="#m728421d6d4" y="10.6217821782"/>
      </g>
     </g>
     <g id="line2d_66">
      <g>
       <use style="stroke:#000000;stroke-width:0.5;" x="453.6" xlink:href="#mcb0005524f" y="10.6217821782"/>
      </g>
     </g>
    </g>
   </g>
   <g id="text_10">
    <!-- {f15-f19}, 5-D -->
    <defs>
     <path d="
M12.5 -9.28125
L15.9219 -9.28125
Q22.75 -9.28125 24.8281 -7.17188
Q26.9062 -5.07812 26.9062 1.90625
L26.9062 14.0156
Q26.9062 21.625 29.0938 25.0938
Q31.2969 28.5625 36.7188 29.8906
Q31.2969 31.1094 29.0938 34.5625
Q26.9062 38.0312 26.9062 45.7031
L26.9062 57.8125
Q26.9062 64.75 24.8281 66.875
Q22.75 69 15.9219 69
L12.5 69
L12.5 75.9844
L15.5781 75.9844
Q27.7344 75.9844 31.8125 72.3906
Q35.8906 68.7969 35.8906 58.0156
L35.8906 46.2969
Q35.8906 39.0156 38.5156 36.2031
Q41.1562 33.4062 48.0938 33.4062
L51.125 33.4062
L51.125 26.4219
L48.0938 26.4219
Q41.1562 26.4219 38.5156 23.5781
Q35.8906 20.75 35.8906 13.375
L35.8906 1.70312
Q35.8906 -9.07812 31.8125 -12.6875
Q27.7344 -16.3125 15.5781 -16.3125
L12.5 -16.3125
z
" id="BitstreamVeraSans-Roman-7d"/>
     <path d="
M10.9844 1.51562
L10.9844 10.5
Q14.7031 8.73438 18.5 7.8125
Q22.3125 6.89062 25.9844 6.89062
Q35.75 6.89062 40.8906 13.4531
Q46.0469 20.0156 46.7812 33.4062
Q43.9531 29.2031 39.5938 26.9531
Q35.25 24.7031 29.9844 24.7031
Q19.0469 24.7031 12.6719 31.3125
Q6.29688 37.9375 6.29688 49.4219
Q6.29688 60.6406 12.9375 67.4219
Q19.5781 74.2188 30.6094 74.2188
Q43.2656 74.2188 49.9219 64.5156
Q56.5938 54.8281 56.5938 36.375
Q56.5938 19.1406 48.4062 8.85938
Q40.2344 -1.42188 26.4219 -1.42188
Q22.7031 -1.42188 18.8906 -0.6875
Q15.0938 0.046875 10.9844 1.51562
M30.6094 32.4219
Q37.25 32.4219 41.125 36.9531
Q45.0156 41.5 45.0156 49.4219
Q45.0156 57.2812 41.125 61.8438
Q37.25 66.4062 30.6094 66.4062
Q23.9688 66.4062 20.0938 61.8438
Q16.2188 57.2812 16.2188 49.4219
Q16.2188 41.5 20.0938 36.9531
Q23.9688 32.4219 30.6094 32.4219" id="BitstreamVeraSans-Roman-39"/>
     <path d="
M51.125 -9.28125
L51.125 -16.3125
L48.0938 -16.3125
Q35.9375 -16.3125 31.8125 -12.6875
Q27.6875 -9.07812 27.6875 1.70312
L27.6875 13.375
Q27.6875 20.75 25.0469 23.5781
Q22.4062 26.4219 15.4844 26.4219
L12.5 26.4219
L12.5 33.4062
L15.4844 33.4062
Q22.4688 33.4062 25.0781 36.2031
Q27.6875 39.0156 27.6875 46.2969
L27.6875 58.0156
Q27.6875 68.7969 31.8125 72.3906
Q35.9375 75.9844 48.0938 75.9844
L51.125 75.9844
L51.125 69
L47.7969 69
Q40.9219 69 38.8125 66.8438
Q36.7188 64.7031 36.7188 57.8125
L36.7188 45.7031
Q36.7188 38.0312 34.5 34.5625
Q32.2812 31.1094 26.9062 29.8906
Q32.3281 28.5625 34.5156 25.0938
Q36.7188 21.625 36.7188 14.0156
L36.7188 1.90625
Q36.7188 -4.98438 38.8125 -7.125
Q40.9219 -9.28125 47.7969 -9.28125
z
" id="BitstreamVeraSans-Roman-7b"/>
     <path d="
M11.7188 12.4062
L22.0156 12.4062
L22.0156 4
L14.0156 -11.625
L7.71875 -11.625
L11.7188 4
z
" id="BitstreamVeraSans-Roman-2c"/>
     <path d="
M10.7969 72.9062
L49.5156 72.9062
L49.5156 64.5938
L19.8281 64.5938
L19.8281 46.7344
Q21.9688 47.4688 24.1094 47.8281
Q26.2656 48.1875 28.4219 48.1875
Q40.625 48.1875 47.75 41.5
Q54.8906 34.8125 54.8906 23.3906
Q54.8906 11.625 47.5625 5.09375
Q40.2344 -1.42188 26.9062 -1.42188
Q22.3125 -1.42188 17.5469 -0.640625
Q12.7969 0.140625 7.71875 1.70312
L7.71875 11.625
Q12.1094 9.23438 16.7969 8.0625
Q21.4844 6.89062 26.7031 6.89062
Q35.1562 6.89062 40.0781 11.3281
Q45.0156 15.7656 45.0156 23.3906
Q45.0156 31 40.0781 35.4375
Q35.1562 39.8906 26.7031 39.8906
Q22.75 39.8906 18.8125 39.0156
Q14.8906 38.1406 10.7969 36.2812
z
" id="BitstreamVeraSans-Roman-35"/>
    </defs>
    <g transform="translate(300.15325 345.888)scale(0.2 -0.2)">
     <use xlink:href="#BitstreamVeraSans-Roman-7b"/>
     <use x="63.623046875" xlink:href="#BitstreamVeraSans-Roman-66"/>
     <use x="98.828125" xlink:href="#BitstreamVeraSans-Roman-31"/>
     <use x="162.451171875" xlink:href="#BitstreamVeraSans-Roman-35"/>
     <use x="226.07421875" xlink:href="#BitstreamVeraSans-Roman-2d"/>
     <use x="262.158203125" xlink:href="#BitstreamVeraSans-Roman-66"/>
     <use x="297.36328125" xlink:href="#BitstreamVeraSans-Roman-31"/>
     <use x="360.986328125" xlink:href="#BitstreamVeraSans-Roman-39"/>
     <use x="424.609375" xlink:href="#BitstreamVeraSans-Roman-7d"/>
     <use x="488.232421875" xlink:href="#BitstreamVeraSans-Roman-2c"/>
     <use x="520.01953125" xlink:href="#BitstreamVeraSans-Roman-20"/>
     <use x="551.806640625" xlink:href="#BitstreamVeraSans-Roman-35"/>
     <use x="615.4296875" xlink:href="#BitstreamVeraSans-Roman-2d"/>
     <use x="651.513671875" xlink:href="#BitstreamVeraSans-Roman-44"/>
    </g>
   </g>
   <g id="text_11">
    <!-- v2.1.1.3 -->
    <defs>
     <path d="
M2.98438 54.6875
L12.5 54.6875
L29.5938 8.79688
L46.6875 54.6875
L56.2031 54.6875
L35.6875 0
L23.4844 0
z
" id="BitstreamVeraSans-Roman-76"/>
     <path d="
M40.5781 39.3125
Q47.6562 37.7969 51.625 33
Q55.6094 28.2188 55.6094 21.1875
Q55.6094 10.4062 48.1875 4.48438
Q40.7656 -1.42188 27.0938 -1.42188
Q22.5156 -1.42188 17.6562 -0.515625
Q12.7969 0.390625 7.625 2.20312
L7.625 11.7188
Q11.7188 9.32812 16.5938 8.10938
Q21.4844 6.89062 26.8125 6.89062
Q36.0781 6.89062 40.9375 10.5469
Q45.7969 14.2031 45.7969 21.1875
Q45.7969 27.6406 41.2812 31.2656
Q36.7656 34.9062 28.7188 34.9062
L20.2188 34.9062
L20.2188 43.0156
L29.1094 43.0156
Q36.375 43.0156 40.2344 45.9219
Q44.0938 48.8281 44.0938 54.2969
Q44.0938 59.9062 40.1094 62.9062
Q36.1406 65.9219 28.7188 65.9219
Q24.6562 65.9219 20.0156 65.0312
Q15.375 64.1562 9.8125 62.3125
L9.8125 71.0938
Q15.4375 72.6562 20.3438 73.4375
Q25.25 74.2188 29.5938 74.2188
Q40.8281 74.2188 47.3594 69.1094
Q53.9062 64.0156 53.9062 55.3281
Q53.9062 49.2656 50.4375 45.0938
Q46.9688 40.9219 40.5781 39.3125" id="BitstreamVeraSans-Roman-33"/>
     <path d="
M10.6875 12.4062
L21 12.4062
L21 0
L10.6875 0
z
" id="BitstreamVeraSans-Roman-2e"/>
    </defs>
    <g style="fill:#808080;" transform="translate(210.4984375 347.2643125)scale(0.1 -0.1)">
     <use xlink:href="#BitstreamVeraSans-Roman-76"/>
     <use x="59.1796875" xlink:href="#BitstreamVeraSans-Roman-32"/>
     <use x="122.802734375" xlink:href="#BitstreamVeraSans-Roman-2e"/>
     <use x="154.58984375" xlink:href="#BitstreamVeraSans-Roman-31"/>
     <use x="218.212890625" xlink:href="#BitstreamVeraSans-Roman-2e"/>
     <use x="250.0" xlink:href="#BitstreamVeraSans-Roman-31"/>
     <use x="313.623046875" xlink:href="#BitstreamVeraSans-Roman-2e"/>
     <use x="345.41015625" xlink:href="#BitstreamVeraSans-Roman-33"/>
    </g>
   </g>
  </g>
 </g>
 <defs>
  <clipPath id="p99b4b0da67">
   <rect height="345.6" width="446.4" x="7.2" y="7.2"/>
  </clipPath>
 </defs>
</svg>
