<?xml version="1.0" encoding="utf-8" standalone="no"?>
<!DOCTYPE svg PUBLIC "-//W3C//DTD SVG 1.1//EN"
  "http://www.w3.org/Graphics/SVG/1.1/DTD/svg11.dtd">
<!-- Created with matplotlib (http://matplotlib.org/) -->
<svg height="413pt" version="1.1" viewBox="0 0 523 413" width="523pt" xmlns="http://www.w3.org/2000/svg" xmlns:xlink="http://www.w3.org/1999/xlink">
 <defs>
  <style type="text/css">
*{stroke-linecap:butt;stroke-linejoin:round;}
  </style>
 </defs>
 <g id="figure_1">
  <g id="patch_1">
   <path d="
M0 413.969
L523.116 413.969
L523.116 0
L0 0
z
" style="fill:#ffffff;"/>
  </g>
  <g id="axes_1">
   <g id="patch_2">
    <path d="
M64.9219 359.056
L511.322 359.056
L511.322 13.4563
L64.9219 13.4563
z
" style="fill:#ffffff;"/>
   </g>
   <g id="line2d_1">
    <path clip-path="url(#p4b24e7e61f)" d="
M301.925 359.056
L301.925 353.353
L302.713 353.353
L302.713 347.65
L304.662 347.65
L304.662 341.947
L306.207 341.947
L306.207 336.244
L309.466 336.244
L309.466 330.541
L311.167 330.541
L311.167 324.839
L312.924 324.839
L312.924 319.136
L313.496 319.136
L313.496 313.433
L313.836 313.433
L313.836 307.73
L314.005 307.73
L314.005 302.027
L314.174 302.027
L314.174 296.324
L315.228 296.324
L315.228 290.621
L315.61 290.621
L315.61 284.918
L315.61 284.918
L315.61 279.215
L316.899 279.215
L316.899 273.512
L317.792 273.512
L317.792 267.809
L318.051 267.809
L318.051 262.106
L318.103 262.106
L318.103 256.403
L319.63 256.403
L319.63 250.7
L321.012 250.7
L321.012 244.997
L323.756 244.997
L323.756 239.294
L335.212 239.294
L335.212 233.591
L337.377 233.591
L337.377 227.888
L337.585 227.888
L337.585 222.185
L345.448 222.185
L345.448 216.482
L346.58 216.482
L346.58 210.779
L362.483 210.779
L362.483 205.076
L376.471 205.076
L376.471 199.373
L392.5 199.373
L392.5 193.67
L392.5 193.67
L392.5 193.67
L511.322 193.67" style="fill:none;stroke:#f5deb3;stroke-linecap:square;"/>
   </g>
   <g id="line2d_2">
    <path clip-path="url(#p4b24e7e61f)" d="
M471.487 359.056
L471.487 341.947
L514.044 341.947
L514.044 324.839
L520.757 324.839
L520.757 307.73
L521.567 307.73
L521.567 290.621
L521.689 290.621
L521.689 273.512
L524.116 273.512" style="fill:none;stroke:#f5deb3;stroke-linecap:square;"/>
   </g>
   <g id="line2d_3">
    <path clip-path="url(#p4b24e7e61f)" d="
M206.889 359.056
L206.889 353.353
L252.648 353.353
L252.648 347.65
L252.848 347.65
L252.848 341.947
L253.833 341.947
L253.833 336.244
L256.305 336.244
L256.305 330.541
L257.946 330.541
L257.946 324.839
L259.706 324.839
L259.706 319.136
L261.736 319.136
L261.736 313.433
L262.883 313.433
L262.883 307.73
L263.205 307.73
L263.205 302.027
L263.526 302.027
L263.526 296.324
L264.787 296.324
L264.787 290.621
L265.558 290.621
L265.558 284.918
L267.362 284.918
L267.362 279.215
L268.958 279.215
L268.958 273.512
L268.958 273.512
L268.958 267.809
L272.93 267.809
L272.93 262.106
L273.192 262.106
L273.192 256.403
L274.483 256.403
L274.483 250.7
L276.356 250.7
L276.356 244.997
L278.278 244.997
L278.278 239.294
L283.623 239.294
L283.623 233.591
L283.938 233.591
L283.938 227.888
L284.147 227.888
L284.147 222.185
L284.147 222.185
L284.147 216.482
L284.768 216.482
L284.768 210.779
L294.357 210.779
L294.357 205.076
L302.069 205.076
L302.069 199.373
L302.356 199.373
L302.356 193.67
L308.969 193.67
L308.969 187.967
L309.651 187.967
L309.651 182.264
L311.107 182.264
L311.107 176.561
L311.76 176.561
L311.76 170.858
L312.229 170.858
L312.229 165.155
L314.005 165.155
L314.005 159.452
L315.61 159.452
L315.61 153.749
L316.098 153.749
L316.098 148.046
L327.175 148.046
L327.175 142.343
L333.173 142.343
L333.173 136.641
L333.887 136.641
L333.887 130.938
L334.957 130.938
L334.957 125.235
L341.373 125.235
L341.373 119.532
L379.572 119.532
L379.572 113.829
L385.992 113.829
L385.992 108.126
L391.817 108.126
L391.817 102.423
L422.011 102.423
L422.011 96.7197
L422.131 96.7197
L422.131 91.0167
L440.606 91.0167
L440.606 85.3138
L472.891 85.3138
L472.891 79.6108
L474.423 79.6108
L474.423 73.9078
L480.23 73.9078
L480.23 68.2049
L482.086 68.2049
L482.086 62.5019
L484.851 62.5019
L484.851 56.7989
L485.92 56.7989
L485.92 51.0959
L492.139 51.0959
L492.139 45.393
L492.845 45.393
L492.845 39.69
L492.845 39.69
L492.845 39.69
L511.322 39.69" style="fill:none;stroke:#f5deb3;stroke-linecap:square;"/>
   </g>
   <g id="line2d_4">
    <path clip-path="url(#p4b24e7e61f)" d="
M265.558 359.056
L265.558 353.353
L316.42 353.353
L316.42 347.65
L317.792 347.65
L317.792 341.947
L326.003 341.947
L326.003 336.244
L326.96 336.244
L326.96 330.541
L327.217 330.541
L327.217 324.839
L327.729 324.839
L327.729 319.136
L327.898 319.136
L327.898 313.433
L327.982 313.433
L327.982 307.73
L328.024 307.73
L328.024 302.027
L328.402 302.027
L328.402 296.324
L328.652 296.324
L328.652 290.621
L328.818 290.621
L328.818 284.918
L330.487 284.918
L330.487 279.215
L330.807 279.215
L330.807 273.512
L334.185 273.512
L334.185 267.809
L335.897 267.809
L335.897 262.106
L337.447 262.106
L337.447 256.403
L338.169 256.403
L338.169 250.7
L338.374 250.7
L338.374 244.997
L339.549 244.997
L339.549 239.294
L339.682 239.294
L339.682 233.591
L339.913 233.591
L339.913 227.888
L340.697 227.888
L340.697 222.185
L342.229 222.185
L342.229 216.482
L342.291 216.482
L342.291 210.779
L344.886 210.779
L344.886 205.076
L345.828 205.076
L345.828 199.373
L347.292 199.373
L347.292 193.67
L347.321 193.67
L347.321 187.967
L347.659 187.967
L347.659 182.264
L350.941 182.264
L350.941 176.561
L353.271 176.561
L353.271 170.858
L354.675 170.858
L354.675 165.155
L356.11 165.155
L356.11 159.452
L357.55 159.452
L357.55 153.749
L357.595 153.749
L357.595 148.046
L361.754 148.046
L361.754 142.343
L362.297 142.343
L362.297 136.641
L363.687 136.641
L363.687 130.938
L366.771 130.938
L366.771 125.235
L371.556 125.235
L371.556 119.532
L374.529 119.532
L374.529 113.829
L377.723 113.829
L377.723 108.126
L381.993 108.126
L381.993 102.423
L382.02 102.423
L382.02 96.7197
L383.488 96.7197
L383.488 91.0167
L383.808 91.0167
L383.808 85.3138
L386.473 85.3138
L386.473 79.6108
L387.642 79.6108
L387.642 73.9078
L389.568 73.9078
L389.568 68.2049
L390.399 68.2049
L390.399 62.5019
L391.25 62.5019
L391.25 56.7989
L407.795 56.7989
L407.795 51.0959
L410.527 51.0959
L410.527 45.393
L420.658 45.393
L420.658 39.69
L426.976 39.69
L426.976 33.987
L430.465 33.987
L430.465 28.2841
L446.857 28.2841
L446.857 22.5811
L459.487 22.5811
L459.487 16.8781
L459.487 16.8781
L459.487 16.8781
L511.322 16.8781" style="fill:none;stroke:#f5deb3;stroke-linecap:square;"/>
   </g>
   <g id="line2d_5">
    <path clip-path="url(#p4b24e7e61f)" d="
M326.527 359.056
L326.527 353.353
L346.523 353.353
L346.523 347.65
L350.652 347.65
L350.652 341.947
L355.897 341.947
L355.897 336.244
L358.321 336.244
L358.321 330.541
L359.96 330.541
L359.96 324.839
L365.623 324.839
L365.623 319.136
L366.429 319.136
L366.429 313.433
L367.521 313.433
L367.521 307.73
L368.425 307.73
L368.425 302.027
L369.652 302.027
L369.652 296.324
L372.135 296.324
L372.135 290.621
L373.074 290.621
L373.074 284.918
L373.799 284.918
L373.799 279.215
L375.581 279.215
L375.581 273.512
L376.994 273.512
L376.994 267.809
L378.039 267.809
L378.039 262.106
L378.974 262.106
L378.974 256.403
L382.241 256.403
L382.241 250.7
L383.755 250.7
L383.755 244.997
L384.219 244.997
L384.219 239.294
L388.24 239.294
L388.24 233.591
L389.674 233.591
L389.674 227.888
L393.041 227.888
L393.041 222.185
L403.566 222.185
L403.566 216.482
L404.719 216.482
L404.719 210.779
L405.046 210.779
L405.046 205.076
L410.451 205.076
L410.451 199.373
L416.301 199.373
L416.301 193.67
L417.436 193.67
L417.436 187.967
L420.321 187.967
L420.321 182.264
L423.824 182.264
L423.824 176.561
L427.539 176.561
L427.539 170.858
L427.679 170.858
L427.679 165.155
L428.043 165.155
L428.043 159.452
L431.1 159.452
L431.1 153.749
L433.994 153.749
L433.994 148.046
L434.798 148.046
L434.798 142.343
L436.591 142.343
L436.591 136.641
L441.068 136.641
L441.068 130.938
L443.78 130.938
L443.78 125.235
L444.271 125.235
L444.271 119.532
L451.188 119.532
L451.188 113.829
L462.552 113.829
L462.552 108.126
L483.284 108.126
L483.284 102.423
L492.883 102.423
L492.883 96.7197
L524.116 96.7197" style="fill:none;stroke:#f5deb3;stroke-linecap:square;"/>
   </g>
   <g id="line2d_6"/>
   <g id="line2d_7">
    <path clip-path="url(#p4b24e7e61f)" d="
M306.405 359.056
L306.405 353.353
L309.59 353.353
L309.59 347.65
L311.642 347.65
L311.642 341.947
L350.254 341.947
L350.254 336.244
L351.721 336.244
L351.721 330.541
L352.667 330.541
L352.667 324.839
L353.817 324.839
L353.817 319.136
L354.602 319.136
L354.602 313.433
L354.65 313.433
L354.65 307.73
L355.493 307.73
L355.493 302.027
L355.779 302.027
L355.779 296.324
L356.134 296.324
L356.134 290.621
L356.134 290.621
L356.134 284.918
L356.509 284.918
L356.509 279.215
L356.742 279.215
L356.742 273.512
L356.905 273.512
L356.905 267.809
L356.951 267.809
L356.951 262.106
L357.021 262.106
L357.021 256.403
L357.251 256.403
L357.251 250.7
L357.573 250.7
L357.573 244.997
L357.664 244.997
L357.664 239.294
L358.164 239.294
L358.164 233.591
L359.014 233.591
L359.014 227.888
L359.147 227.888
L359.147 222.185
L359.324 222.185
L359.324 216.482
L360.285 216.482
L360.285 210.779
L360.328 210.779
L360.328 205.076
L360.371 205.076
L360.371 199.373
L361.121 199.373
L361.121 193.67
L362.915 193.67
L362.915 187.967
L365.874 187.967
L365.874 182.264
L366.143 182.264
L366.143 176.561
L368.169 176.561
L368.169 170.858
L370.272 170.858
L370.272 165.155
L370.64 165.155
L370.64 159.452
L370.779 159.452
L370.779 153.749
L371.022 153.749
L371.022 148.046
L372.556 148.046
L372.556 142.343
L373.239 142.343
L373.239 136.641
L373.569 136.641
L373.569 130.938
L374.722 130.938
L374.722 125.235
L376.564 125.235
L376.564 119.532
L397.749 119.532
L397.749 113.829
L401.553 113.829
L401.553 108.126
L406.432 108.126
L406.432 102.423
L408.046 102.423
L408.046 96.7197
L415.603 96.7197
L415.603 91.0167
L416.794 91.0167
L416.794 85.3138
L421.817 85.3138
L421.817 79.6108
L428.626 79.6108
L428.626 73.9078
L438.711 73.9078
L438.711 68.2049
L440.457 68.2049
L440.457 62.5019
L450.021 62.5019
L450.021 56.7989
L460.65 56.7989
L460.65 51.0959
L466.02 51.0959
L466.02 45.393
L469.091 45.393
L469.091 39.69
L488.157 39.69
L488.157 33.987
L496.808 33.987
L496.808 28.2841
L524.116 28.2841" style="fill:none;stroke:#f5deb3;stroke-linecap:square;"/>
   </g>
   <g id="line2d_8">
    <path clip-path="url(#p4b24e7e61f)" d="
M460.514 359.056
L460.514 353.353
L460.721 353.353
L460.721 347.65
L463.381 347.65
L463.381 341.947
L464.863 341.947
L464.863 336.244
L465.062 336.244
L465.062 330.541
L465.864 330.541
L465.864 324.839
L466.151 324.839
L466.151 319.136
L468.263 319.136
L468.263 313.433
L469.762 313.433
L469.762 307.73
L470.105 307.73
L470.105 302.027
L470.286 302.027
L470.286 296.324
L470.888 296.324
L470.888 290.621
L472.241 290.621
L472.241 284.918
L512.503 284.918
L512.503 279.215
L513.422 279.215
L513.422 273.512
L514.226 273.512
L514.226 267.809
L514.569 267.809
L514.569 262.106
L514.765 262.106
L514.765 256.403
L515.214 256.403
L515.214 250.7
L515.775 250.7
L515.775 244.997
L516.094 244.997
L516.094 239.294
L516.253 239.294
L516.253 233.591
L516.312 233.591
L516.312 227.888
L516.67 227.888
L516.67 222.185
L516.953 222.185
L516.953 216.482
L517.273 216.482
L517.273 210.779
L517.794 210.779
L517.794 205.076
L518.689 205.076
L518.689 199.373
L524.116 199.373" style="fill:none;stroke:#f5deb3;stroke-linecap:square;"/>
   </g>
   <g id="line2d_9">
    <path clip-path="url(#p4b24e7e61f)" d="
M274.737 359.056
L274.737 353.353
L296.18 353.353
L296.18 347.65
L308.467 347.65
L308.467 341.947
L327.982 341.947
L327.982 336.244
L331.005 336.244
L331.005 330.541
L331.791 330.541
L331.791 324.839
L332.831 324.839
L332.831 319.136
L333.021 319.136
L333.021 313.433
L340.665 313.433
L340.665 307.73
L342.103 307.73
L342.103 302.027
L345.123 302.027
L345.123 296.324
L345.3 296.324
L345.3 290.621
L345.594 290.621
L345.594 284.918
L348.05 284.918
L348.05 279.215
L348.078 279.215
L348.078 273.512
L348.741 273.512
L348.741 267.809
L349.015 267.809
L349.015 262.106
L349.205 262.106
L349.205 256.403
L349.287 256.403
L349.287 250.7
L349.503 250.7
L349.503 244.997
L349.773 244.997
L349.773 239.294
L350.014 239.294
L350.014 233.591
L350.068 233.591
L350.068 227.888
L351.437 227.888
L351.437 222.185
L351.721 222.185
L351.721 216.482
L351.902 216.482
L351.902 210.779
L352.718 210.779
L352.718 205.076
L353.17 205.076
L353.17 199.373
L353.52 199.373
L353.52 193.67
L354.529 193.67
L354.529 187.967
L354.577 187.967
L354.577 182.264
L354.747 182.264
L354.747 176.561
L354.796 176.561
L354.796 170.858
L355.541 170.858
L355.541 165.155
L355.755 165.155
L355.755 159.452
L356.298 159.452
L356.298 153.749
L357.481 153.749
L357.481 148.046
L358.073 148.046
L358.073 142.343
L358.118 142.343
L358.118 136.641
L358.725 136.641
L358.725 130.938
L359.059 130.938
L359.059 125.235
L359.258 125.235
L359.258 119.532
L359.763 119.532
L359.763 113.829
L360.198 113.829
L360.198 108.126
L361.291 108.126
L361.291 102.423
L361.922 102.423
L361.922 96.7197
L362.11 96.7197
L362.11 91.0167
L362.669 91.0167
L362.669 85.3138
L363.586 85.3138
L363.586 79.6108
L365.234 79.6108
L365.234 73.9078
L365.797 73.9078
L365.797 68.2049
L369.42 68.2049
L369.42 62.5019
L369.545 62.5019
L369.545 56.7989
L369.581 56.7989
L369.581 51.0959
L372.991 51.0959
L372.991 45.393
L376.471 45.393
L376.471 39.69
L380.407 39.69
L380.407 33.987
L381.535 33.987
L381.535 28.2841
L399.932 28.2841
L399.932 22.5811
L404.259 22.5811
L404.259 16.8781
L404.259 16.8781
L404.259 16.8781
L511.322 16.8781" style="fill:none;stroke:#f5deb3;stroke-linecap:square;"/>
   </g>
   <g id="line2d_10">
    <path clip-path="url(#p4b24e7e61f)" d="
M429.74 359.056
L429.74 353.353
L448.721 353.353
L448.721 347.65
L457.178 347.65
L457.178 341.947
L466.48 341.947
L466.48 336.244
L474.068 336.244
L474.068 330.541
L480.567 330.541
L480.567 324.839
L487.187 324.839
L487.187 319.136
L488.466 319.136
L488.466 313.433
L489.363 313.433
L489.363 307.73
L496.165 307.73
L496.165 302.027
L498.533 302.027
L498.533 296.324
L524.116 296.324" style="fill:none;stroke:#f5deb3;stroke-linecap:square;"/>
   </g>
   <g id="line2d_11">
    <path clip-path="url(#p4b24e7e61f)" d="
M276.356 359.056
L276.356 353.353
L319.379 353.353
L319.379 347.65
L321.881 347.65
L321.881 341.947
L323.201 341.947
L323.201 336.244
L328.276 336.244
L328.276 330.541
L329.883 330.541
L329.883 324.839
L333.4 324.839
L333.4 319.136
L333.588 319.136
L333.588 313.433
L335.933 313.433
L335.933 307.73
L336.466 307.73
L336.466 302.027
L337.551 302.027
L337.551 296.324
L338.169 296.324
L338.169 290.621
L348.355 290.621
L348.355 284.918
L354.989 284.918
L354.989 279.215
L364.605 279.215
L364.605 273.512
L364.763 273.512
L364.763 267.809
L385.468 267.809
L385.468 262.106
L515.344 262.106
L515.344 256.403
L517.528 256.403
L517.528 250.7
L524.116 250.7" style="fill:none;stroke:#f5deb3;stroke-linecap:square;"/>
   </g>
   <g id="line2d_12">
    <path clip-path="url(#p4b24e7e61f)" d="
M260.221 359.056
L260.221 353.353
L266.016 353.353
L266.016 347.65
L267.803 347.65
L267.803 341.947
L268.672 341.947
L268.672 336.244
L268.672 336.244
L268.672 330.541
L272.001 330.541
L272.001 324.839
L273.583 324.839
L273.583 319.136
L273.583 319.136
L273.583 313.433
L274.355 313.433
L274.355 307.73
L276.601 307.73
L276.601 302.027
L277.326 302.027
L277.326 296.324
L278.746 296.324
L278.746 290.621
L278.746 290.621
L278.746 284.918
L285.281 284.918
L285.281 279.215
L285.888 279.215
L285.888 273.512
L285.888 273.512
L285.888 267.809
L286.488 267.809
L286.488 262.106
L288.816 262.106
L288.816 256.403
L289.38 256.403
L289.38 250.7
L290.491 250.7
L290.491 244.997
L292.11 244.997
L292.11 239.294
L296.666 239.294
L296.666 233.591
L298.094 233.591
L298.094 227.888
L306.273 227.888
L306.273 222.185
L309.343 222.185
L309.343 216.482
L312.578 216.482
L312.578 210.779
L312.578 210.779
L312.578 205.076
L312.924 205.076
L312.924 199.373
L317.844 199.373
L317.844 193.67
L353.941 193.67
L353.941 187.967
L366.733 187.967
L366.733 182.264
L412.493 182.264
L412.493 176.561
L443.587 176.561
L443.587 170.858
L481.556 170.858
L481.556 165.155
L486.002 165.155
L486.002 159.452
L524.116 159.452" style="fill:none;stroke:#f5deb3;stroke-linecap:square;"/>
   </g>
   <g id="line2d_13">
    <path clip-path="url(#p4b24e7e61f)" d="
M378.293 359.056
L378.293 353.353
L382.282 353.353
L382.282 347.65
L391.67 347.65
L391.67 341.947
L391.67 341.947
L391.67 336.244
L398.95 336.244
L398.95 330.541
L403.716 330.541
L403.716 324.839
L403.716 324.839
L403.716 319.136
L419.982 319.136
L419.982 313.433
L419.982 313.433
L419.982 307.73
L422.509 307.73
L422.509 302.027
L422.509 302.027
L422.509 296.324
L426.356 296.324
L426.356 290.621
L428.155 290.621
L428.155 284.918
L428.547 284.918
L428.547 279.215
L432.729 279.215
L432.729 273.512
L432.729 273.512
L432.729 273.512
L511.322 273.512" style="fill:none;stroke:#f5deb3;stroke-linecap:square;"/>
   </g>
   <g id="line2d_14">
    <path clip-path="url(#p4b24e7e61f)" d="
M297.858 359.056
L297.858 353.353
L302.57 353.353
L302.57 347.65
L316.205 347.65
L316.205 341.947
L320.128 341.947
L320.128 336.244
L323.433 336.244
L323.433 330.541
L325.117 330.541
L325.117 324.839
L327.94 324.839
L327.94 319.136
L331.478 319.136
L331.478 313.433
L333.135 313.433
L333.135 307.73
L337.238 307.73
L337.238 302.027
L337.447 302.027
L337.447 296.324
L337.998 296.324
L337.998 290.621
L339.149 290.621
L339.149 284.918
L341.565 284.918
L341.565 279.215
L343.956 279.215
L343.956 273.512
L349.53 273.512
L349.53 267.809
L351.229 267.809
L351.229 262.106
L352.54 262.106
L352.54 256.403
L357.067 256.403
L357.067 250.7
L361.333 250.7
L361.333 244.997
L366.771 244.997
L366.771 239.294
L367.035 239.294
L367.035 233.591
L367.484 233.591
L367.484 227.888
L372.388 227.888
L372.388 222.185
L372.69 222.185
L372.69 216.482
L373.438 216.482
L373.438 210.779
L379.92 210.779
L379.92 205.076
L385.352 205.076
L385.352 199.373
L389.462 199.373
L389.462 193.67
L393.837 193.67
L393.837 187.967
L396.24 187.967
L396.24 182.264
L399.837 182.264
L399.837 176.561
L402.547 176.561
L402.547 170.858
L410.135 170.858
L410.135 165.155
L412.983 165.155
L412.983 159.452
L419.067 159.452
L419.067 153.749
L425.273 153.749
L425.273 148.046
L430.211 148.046
L430.211 142.343
L480.142 142.343
L480.142 136.641
L480.575 136.641
L480.575 130.938
L485.752 130.938
L485.752 125.235
L495.376 125.235
L495.376 119.532
L502.17 119.532
L502.17 113.829
L502.17 113.829
L502.17 113.829
L511.322 113.829" style="fill:none;stroke:#f5deb3;stroke-linecap:square;"/>
   </g>
   <g id="line2d_15">
    <path clip-path="url(#p4b24e7e61f)" d="
M519.009 359.056
L519.009 353.353
L524.116 353.353" style="fill:none;stroke:#f5deb3;stroke-linecap:square;"/>
   </g>
   <g id="line2d_16">
    <path clip-path="url(#p4b24e7e61f)" d="
M457.286 359.056
L457.286 353.353
L458.446 353.353
L458.446 347.65
L468.676 347.65
L468.676 341.947
L468.853 341.947
L468.853 336.244
L471.521 336.244
L471.521 330.541
L471.94 330.541
L471.94 324.839
L477.573 324.839
L477.573 319.136
L477.659 319.136
L477.659 313.433
L493.943 313.433
L493.943 307.73
L495.118 307.73
L495.118 302.027
L496.723 302.027
L496.723 296.324
L501.68 296.324
L501.68 290.621
L509.427 290.621
L509.427 284.918
L524.116 284.918" style="fill:none;stroke:#f5deb3;stroke-linecap:square;"/>
   </g>
   <g id="line2d_17">
    <path clip-path="url(#p4b24e7e61f)" d="
M383.179 359.056
L383.179 353.353
L404.39 353.353
L404.39 347.65
L406.323 347.65
L406.323 341.947
L407.665 341.947
L407.665 336.244
L410.019 336.244
L410.019 330.541
L410.259 330.541
L410.259 324.839
L410.451 324.839
L410.451 319.136
L411.52 319.136
L411.52 313.433
L412.735 313.433
L412.735 307.73
L413.432 307.73
L413.432 302.027
L413.504 302.027
L413.504 296.324
L414.409 296.324
L414.409 290.621
L419.723 290.621
L419.723 284.918
L420.415 284.918
L420.415 279.215
L429.93 279.215
L429.93 273.512
L433.521 273.512
L433.521 267.809
L446.469 267.809
L446.469 262.106
L449.49 262.106
L449.49 256.403
L452.473 256.403
L452.473 250.7
L453.624 250.7
L453.624 244.997
L454.083 244.997
L454.083 239.294
L454.462 239.294
L454.462 233.591
L454.797 233.591
L454.797 227.888
L456.416 227.888
L456.416 222.185
L456.78 222.185
L456.78 216.482
L456.815 216.482
L456.815 210.779
L456.977 210.779
L456.977 205.076
L458.335 205.076
L458.335 199.373
L459.085 199.373
L459.085 193.67
L459.387 193.67
L459.387 187.967
L459.911 187.967
L459.911 182.264
L460.391 182.264
L460.391 176.561
L460.552 176.561
L460.552 170.858
L461.258 170.858
L461.258 165.155
L461.293 165.155
L461.293 159.452
L462.08 159.452
L462.08 153.749
L462.847 153.749
L462.847 148.046
L463.435 148.046
L463.435 142.343
L465.492 142.343
L465.492 136.641
L465.966 136.641
L465.966 130.938
L466.655 130.938
L466.655 125.235
L467.375 125.235
L467.375 119.532
L467.54 119.532
L467.54 113.829
L468.732 113.829
L468.732 108.126
L472.741 108.126
L472.741 102.423
L497.847 102.423
L497.847 96.7197
L502.87 96.7197
L502.87 91.0167
L503.525 91.0167
L503.525 85.3138
L503.723 85.3138
L503.723 79.6108
L505.357 79.6108
L505.357 73.9078
L506.275 73.9078
L506.275 68.2049
L508.479 68.2049
L508.479 62.5019
L508.608 62.5019
L508.608 56.7989
L510.341 56.7989
L510.341 51.0959
L510.896 51.0959
L510.896 45.393
L513.416 45.393
L513.416 39.69
L516.595 39.69
L516.595 33.987
L517.961 33.987
L517.961 28.2841
L518.536 28.2841
L518.536 22.5811
L518.912 22.5811
L518.912 16.8781
L518.912 16.8781" style="fill:none;stroke:#f5deb3;stroke-linecap:square;"/>
   </g>
   <g id="line2d_18">
    <path clip-path="url(#p4b24e7e61f)" d="
M265.558 359.056
L265.558 353.353
L265.711 353.353
L265.711 347.65
L267.362 347.65
L267.362 341.947
L269.807 341.947
L269.807 336.244
L272.401 336.244
L272.401 330.541
L272.93 330.541
L272.93 324.839
L273.583 324.839
L273.583 319.136
L274.737 319.136
L274.737 313.433
L275.987 313.433
L275.987 307.73
L277.086 307.73
L277.086 302.027
L278.512 302.027
L278.512 296.324
L278.746 296.324
L278.746 290.621
L281.135 290.621
L281.135 284.918
L281.796 284.918
L281.796 279.215
L282.015 279.215
L282.015 273.512
L284.147 273.512
L284.147 267.809
L284.147 267.809
L284.147 262.106
L285.382 262.106
L285.382 256.403
L286.587 256.403
L286.587 250.7
L289.005 250.7
L289.005 244.997
L291.037 244.997
L291.037 239.294
L296.261 239.294
L296.261 233.591
L303.767 233.591
L303.767 227.888
L310.263 227.888
L310.263 222.185
L311.464 222.185
L311.464 216.482
L317.844 216.482
L317.844 210.779
L321.448 210.779
L321.448 205.076
L321.593 205.076
L321.593 199.373
L331.321 199.373
L331.321 193.67
L335.502 193.67
L335.502 187.967
L346.032 187.967
L346.032 182.264
L368.952 182.264
L368.952 176.561
L376.502 176.561
L376.502 170.858
L385.443 170.858
L385.443 165.155
L386.924 165.155
L386.924 159.452
L388.891 159.452
L388.891 153.749
L389.663 153.749
L389.663 148.046
L391.851 148.046
L391.851 142.343
L392.478 142.343
L392.478 136.641
L394.406 136.641
L394.406 130.938
L395.505 130.938
L395.505 125.235
L398.931 125.235
L398.931 119.532
L401.081 119.532
L401.081 113.829
L405.336 113.829
L405.336 108.126
L425.516 108.126
L425.516 102.423
L425.516 102.423
L425.516 102.423
L511.322 102.423" style="fill:none;stroke:#f5deb3;stroke-linecap:square;"/>
   </g>
   <g id="line2d_19">
    <path clip-path="url(#p4b24e7e61f)" d="
M439.259 359.056
L439.259 357.155
L439.259 357.155
L439.259 357.155
L439.259 355.254
L439.259 355.254
L439.259 355.254
L439.259 353.353
L440.027 353.353
L440.027 347.65
L444.164 347.65
L444.164 341.947
L449.893 341.947
L449.893 336.244
L454.074 336.244
L454.074 330.541
L456.626 330.541
L456.626 324.839
L456.891 324.839
L456.894 313.433
L457.788 313.433
L457.788 307.73
L458.029 307.73
L458.029 302.027
L459.565 302.027
L459.565 296.324
L461.217 296.324
L461.217 290.621
L467.862 290.621
L467.862 284.918
L473.574 284.918
L473.574 279.215
L474.792 279.215
L474.792 273.512
L502.649 273.512
L502.649 267.809
L503.745 267.809
L503.745 262.106
L505.793 262.106
L505.793 256.403
L510.309 256.403
L510.309 250.7
L513.31 250.7
L513.31 244.997
L513.935 244.997
L513.935 239.294
L515.61 239.294
L515.61 233.591
L517.289 233.591
L517.289 227.888
L519.417 227.888
L519.417 222.185
L520.902 222.185
L520.902 216.482
L521.416 216.482
L521.416 210.779
L521.62 210.779
L521.62 205.076
L523.107 205.076
L523.107 199.373
L523.577 199.373
L523.577 193.67
L524.116 193.67
L524.116 193.67" style="fill:none;stroke:#f5deb3;stroke-linecap:square;"/>
   </g>
   <g id="line2d_20">
    <path clip-path="url(#p4b24e7e61f)" d="
M285.484 359.056
L285.484 353.353
L289.846 353.353
L289.846 347.65
L291.666 347.65
L291.666 341.947
L295.36 341.947
L295.36 336.244
L296.746 336.244
L296.746 330.541
L297.543 330.541
L297.543 324.839
L298.015 324.839
L298.015 319.136
L298.56 319.136
L298.56 313.433
L300.009 313.433
L300.009 307.73
L300.533 307.73
L300.533 302.027
L304.526 302.027
L304.526 296.324
L305.138 296.324
L305.138 290.621
L306.273 290.621
L306.273 284.918
L307.318 284.918
L307.318 279.215
L307.383 279.215
L307.383 273.512
L308.151 273.512
L308.151 267.809
L308.278 267.809
L308.278 262.106
L312.053 262.106
L312.053 256.403
L314.342 256.403
L314.342 250.7
L317.374 250.7
L317.374 244.997
L319.328 244.997
L319.328 239.294
L323.848 239.294
L323.848 233.591
L324.351 233.591
L324.351 227.888
L332.179 227.888
L332.179 222.185
L334.222 222.185
L334.222 216.482
L336.854 216.482
L336.854 210.779
L339.649 210.779
L339.649 205.076
L342.323 205.076
L342.323 199.373
L348.604 199.373
L348.604 193.67
L351.979 193.67
L351.979 187.967
L391.159 187.967
L391.159 182.264
L398.304 182.264
L398.304 176.561
L404.276 176.561
L404.276 170.858
L420.564 170.858
L420.564 165.155
L423.186 165.155
L423.186 159.452
L436.832 159.452
L436.832 153.749
L450.757 153.749
L450.757 148.046
L451.835 148.046
L451.835 142.343
L454.418 142.343
L454.418 136.641
L466.789 136.641
L466.789 130.938
L467.772 130.938
L467.772 125.235
L473.198 125.235
L473.198 119.532
L474.015 119.532
L474.015 113.829
L478.878 113.829
L478.878 108.126
L479.867 108.126
L479.867 102.423
L481.689 102.423
L481.689 96.7197
L488.316 96.7197
L488.316 91.0167
L492.186 91.0167
L492.186 85.3138
L495.605 85.3138
L495.605 79.6108
L523.884 79.6108
L523.884 73.9078
L524.116 73.9078" style="fill:none;stroke:#f5deb3;stroke-linecap:square;"/>
   </g>
   <g id="line2d_21"/>
   <g id="line2d_22">
    <path clip-path="url(#p4b24e7e61f)" d="
M276.111 359.056
L276.111 353.353
L279.326 353.353
L279.326 347.65
L279.556 347.65
L279.556 341.947
L284.355 341.947
L284.355 336.244
L289.753 336.244
L289.753 330.541
L290.124 330.541
L290.124 324.839
L291.217 324.839
L291.217 319.136
L292.987 319.136
L292.987 313.433
L294.694 313.433
L294.694 307.73
L297.385 307.73
L297.385 302.027
L298.638 302.027
L298.638 296.324
L303.278 296.324
L303.278 290.621
L303.488 290.621
L303.488 284.918
L310.08 284.918
L310.08 279.215
L315.008 279.215
L315.008 273.512
L317.688 273.512
L317.688 267.809
L318.258 267.809
L318.258 262.106
L319.78 262.106
L319.78 256.403
L322.072 256.403
L322.072 250.7
L322.968 250.7
L322.968 244.997
L324.305 244.997
L324.305 239.294
L325.915 239.294
L325.915 233.591
L328.234 233.591
L328.234 227.888
L353.07 227.888
L353.07 222.185
L353.47 222.185
L353.47 216.482
L365.661 216.482
L365.661 210.779
L369.402 210.779
L369.402 205.076
L371.812 205.076
L371.812 199.373
L373.272 199.373
L373.272 193.67
L374.384 193.67
L374.384 187.967
L375.312 187.967
L375.312 182.264
L377.648 182.264
L377.648 176.561
L379.179 176.561
L379.179 170.858
L381.326 170.858
L381.326 165.155
L393.609 165.155
L393.609 159.452
L393.945 159.452
L393.945 153.749
L397.659 153.749
L397.659 148.046
L399.183 148.046
L399.183 142.343
L404.546 142.343
L404.546 136.641
L407.592 136.641
L407.592 130.938
L409.302 130.938
L409.302 125.235
L411.782 125.235
L411.782 119.532
L412.661 119.532
L412.661 113.829
L414.012 113.829
L414.012 108.126
L416.942 108.126
L416.942 102.423
L431.84 102.423
L431.84 96.7197
L497.109 96.7197
L497.109 91.0167
L524.116 91.0167" style="fill:none;stroke:#f5deb3;stroke-linecap:square;"/>
   </g>
   <g id="line2d_23">
    <path clip-path="url(#p4b24e7e61f)" d="
M405.353 359.056
L405.353 353.353
L427.421 353.353
L427.421 347.65
L446.199 347.65
L446.199 341.947
L453.853 341.947
L453.853 336.244
L454.22 336.244
L454.22 330.541
L454.48 330.541
L454.48 324.839
L454.659 324.839
L454.659 319.136
L454.834 319.136
L454.834 313.433
L455.808 313.433
L455.808 307.73
L456.437 307.73
L456.437 302.027
L456.791 302.027
L456.791 296.324
L457.143 296.324
L457.143 290.621
L458.127 290.621
L458.127 284.918
L459.087 284.918
L459.087 279.215
L459.247 279.215
L459.247 273.512
L460.04 273.512
L460.04 267.809
L461.056 267.809
L461.056 262.106
L465.927 262.106
L465.927 256.403
L524.116 256.403" style="fill:none;stroke:#f5deb3;stroke-linecap:square;"/>
   </g>
   <g id="line2d_24">
    <path clip-path="url(#p4b24e7e61f)" d="
M304.867 359.056
L304.867 353.353
L307.832 353.353
L307.832 347.65
L308.844 347.65
L308.844 341.947
L318.155 341.947
L318.155 336.244
L318.258 336.244
L318.258 330.541
L321.497 330.541
L321.497 324.839
L325.385 324.839
L325.385 319.136
L330.487 319.136
L330.487 313.433
L344.408 313.433
L344.408 307.73
L349.449 307.73
L349.449 302.027
L352.844 302.027
L352.844 296.324
L361.142 296.324
L361.142 290.621
L371.829 290.621
L371.829 284.918
L379.602 284.918
L379.602 279.215
L379.819 279.215
L379.819 273.512
L380.393 273.512
L380.393 267.809
L380.421 267.809
L380.421 262.106
L385.133 262.106
L385.133 256.403
L386.258 256.403
L386.258 250.7
L386.41 250.7
L386.41 244.997
L388.663 244.997
L388.663 239.294
L390.987 239.294
L390.987 233.591
L391.045 233.591
L391.045 227.888
L391.806 227.888
L391.806 222.185
L391.963 222.185
L391.963 216.482
L392.5 216.482
L392.5 210.779
L393.228 210.779
L393.228 205.076
L394.128 205.076
L394.128 199.373
L394.555 199.373
L394.555 193.67
L396.752 193.67
L396.752 187.967
L396.914 187.967
L396.914 182.264
L396.985 182.264
L396.985 176.561
L397.328 176.561
L397.328 170.858
L398.017 170.858
L398.017 165.155
L398.422 165.155
L398.422 159.452
L399.231 159.452
L399.231 153.749
L399.395 153.749
L399.395 148.046
L399.415 148.046
L399.415 142.343
L400.122 142.343
L400.122 136.641
L403.104 136.641
L403.104 130.938
L405.123 130.938
L405.123 125.235
L405.455 125.235
L405.455 119.532
L406.656 119.532
L406.656 113.829
L407.478 113.829
L407.478 108.126
L408.638 108.126
L408.638 102.423
L409.615 102.423
L409.615 96.7197
L409.701 96.7197
L409.701 91.0167
L413.827 91.0167
L413.827 85.3138
L414.845 85.3138
L414.845 79.6108
L416.055 79.6108
L416.055 73.9078
L416.908 73.9078
L416.908 68.2049
L417.891 68.2049
L417.891 62.5019
L418.173 62.5019
L418.173 56.7989
L418.33 56.7989
L418.33 51.0959
L418.505 51.0959
L418.505 45.393
L418.518 45.393
L418.518 39.69
L450.011 39.69
L450.011 33.987
L451.281 33.987
L451.281 28.2841
L451.616 28.2841
L451.616 22.5811
L477.563 22.5811
L477.563 16.8781
L477.563 16.8781
L477.563 16.8781
L511.322 16.8781" style="fill:none;stroke:#f5deb3;stroke-linecap:square;"/>
   </g>
   <g id="line2d_25">
    <path clip-path="url(#p4b24e7e61f)" d="
M486.344 359.056
L486.344 353.353
L487.375 353.353
L487.375 347.65
L488.897 347.65
L488.897 341.947
L490.403 341.947
L490.403 336.244
L490.925 336.244
L490.925 330.541
L491.246 330.541
L491.246 324.839
L491.31 324.839
L491.31 319.136
L491.812 319.136
L491.812 313.433
L492.184 313.433
L492.184 307.73
L492.513 307.73
L492.513 302.027
L492.725 302.027
L492.725 296.324
L492.82 296.324
L492.82 290.621
L492.981 290.621
L492.981 284.918
L493.178 284.918
L493.178 279.215
L495.886 279.215
L495.886 273.512
L524.116 273.512" style="fill:none;stroke:#f5deb3;stroke-linecap:square;"/>
   </g>
   <g id="line2d_26">
    <path clip-path="url(#p4b24e7e61f)" d="
M383.287 359.056
L383.287 353.353
L385.712 353.353
L385.712 347.65
L388.07 347.65
L388.07 341.947
L394.406 341.947
L394.406 336.244
L394.895 336.244
L394.895 330.541
L394.99 330.541
L394.99 324.839
L395.264 324.839
L395.264 319.136
L395.316 319.136
L395.316 313.433
L395.744 313.433
L395.744 307.73
L396.23 307.73
L396.23 302.027
L396.813 302.027
L396.813 296.324
L396.843 296.324
L396.843 290.621
L397.137 290.621
L397.137 284.918
L397.539 284.918
L397.539 279.215
L397.659 279.215
L397.659 273.512
L397.719 273.512
L397.719 267.809
L397.878 267.809
L397.878 262.106
L398.745 262.106
L398.745 256.403
L403.68 256.403
L403.68 250.7
L403.725 250.7
L403.725 244.997
L403.786 244.997
L403.786 239.294
L404.032 239.294
L404.032 233.591
L404.25 233.591
L404.25 227.888
L404.58 227.888
L404.58 222.185
L404.675 222.185
L404.675 216.482
L404.788 216.482
L404.788 210.779
L404.934 210.779
L404.934 205.076
L404.943 205.076
L404.943 199.373
L405.08 199.373
L405.08 193.67
L405.106 193.67
L405.106 187.967
L405.498 187.967
L405.498 182.264
L405.549 182.264
L405.549 176.561
L405.651 176.561
L405.651 170.858
L405.684 170.858
L405.684 165.155
L405.794 165.155
L405.794 159.452
L406.03 159.452
L406.03 153.749
L407.052 153.749
L407.052 148.046
L407.176 148.046
L407.176 142.343
L407.249 142.343
L407.249 136.641
L407.307 136.641
L407.307 130.938
L407.323 130.938
L407.323 125.235
L407.698 125.235
L407.698 119.532
L412.537 119.532
L412.537 113.829
L412.975 113.829
L412.975 108.126
L420.521 108.126
L420.521 102.423
L420.626 102.423
L420.626 96.7197
L427.112 96.7197
L427.112 91.0167
L435.172 91.0167
L435.172 85.3138
L435.365 85.3138
L435.365 79.6108
L435.411 79.6108
L435.411 73.9078
L438.621 73.9078
L438.621 68.2049
L441.015 68.2049
L441.015 62.5019
L462.29 62.5019
L462.29 56.7989
L497.182 56.7989
L497.182 51.0959
L504.526 51.0959
L504.526 45.393
L507.102 45.393
L507.102 39.69
L507.642 39.69
L507.642 33.987
L524.116 33.987" style="fill:none;stroke:#f5deb3;stroke-linecap:square;"/>
   </g>
   <g id="line2d_27"/>
   <g id="line2d_28">
    <path clip-path="url(#p4b24e7e61f)" d="
M290.308 359.056
L290.308 353.353
L292.11 353.353
L292.11 347.65
L297.78 347.65
L297.78 341.947
L306.273 341.947
L306.273 336.244
L331.674 336.244
L331.674 330.541
L351.281 330.541
L351.281 324.839
L356.951 324.839
L356.951 319.136
L358.321 319.136
L358.321 313.433
L358.546 313.433
L358.546 307.73
L361.163 307.73
L361.163 302.027
L362.047 302.027
L362.047 296.324
L362.894 296.324
L362.894 290.621
L364.625 290.621
L364.625 284.918
L365.253 284.918
L365.253 279.215
L365.758 279.215
L365.758 273.512
L365.912 273.512
L365.912 267.809
L366.619 267.809
L366.619 262.106
L367.911 262.106
L367.911 256.403
L370.866 256.403
L370.866 250.7
L371.091 250.7
L371.091 244.997
L371.316 244.997
L371.316 239.294
L372.135 239.294
L372.135 233.591
L372.824 233.591
L372.824 227.888
L372.907 227.888
L372.907 222.185
L373.007 222.185
L373.007 216.482
L375.296 216.482
L375.296 210.779
L375.549 210.779
L375.549 205.076
L376.067 205.076
L376.067 199.373
L376.082 199.373
L376.082 193.67
L376.548 193.67
L376.548 187.967
L377.482 187.967
L377.482 182.264
L378.709 182.264
L378.709 176.561
L379.047 176.561
L379.047 170.858
L379.775 170.858
L379.775 165.155
L380.236 165.155
L380.236 159.452
L381.031 159.452
L381.031 153.749
L382.746 153.749
L382.746 148.046
L382.936 148.046
L382.936 142.343
L384.587 142.343
L384.587 136.641
L385.507 136.641
L385.507 130.938
L386.056 130.938
L386.056 125.235
L386.233 125.235
L386.233 119.532
L386.811 119.532
L386.811 113.829
L395.032 113.829
L395.032 108.126
L411.527 108.126
L411.527 102.423
L412.272 102.423
L412.272 96.7197
L412.924 96.7197
L412.924 91.0167
L413.077 91.0167
L413.077 85.3138
L414.041 85.3138
L414.041 79.6108
L414.88 79.6108
L414.88 73.9078
L415.285 73.9078
L415.285 68.2049
L415.423 68.2049
L415.423 62.5019
L416.158 62.5019
L416.158 56.7989
L417.082 56.7989
L417.082 51.0959
L434.445 51.0959
L434.445 45.393
L437.257 45.393
L437.257 39.69
L438.436 39.69
L438.436 33.987
L439.073 33.987
L439.073 28.2841
L446.777 28.2841
L446.777 22.5811
L467.789 22.5811
L467.789 16.8781
L467.789 16.8781
L467.789 16.8781
L511.322 16.8781" style="fill:none;stroke:#f5deb3;stroke-linecap:square;"/>
   </g>
   <g id="line2d_29">
    <path clip-path="url(#p4b24e7e61f)" d="
M249.338 359.056
L249.338 353.353
L249.338 353.353
L249.338 347.65
L249.338 347.65
L249.338 341.947
L267.803 341.947
L267.803 336.244
L267.803 336.244
L267.803 330.541
L267.803 330.541
L267.803 324.839
L269.526 324.839
L269.526 319.136
L269.526 319.136
L269.526 313.433
L269.526 313.433
L269.526 307.73
L269.947 307.73
L269.947 302.027
L269.947 302.027
L269.947 296.324
L269.947 296.324
L269.947 290.621
L272.666 290.621
L272.666 284.918
L272.666 284.918
L272.666 279.215
L272.666 279.215
L272.666 273.512
L277.086 273.512
L277.086 267.809
L277.086 267.809
L277.086 262.106
L277.086 262.106
L277.086 256.403
L277.446 256.403
L277.446 250.7
L277.446 250.7
L277.446 244.997
L277.446 244.997
L277.446 239.294
L279.326 239.294
L279.326 233.591
L279.326 233.591
L279.326 227.888
L279.326 227.888
L279.326 222.185
L291.844 222.185
L291.844 216.482
L291.844 216.482
L291.844 210.779
L291.844 210.779
L291.844 205.076
L316.952 205.076
L316.952 199.373
L316.952 199.373
L316.952 193.67
L316.952 193.67
L316.952 187.967
L359.96 187.967
L359.96 182.264
L359.96 182.264
L359.96 176.561
L359.96 176.561
L359.96 170.858
L474.739 170.858
L474.739 165.155
L474.739 165.155
L474.739 165.155
L511.322 165.155" style="fill:none;stroke:#f5deb3;stroke-linecap:square;"/>
   </g>
   <g id="line2d_30">
    <path clip-path="url(#p4b24e7e61f)" d="
M400.094 359.056
L400.094 353.353
L429.606 353.353
L429.606 347.65
L443.246 347.65
L443.246 341.947
L450.79 341.947
L450.79 336.244
L466.978 336.244
L466.978 330.541
L474.021 330.541
L474.021 324.839
L474.021 324.839
L474.021 324.839
L511.322 324.839" style="fill:none;stroke:#f5deb3;stroke-linecap:square;"/>
   </g>
   <g id="line2d_31">
    <path clip-path="url(#p4b24e7e61f)" d="
M200.867 359.056
L200.867 353.353
L219.505 353.353
L219.505 347.65
L233.525 347.65
L233.525 341.947
L233.821 341.947
L233.821 336.244
L235.844 336.244
L235.844 330.541
L236.962 330.541
L236.962 324.839
L238.594 324.839
L238.594 319.136
L240.43 319.136
L240.43 313.433
L242.938 313.433
L242.938 307.73
L249.123 307.73
L249.123 302.027
L249.976 302.027
L249.976 296.324
L251.021 296.324
L251.021 290.621
L251.841 290.621
L251.841 284.918
L254.99 284.918
L254.99 279.215
L255.933 279.215
L255.933 273.512
L256.12 273.512
L256.12 267.809
L257.586 267.809
L257.586 262.106
L261.736 262.106
L261.736 256.403
L268.384 256.403
L268.384 250.7
L273.453 250.7
L273.453 244.997
L273.713 244.997
L273.713 239.294
L274.099 239.294
L274.099 233.591
L278.979 233.591
L278.979 227.888
L279.784 227.888
L279.784 222.185
L280.126 222.185
L280.126 216.482
L281.024 216.482
L281.024 210.779
L284.562 210.779
L284.562 205.076
L284.665 205.076
L284.665 199.373
L284.768 199.373
L284.768 193.67
L285.179 193.67
L285.179 187.967
L285.888 187.967
L285.888 182.264
L288.91 182.264
L288.91 176.561
L289.005 176.561
L289.005 170.858
L290.216 170.858
L290.216 165.155
L290.399 165.155
L290.399 159.452
L290.491 159.452
L290.491 153.749
L291.217 153.749
L291.217 148.046
L291.755 148.046
L291.755 142.343
L293.677 142.343
L293.677 136.641
L294.694 136.641
L294.694 130.938
L294.777 130.938
L294.777 125.235
L295.443 125.235
L295.443 119.532
L296.504 119.532
L296.504 113.829
L298.405 113.829
L298.405 108.126
L298.869 108.126
L298.869 102.423
L300.309 102.423
L300.309 96.7197
L301.852 96.7197
L301.852 91.0167
L302.713 91.0167
L302.713 85.3138
L304.526 85.3138
L304.526 79.6108
L307.059 79.6108
L307.059 73.9078
L307.318 73.9078
L307.318 68.2049
L307.64 68.2049
L307.64 62.5019
L308.024 62.5019
L308.024 56.7989
L311.877 56.7989
L311.877 51.0959
L312.924 51.0959
L312.924 45.393
L319.227 45.393
L319.227 39.69
L323.294 39.69
L323.294 33.987
L325.739 33.987
L325.739 28.2841
L335.393 28.2841
L335.393 22.5811
L358.096 22.5811
L358.096 16.8781
L358.096 16.8781
L358.096 16.8781
L511.322 16.8781" style="fill:none;stroke:#000000;stroke-linecap:square;"/>
   </g>
   <g id="line2d_32">
    <path clip-path="url(#p4b24e7e61f)" style="fill:none;stroke:#000000;stroke-linecap:square;"/>
   </g>
   <g id="line2d_33">
    <path clip-path="url(#p4b24e7e61f)" d="
M293.073 359.056
L293.073 353.353
L299.023 353.353
L299.023 347.65
L313.893 347.65
L313.893 341.947
L316.044 341.947
L316.044 336.244
L321.833 336.244
L321.833 330.541
L324.442 330.541
L324.442 324.839
L325.162 324.839
L325.162 319.136
L328.193 319.136
L328.193 313.433
L328.735 313.433
L328.735 307.73
L328.735 307.73
L328.735 302.027
L329.107 302.027
L329.107 296.324
L331.005 296.324
L331.005 290.621
L333.55 290.621
L333.55 284.918
L336.004 284.918
L336.004 279.215
L340.535 279.215
L340.535 273.512
L343.007 273.512
L343.007 267.809
L344.047 267.809
L344.047 262.106
L345.799 262.106
L345.799 256.403
L345.944 256.403
L345.944 250.7
L348.851 250.7
L348.851 244.997
L349.692 244.997
L349.692 239.294
L349.773 239.294
L349.773 233.591
L350.731 233.591
L350.731 227.888
L352.413 227.888
L352.413 222.185
L354.407 222.185
L354.407 216.482
L355.589 216.482
L355.589 210.779
L356.602 210.779
L356.602 205.076
L357.618 205.076
L357.618 199.373
L359.478 199.373
L359.478 193.67
L359.741 193.67
L359.741 187.967
L360.393 187.967
L360.393 182.264
L362.935 182.264
L362.935 176.561
L363.928 176.561
L363.928 170.858
L363.988 170.858
L363.988 165.155
L365.097 165.155
L365.097 159.452
L365.273 159.452
L365.273 153.749
L365.739 153.749
L365.739 148.046
L366.277 148.046
L366.277 142.343
L370.814 142.343
L370.814 136.641
L371.385 136.641
L371.385 130.938
L371.999 130.938
L371.999 125.235
L372.991 125.235
L372.991 119.532
L373.057 119.532
L373.057 113.829
L374.222 113.829
L374.222 108.126
L377.738 108.126
L377.738 102.423
L379.091 102.423
L379.091 96.7197
L379.471 96.7197
L379.471 91.0167
L380.278 91.0167
L380.278 85.3138
L380.861 85.3138
L380.861 79.6108
L409.326 79.6108
L409.326 73.9078
L433.895 73.9078
L433.895 68.2049
L434.365 68.2049
L434.365 62.5019
L435.278 62.5019
L435.278 56.7989
L438.035 56.7989
L438.035 51.0959
L442.131 51.0959
L442.131 45.393
L444.907 45.393
L444.907 39.69
L478.912 39.69
L478.912 33.987
L478.912 33.987
L478.912 33.987
L511.322 33.987" style="fill:none;stroke:#00bfbf;stroke-linecap:square;"/>
   </g>
   <g id="line2d_34">
    <path clip-path="url(#p4b24e7e61f)" style="fill:none;stroke:#00bfbf;stroke-linecap:square;"/>
   </g>
   <g id="line2d_35">
    <path clip-path="url(#p4b24e7e61f)" d="
M326.701 359.056
L326.701 353.353
L338.374 353.353
L338.374 347.65
L339.483 347.65
L339.483 341.947
L351.618 341.947
L351.618 336.244
L355.23 336.244
L355.23 330.541
L360.544 330.541
L360.544 324.839
L368.898 324.839
L368.898 319.136
L370.936 319.136
L370.936 313.433
L371.281 313.433
L371.281 307.73
L371.539 307.73
L371.539 302.027
L371.727 302.027
L371.727 296.324
L373.553 296.324
L373.553 290.621
L373.88 290.621
L373.88 284.918
L374.011 284.918
L374.011 279.215
L374.994 279.215
L374.994 273.512
L375.074 273.512
L375.074 267.809
L375.659 267.809
L375.659 262.106
L375.942 262.106
L375.942 256.403
L376.486 256.403
L376.486 250.7
L376.625 250.7
L376.625 244.997
L376.702 244.997
L376.702 239.294
L376.948 239.294
L376.948 233.591
L377.223 233.591
L377.223 227.888
L377.814 227.888
L377.814 222.185
L377.814 222.185
L377.814 216.482
L377.979 216.482
L377.979 210.779
L378.069 210.779
L378.069 205.076
L378.738 205.076
L378.738 199.373
L379.003 199.373
L379.003 193.67
L379.5 193.67
L379.5 187.967
L379.659 187.967
L379.659 182.264
L380.464 182.264
L380.464 176.561
L383.206 176.561
L383.206 170.858
L383.435 170.858
L383.435 165.155
L383.715 165.155
L383.715 159.452
L383.981 159.452
L383.981 153.749
L384.626 153.749
L384.626 148.046
L386.448 148.046
L386.448 142.343
L387.629 142.343
L387.629 136.641
L387.813 136.641
L387.813 130.938
L389.886 130.938
L389.886 125.235
L390.132 125.235
L390.132 119.532
L390.965 119.532
L390.965 113.829
L392.953 113.829
L392.953 108.126
L393.902 108.126
L393.902 102.423
L402.194 102.423
L402.194 96.7197
L418.46 96.7197
L418.46 91.0167
L437.481 91.0167
L437.481 85.3138
L438.242 85.3138
L438.242 79.6108
L439.709 79.6108
L439.709 73.9078
L441.405 73.9078
L441.405 68.2049
L445.945 68.2049
L445.945 62.5019
L448.031 62.5019
L448.031 56.7989
L480.684 56.7989
L480.684 51.0959
L482.292 51.0959
L482.292 45.393
L482.292 45.393
L482.292 45.393
L511.322 45.393" style="fill:none;stroke:#bf00bf;stroke-linecap:square;"/>
   </g>
   <g id="line2d_36">
    <path clip-path="url(#p4b24e7e61f)" style="fill:none;stroke:#bf00bf;stroke-linecap:square;"/>
   </g>
   <g id="line2d_37">
    <path clip-path="url(#p4b24e7e61f)" d="
M336.713 359.056
L336.713 353.353
L339.979 353.353
L339.979 347.65
L345.536 347.65
L345.536 341.947
L355.921 341.947
L355.921 336.244
L356.882 336.244
L356.882 330.541
L361.985 330.541
L361.985 324.839
L378.605 324.839
L378.605 319.136
L385.699 319.136
L385.699 313.433
L386.586 313.433
L386.586 307.73
L387.371 307.73
L387.371 302.027
L387.923 302.027
L387.923 296.324
L388.179 296.324
L388.179 290.621
L388.53 290.621
L388.53 284.918
L388.998 284.918
L388.998 279.215
L390.896 279.215
L390.896 273.512
L390.987 273.512
L390.987 267.809
L390.999 267.809
L390.999 262.106
L391.296 262.106
L391.296 256.403
L392.366 256.403
L392.366 250.7
L392.644 250.7
L392.644 244.997
L392.997 244.997
L392.997 239.294
L394.821 239.294
L394.821 233.591
L395.243 233.591
L395.243 227.888
L395.546 227.888
L395.546 222.185
L396.117 222.185
L396.117 216.482
L396.148 216.482
L396.148 210.779
L396.179 210.779
L396.179 205.076
L397.208 205.076
L397.208 199.373
L397.218 199.373
L397.218 193.67
L398.067 193.67
L398.067 187.967
L398.677 187.967
L398.677 182.264
L398.94 182.264
L398.94 176.561
L399.347 176.561
L399.347 170.858
L399.559 170.858
L399.559 165.155
L400.056 165.155
L400.056 159.452
L400.245 159.452
L400.245 153.749
L400.283 153.749
L400.283 148.046
L401.572 148.046
L401.572 142.343
L401.847 142.343
L401.847 136.641
L401.993 136.641
L401.993 130.938
L402.139 130.938
L402.139 125.235
L402.538 125.235
L402.538 119.532
L402.943 119.532
L402.943 113.829
L403.583 113.829
L403.583 108.126
L404.163 108.126
L404.163 102.423
L407.135 102.423
L407.135 96.7197
L429.035 96.7197
L429.035 91.0167
L442.235 91.0167
L442.235 85.3138
L442.82 85.3138
L442.82 79.6108
L444.191 79.6108
L444.191 73.9078
L446.206 73.9078
L446.206 68.2049
L449.559 68.2049
L449.559 62.5019
L452.215 62.5019
L452.215 56.7989
L482.151 56.7989
L482.151 51.0959
L482.415 51.0959
L482.415 45.393
L482.415 45.393
L482.415 45.393
L511.322 45.393" style="fill:none;stroke:#ff0000;stroke-linecap:square;stroke-width:3.0;"/>
   </g>
   <g id="line2d_38">
    <path clip-path="url(#p4b24e7e61f)" style="fill:none;stroke:#ff0000;stroke-linecap:square;stroke-width:3.0;"/>
   </g>
   <g id="line2d_39">
    <path clip-path="url(#p4b24e7e61f)" d="
M511.024 359.056
L511.024 13.4563" style="fill:none;stroke:#000000;stroke-linecap:square;"/>
   </g>
   <g id="patch_3">
    <path d="
M64.9219 13.4563
L511.322 13.4563" style="fill:none;stroke:#000000;stroke-linecap:square;stroke-linejoin:miter;"/>
   </g>
   <g id="patch_4">
    <path d="
M511.322 359.056
L511.322 13.4563" style="fill:none;stroke:#000000;stroke-linecap:square;stroke-linejoin:miter;"/>
   </g>
   <g id="patch_5">
    <path d="
M64.9219 359.056
L511.322 359.056" style="fill:none;stroke:#000000;stroke-linecap:square;stroke-linejoin:miter;"/>
   </g>
   <g id="patch_6">
    <path d="
M64.9219 359.056
L64.9219 13.4563" style="fill:none;stroke:#000000;stroke-linecap:square;stroke-linejoin:miter;"/>
   </g>
   <g id="matplotlib.axis_1">
    <g id="xtick_1">
     <g id="line2d_40">
      <path clip-path="url(#p4b24e7e61f)" d="
M64.9219 359.056
L64.9219 13.4563" style="fill:none;stroke:#000000;stroke-dasharray:1.000000,3.000000;stroke-dashoffset:0.0;stroke-width:0.5;"/>
     </g>
     <g id="line2d_41">
      <defs>
       <path d="
M0 0
L0 -4" id="m93b0483c22" style="stroke:#000000;stroke-width:0.5;"/>
      </defs>
      <g>
       <use style="stroke:#000000;stroke-width:0.5;" x="64.921875" xlink:href="#m93b0483c22" y="359.056342822"/>
      </g>
     </g>
     <g id="line2d_42">
      <defs>
       <path d="
M0 0
L0 4" id="m741efc42ff" style="stroke:#000000;stroke-width:0.5;"/>
      </defs>
      <g>
       <use style="stroke:#000000;stroke-width:0.5;" x="64.921875" xlink:href="#m741efc42ff" y="13.4563428218"/>
      </g>
     </g>
     <g id="text_1">
      <!-- 0 -->
      <defs>
       <path d="
M31.7812 66.4062
Q24.1719 66.4062 20.3281 58.9062
Q16.5 51.4219 16.5 36.375
Q16.5 21.3906 20.3281 13.8906
Q24.1719 6.39062 31.7812 6.39062
Q39.4531 6.39062 43.2812 13.8906
Q47.125 21.3906 47.125 36.375
Q47.125 51.4219 43.2812 58.9062
Q39.4531 66.4062 31.7812 66.4062
M31.7812 74.2188
Q44.0469 74.2188 50.5156 64.5156
Q56.9844 54.8281 56.9844 36.375
Q56.9844 17.9688 50.5156 8.26562
Q44.0469 -1.42188 31.7812 -1.42188
Q19.5312 -1.42188 13.0625 8.26562
Q6.59375 17.9688 6.59375 36.375
Q6.59375 54.8281 13.0625 64.5156
Q19.5312 74.2188 31.7812 74.2188" id="BitstreamVeraSans-Roman-30"/>
      </defs>
      <g transform="translate(59.8828125 378.253217822)scale(0.2 -0.2)">
       <use xlink:href="#BitstreamVeraSans-Roman-30"/>
      </g>
     </g>
    </g>
    <g id="xtick_2">
     <g id="line2d_43">
      <path clip-path="url(#p4b24e7e61f)" d="
M176.342 359.056
L176.342 13.4563" style="fill:none;stroke:#000000;stroke-dasharray:1.000000,3.000000;stroke-dashoffset:0.0;stroke-width:0.5;"/>
     </g>
     <g id="line2d_44">
      <g>
       <use style="stroke:#000000;stroke-width:0.5;" x="176.342239555" xlink:href="#m93b0483c22" y="359.056342822"/>
      </g>
     </g>
     <g id="line2d_45">
      <g>
       <use style="stroke:#000000;stroke-width:0.5;" x="176.342239555" xlink:href="#m741efc42ff" y="13.4563428218"/>
      </g>
     </g>
     <g id="text_2">
      <!-- 1 -->
      <defs>
       <path d="
M12.4062 8.29688
L28.5156 8.29688
L28.5156 63.9219
L10.9844 60.4062
L10.9844 69.3906
L28.4219 72.9062
L38.2812 72.9062
L38.2812 8.29688
L54.3906 8.29688
L54.3906 0
L12.4062 0
z
" id="BitstreamVeraSans-Roman-31"/>
      </defs>
      <g transform="translate(172.001614555 378.253217822)scale(0.2 -0.2)">
       <use xlink:href="#BitstreamVeraSans-Roman-31"/>
      </g>
     </g>
    </g>
    <g id="xtick_3">
     <g id="line2d_46">
      <path clip-path="url(#p4b24e7e61f)" d="
M287.763 359.056
L287.763 13.4563" style="fill:none;stroke:#000000;stroke-dasharray:1.000000,3.000000;stroke-dashoffset:0.0;stroke-width:0.5;"/>
     </g>
     <g id="line2d_47">
      <g>
       <use style="stroke:#000000;stroke-width:0.5;" x="287.762604109" xlink:href="#m93b0483c22" y="359.056342822"/>
      </g>
     </g>
     <g id="line2d_48">
      <g>
       <use style="stroke:#000000;stroke-width:0.5;" x="287.762604109" xlink:href="#m741efc42ff" y="13.4563428218"/>
      </g>
     </g>
     <g id="text_3">
      <!-- 2 -->
      <defs>
       <path d="
M19.1875 8.29688
L53.6094 8.29688
L53.6094 0
L7.32812 0
L7.32812 8.29688
Q12.9375 14.1094 22.625 23.8906
Q32.3281 33.6875 34.8125 36.5312
Q39.5469 41.8438 41.4219 45.5312
Q43.3125 49.2188 43.3125 52.7812
Q43.3125 58.5938 39.2344 62.25
Q35.1562 65.9219 28.6094 65.9219
Q23.9688 65.9219 18.8125 64.3125
Q13.6719 62.7031 7.8125 59.4219
L7.8125 69.3906
Q13.7656 71.7812 18.9375 73
Q24.125 74.2188 28.4219 74.2188
Q39.75 74.2188 46.4844 68.5469
Q53.2188 62.8906 53.2188 53.4219
Q53.2188 48.9219 51.5312 44.8906
Q49.8594 40.875 45.4062 35.4062
Q44.1875 33.9844 37.6406 27.2188
Q31.1094 20.4531 19.1875 8.29688" id="BitstreamVeraSans-Roman-32"/>
      </defs>
      <g transform="translate(283.134479109 378.253217822)scale(0.2 -0.2)">
       <use xlink:href="#BitstreamVeraSans-Roman-32"/>
      </g>
     </g>
    </g>
    <g id="xtick_4">
     <g id="line2d_49">
      <path clip-path="url(#p4b24e7e61f)" d="
M399.183 359.056
L399.183 13.4563" style="fill:none;stroke:#000000;stroke-dasharray:1.000000,3.000000;stroke-dashoffset:0.0;stroke-width:0.5;"/>
     </g>
     <g id="line2d_50">
      <g>
       <use style="stroke:#000000;stroke-width:0.5;" x="399.182968664" xlink:href="#m93b0483c22" y="359.056342822"/>
      </g>
     </g>
     <g id="line2d_51">
      <g>
       <use style="stroke:#000000;stroke-width:0.5;" x="399.182968664" xlink:href="#m741efc42ff" y="13.4563428218"/>
      </g>
     </g>
     <g id="text_4">
      <!-- 3 -->
      <defs>
       <path d="
M40.5781 39.3125
Q47.6562 37.7969 51.625 33
Q55.6094 28.2188 55.6094 21.1875
Q55.6094 10.4062 48.1875 4.48438
Q40.7656 -1.42188 27.0938 -1.42188
Q22.5156 -1.42188 17.6562 -0.515625
Q12.7969 0.390625 7.625 2.20312
L7.625 11.7188
Q11.7188 9.32812 16.5938 8.10938
Q21.4844 6.89062 26.8125 6.89062
Q36.0781 6.89062 40.9375 10.5469
Q45.7969 14.2031 45.7969 21.1875
Q45.7969 27.6406 41.2812 31.2656
Q36.7656 34.9062 28.7188 34.9062
L20.2188 34.9062
L20.2188 43.0156
L29.1094 43.0156
Q36.375 43.0156 40.2344 45.9219
Q44.0938 48.8281 44.0938 54.2969
Q44.0938 59.9062 40.1094 62.9062
Q36.1406 65.9219 28.7188 65.9219
Q24.6562 65.9219 20.0156 65.0312
Q15.375 64.1562 9.8125 62.3125
L9.8125 71.0938
Q15.4375 72.6562 20.3438 73.4375
Q25.25 74.2188 29.5938 74.2188
Q40.8281 74.2188 47.3594 69.1094
Q53.9062 64.0156 53.9062 55.3281
Q53.9062 49.2656 50.4375 45.0938
Q46.9688 40.9219 40.5781 39.3125" id="BitstreamVeraSans-Roman-33"/>
      </defs>
      <g transform="translate(394.384531164 378.253217822)scale(0.2 -0.2)">
       <use xlink:href="#BitstreamVeraSans-Roman-33"/>
      </g>
     </g>
    </g>
    <g id="xtick_5">
     <g id="line2d_52">
      <path clip-path="url(#p4b24e7e61f)" d="
M510.603 359.056
L510.603 13.4563" style="fill:none;stroke:#000000;stroke-dasharray:1.000000,3.000000;stroke-dashoffset:0.0;stroke-width:0.5;"/>
     </g>
     <g id="line2d_53">
      <g>
       <use style="stroke:#000000;stroke-width:0.5;" x="510.603333218" xlink:href="#m93b0483c22" y="359.056342822"/>
      </g>
     </g>
     <g id="line2d_54">
      <g>
       <use style="stroke:#000000;stroke-width:0.5;" x="510.603333218" xlink:href="#m741efc42ff" y="13.4563428218"/>
      </g>
     </g>
     <g id="text_5">
      <!-- 4 -->
      <defs>
       <path d="
M37.7969 64.3125
L12.8906 25.3906
L37.7969 25.3906
z

M35.2031 72.9062
L47.6094 72.9062
L47.6094 25.3906
L58.0156 25.3906
L58.0156 17.1875
L47.6094 17.1875
L47.6094 0
L37.7969 0
L37.7969 17.1875
L4.89062 17.1875
L4.89062 26.7031
z
" id="BitstreamVeraSans-Roman-34"/>
      </defs>
      <g transform="translate(505.290833218 378.253217822)scale(0.2 -0.2)">
       <use xlink:href="#BitstreamVeraSans-Roman-34"/>
      </g>
     </g>
    </g>
    <g id="xtick_6">
     <g id="line2d_55">
      <defs>
       <path d="
M0 0
L0 -2" id="m177f7580d0" style="stroke:#000000;stroke-width:0.5;"/>
      </defs>
      <g>
       <use style="stroke:#000000;stroke-width:0.5;" x="98.4627468588" xlink:href="#m177f7580d0" y="359.056342822"/>
      </g>
     </g>
     <g id="line2d_56">
      <defs>
       <path d="
M0 0
L0 2" id="m5284c7e2a0" style="stroke:#000000;stroke-width:0.5;"/>
      </defs>
      <g>
       <use style="stroke:#000000;stroke-width:0.5;" x="98.4627468588" xlink:href="#m5284c7e2a0" y="13.4563428218"/>
      </g>
     </g>
    </g>
    <g id="xtick_7">
     <g id="line2d_57">
      <g>
       <use style="stroke:#000000;stroke-width:0.5;" x="118.082899138" xlink:href="#m177f7580d0" y="359.056342822"/>
      </g>
     </g>
     <g id="line2d_58">
      <g>
       <use style="stroke:#000000;stroke-width:0.5;" x="118.082899138" xlink:href="#m5284c7e2a0" y="13.4563428218"/>
      </g>
     </g>
    </g>
    <g id="xtick_8">
     <g id="line2d_59">
      <g>
       <use style="stroke:#000000;stroke-width:0.5;" x="132.003618718" xlink:href="#m177f7580d0" y="359.056342822"/>
      </g>
     </g>
     <g id="line2d_60">
      <g>
       <use style="stroke:#000000;stroke-width:0.5;" x="132.003618718" xlink:href="#m5284c7e2a0" y="13.4563428218"/>
      </g>
     </g>
    </g>
    <g id="xtick_9">
     <g id="line2d_61">
      <g>
       <use style="stroke:#000000;stroke-width:0.5;" x="142.801367696" xlink:href="#m177f7580d0" y="359.056342822"/>
      </g>
     </g>
     <g id="line2d_62">
      <g>
       <use style="stroke:#000000;stroke-width:0.5;" x="142.801367696" xlink:href="#m5284c7e2a0" y="13.4563428218"/>
      </g>
     </g>
    </g>
    <g id="xtick_10">
     <g id="line2d_63">
      <g>
       <use style="stroke:#000000;stroke-width:0.5;" x="151.623770996" xlink:href="#m177f7580d0" y="359.056342822"/>
      </g>
     </g>
     <g id="line2d_64">
      <g>
       <use style="stroke:#000000;stroke-width:0.5;" x="151.623770996" xlink:href="#m5284c7e2a0" y="13.4563428218"/>
      </g>
     </g>
    </g>
    <g id="xtick_11">
     <g id="line2d_65">
      <g>
       <use style="stroke:#000000;stroke-width:0.5;" x="159.083006703" xlink:href="#m177f7580d0" y="359.056342822"/>
      </g>
     </g>
     <g id="line2d_66">
      <g>
       <use style="stroke:#000000;stroke-width:0.5;" x="159.083006703" xlink:href="#m5284c7e2a0" y="13.4563428218"/>
      </g>
     </g>
    </g>
    <g id="xtick_12">
     <g id="line2d_67">
      <g>
       <use style="stroke:#000000;stroke-width:0.5;" x="165.544490576" xlink:href="#m177f7580d0" y="359.056342822"/>
      </g>
     </g>
     <g id="line2d_68">
      <g>
       <use style="stroke:#000000;stroke-width:0.5;" x="165.544490576" xlink:href="#m5284c7e2a0" y="13.4563428218"/>
      </g>
     </g>
    </g>
    <g id="xtick_13">
     <g id="line2d_69">
      <g>
       <use style="stroke:#000000;stroke-width:0.5;" x="171.243923275" xlink:href="#m177f7580d0" y="359.056342822"/>
      </g>
     </g>
     <g id="line2d_70">
      <g>
       <use style="stroke:#000000;stroke-width:0.5;" x="171.243923275" xlink:href="#m5284c7e2a0" y="13.4563428218"/>
      </g>
     </g>
    </g>
    <g id="xtick_14">
     <g id="line2d_71">
      <g>
       <use style="stroke:#000000;stroke-width:0.5;" x="209.883111413" xlink:href="#m177f7580d0" y="359.056342822"/>
      </g>
     </g>
     <g id="line2d_72">
      <g>
       <use style="stroke:#000000;stroke-width:0.5;" x="209.883111413" xlink:href="#m5284c7e2a0" y="13.4563428218"/>
      </g>
     </g>
    </g>
    <g id="xtick_15">
     <g id="line2d_73">
      <g>
       <use style="stroke:#000000;stroke-width:0.5;" x="229.503263692" xlink:href="#m177f7580d0" y="359.056342822"/>
      </g>
     </g>
     <g id="line2d_74">
      <g>
       <use style="stroke:#000000;stroke-width:0.5;" x="229.503263692" xlink:href="#m5284c7e2a0" y="13.4563428218"/>
      </g>
     </g>
    </g>
    <g id="xtick_16">
     <g id="line2d_75">
      <g>
       <use style="stroke:#000000;stroke-width:0.5;" x="243.423983272" xlink:href="#m177f7580d0" y="359.056342822"/>
      </g>
     </g>
     <g id="line2d_76">
      <g>
       <use style="stroke:#000000;stroke-width:0.5;" x="243.423983272" xlink:href="#m5284c7e2a0" y="13.4563428218"/>
      </g>
     </g>
    </g>
    <g id="xtick_17">
     <g id="line2d_77">
      <g>
       <use style="stroke:#000000;stroke-width:0.5;" x="254.22173225" xlink:href="#m177f7580d0" y="359.056342822"/>
      </g>
     </g>
     <g id="line2d_78">
      <g>
       <use style="stroke:#000000;stroke-width:0.5;" x="254.22173225" xlink:href="#m5284c7e2a0" y="13.4563428218"/>
      </g>
     </g>
    </g>
    <g id="xtick_18">
     <g id="line2d_79">
      <g>
       <use style="stroke:#000000;stroke-width:0.5;" x="263.044135551" xlink:href="#m177f7580d0" y="359.056342822"/>
      </g>
     </g>
     <g id="line2d_80">
      <g>
       <use style="stroke:#000000;stroke-width:0.5;" x="263.044135551" xlink:href="#m5284c7e2a0" y="13.4563428218"/>
      </g>
     </g>
    </g>
    <g id="xtick_19">
     <g id="line2d_81">
      <g>
       <use style="stroke:#000000;stroke-width:0.5;" x="270.503371257" xlink:href="#m177f7580d0" y="359.056342822"/>
      </g>
     </g>
     <g id="line2d_82">
      <g>
       <use style="stroke:#000000;stroke-width:0.5;" x="270.503371257" xlink:href="#m5284c7e2a0" y="13.4563428218"/>
      </g>
     </g>
    </g>
    <g id="xtick_20">
     <g id="line2d_83">
      <g>
       <use style="stroke:#000000;stroke-width:0.5;" x="276.964855131" xlink:href="#m177f7580d0" y="359.056342822"/>
      </g>
     </g>
     <g id="line2d_84">
      <g>
       <use style="stroke:#000000;stroke-width:0.5;" x="276.964855131" xlink:href="#m5284c7e2a0" y="13.4563428218"/>
      </g>
     </g>
    </g>
    <g id="xtick_21">
     <g id="line2d_85">
      <g>
       <use style="stroke:#000000;stroke-width:0.5;" x="282.66428783" xlink:href="#m177f7580d0" y="359.056342822"/>
      </g>
     </g>
     <g id="line2d_86">
      <g>
       <use style="stroke:#000000;stroke-width:0.5;" x="282.66428783" xlink:href="#m5284c7e2a0" y="13.4563428218"/>
      </g>
     </g>
    </g>
    <g id="xtick_22">
     <g id="line2d_87">
      <g>
       <use style="stroke:#000000;stroke-width:0.5;" x="321.303475968" xlink:href="#m177f7580d0" y="359.056342822"/>
      </g>
     </g>
     <g id="line2d_88">
      <g>
       <use style="stroke:#000000;stroke-width:0.5;" x="321.303475968" xlink:href="#m5284c7e2a0" y="13.4563428218"/>
      </g>
     </g>
    </g>
    <g id="xtick_23">
     <g id="line2d_89">
      <g>
       <use style="stroke:#000000;stroke-width:0.5;" x="340.923628247" xlink:href="#m177f7580d0" y="359.056342822"/>
      </g>
     </g>
     <g id="line2d_90">
      <g>
       <use style="stroke:#000000;stroke-width:0.5;" x="340.923628247" xlink:href="#m5284c7e2a0" y="13.4563428218"/>
      </g>
     </g>
    </g>
    <g id="xtick_24">
     <g id="line2d_91">
      <g>
       <use style="stroke:#000000;stroke-width:0.5;" x="354.844347827" xlink:href="#m177f7580d0" y="359.056342822"/>
      </g>
     </g>
     <g id="line2d_92">
      <g>
       <use style="stroke:#000000;stroke-width:0.5;" x="354.844347827" xlink:href="#m5284c7e2a0" y="13.4563428218"/>
      </g>
     </g>
    </g>
    <g id="xtick_25">
     <g id="line2d_93">
      <g>
       <use style="stroke:#000000;stroke-width:0.5;" x="365.642096805" xlink:href="#m177f7580d0" y="359.056342822"/>
      </g>
     </g>
     <g id="line2d_94">
      <g>
       <use style="stroke:#000000;stroke-width:0.5;" x="365.642096805" xlink:href="#m5284c7e2a0" y="13.4563428218"/>
      </g>
     </g>
    </g>
    <g id="xtick_26">
     <g id="line2d_95">
      <g>
       <use style="stroke:#000000;stroke-width:0.5;" x="374.464500106" xlink:href="#m177f7580d0" y="359.056342822"/>
      </g>
     </g>
     <g id="line2d_96">
      <g>
       <use style="stroke:#000000;stroke-width:0.5;" x="374.464500106" xlink:href="#m5284c7e2a0" y="13.4563428218"/>
      </g>
     </g>
    </g>
    <g id="xtick_27">
     <g id="line2d_97">
      <g>
       <use style="stroke:#000000;stroke-width:0.5;" x="381.923735812" xlink:href="#m177f7580d0" y="359.056342822"/>
      </g>
     </g>
     <g id="line2d_98">
      <g>
       <use style="stroke:#000000;stroke-width:0.5;" x="381.923735812" xlink:href="#m5284c7e2a0" y="13.4563428218"/>
      </g>
     </g>
    </g>
    <g id="xtick_28">
     <g id="line2d_99">
      <g>
       <use style="stroke:#000000;stroke-width:0.5;" x="388.385219685" xlink:href="#m177f7580d0" y="359.056342822"/>
      </g>
     </g>
     <g id="line2d_100">
      <g>
       <use style="stroke:#000000;stroke-width:0.5;" x="388.385219685" xlink:href="#m5284c7e2a0" y="13.4563428218"/>
      </g>
     </g>
    </g>
    <g id="xtick_29">
     <g id="line2d_101">
      <g>
       <use style="stroke:#000000;stroke-width:0.5;" x="394.084652384" xlink:href="#m177f7580d0" y="359.056342822"/>
      </g>
     </g>
     <g id="line2d_102">
      <g>
       <use style="stroke:#000000;stroke-width:0.5;" x="394.084652384" xlink:href="#m5284c7e2a0" y="13.4563428218"/>
      </g>
     </g>
    </g>
    <g id="xtick_30">
     <g id="line2d_103">
      <g>
       <use style="stroke:#000000;stroke-width:0.5;" x="432.723840523" xlink:href="#m177f7580d0" y="359.056342822"/>
      </g>
     </g>
     <g id="line2d_104">
      <g>
       <use style="stroke:#000000;stroke-width:0.5;" x="432.723840523" xlink:href="#m5284c7e2a0" y="13.4563428218"/>
      </g>
     </g>
    </g>
    <g id="xtick_31">
     <g id="line2d_105">
      <g>
       <use style="stroke:#000000;stroke-width:0.5;" x="452.343992801" xlink:href="#m177f7580d0" y="359.056342822"/>
      </g>
     </g>
     <g id="line2d_106">
      <g>
       <use style="stroke:#000000;stroke-width:0.5;" x="452.343992801" xlink:href="#m5284c7e2a0" y="13.4563428218"/>
      </g>
     </g>
    </g>
    <g id="xtick_32">
     <g id="line2d_107">
      <g>
       <use style="stroke:#000000;stroke-width:0.5;" x="466.264712381" xlink:href="#m177f7580d0" y="359.056342822"/>
      </g>
     </g>
     <g id="line2d_108">
      <g>
       <use style="stroke:#000000;stroke-width:0.5;" x="466.264712381" xlink:href="#m5284c7e2a0" y="13.4563428218"/>
      </g>
     </g>
    </g>
    <g id="xtick_33">
     <g id="line2d_109">
      <g>
       <use style="stroke:#000000;stroke-width:0.5;" x="477.06246136" xlink:href="#m177f7580d0" y="359.056342822"/>
      </g>
     </g>
     <g id="line2d_110">
      <g>
       <use style="stroke:#000000;stroke-width:0.5;" x="477.06246136" xlink:href="#m5284c7e2a0" y="13.4563428218"/>
      </g>
     </g>
    </g>
    <g id="xtick_34">
     <g id="line2d_111">
      <g>
       <use style="stroke:#000000;stroke-width:0.5;" x="485.88486466" xlink:href="#m177f7580d0" y="359.056342822"/>
      </g>
     </g>
     <g id="line2d_112">
      <g>
       <use style="stroke:#000000;stroke-width:0.5;" x="485.88486466" xlink:href="#m5284c7e2a0" y="13.4563428218"/>
      </g>
     </g>
    </g>
    <g id="xtick_35">
     <g id="line2d_113">
      <g>
       <use style="stroke:#000000;stroke-width:0.5;" x="493.344100367" xlink:href="#m177f7580d0" y="359.056342822"/>
      </g>
     </g>
     <g id="line2d_114">
      <g>
       <use style="stroke:#000000;stroke-width:0.5;" x="493.344100367" xlink:href="#m5284c7e2a0" y="13.4563428218"/>
      </g>
     </g>
    </g>
    <g id="xtick_36">
     <g id="line2d_115">
      <g>
       <use style="stroke:#000000;stroke-width:0.5;" x="499.80558424" xlink:href="#m177f7580d0" y="359.056342822"/>
      </g>
     </g>
     <g id="line2d_116">
      <g>
       <use style="stroke:#000000;stroke-width:0.5;" x="499.80558424" xlink:href="#m5284c7e2a0" y="13.4563428218"/>
      </g>
     </g>
    </g>
    <g id="xtick_37">
     <g id="line2d_117">
      <g>
       <use style="stroke:#000000;stroke-width:0.5;" x="505.505016939" xlink:href="#m177f7580d0" y="359.056342822"/>
      </g>
     </g>
     <g id="line2d_118">
      <g>
       <use style="stroke:#000000;stroke-width:0.5;" x="505.505016939" xlink:href="#m5284c7e2a0" y="13.4563428218"/>
      </g>
     </g>
    </g>
    <g id="text_6">
     <!-- log10 of FEvals / DIM -->
     <defs>
      <path id="BitstreamVeraSans-Roman-20"/>
      <path d="
M9.8125 72.9062
L24.5156 72.9062
L43.1094 23.2969
L61.8125 72.9062
L76.5156 72.9062
L76.5156 0
L66.8906 0
L66.8906 64.0156
L48.0938 14.0156
L38.1875 14.0156
L19.3906 64.0156
L19.3906 0
L9.8125 0
z
" id="BitstreamVeraSans-Roman-4d"/>
      <path d="
M30.6094 48.3906
Q23.3906 48.3906 19.1875 42.75
Q14.9844 37.1094 14.9844 27.2969
Q14.9844 17.4844 19.1562 11.8438
Q23.3438 6.20312 30.6094 6.20312
Q37.7969 6.20312 41.9844 11.8594
Q46.1875 17.5312 46.1875 27.2969
Q46.1875 37.0156 41.9844 42.7031
Q37.7969 48.3906 30.6094 48.3906
M30.6094 56
Q42.3281 56 49.0156 48.375
Q55.7188 40.7656 55.7188 27.2969
Q55.7188 13.875 49.0156 6.21875
Q42.3281 -1.42188 30.6094 -1.42188
Q18.8438 -1.42188 12.1719 6.21875
Q5.51562 13.875 5.51562 27.2969
Q5.51562 40.7656 12.1719 48.375
Q18.8438 56 30.6094 56" id="BitstreamVeraSans-Roman-6f"/>
      <path d="
M9.42188 75.9844
L18.4062 75.9844
L18.4062 0
L9.42188 0
z
" id="BitstreamVeraSans-Roman-6c"/>
      <path d="
M9.8125 72.9062
L51.7031 72.9062
L51.7031 64.5938
L19.6719 64.5938
L19.6719 43.1094
L48.5781 43.1094
L48.5781 34.8125
L19.6719 34.8125
L19.6719 0
L9.8125 0
z
" id="BitstreamVeraSans-Roman-46"/>
      <path d="
M9.8125 72.9062
L55.9062 72.9062
L55.9062 64.5938
L19.6719 64.5938
L19.6719 43.0156
L54.3906 43.0156
L54.3906 34.7188
L19.6719 34.7188
L19.6719 8.29688
L56.7812 8.29688
L56.7812 0
L9.8125 0
z
" id="BitstreamVeraSans-Roman-45"/>
      <path d="
M19.6719 64.7969
L19.6719 8.10938
L31.5938 8.10938
Q46.6875 8.10938 53.6875 14.9375
Q60.6875 21.7812 60.6875 36.5312
Q60.6875 51.1719 53.6875 57.9844
Q46.6875 64.7969 31.5938 64.7969
z

M9.8125 72.9062
L30.0781 72.9062
Q51.2656 72.9062 61.1719 64.0938
Q71.0938 55.2812 71.0938 36.5312
Q71.0938 17.6719 61.125 8.82812
Q51.1719 0 30.0781 0
L9.8125 0
z
" id="BitstreamVeraSans-Roman-44"/>
      <path d="
M25.3906 72.9062
L33.6875 72.9062
L8.29688 -9.28125
L0 -9.28125
z
" id="BitstreamVeraSans-Roman-2f"/>
      <path d="
M2.98438 54.6875
L12.5 54.6875
L29.5938 8.79688
L46.6875 54.6875
L56.2031 54.6875
L35.6875 0
L23.4844 0
z
" id="BitstreamVeraSans-Roman-76"/>
      <path d="
M45.4062 27.9844
Q45.4062 37.75 41.375 43.1094
Q37.3594 48.4844 30.0781 48.4844
Q22.8594 48.4844 18.8281 43.1094
Q14.7969 37.75 14.7969 27.9844
Q14.7969 18.2656 18.8281 12.8906
Q22.8594 7.51562 30.0781 7.51562
Q37.3594 7.51562 41.375 12.8906
Q45.4062 18.2656 45.4062 27.9844
M54.3906 6.78125
Q54.3906 -7.17188 48.1875 -13.9844
Q42 -20.7969 29.2031 -20.7969
Q24.4688 -20.7969 20.2656 -20.0938
Q16.0625 -19.3906 12.1094 -17.9219
L12.1094 -9.1875
Q16.0625 -11.3281 19.9219 -12.3438
Q23.7812 -13.375 27.7812 -13.375
Q36.625 -13.375 41.0156 -8.76562
Q45.4062 -4.15625 45.4062 5.17188
L45.4062 9.625
Q42.625 4.78125 38.2812 2.39062
Q33.9375 0 27.875 0
Q17.8281 0 11.6719 7.65625
Q5.51562 15.3281 5.51562 27.9844
Q5.51562 40.6719 11.6719 48.3281
Q17.8281 56 27.875 56
Q33.9375 56 38.2812 53.6094
Q42.625 51.2188 45.4062 46.3906
L45.4062 54.6875
L54.3906 54.6875
z
" id="BitstreamVeraSans-Roman-67"/>
      <path d="
M37.1094 75.9844
L37.1094 68.5
L28.5156 68.5
Q23.6875 68.5 21.7969 66.5469
Q19.9219 64.5938 19.9219 59.5156
L19.9219 54.6875
L34.7188 54.6875
L34.7188 47.7031
L19.9219 47.7031
L19.9219 0
L10.8906 0
L10.8906 47.7031
L2.29688 47.7031
L2.29688 54.6875
L10.8906 54.6875
L10.8906 58.5
Q10.8906 67.625 15.1406 71.7969
Q19.3906 75.9844 28.6094 75.9844
z
" id="BitstreamVeraSans-Roman-66"/>
      <path d="
M34.2812 27.4844
Q23.3906 27.4844 19.1875 25
Q14.9844 22.5156 14.9844 16.5
Q14.9844 11.7188 18.1406 8.90625
Q21.2969 6.10938 26.7031 6.10938
Q34.1875 6.10938 38.7031 11.4062
Q43.2188 16.7031 43.2188 25.4844
L43.2188 27.4844
z

M52.2031 31.2031
L52.2031 0
L43.2188 0
L43.2188 8.29688
Q40.1406 3.32812 35.5469 0.953125
Q30.9531 -1.42188 24.3125 -1.42188
Q15.9219 -1.42188 10.9531 3.29688
Q6 8.01562 6 15.9219
Q6 25.1406 12.1719 29.8281
Q18.3594 34.5156 30.6094 34.5156
L43.2188 34.5156
L43.2188 35.4062
Q43.2188 41.6094 39.1406 45
Q35.0625 48.3906 27.6875 48.3906
Q23 48.3906 18.5469 47.2656
Q14.1094 46.1406 10.0156 43.8906
L10.0156 52.2031
Q14.9375 54.1094 19.5781 55.0469
Q24.2188 56 28.6094 56
Q40.4844 56 46.3438 49.8438
Q52.2031 43.7031 52.2031 31.2031" id="BitstreamVeraSans-Roman-61"/>
      <path d="
M44.2812 53.0781
L44.2812 44.5781
Q40.4844 46.5312 36.375 47.5
Q32.2812 48.4844 27.875 48.4844
Q21.1875 48.4844 17.8438 46.4375
Q14.5 44.3906 14.5 40.2812
Q14.5 37.1562 16.8906 35.375
Q19.2812 33.5938 26.5156 31.9844
L29.5938 31.2969
Q39.1562 29.25 43.1875 25.5156
Q47.2188 21.7812 47.2188 15.0938
Q47.2188 7.46875 41.1875 3.01562
Q35.1562 -1.42188 24.6094 -1.42188
Q20.2188 -1.42188 15.4531 -0.5625
Q10.6875 0.296875 5.42188 2
L5.42188 11.2812
Q10.4062 8.6875 15.2344 7.39062
Q20.0625 6.10938 24.8125 6.10938
Q31.1562 6.10938 34.5625 8.28125
Q37.9844 10.4531 37.9844 14.4062
Q37.9844 18.0625 35.5156 20.0156
Q33.0625 21.9688 24.7031 23.7812
L21.5781 24.5156
Q13.2344 26.2656 9.51562 29.9062
Q5.8125 33.5469 5.8125 39.8906
Q5.8125 47.6094 11.2812 51.7969
Q16.75 56 26.8125 56
Q31.7812 56 36.1719 55.2656
Q40.5781 54.5469 44.2812 53.0781" id="BitstreamVeraSans-Roman-73"/>
      <path d="
M9.8125 72.9062
L19.6719 72.9062
L19.6719 0
L9.8125 0
z
" id="BitstreamVeraSans-Roman-49"/>
     </defs>
     <g transform="translate(184.025 402.609467822)scale(0.2 -0.2)">
      <use xlink:href="#BitstreamVeraSans-Roman-6c"/>
      <use x="27.783203125" xlink:href="#BitstreamVeraSans-Roman-6f"/>
      <use x="88.96484375" xlink:href="#BitstreamVeraSans-Roman-67"/>
      <use x="152.44140625" xlink:href="#BitstreamVeraSans-Roman-31"/>
      <use x="216.064453125" xlink:href="#BitstreamVeraSans-Roman-30"/>
      <use x="279.6875" xlink:href="#BitstreamVeraSans-Roman-20"/>
      <use x="311.474609375" xlink:href="#BitstreamVeraSans-Roman-6f"/>
      <use x="372.65625" xlink:href="#BitstreamVeraSans-Roman-66"/>
      <use x="407.861328125" xlink:href="#BitstreamVeraSans-Roman-20"/>
      <use x="439.6484375" xlink:href="#BitstreamVeraSans-Roman-46"/>
      <use x="497.16796875" xlink:href="#BitstreamVeraSans-Roman-45"/>
      <use x="560.3515625" xlink:href="#BitstreamVeraSans-Roman-76"/>
      <use x="619.53125" xlink:href="#BitstreamVeraSans-Roman-61"/>
      <use x="680.810546875" xlink:href="#BitstreamVeraSans-Roman-6c"/>
      <use x="708.59375" xlink:href="#BitstreamVeraSans-Roman-73"/>
      <use x="760.693359375" xlink:href="#BitstreamVeraSans-Roman-20"/>
      <use x="792.48046875" xlink:href="#BitstreamVeraSans-Roman-2f"/>
      <use x="826.171875" xlink:href="#BitstreamVeraSans-Roman-20"/>
      <use x="857.958984375" xlink:href="#BitstreamVeraSans-Roman-44"/>
      <use x="934.9609375" xlink:href="#BitstreamVeraSans-Roman-49"/>
      <use x="964.453125" xlink:href="#BitstreamVeraSans-Roman-4d"/>
     </g>
    </g>
   </g>
   <g id="matplotlib.axis_2">
    <g id="ytick_1">
     <g id="line2d_119">
      <path clip-path="url(#p4b24e7e61f)" d="
M64.9219 359.056
L511.322 359.056" style="fill:none;stroke:#000000;stroke-dasharray:1.000000,3.000000;stroke-dashoffset:0.0;stroke-width:0.5;"/>
     </g>
     <g id="line2d_120">
      <defs>
       <path d="
M0 0
L4 0" id="m728421d6d4" style="stroke:#000000;stroke-width:0.5;"/>
      </defs>
      <g>
       <use style="stroke:#000000;stroke-width:0.5;" x="64.921875" xlink:href="#m728421d6d4" y="359.056342822"/>
      </g>
     </g>
     <g id="line2d_121">
      <defs>
       <path d="
M0 0
L-4 0" id="mcb0005524f" style="stroke:#000000;stroke-width:0.5;"/>
      </defs>
      <g>
       <use style="stroke:#000000;stroke-width:0.5;" x="511.321875" xlink:href="#mcb0005524f" y="359.056342822"/>
      </g>
     </g>
     <g id="text_7">
      <!-- 0.0 -->
      <defs>
       <path d="
M10.6875 12.4062
L21 12.4062
L21 0
L10.6875 0
z
" id="BitstreamVeraSans-Roman-2e"/>
      </defs>
      <g transform="translate(31.7625 364.575092822)scale(0.2 -0.2)">
       <use xlink:href="#BitstreamVeraSans-Roman-30"/>
       <use x="63.623046875" xlink:href="#BitstreamVeraSans-Roman-2e"/>
       <use x="95.41015625" xlink:href="#BitstreamVeraSans-Roman-30"/>
      </g>
     </g>
    </g>
    <g id="ytick_2">
     <g id="line2d_122">
      <path clip-path="url(#p4b24e7e61f)" d="
M64.9219 290.621
L511.322 290.621" style="fill:none;stroke:#000000;stroke-dasharray:1.000000,3.000000;stroke-dashoffset:0.0;stroke-width:0.5;"/>
     </g>
     <g id="line2d_123">
      <g>
       <use style="stroke:#000000;stroke-width:0.5;" x="64.921875" xlink:href="#m728421d6d4" y="290.620699257"/>
      </g>
     </g>
     <g id="line2d_124">
      <g>
       <use style="stroke:#000000;stroke-width:0.5;" x="511.321875" xlink:href="#mcb0005524f" y="290.620699257"/>
      </g>
     </g>
     <g id="text_8">
      <!-- 0.2 -->
      <g transform="translate(32.4375 296.139449257)scale(0.2 -0.2)">
       <use xlink:href="#BitstreamVeraSans-Roman-30"/>
       <use x="63.623046875" xlink:href="#BitstreamVeraSans-Roman-2e"/>
       <use x="95.41015625" xlink:href="#BitstreamVeraSans-Roman-32"/>
      </g>
     </g>
    </g>
    <g id="ytick_3">
     <g id="line2d_125">
      <path clip-path="url(#p4b24e7e61f)" d="
M64.9219 222.185
L511.322 222.185" style="fill:none;stroke:#000000;stroke-dasharray:1.000000,3.000000;stroke-dashoffset:0.0;stroke-width:0.5;"/>
     </g>
     <g id="line2d_126">
      <g>
       <use style="stroke:#000000;stroke-width:0.5;" x="64.921875" xlink:href="#m728421d6d4" y="222.185055693"/>
      </g>
     </g>
     <g id="line2d_127">
      <g>
       <use style="stroke:#000000;stroke-width:0.5;" x="511.321875" xlink:href="#mcb0005524f" y="222.185055693"/>
      </g>
     </g>
     <g id="text_9">
      <!-- 0.4 -->
      <g transform="translate(31.55625 227.703805693)scale(0.2 -0.2)">
       <use xlink:href="#BitstreamVeraSans-Roman-30"/>
       <use x="63.623046875" xlink:href="#BitstreamVeraSans-Roman-2e"/>
       <use x="95.41015625" xlink:href="#BitstreamVeraSans-Roman-34"/>
      </g>
     </g>
    </g>
    <g id="ytick_4">
     <g id="line2d_128">
      <path clip-path="url(#p4b24e7e61f)" d="
M64.9219 153.749
L511.322 153.749" style="fill:none;stroke:#000000;stroke-dasharray:1.000000,3.000000;stroke-dashoffset:0.0;stroke-width:0.5;"/>
     </g>
     <g id="line2d_129">
      <g>
       <use style="stroke:#000000;stroke-width:0.5;" x="64.921875" xlink:href="#m728421d6d4" y="153.749412129"/>
      </g>
     </g>
     <g id="line2d_130">
      <g>
       <use style="stroke:#000000;stroke-width:0.5;" x="511.321875" xlink:href="#mcb0005524f" y="153.749412129"/>
      </g>
     </g>
     <g id="text_10">
      <!-- 0.6 -->
      <defs>
       <path d="
M33.0156 40.375
Q26.375 40.375 22.4844 35.8281
Q18.6094 31.2969 18.6094 23.3906
Q18.6094 15.5312 22.4844 10.9531
Q26.375 6.39062 33.0156 6.39062
Q39.6562 6.39062 43.5312 10.9531
Q47.4062 15.5312 47.4062 23.3906
Q47.4062 31.2969 43.5312 35.8281
Q39.6562 40.375 33.0156 40.375
M52.5938 71.2969
L52.5938 62.3125
Q48.875 64.0625 45.0938 64.9844
Q41.3125 65.9219 37.5938 65.9219
Q27.8281 65.9219 22.6719 59.3281
Q17.5312 52.7344 16.7969 39.4062
Q19.6719 43.6562 24.0156 45.9219
Q28.375 48.1875 33.5938 48.1875
Q44.5781 48.1875 50.9531 41.5156
Q57.3281 34.8594 57.3281 23.3906
Q57.3281 12.1562 50.6875 5.35938
Q44.0469 -1.42188 33.0156 -1.42188
Q20.3594 -1.42188 13.6719 8.26562
Q6.98438 17.9688 6.98438 36.375
Q6.98438 53.6562 15.1875 63.9375
Q23.3906 74.2188 37.2031 74.2188
Q40.9219 74.2188 44.7031 73.4844
Q48.4844 72.75 52.5938 71.2969" id="BitstreamVeraSans-Roman-36"/>
      </defs>
      <g transform="translate(31.69375 159.268162129)scale(0.2 -0.2)">
       <use xlink:href="#BitstreamVeraSans-Roman-30"/>
       <use x="63.623046875" xlink:href="#BitstreamVeraSans-Roman-2e"/>
       <use x="95.41015625" xlink:href="#BitstreamVeraSans-Roman-36"/>
      </g>
     </g>
    </g>
    <g id="ytick_5">
     <g id="line2d_131">
      <path clip-path="url(#p4b24e7e61f)" d="
M64.9219 85.3138
L511.322 85.3138" style="fill:none;stroke:#000000;stroke-dasharray:1.000000,3.000000;stroke-dashoffset:0.0;stroke-width:0.5;"/>
     </g>
     <g id="line2d_132">
      <g>
       <use style="stroke:#000000;stroke-width:0.5;" x="64.921875" xlink:href="#m728421d6d4" y="85.3137685644"/>
      </g>
     </g>
     <g id="line2d_133">
      <g>
       <use style="stroke:#000000;stroke-width:0.5;" x="511.321875" xlink:href="#mcb0005524f" y="85.3137685644"/>
      </g>
     </g>
     <g id="text_11">
      <!-- 0.8 -->
      <defs>
       <path d="
M31.7812 34.625
Q24.75 34.625 20.7188 30.8594
Q16.7031 27.0938 16.7031 20.5156
Q16.7031 13.9219 20.7188 10.1562
Q24.75 6.39062 31.7812 6.39062
Q38.8125 6.39062 42.8594 10.1719
Q46.9219 13.9688 46.9219 20.5156
Q46.9219 27.0938 42.8906 30.8594
Q38.875 34.625 31.7812 34.625
M21.9219 38.8125
Q15.5781 40.375 12.0312 44.7188
Q8.5 49.0781 8.5 55.3281
Q8.5 64.0625 14.7188 69.1406
Q20.9531 74.2188 31.7812 74.2188
Q42.6719 74.2188 48.875 69.1406
Q55.0781 64.0625 55.0781 55.3281
Q55.0781 49.0781 51.5312 44.7188
Q48 40.375 41.7031 38.8125
Q48.8281 37.1562 52.7969 32.3125
Q56.7812 27.4844 56.7812 20.5156
Q56.7812 9.90625 50.3125 4.23438
Q43.8438 -1.42188 31.7812 -1.42188
Q19.7344 -1.42188 13.25 4.23438
Q6.78125 9.90625 6.78125 20.5156
Q6.78125 27.4844 10.7812 32.3125
Q14.7969 37.1562 21.9219 38.8125
M18.3125 54.3906
Q18.3125 48.7344 21.8438 45.5625
Q25.3906 42.3906 31.7812 42.3906
Q38.1406 42.3906 41.7188 45.5625
Q45.3125 48.7344 45.3125 54.3906
Q45.3125 60.0625 41.7188 63.2344
Q38.1406 66.4062 31.7812 66.4062
Q25.3906 66.4062 21.8438 63.2344
Q18.3125 60.0625 18.3125 54.3906" id="BitstreamVeraSans-Roman-38"/>
      </defs>
      <g transform="translate(31.803125 90.8325185644)scale(0.2 -0.2)">
       <use xlink:href="#BitstreamVeraSans-Roman-30"/>
       <use x="63.623046875" xlink:href="#BitstreamVeraSans-Roman-2e"/>
       <use x="95.41015625" xlink:href="#BitstreamVeraSans-Roman-38"/>
      </g>
     </g>
    </g>
    <g id="ytick_6">
     <g id="line2d_134">
      <path clip-path="url(#p4b24e7e61f)" d="
M64.9219 16.8781
L511.322 16.8781" style="fill:none;stroke:#000000;stroke-dasharray:1.000000,3.000000;stroke-dashoffset:0.0;stroke-width:0.5;"/>
     </g>
     <g id="line2d_135">
      <g>
       <use style="stroke:#000000;stroke-width:0.5;" x="64.921875" xlink:href="#m728421d6d4" y="16.878125"/>
      </g>
     </g>
     <g id="line2d_136">
      <g>
       <use style="stroke:#000000;stroke-width:0.5;" x="511.321875" xlink:href="#mcb0005524f" y="16.878125"/>
      </g>
     </g>
     <g id="text_12">
      <!-- 1.0 -->
      <g transform="translate(32.640625 22.396875)scale(0.2 -0.2)">
       <use xlink:href="#BitstreamVeraSans-Roman-31"/>
       <use x="63.623046875" xlink:href="#BitstreamVeraSans-Roman-2e"/>
       <use x="95.41015625" xlink:href="#BitstreamVeraSans-Roman-30"/>
      </g>
     </g>
    </g>
    <g id="text_13">
     <!-- proportion of trials -->
     <defs>
      <path d="
M54.8906 33.0156
L54.8906 0
L45.9062 0
L45.9062 32.7188
Q45.9062 40.4844 42.875 44.3281
Q39.8438 48.1875 33.7969 48.1875
Q26.5156 48.1875 22.3125 43.5469
Q18.1094 38.9219 18.1094 30.9062
L18.1094 0
L9.07812 0
L9.07812 54.6875
L18.1094 54.6875
L18.1094 46.1875
Q21.3438 51.125 25.7031 53.5625
Q30.0781 56 35.7969 56
Q45.2188 56 50.0469 50.1719
Q54.8906 44.3438 54.8906 33.0156" id="BitstreamVeraSans-Roman-6e"/>
      <path d="
M9.42188 54.6875
L18.4062 54.6875
L18.4062 0
L9.42188 0
z

M9.42188 75.9844
L18.4062 75.9844
L18.4062 64.5938
L9.42188 64.5938
z
" id="BitstreamVeraSans-Roman-69"/>
      <path d="
M18.3125 70.2188
L18.3125 54.6875
L36.8125 54.6875
L36.8125 47.7031
L18.3125 47.7031
L18.3125 18.0156
Q18.3125 11.3281 20.1406 9.42188
Q21.9688 7.51562 27.5938 7.51562
L36.8125 7.51562
L36.8125 0
L27.5938 0
Q17.1875 0 13.2344 3.875
Q9.28125 7.76562 9.28125 18.0156
L9.28125 47.7031
L2.6875 47.7031
L2.6875 54.6875
L9.28125 54.6875
L9.28125 70.2188
z
" id="BitstreamVeraSans-Roman-74"/>
      <path d="
M41.1094 46.2969
Q39.5938 47.1719 37.8125 47.5781
Q36.0312 48 33.8906 48
Q26.2656 48 22.1875 43.0469
Q18.1094 38.0938 18.1094 28.8125
L18.1094 0
L9.07812 0
L9.07812 54.6875
L18.1094 54.6875
L18.1094 46.1875
Q20.9531 51.1719 25.4844 53.5781
Q30.0312 56 36.5312 56
Q37.4531 56 38.5781 55.875
Q39.7031 55.7656 41.0625 55.5156
z
" id="BitstreamVeraSans-Roman-72"/>
      <path d="
M18.1094 8.20312
L18.1094 -20.7969
L9.07812 -20.7969
L9.07812 54.6875
L18.1094 54.6875
L18.1094 46.3906
Q20.9531 51.2656 25.2656 53.625
Q29.5938 56 35.5938 56
Q45.5625 56 51.7812 48.0938
Q58.0156 40.1875 58.0156 27.2969
Q58.0156 14.4062 51.7812 6.48438
Q45.5625 -1.42188 35.5938 -1.42188
Q29.5938 -1.42188 25.2656 0.953125
Q20.9531 3.32812 18.1094 8.20312
M48.6875 27.2969
Q48.6875 37.2031 44.6094 42.8438
Q40.5312 48.4844 33.4062 48.4844
Q26.2656 48.4844 22.1875 42.8438
Q18.1094 37.2031 18.1094 27.2969
Q18.1094 17.3906 22.1875 11.75
Q26.2656 6.10938 33.4062 6.10938
Q40.5312 6.10938 44.6094 11.75
Q48.6875 17.3906 48.6875 27.2969" id="BitstreamVeraSans-Roman-70"/>
     </defs>
     <g transform="translate(22.396875 278.775092822)rotate(-90.0)scale(0.2 -0.2)">
      <use xlink:href="#BitstreamVeraSans-Roman-70"/>
      <use x="63.4765625" xlink:href="#BitstreamVeraSans-Roman-72"/>
      <use x="102.33984375" xlink:href="#BitstreamVeraSans-Roman-6f"/>
      <use x="163.521484375" xlink:href="#BitstreamVeraSans-Roman-70"/>
      <use x="226.998046875" xlink:href="#BitstreamVeraSans-Roman-6f"/>
      <use x="288.1796875" xlink:href="#BitstreamVeraSans-Roman-72"/>
      <use x="329.29296875" xlink:href="#BitstreamVeraSans-Roman-74"/>
      <use x="368.501953125" xlink:href="#BitstreamVeraSans-Roman-69"/>
      <use x="396.28515625" xlink:href="#BitstreamVeraSans-Roman-6f"/>
      <use x="457.466796875" xlink:href="#BitstreamVeraSans-Roman-6e"/>
      <use x="520.845703125" xlink:href="#BitstreamVeraSans-Roman-20"/>
      <use x="552.6328125" xlink:href="#BitstreamVeraSans-Roman-6f"/>
      <use x="613.814453125" xlink:href="#BitstreamVeraSans-Roman-66"/>
      <use x="649.01953125" xlink:href="#BitstreamVeraSans-Roman-20"/>
      <use x="680.806640625" xlink:href="#BitstreamVeraSans-Roman-74"/>
      <use x="720.015625" xlink:href="#BitstreamVeraSans-Roman-72"/>
      <use x="761.12890625" xlink:href="#BitstreamVeraSans-Roman-69"/>
      <use x="788.912109375" xlink:href="#BitstreamVeraSans-Roman-61"/>
      <use x="850.19140625" xlink:href="#BitstreamVeraSans-Roman-6c"/>
      <use x="877.974609375" xlink:href="#BitstreamVeraSans-Roman-73"/>
     </g>
    </g>
   </g>
   <g id="text_14">
    <!-- {f6-f9}, 5-D -->
    <defs>
     <path d="
M10.7969 72.9062
L49.5156 72.9062
L49.5156 64.5938
L19.8281 64.5938
L19.8281 46.7344
Q21.9688 47.4688 24.1094 47.8281
Q26.2656 48.1875 28.4219 48.1875
Q40.625 48.1875 47.75 41.5
Q54.8906 34.8125 54.8906 23.3906
Q54.8906 11.625 47.5625 5.09375
Q40.2344 -1.42188 26.9062 -1.42188
Q22.3125 -1.42188 17.5469 -0.640625
Q12.7969 0.140625 7.71875 1.70312
L7.71875 11.625
Q12.1094 9.23438 16.7969 8.0625
Q21.4844 6.89062 26.7031 6.89062
Q35.1562 6.89062 40.0781 11.3281
Q45.0156 15.7656 45.0156 23.3906
Q45.0156 31 40.0781 35.4375
Q35.1562 39.8906 26.7031 39.8906
Q22.75 39.8906 18.8125 39.0156
Q14.8906 38.1406 10.7969 36.2812
z
" id="BitstreamVeraSans-Roman-35"/>
     <path d="
M12.5 -9.28125
L15.9219 -9.28125
Q22.75 -9.28125 24.8281 -7.17188
Q26.9062 -5.07812 26.9062 1.90625
L26.9062 14.0156
Q26.9062 21.625 29.0938 25.0938
Q31.2969 28.5625 36.7188 29.8906
Q31.2969 31.1094 29.0938 34.5625
Q26.9062 38.0312 26.9062 45.7031
L26.9062 57.8125
Q26.9062 64.75 24.8281 66.875
Q22.75 69 15.9219 69
L12.5 69
L12.5 75.9844
L15.5781 75.9844
Q27.7344 75.9844 31.8125 72.3906
Q35.8906 68.7969 35.8906 58.0156
L35.8906 46.2969
Q35.8906 39.0156 38.5156 36.2031
Q41.1562 33.4062 48.0938 33.4062
L51.125 33.4062
L51.125 26.4219
L48.0938 26.4219
Q41.1562 26.4219 38.5156 23.5781
Q35.8906 20.75 35.8906 13.375
L35.8906 1.70312
Q35.8906 -9.07812 31.8125 -12.6875
Q27.7344 -16.3125 15.5781 -16.3125
L12.5 -16.3125
z
" id="BitstreamVeraSans-Roman-7d"/>
     <path d="
M10.9844 1.51562
L10.9844 10.5
Q14.7031 8.73438 18.5 7.8125
Q22.3125 6.89062 25.9844 6.89062
Q35.75 6.89062 40.8906 13.4531
Q46.0469 20.0156 46.7812 33.4062
Q43.9531 29.2031 39.5938 26.9531
Q35.25 24.7031 29.9844 24.7031
Q19.0469 24.7031 12.6719 31.3125
Q6.29688 37.9375 6.29688 49.4219
Q6.29688 60.6406 12.9375 67.4219
Q19.5781 74.2188 30.6094 74.2188
Q43.2656 74.2188 49.9219 64.5156
Q56.5938 54.8281 56.5938 36.375
Q56.5938 19.1406 48.4062 8.85938
Q40.2344 -1.42188 26.4219 -1.42188
Q22.7031 -1.42188 18.8906 -0.6875
Q15.0938 0.046875 10.9844 1.51562
M30.6094 32.4219
Q37.25 32.4219 41.125 36.9531
Q45.0156 41.5 45.0156 49.4219
Q45.0156 57.2812 41.125 61.8438
Q37.25 66.4062 30.6094 66.4062
Q23.9688 66.4062 20.0938 61.8438
Q16.2188 57.2812 16.2188 49.4219
Q16.2188 41.5 20.0938 36.9531
Q23.9688 32.4219 30.6094 32.4219" id="BitstreamVeraSans-Roman-39"/>
     <path d="
M51.125 -9.28125
L51.125 -16.3125
L48.0938 -16.3125
Q35.9375 -16.3125 31.8125 -12.6875
Q27.6875 -9.07812 27.6875 1.70312
L27.6875 13.375
Q27.6875 20.75 25.0469 23.5781
Q22.4062 26.4219 15.4844 26.4219
L12.5 26.4219
L12.5 33.4062
L15.4844 33.4062
Q22.4688 33.4062 25.0781 36.2031
Q27.6875 39.0156 27.6875 46.2969
L27.6875 58.0156
Q27.6875 68.7969 31.8125 72.3906
Q35.9375 75.9844 48.0938 75.9844
L51.125 75.9844
L51.125 69
L47.7969 69
Q40.9219 69 38.8125 66.8438
Q36.7188 64.7031 36.7188 57.8125
L36.7188 45.7031
Q36.7188 38.0312 34.5 34.5625
Q32.2812 31.1094 26.9062 29.8906
Q32.3281 28.5625 34.5156 25.0938
Q36.7188 21.625 36.7188 14.0156
L36.7188 1.90625
Q36.7188 -4.98438 38.8125 -7.125
Q40.9219 -9.28125 47.7969 -9.28125
z
" id="BitstreamVeraSans-Roman-7b"/>
     <path d="
M11.7188 12.4062
L22.0156 12.4062
L22.0156 4
L14.0156 -11.625
L7.71875 -11.625
L11.7188 4
z
" id="BitstreamVeraSans-Roman-2c"/>
     <path d="
M4.89062 31.3906
L31.2031 31.3906
L31.2031 23.3906
L4.89062 23.3906
z
" id="BitstreamVeraSans-Roman-2d"/>
    </defs>
    <g transform="translate(228.5875 35.5652178218)scale(0.2 -0.2)">
     <use xlink:href="#BitstreamVeraSans-Roman-7b"/>
     <use x="63.623046875" xlink:href="#BitstreamVeraSans-Roman-66"/>
     <use x="98.828125" xlink:href="#BitstreamVeraSans-Roman-36"/>
     <use x="162.451171875" xlink:href="#BitstreamVeraSans-Roman-2d"/>
     <use x="198.53515625" xlink:href="#BitstreamVeraSans-Roman-66"/>
     <use x="233.740234375" xlink:href="#BitstreamVeraSans-Roman-39"/>
     <use x="297.36328125" xlink:href="#BitstreamVeraSans-Roman-7d"/>
     <use x="360.986328125" xlink:href="#BitstreamVeraSans-Roman-2c"/>
     <use x="392.7734375" xlink:href="#BitstreamVeraSans-Roman-20"/>
     <use x="424.560546875" xlink:href="#BitstreamVeraSans-Roman-35"/>
     <use x="488.18359375" xlink:href="#BitstreamVeraSans-Roman-2d"/>
     <use x="524.267578125" xlink:href="#BitstreamVeraSans-Roman-44"/>
    </g>
   </g>
   <g id="text_15">
    <!-- absolute targets -->
    <defs>
     <path d="
M56.2031 29.5938
L56.2031 25.2031
L14.8906 25.2031
Q15.4844 15.9219 20.4844 11.0625
Q25.4844 6.20312 34.4219 6.20312
Q39.5938 6.20312 44.4531 7.46875
Q49.3125 8.73438 54.1094 11.2812
L54.1094 2.78125
Q49.2656 0.734375 44.1875 -0.34375
Q39.1094 -1.42188 33.8906 -1.42188
Q20.7969 -1.42188 13.1562 6.1875
Q5.51562 13.8125 5.51562 26.8125
Q5.51562 40.2344 12.7656 48.1094
Q20.0156 56 32.3281 56
Q43.3594 56 49.7812 48.8906
Q56.2031 41.7969 56.2031 29.5938
M47.2188 32.2344
Q47.125 39.5938 43.0938 43.9844
Q39.0625 48.3906 32.4219 48.3906
Q24.9062 48.3906 20.3906 44.1406
Q15.875 39.8906 15.1875 32.1719
z
" id="BitstreamVeraSans-Roman-65"/>
     <path d="
M8.5 21.5781
L8.5 54.6875
L17.4844 54.6875
L17.4844 21.9219
Q17.4844 14.1562 20.5 10.2656
Q23.5312 6.39062 29.5938 6.39062
Q36.8594 6.39062 41.0781 11.0312
Q45.3125 15.6719 45.3125 23.6875
L45.3125 54.6875
L54.2969 54.6875
L54.2969 0
L45.3125 0
L45.3125 8.40625
Q42.0469 3.42188 37.7188 1
Q33.4062 -1.42188 27.6875 -1.42188
Q18.2656 -1.42188 13.375 4.4375
Q8.5 10.2969 8.5 21.5781" id="BitstreamVeraSans-Roman-75"/>
     <path d="
M48.6875 27.2969
Q48.6875 37.2031 44.6094 42.8438
Q40.5312 48.4844 33.4062 48.4844
Q26.2656 48.4844 22.1875 42.8438
Q18.1094 37.2031 18.1094 27.2969
Q18.1094 17.3906 22.1875 11.75
Q26.2656 6.10938 33.4062 6.10938
Q40.5312 6.10938 44.6094 11.75
Q48.6875 17.3906 48.6875 27.2969
M18.1094 46.3906
Q20.9531 51.2656 25.2656 53.625
Q29.5938 56 35.5938 56
Q45.5625 56 51.7812 48.0938
Q58.0156 40.1875 58.0156 27.2969
Q58.0156 14.4062 51.7812 6.48438
Q45.5625 -1.42188 35.5938 -1.42188
Q29.5938 -1.42188 25.2656 0.953125
Q20.9531 3.32812 18.1094 8.20312
L18.1094 0
L9.07812 0
L9.07812 75.9844
L18.1094 75.9844
z
" id="BitstreamVeraSans-Roman-62"/>
    </defs>
    <g transform="translate(64.921875 359.056342822)scale(0.14 -0.14)">
     <use xlink:href="#BitstreamVeraSans-Roman-61"/>
     <use x="61.279296875" xlink:href="#BitstreamVeraSans-Roman-62"/>
     <use x="124.755859375" xlink:href="#BitstreamVeraSans-Roman-73"/>
     <use x="176.85546875" xlink:href="#BitstreamVeraSans-Roman-6f"/>
     <use x="238.037109375" xlink:href="#BitstreamVeraSans-Roman-6c"/>
     <use x="265.8203125" xlink:href="#BitstreamVeraSans-Roman-75"/>
     <use x="329.19921875" xlink:href="#BitstreamVeraSans-Roman-74"/>
     <use x="368.408203125" xlink:href="#BitstreamVeraSans-Roman-65"/>
     <use x="429.931640625" xlink:href="#BitstreamVeraSans-Roman-20"/>
     <use x="461.71875" xlink:href="#BitstreamVeraSans-Roman-74"/>
     <use x="500.927734375" xlink:href="#BitstreamVeraSans-Roman-61"/>
     <use x="562.20703125" xlink:href="#BitstreamVeraSans-Roman-72"/>
     <use x="601.5703125" xlink:href="#BitstreamVeraSans-Roman-67"/>
     <use x="665.046875" xlink:href="#BitstreamVeraSans-Roman-65"/>
     <use x="726.5703125" xlink:href="#BitstreamVeraSans-Roman-74"/>
     <use x="765.779296875" xlink:href="#BitstreamVeraSans-Roman-73"/>
    </g>
   </g>
   <g id="text_16">
    <!-- v2.1.1.3 -->
    <g style="fill:#808080;" transform="translate(268.2203125 353.520655322)scale(0.1 -0.1)">
     <use xlink:href="#BitstreamVeraSans-Roman-76"/>
     <use x="59.1796875" xlink:href="#BitstreamVeraSans-Roman-32"/>
     <use x="122.802734375" xlink:href="#BitstreamVeraSans-Roman-2e"/>
     <use x="154.58984375" xlink:href="#BitstreamVeraSans-Roman-31"/>
     <use x="218.212890625" xlink:href="#BitstreamVeraSans-Roman-2e"/>
     <use x="250.0" xlink:href="#BitstreamVeraSans-Roman-31"/>
     <use x="313.623046875" xlink:href="#BitstreamVeraSans-Roman-2e"/>
     <use x="345.41015625" xlink:href="#BitstreamVeraSans-Roman-33"/>
    </g>
   </g>
   <g id="legend_1">
    <g id="patch_7">
     <path d="
M74.9219 146.881
L211.022 146.881
L211.022 23.4563
L74.9219 23.4563
z
" style="fill:#ffffff;opacity:0.2;stroke:#000000;stroke-linejoin:miter;"/>
    </g>
    <g id="line2d_137">
     <path d="
M88.9219 39.6532
L116.922 39.6532" style="fill:none;stroke:#000000;stroke-linecap:square;"/>
    </g>
    <g id="line2d_138"/>
    <g id="text_17">
     <!-- 1: 4/4 -->
     <defs>
      <path d="
M11.7188 12.4062
L22.0156 12.4062
L22.0156 0
L11.7188 0
z

M11.7188 51.7031
L22.0156 51.7031
L22.0156 39.3125
L11.7188 39.3125
z
" id="BitstreamVeraSans-Roman-3a"/>
     </defs>
     <g transform="translate(138.921875 46.6532178218)scale(0.2 -0.2)">
      <use xlink:href="#BitstreamVeraSans-Roman-31"/>
      <use x="63.623046875" xlink:href="#BitstreamVeraSans-Roman-3a"/>
      <use x="97.314453125" xlink:href="#BitstreamVeraSans-Roman-20"/>
      <use x="129.1015625" xlink:href="#BitstreamVeraSans-Roman-34"/>
      <use x="192.724609375" xlink:href="#BitstreamVeraSans-Roman-2f"/>
      <use x="226.416015625" xlink:href="#BitstreamVeraSans-Roman-34"/>
     </g>
    </g>
    <g id="line2d_139">
     <path d="
M88.9219 69.0095
L116.922 69.0095" style="fill:none;stroke:#00bfbf;stroke-linecap:square;"/>
    </g>
    <g id="line2d_140"/>
    <g id="text_18">
     <!-- -1: 4/4 -->
     <g transform="translate(138.921875 76.0094678218)scale(0.2 -0.2)">
      <use xlink:href="#BitstreamVeraSans-Roman-2d"/>
      <use x="36.083984375" xlink:href="#BitstreamVeraSans-Roman-31"/>
      <use x="99.70703125" xlink:href="#BitstreamVeraSans-Roman-3a"/>
      <use x="133.3984375" xlink:href="#BitstreamVeraSans-Roman-20"/>
      <use x="165.185546875" xlink:href="#BitstreamVeraSans-Roman-34"/>
      <use x="228.80859375" xlink:href="#BitstreamVeraSans-Roman-2f"/>
      <use x="262.5" xlink:href="#BitstreamVeraSans-Roman-34"/>
     </g>
    </g>
    <g id="line2d_141">
     <path d="
M88.9219 98.3657
L116.922 98.3657" style="fill:none;stroke:#bf00bf;stroke-linecap:square;"/>
    </g>
    <g id="line2d_142"/>
    <g id="text_19">
     <!-- -4: 4/4 -->
     <g transform="translate(138.921875 105.365717822)scale(0.2 -0.2)">
      <use xlink:href="#BitstreamVeraSans-Roman-2d"/>
      <use x="36.083984375" xlink:href="#BitstreamVeraSans-Roman-34"/>
      <use x="99.70703125" xlink:href="#BitstreamVeraSans-Roman-3a"/>
      <use x="133.3984375" xlink:href="#BitstreamVeraSans-Roman-20"/>
      <use x="165.185546875" xlink:href="#BitstreamVeraSans-Roman-34"/>
      <use x="228.80859375" xlink:href="#BitstreamVeraSans-Roman-2f"/>
      <use x="262.5" xlink:href="#BitstreamVeraSans-Roman-34"/>
     </g>
    </g>
    <g id="line2d_143">
     <path d="
M88.9219 127.722
L116.922 127.722" style="fill:none;stroke:#ff0000;stroke-linecap:square;stroke-width:3.0;"/>
    </g>
    <g id="line2d_144"/>
    <g id="text_20">
     <!-- -8: 4/4 -->
     <g transform="translate(138.921875 134.721967822)scale(0.2 -0.2)">
      <use xlink:href="#BitstreamVeraSans-Roman-2d"/>
      <use x="36.083984375" xlink:href="#BitstreamVeraSans-Roman-38"/>
      <use x="99.70703125" xlink:href="#BitstreamVeraSans-Roman-3a"/>
      <use x="133.3984375" xlink:href="#BitstreamVeraSans-Roman-20"/>
      <use x="165.185546875" xlink:href="#BitstreamVeraSans-Roman-34"/>
      <use x="228.80859375" xlink:href="#BitstreamVeraSans-Roman-2f"/>
      <use x="262.5" xlink:href="#BitstreamVeraSans-Roman-34"/>
     </g>
    </g>
   </g>
  </g>
 </g>
 <defs>
  <clipPath id="p4b24e7e61f">
   <rect height="345.6" width="446.4" x="64.921875" y="13.4563428218"/>
  </clipPath>
 </defs>
</svg>
