Function,Run,Iteration,X1,X2,Y,LB1,LB2,UB1,UB2,Method
bbob_f015_i01_d02,  1, 79,-2.69013898, 3.12246925,   1000.99495906,-5.00000000,-5.00000000, 5.00000000, 5.00000000,-1
bbob_f015_i01_d02,  2, 69,-3.43241910, 2.84736738,   1000.99495906,-5.00000000,-5.00000000,-2.69013898, 5.00000000,8
bbob_f015_i01_d02,  3, 59,-3.43241915, 2.84736730,   1000.99495906,-5.00000000,-5.00000000,-2.69013898, 2.84736738,3
bbob_f015_i01_d02,  4, 49,-3.43241912, 2.84736731,   1000.99495906,-3.47121001, 2.80121048,-3.36840694, 2.89164274,2
bbob_f015_i01_d02,  5, 19,-3.05680564, 3.00160417,   1000.00000001,-3.80355916, 2.98491832,-3.06127904, 3.26002018,8
