Function,Run,Iteration,X1,X2,Y,LB1,LB2,UB1,UB2,Method
bbob_f004_i72_d02, 62, 69, 0.51634947, 1.73680000,     43.95495906,-5.00000000,-5.00000000, 5.00000000, 5.00000000,-1
bbob_f004_i72_d02, 63, 39, 0.51634948, 1.73680000,     43.95495906, 0.47395038, 1.67686171, 0.63685430, 1.82988605,2
bbob_f004_i72_d02, 64, 49, 0.51634946, 1.73680000,     43.95495906,-5.00000000,-5.00000000, 0.51634947, 5.00000000,8
bbob_f004_i72_d02, 65, 39, 1.51279945, 1.73679984,     42.96000000, 0.38260681, 1.61191371, 0.56480085, 1.86800832,2
