Function,Run,Iteration,X1,X2,Y,LB1,LB2,UB1,UB2,Method
bbob_f004_i02_d02, 52, 89, 2.39839999,-1.16587434,     78.65495906,-5.00000000,-5.00000000, 5.00000000, 5.00000000,-1
bbob_f004_i02_d02, 53, 59, 2.39839999,-0.55038557,     78.65495906,-5.00000000,-1.16587434, 5.00000000, 5.00000000,8
bbob_f004_i02_d02, 54, 39, 2.39839897,-0.85599938,     77.66000000, 2.28312217,-0.67628480, 2.48790661,-0.45891255,2
