<?xml version="1.0" encoding="utf-8" standalone="no"?>
<!DOCTYPE svg PUBLIC "-//W3C//DTD SVG 1.1//EN"
  "http://www.w3.org/Graphics/SVG/1.1/DTD/svg11.dtd">
<!-- Created with matplotlib (http://matplotlib.org/) -->
<svg height="407pt" version="1.1" viewBox="0 0 460 407" width="460pt" xmlns="http://www.w3.org/2000/svg" xmlns:xlink="http://www.w3.org/1999/xlink">
 <defs>
  <style type="text/css">
*{stroke-linecap:butt;stroke-linejoin:round;}
  </style>
 </defs>
 <g id="figure_1">
  <g id="patch_1">
   <path d="
M0 407.712
L460.8 407.712
L460.8 0
L0 0
z
" style="fill:#ffffff;"/>
  </g>
  <g id="axes_1">
   <g id="patch_2">
    <path d="
M7.2 352.8
L453.6 352.8
L453.6 7.2
L7.2 7.2
z
" style="fill:#ffffff;"/>
   </g>
   <g id="line2d_1">
    <path clip-path="url(#p99b4b0da67)" d="
M-39.4679 352.8
M-1 267.255
L-0.289374 267.255
L-0.289374 261.552
L0.161774 261.552
L0.161774 255.85
L0.366995 255.85
L0.366995 250.147
L0.631851 250.147
L0.631851 244.444
L0.936841 244.444
L0.936841 238.741
L1.19783 238.741
L1.19783 233.038
L1.33207 233.038
L1.33207 227.335
L1.4269 227.335
L1.4269 221.632
L1.46737 221.632
L1.46737 215.929
L1.60596 215.929
L1.60596 210.226
L1.61317 210.226
L1.61317 204.523
L1.76216 204.523
L1.76216 198.82
L2.39364 198.82
L2.39364 193.117
L2.42267 193.117
L2.42267 187.414
L2.47491 187.414
L2.47491 181.711
L2.69527 181.711
L2.69527 176.008
L3.05682 176.008
L3.05682 170.305
L3.19893 170.305
L3.19893 164.602
L3.2023 164.602
L3.2023 158.899
L3.39152 158.899
L3.39152 153.196
L3.39965 153.196
L3.39965 147.493
L3.54491 147.493
L3.54491 141.79
L3.93935 141.79
L3.93935 136.087
L4.23431 136.087
L4.23431 130.384
L4.43492 130.384
L4.43492 124.681
L4.46332 124.681
L4.46332 118.978
L4.53823 118.978
L4.53823 113.275
L4.57162 113.275
L4.57162 107.572
L4.59708 107.572
L4.59708 101.869
L4.63334 101.869
L4.63334 96.1663
L4.96993 96.1663
L4.96993 90.4634
L4.97858 90.4634
L4.97858 84.7604
L5.10604 84.7604
L5.10604 79.0574
L5.36027 79.0574
L5.36027 73.3545
L5.39097 73.3545
L5.39097 67.6515
L5.52247 67.6515
L5.52247 61.9485
L5.79837 61.9485
L5.79837 56.2455
L5.80222 56.2455
L5.80222 50.5426
L5.97238 50.5426
L5.97238 44.8396
L5.98461 44.8396
L5.98461 39.1366
L6.0407 39.1366
L6.0407 33.4337
L6.18732 33.4337
L6.18732 27.7307
L6.36108 27.7307
L6.36108 22.0277
L6.72979 22.0277
L6.72979 16.3248
L7.03406 16.3248
L7.03406 10.6218
L7.03406 10.6218
L7.03406 10.6218
L453.6 10.6218" style="fill:none;stroke:#ff0000;stroke-linecap:square;stroke-width:3.0;"/>
   </g>
   <g id="line2d_2">
    <path clip-path="url(#p99b4b0da67)" d="
M258.908 352.8
L258.908 347.097
L264.333 347.097
L264.333 341.394
L271.059 341.394
L271.059 335.691
L271.105 335.691
L271.105 329.988
L276.551 329.988
L276.551 324.285
L277.302 324.285
L277.302 318.582
L280.545 318.582
L280.545 312.879
L281.409 312.879
L281.409 307.176
L282.665 307.176
L282.665 301.473
L283.202 301.473
L283.202 295.77
L285.099 295.77
L285.099 290.067
L285.236 290.067
L285.236 284.364
L286.446 284.364
L286.446 278.661
L286.577 278.661
L286.577 272.958
L287.796 272.958
L287.796 267.255
L290.526 267.255
L290.526 261.552
L295.078 261.552
L295.078 255.85
L298.692 255.85
L298.692 250.147
L308.48 250.147
L308.48 244.444
L308.613 244.444
L308.613 238.741
L313.533 238.741
L313.533 233.038
L318.692 233.038
L318.692 227.335
L320.949 227.335
L320.949 221.632
L321.574 221.632
L321.574 215.929
L323.491 215.929
L323.491 210.226
L331.96 210.226
L331.96 204.523
L332.01 204.523
L332.01 198.82
L332.191 198.82
L332.191 193.117
L332.725 193.117
L332.725 187.414
L333.675 187.414
L333.675 181.711
L336.719 181.711
L336.719 176.008
L339.081 176.008
L339.081 170.305
L340.14 170.305
L340.14 164.602
L340.259 164.602
L340.259 158.899
L342.499 158.899
L342.499 153.196
L342.517 153.196
L342.517 147.493
L342.716 147.493
L342.716 141.79
L343.183 141.79
L343.183 136.087
L343.202 136.087
L343.202 130.384
L343.521 130.384
L343.521 124.681
L345.267 124.681
L345.267 118.978
L345.855 118.978
L345.855 113.275
L346.431 113.275
L346.431 107.572
L346.855 107.572
L346.855 101.869
L349.696 101.869
L349.696 96.1663
L350.69 96.1663
L350.69 90.4634
L350.764 90.4634
L350.764 84.7604
L351.209 84.7604
L351.209 79.0574
L351.778 79.0574
L351.778 73.3545
L352.374 73.3545
L352.374 67.6515
L354.186 67.6515
L354.186 61.9485
L354.254 61.9485
L354.254 56.2455
L357.294 56.2455
L357.294 50.5426
L358.12 50.5426
L358.12 44.8396
L359.678 44.8396
L359.678 39.1366
L359.704 39.1366
L359.704 33.4337
L360.45 33.4337
L360.45 27.7307
L360.652 27.7307
L360.652 22.0277
L361.457 22.0277
L361.457 16.3248
L361.714 16.3248
L361.714 10.6218
L361.714 10.6218
L361.714 10.6218
L453.6 10.6218" style="fill:none;stroke:#00bfbf;stroke-linecap:square;"/>
   </g>
   <g id="line2d_3">
    <path clip-path="url(#p99b4b0da67)" d="
M258.908 352.8
L258.908 347.097
L264.333 347.097
L264.333 341.394
L269.146 341.394
L269.146 335.691
L269.163 335.691
L269.163 329.988
L271.059 329.988
L271.059 324.285
L271.105 324.285
L271.105 318.582
L271.532 318.582
L271.532 312.879
L276.551 312.879
L276.551 307.176
L277.183 307.176
L277.183 301.473
L277.302 301.473
L277.302 295.77
L279.137 295.77
L279.137 290.067
L280.904 290.067
L280.904 284.364
L282.665 284.364
L282.665 278.661
L283.202 278.661
L283.202 272.958
L283.331 272.958
L283.331 267.255
L283.915 267.255
L283.915 261.552
L285.099 261.552
L285.099 255.85
L286.577 255.85
L286.577 250.147
L290.526 250.147
L290.526 244.444
L298.692 244.444
L298.692 238.741
L299.518 238.741
L299.518 233.038
L299.84 233.038
L299.84 227.335
L308.48 227.335
L308.48 221.632
L308.613 221.632
L308.613 215.929
L309.904 215.929
L309.904 210.226
L311.687 210.226
L311.687 204.523
L313.533 204.523
L313.533 198.82
L316.698 198.82
L316.698 193.117
L320.949 193.117
L320.949 187.414
L321.208 187.414
L321.208 181.711
L321.287 181.711
L321.287 176.008
L321.574 176.008
L321.574 170.305
L321.591 170.305
L321.591 164.602
L322.551 164.602
L322.551 158.899
L323.491 158.899
L323.491 153.196
L323.775 153.196
L323.775 147.493
L324.347 147.493
L324.347 141.79
L331.859 141.79
L331.859 136.087
L332.01 136.087
L332.01 130.384
L332.725 130.384
L332.725 124.681
L334.742 124.681
L334.742 118.978
L335.144 118.978
L335.144 113.275
L335.462 113.275
L335.462 107.572
L336.014 107.572
L336.014 101.869
L336.092 101.869
L336.092 96.1663
L337.03 96.1663
L337.03 90.4634
L339.081 90.4634
L339.081 84.7604
L339.385 84.7604
L339.385 79.0574
L339.974 79.0574
L339.974 73.3545
L340.259 73.3545
L340.259 67.6515
L340.261 67.6515
L340.261 61.9485
L342.164 61.9485
L342.164 56.2455
L343.305 56.2455
L343.305 50.5426
L343.389 50.5426
L343.389 44.8396
L344.994 44.8396
L344.994 39.1366
L345.855 39.1366
L345.855 33.4337
L350.69 33.4337
L350.69 27.7307
L353.601 27.7307
L353.601 22.0277
L353.833 22.0277
L353.833 16.3248
L355.764 16.3248
L355.764 10.6218
L355.764 10.6218
L355.764 10.6218
L453.6 10.6218" style="fill:none;stroke:#bf00bf;stroke-linecap:square;"/>
   </g>
   <g id="line2d_4">
    <path clip-path="url(#p99b4b0da67)" d="
M251.263 352.8
L251.263 347.097
L258.908 347.097
L258.908 341.394
L263.623 341.394
L263.623 335.691
L263.624 335.691
L263.624 329.988
L263.873 329.988
L263.873 324.285
L264.333 324.285
L264.333 318.582
L264.785 318.582
L264.785 312.879
L264.85 312.879
L264.85 307.176
L269.163 307.176
L269.163 301.473
L271.059 301.473
L271.059 295.77
L272.599 295.77
L272.599 290.067
L274.567 290.067
L274.567 284.364
L275.859 284.364
L275.859 278.661
L276.607 278.661
L276.607 272.958
L276.768 272.958
L276.768 267.255
L276.859 267.255
L276.859 261.552
L277.834 261.552
L277.834 255.85
L277.868 255.85
L277.868 250.147
L283.202 250.147
L283.202 244.444
L285.106 244.444
L285.106 238.741
L290.526 238.741
L290.526 233.038
L294.273 233.038
L294.273 227.335
L297.275 227.335
L297.275 221.632
L299.552 221.632
L299.552 215.929
L299.84 215.929
L299.84 210.226
L301.187 210.226
L301.187 204.523
L302.33 204.523
L302.33 198.82
L302.909 198.82
L302.909 193.117
L305.401 193.117
L305.401 187.414
L307.757 187.414
L307.757 181.711
L308.392 181.711
L308.392 176.008
L308.613 176.008
L308.613 170.305
L310.68 170.305
L310.68 164.602
L311.687 164.602
L311.687 158.899
L313.533 158.899
L313.533 153.196
L314.371 153.196
L314.371 147.493
L314.531 147.493
L314.531 141.79
L315.931 141.79
L315.931 136.087
L316.698 136.087
L316.698 130.384
L317.788 130.384
L317.788 124.681
L318.545 124.681
L318.545 118.978
L320.559 118.978
L320.559 113.275
L320.92 113.275
L320.92 107.572
L320.949 107.572
L320.949 101.869
L321.208 101.869
L321.208 96.1663
L323.152 96.1663
L323.152 90.4634
L324.147 90.4634
L324.147 84.7604
L327.693 84.7604
L327.693 79.0574
L329.061 79.0574
L329.061 73.3545
L330.145 73.3545
L330.145 67.6515
L330.212 67.6515
L330.212 61.9485
L334.113 61.9485
L334.113 56.2455
L335.462 56.2455
L335.462 50.5426
L339.385 50.5426
L339.385 44.8396
L339.974 44.8396
L339.974 39.1366
L340.261 39.1366
L340.261 33.4337
L343.305 33.4337
L343.305 27.7307
L350.69 27.7307
L350.69 22.0277
L351.724 22.0277
L351.724 16.3248
L353.601 16.3248
L353.601 10.6218
L353.601 10.6218
L353.601 10.6218
L453.6 10.6218" style="fill:none;stroke:#000000;stroke-linecap:square;"/>
   </g>
   <g id="line2d_5">
    <path clip-path="url(#p99b4b0da67)" d="
M249.981 352.8
L249.981 347.097
L251.263 347.097
L251.263 341.394
L251.472 341.394
L251.472 335.691
L254.028 335.691
L254.028 329.988
L255.568 329.988
L255.568 324.285
L256.368 324.285
L256.368 318.582
L257.004 318.582
L257.004 312.879
L258.908 312.879
L258.908 307.176
L259.043 307.176
L259.043 301.473
L259.971 301.473
L259.971 295.77
L263.623 295.77
L263.623 290.067
L263.873 290.067
L263.873 284.364
L264.85 284.364
L264.85 278.661
L265.141 278.661
L265.141 272.958
L267.096 272.958
L267.096 267.255
L267.272 267.255
L267.272 261.552
L267.992 261.552
L267.992 255.85
L268.004 255.85
L268.004 250.147
L270.129 250.147
L270.129 244.444
L270.916 244.444
L270.916 238.741
L271.866 238.741
L271.866 233.038
L274.567 233.038
L274.567 227.335
L277.434 227.335
L277.434 221.632
L286.963 221.632
L286.963 215.929
L289.767 215.929
L289.767 210.226
L294.149 210.226
L294.149 204.523
L294.273 204.523
L294.273 198.82
L294.9 198.82
L294.9 193.117
L295.493 193.117
L295.493 187.414
L296.582 187.414
L296.582 181.711
L297.275 181.711
L297.275 176.008
L298.415 176.008
L298.415 170.305
L298.545 170.305
L298.545 164.602
L298.814 164.602
L298.814 158.899
L299.195 158.899
L299.195 153.196
L299.84 153.196
L299.84 147.493
L301.187 147.493
L301.187 141.79
L301.685 141.79
L301.685 136.087
L302.171 136.087
L302.171 130.384
L302.33 130.384
L302.33 124.681
L302.445 124.681
L302.445 118.978
L302.909 118.978
L302.909 113.275
L304.108 113.275
L304.108 107.572
L304.974 107.572
L304.974 101.869
L305.401 101.869
L305.401 96.1663
L305.668 96.1663
L305.668 90.4634
L311.13 90.4634
L311.13 84.7604
L312.103 84.7604
L312.103 79.0574
L312.363 79.0574
L312.363 73.3545
L317.32 73.3545
L317.32 67.6515
L317.504 67.6515
L317.504 61.9485
L317.509 61.9485
L317.509 56.2455
L318.545 56.2455
L318.545 50.5426
L323.363 50.5426
L323.363 44.8396
L326.369 44.8396
L326.369 39.1366
L329.361 39.1366
L329.361 33.4337
L335.568 33.4337
L335.568 27.7307
L336.176 27.7307
L336.176 22.0277
L337.911 22.0277
L337.911 16.3248
L338.58 16.3248
L338.58 10.6218
L338.58 10.6218
L338.58 10.6218
L453.6 10.6218" style="fill:none;stroke:#00bfbf;stroke-linecap:square;"/>
   </g>
   <g id="line2d_6">
    <path clip-path="url(#p99b4b0da67)" d="
M212.029 352.8
L212.029 347.097
L213.418 347.097
L213.418 341.394
L216.095 341.394
L216.095 335.691
L218.833 335.691
L218.833 329.988
L220.34 329.988
L220.34 324.285
L224.071 324.285
L224.071 318.582
L224.791 318.582
L224.791 312.879
L225.655 312.879
L225.655 307.176
L225.917 307.176
L225.917 301.473
L226.59 301.473
L226.59 295.77
L226.672 295.77
L226.672 290.067
L226.681 290.067
L226.681 284.364
L228.55 284.364
L228.55 278.661
L229.259 278.661
L229.259 272.958
L232.784 272.958
L232.784 267.255
L234.686 267.255
L234.686 261.552
L235.22 261.552
L235.22 255.85
L236.206 255.85
L236.206 250.147
L236.367 250.147
L236.367 244.444
L237.093 244.444
L237.093 238.741
L237.129 238.741
L237.129 233.038
L237.195 233.038
L237.195 227.335
L237.327 227.335
L237.327 221.632
L238.165 221.632
L238.165 215.929
L238.324 215.929
L238.324 210.226
L238.336 210.226
L238.336 204.523
L238.658 204.523
L238.658 198.82
L238.932 198.82
L238.932 193.117
L239.694 193.117
L239.694 187.414
L239.79 187.414
L239.79 181.711
L239.797 181.711
L239.797 176.008
L239.975 176.008
L239.975 170.305
L240.517 170.305
L240.517 164.602
L241.143 164.602
L241.143 158.899
L241.252 158.899
L241.252 153.196
L241.434 153.196
L241.434 147.493
L241.916 147.493
L241.916 141.79
L242.017 141.79
L242.017 136.087
L242.099 136.087
L242.099 130.384
L242.679 130.384
L242.679 124.681
L243.514 124.681
L243.514 118.978
L243.933 118.978
L243.933 113.275
L244.55 113.275
L244.55 107.572
L245.341 107.572
L245.341 101.869
L246.187 101.869
L246.187 96.1663
L246.324 96.1663
L246.324 90.4634
L246.698 90.4634
L246.698 84.7604
L246.911 84.7604
L246.911 79.0574
L248.623 79.0574
L248.623 73.3545
L248.75 73.3545
L248.75 67.6515
L249.084 67.6515
L249.084 61.9485
L249.22 61.9485
L249.22 56.2455
L249.588 56.2455
L249.588 50.5426
L250.464 50.5426
L250.464 44.8396
L250.639 44.8396
L250.639 39.1366
L253.265 39.1366
L253.265 33.4337
L255.412 33.4337
L255.412 27.7307
L256.971 27.7307
L256.971 22.0277
L258.451 22.0277
L258.451 16.3248
L259.324 16.3248
L259.324 10.6218
L259.324 10.6218
L259.324 10.6218
L453.6 10.6218" style="fill:none;stroke:#bf00bf;stroke-linecap:square;"/>
   </g>
   <g id="line2d_7">
    <path clip-path="url(#p99b4b0da67)" d="
M-39.4679 352.8
M-1 307.176
L0.161774 307.176
L0.161774 301.473
L1.4269 301.473
L1.4269 295.77
L3.93935 295.77
L3.93935 290.067
L4.43492 290.067
L4.43492 284.364
L4.57162 284.364
L4.57162 278.661
L5.36027 278.661
L5.36027 272.958
L6.0407 272.958
L6.0407 267.255
L7.03406 267.255
L7.03406 261.552
L7.42891 261.552
L7.42891 255.85
L8.20254 255.85
L8.20254 250.147
L9.70135 250.147
L9.70135 244.444
L10.5736 244.444
L10.5736 238.741
L11.7581 238.741
L11.7581 233.038
L15.2888 233.038
L15.2888 227.335
L15.7871 227.335
L15.7871 221.632
L17.9466 221.632
L17.9466 215.929
L18.8276 215.929
L18.8276 210.226
L19.749 210.226
L19.749 204.523
L26.1866 204.523
L26.1866 198.82
L36.975 198.82
L36.975 193.117
L40.446 193.117
L40.446 187.414
L43.0093 187.414
L43.0093 181.711
L47.7032 181.711
L47.7032 176.008
L50.7 176.008
L50.7 170.305
L57.8488 170.305
L57.8488 164.602
L60.1629 164.602
L60.1629 158.899
L65.0709 158.899
L65.0709 153.196
L65.1554 153.196
L65.1554 147.493
L74.6938 147.493
L74.6938 141.79
L82.943 141.79
L82.943 136.087
L97.8603 136.087
L97.8603 130.384
L100.507 130.384
L100.507 124.681
L101.45 124.681
L101.45 118.978
L112.887 118.978
L112.887 113.275
L120.532 113.275
L120.532 107.572
L129.736 107.572
L129.736 101.869
L133.779 101.869
L133.779 96.1663
L134.622 96.1663
L134.622 90.4634
L136.743 90.4634
L136.743 84.7604
L139.42 84.7604
L139.42 79.0574
L142.999 79.0574
L142.999 73.3545
L148.784 73.3545
L148.784 67.6515
L150.117 67.6515
L150.117 61.9485
L150.573 61.9485
L150.573 56.2455
L154.034 56.2455
L154.034 50.5426
L174.411 50.5426
L174.411 44.8396
L181.114 44.8396
L181.114 39.1366
L184.243 39.1366
L184.243 33.4337
L188.94 33.4337
L188.94 27.7307
L197.308 27.7307
L197.308 22.0277
L197.809 22.0277
L197.809 16.3248
L232.992 16.3248
L232.992 10.6218
L232.992 10.6218
L232.992 10.6218
L453.6 10.6218" style="fill:none;stroke:#000000;stroke-linecap:square;"/>
   </g>
   <g id="patch_3">
    <path d="
M7.2 7.2
L453.6 7.2" style="fill:none;stroke:#000000;stroke-linecap:square;stroke-linejoin:miter;"/>
   </g>
   <g id="patch_4">
    <path d="
M453.6 352.8
L453.6 7.2" style="fill:none;stroke:#000000;stroke-linecap:square;stroke-linejoin:miter;"/>
   </g>
   <g id="patch_5">
    <path d="
M7.2 352.8
L453.6 352.8" style="fill:none;stroke:#000000;stroke-linecap:square;stroke-linejoin:miter;"/>
   </g>
   <g id="patch_6">
    <path d="
M7.2 352.8
L7.2 7.2" style="fill:none;stroke:#000000;stroke-linecap:square;stroke-linejoin:miter;"/>
   </g>
   <g id="matplotlib.axis_1">
    <g id="xtick_1"/>
    <g id="xtick_2">
     <g id="line2d_8">
      <path clip-path="url(#p99b4b0da67)" d="
M59.6175 352.8
L59.6175 7.2" style="fill:none;stroke:#000000;stroke-dasharray:1.000000,3.000000;stroke-dashoffset:0.0;stroke-width:0.5;"/>
     </g>
     <g id="line2d_9">
      <defs>
       <path d="
M0 0
L0 -4" id="m93b0483c22" style="stroke:#000000;stroke-width:0.5;"/>
      </defs>
      <g>
       <use style="stroke:#000000;stroke-width:0.5;" x="59.6174973142" xlink:href="#m93b0483c22" y="352.8"/>
      </g>
     </g>
     <g id="line2d_10">
      <defs>
       <path d="
M0 0
L0 4" id="m741efc42ff" style="stroke:#000000;stroke-width:0.5;"/>
      </defs>
      <g>
       <use style="stroke:#000000;stroke-width:0.5;" x="59.6174973142" xlink:href="#m741efc42ff" y="7.2"/>
      </g>
     </g>
     <g id="text_1">
      <!-- -6 -->
      <defs>
       <path d="
M33.0156 40.375
Q26.375 40.375 22.4844 35.8281
Q18.6094 31.2969 18.6094 23.3906
Q18.6094 15.5312 22.4844 10.9531
Q26.375 6.39062 33.0156 6.39062
Q39.6562 6.39062 43.5312 10.9531
Q47.4062 15.5312 47.4062 23.3906
Q47.4062 31.2969 43.5312 35.8281
Q39.6562 40.375 33.0156 40.375
M52.5938 71.2969
L52.5938 62.3125
Q48.875 64.0625 45.0938 64.9844
Q41.3125 65.9219 37.5938 65.9219
Q27.8281 65.9219 22.6719 59.3281
Q17.5312 52.7344 16.7969 39.4062
Q19.6719 43.6562 24.0156 45.9219
Q28.375 48.1875 33.5938 48.1875
Q44.5781 48.1875 50.9531 41.5156
Q57.3281 34.8594 57.3281 23.3906
Q57.3281 12.1562 50.6875 5.35938
Q44.0469 -1.42188 33.0156 -1.42188
Q20.3594 -1.42188 13.6719 8.26562
Q6.98438 17.9688 6.98438 36.375
Q6.98438 53.6562 15.1875 63.9375
Q23.3906 74.2188 37.2031 74.2188
Q40.9219 74.2188 44.7031 73.4844
Q48.4844 72.75 52.5938 71.2969" id="BitstreamVeraSans-Roman-36"/>
       <path d="
M4.89062 31.3906
L31.2031 31.3906
L31.2031 23.3906
L4.89062 23.3906
z
" id="BitstreamVeraSans-Roman-2d"/>
      </defs>
      <g transform="translate(50.7659348142 371.996875)scale(0.2 -0.2)">
       <use xlink:href="#BitstreamVeraSans-Roman-2d"/>
       <use x="36.083984375" xlink:href="#BitstreamVeraSans-Roman-36"/>
      </g>
     </g>
    </g>
    <g id="xtick_3">
     <g id="line2d_11">
      <path clip-path="url(#p99b4b0da67)" d="
M112.148 352.8
L112.148 7.2" style="fill:none;stroke:#000000;stroke-dasharray:1.000000,3.000000;stroke-dashoffset:0.0;stroke-width:0.5;"/>
     </g>
     <g id="line2d_12">
      <g>
       <use style="stroke:#000000;stroke-width:0.5;" x="112.148497672" xlink:href="#m93b0483c22" y="352.8"/>
      </g>
     </g>
     <g id="line2d_13">
      <g>
       <use style="stroke:#000000;stroke-width:0.5;" x="112.148497672" xlink:href="#m741efc42ff" y="7.2"/>
      </g>
     </g>
     <g id="text_2">
      <!-- -4 -->
      <defs>
       <path d="
M37.7969 64.3125
L12.8906 25.3906
L37.7969 25.3906
z

M35.2031 72.9062
L47.6094 72.9062
L47.6094 25.3906
L58.0156 25.3906
L58.0156 17.1875
L47.6094 17.1875
L47.6094 0
L37.7969 0
L37.7969 17.1875
L4.89062 17.1875
L4.89062 26.7031
z
" id="BitstreamVeraSans-Roman-34"/>
      </defs>
      <g transform="translate(103.228185172 371.996875)scale(0.2 -0.2)">
       <use xlink:href="#BitstreamVeraSans-Roman-2d"/>
       <use x="36.083984375" xlink:href="#BitstreamVeraSans-Roman-34"/>
      </g>
     </g>
    </g>
    <g id="xtick_4">
     <g id="line2d_14">
      <path clip-path="url(#p99b4b0da67)" d="
M164.679 352.8
L164.679 7.2" style="fill:none;stroke:#000000;stroke-dasharray:1.000000,3.000000;stroke-dashoffset:0.0;stroke-width:0.5;"/>
     </g>
     <g id="line2d_15">
      <g>
       <use style="stroke:#000000;stroke-width:0.5;" x="164.67949803" xlink:href="#m93b0483c22" y="352.8"/>
      </g>
     </g>
     <g id="line2d_16">
      <g>
       <use style="stroke:#000000;stroke-width:0.5;" x="164.67949803" xlink:href="#m741efc42ff" y="7.2"/>
      </g>
     </g>
     <g id="text_3">
      <!-- -2 -->
      <defs>
       <path d="
M19.1875 8.29688
L53.6094 8.29688
L53.6094 0
L7.32812 0
L7.32812 8.29688
Q12.9375 14.1094 22.625 23.8906
Q32.3281 33.6875 34.8125 36.5312
Q39.5469 41.8438 41.4219 45.5312
Q43.3125 49.2188 43.3125 52.7812
Q43.3125 58.5938 39.2344 62.25
Q35.1562 65.9219 28.6094 65.9219
Q23.9688 65.9219 18.8125 64.3125
Q13.6719 62.7031 7.8125 59.4219
L7.8125 69.3906
Q13.7656 71.7812 18.9375 73
Q24.125 74.2188 28.4219 74.2188
Q39.75 74.2188 46.4844 68.5469
Q53.2188 62.8906 53.2188 53.4219
Q53.2188 48.9219 51.5312 44.8906
Q49.8594 40.875 45.4062 35.4062
Q44.1875 33.9844 37.6406 27.2188
Q31.1094 20.4531 19.1875 8.29688" id="BitstreamVeraSans-Roman-32"/>
      </defs>
      <g transform="translate(156.19981053 371.996875)scale(0.2 -0.2)">
       <use xlink:href="#BitstreamVeraSans-Roman-2d"/>
       <use x="36.083984375" xlink:href="#BitstreamVeraSans-Roman-32"/>
      </g>
     </g>
    </g>
    <g id="xtick_5">
     <g id="line2d_17">
      <path clip-path="url(#p99b4b0da67)" d="
M217.21 352.8
L217.21 7.2" style="fill:none;stroke:#000000;stroke-dasharray:1.000000,3.000000;stroke-dashoffset:0.0;stroke-width:0.5;"/>
     </g>
     <g id="line2d_18">
      <g>
       <use style="stroke:#000000;stroke-width:0.5;" x="217.210498389" xlink:href="#m93b0483c22" y="352.8"/>
      </g>
     </g>
     <g id="line2d_19">
      <g>
       <use style="stroke:#000000;stroke-width:0.5;" x="217.210498389" xlink:href="#m741efc42ff" y="7.2"/>
      </g>
     </g>
     <g id="text_4">
      <!-- 0 -->
      <defs>
       <path d="
M31.7812 66.4062
Q24.1719 66.4062 20.3281 58.9062
Q16.5 51.4219 16.5 36.375
Q16.5 21.3906 20.3281 13.8906
Q24.1719 6.39062 31.7812 6.39062
Q39.4531 6.39062 43.2812 13.8906
Q47.125 21.3906 47.125 36.375
Q47.125 51.4219 43.2812 58.9062
Q39.4531 66.4062 31.7812 66.4062
M31.7812 74.2188
Q44.0469 74.2188 50.5156 64.5156
Q56.9844 54.8281 56.9844 36.375
Q56.9844 17.9688 50.5156 8.26562
Q44.0469 -1.42188 31.7812 -1.42188
Q19.5312 -1.42188 13.0625 8.26562
Q6.59375 17.9688 6.59375 36.375
Q6.59375 54.8281 13.0625 64.5156
Q19.5312 74.2188 31.7812 74.2188" id="BitstreamVeraSans-Roman-30"/>
      </defs>
      <g transform="translate(212.171435889 371.996875)scale(0.2 -0.2)">
       <use xlink:href="#BitstreamVeraSans-Roman-30"/>
      </g>
     </g>
    </g>
    <g id="xtick_6">
     <g id="line2d_20">
      <path clip-path="url(#p99b4b0da67)" d="
M269.741 352.8
L269.741 7.2" style="fill:none;stroke:#000000;stroke-dasharray:1.000000,3.000000;stroke-dashoffset:0.0;stroke-width:0.5;"/>
     </g>
     <g id="line2d_21">
      <g>
       <use style="stroke:#000000;stroke-width:0.5;" x="269.741498747" xlink:href="#m93b0483c22" y="352.8"/>
      </g>
     </g>
     <g id="line2d_22">
      <g>
       <use style="stroke:#000000;stroke-width:0.5;" x="269.741498747" xlink:href="#m741efc42ff" y="7.2"/>
      </g>
     </g>
     <g id="text_5">
      <!-- 2 -->
      <g transform="translate(265.113373747 371.996875)scale(0.2 -0.2)">
       <use xlink:href="#BitstreamVeraSans-Roman-32"/>
      </g>
     </g>
    </g>
    <g id="xtick_7">
     <g id="line2d_23">
      <path clip-path="url(#p99b4b0da67)" d="
M322.272 352.8
L322.272 7.2" style="fill:none;stroke:#000000;stroke-dasharray:1.000000,3.000000;stroke-dashoffset:0.0;stroke-width:0.5;"/>
     </g>
     <g id="line2d_24">
      <g>
       <use style="stroke:#000000;stroke-width:0.5;" x="322.272499105" xlink:href="#m93b0483c22" y="352.8"/>
      </g>
     </g>
     <g id="line2d_25">
      <g>
       <use style="stroke:#000000;stroke-width:0.5;" x="322.272499105" xlink:href="#m741efc42ff" y="7.2"/>
      </g>
     </g>
     <g id="text_6">
      <!-- 4 -->
      <g transform="translate(316.959999105 371.996875)scale(0.2 -0.2)">
       <use xlink:href="#BitstreamVeraSans-Roman-34"/>
      </g>
     </g>
    </g>
    <g id="xtick_8">
     <g id="line2d_26">
      <path clip-path="url(#p99b4b0da67)" d="
M374.803 352.8
L374.803 7.2" style="fill:none;stroke:#000000;stroke-dasharray:1.000000,3.000000;stroke-dashoffset:0.0;stroke-width:0.5;"/>
     </g>
     <g id="line2d_27">
      <g>
       <use style="stroke:#000000;stroke-width:0.5;" x="374.803499463" xlink:href="#m93b0483c22" y="352.8"/>
      </g>
     </g>
     <g id="line2d_28">
      <g>
       <use style="stroke:#000000;stroke-width:0.5;" x="374.803499463" xlink:href="#m741efc42ff" y="7.2"/>
      </g>
     </g>
     <g id="text_7">
      <!-- 6 -->
      <g transform="translate(369.769124463 371.996875)scale(0.2 -0.2)">
       <use xlink:href="#BitstreamVeraSans-Roman-36"/>
      </g>
     </g>
    </g>
    <g id="xtick_9">
     <g id="line2d_29">
      <path clip-path="url(#p99b4b0da67)" d="
M427.334 352.8
L427.334 7.2" style="fill:none;stroke:#000000;stroke-dasharray:1.000000,3.000000;stroke-dashoffset:0.0;stroke-width:0.5;"/>
     </g>
     <g id="line2d_30">
      <g>
       <use style="stroke:#000000;stroke-width:0.5;" x="427.334499821" xlink:href="#m93b0483c22" y="352.8"/>
      </g>
     </g>
     <g id="line2d_31">
      <g>
       <use style="stroke:#000000;stroke-width:0.5;" x="427.334499821" xlink:href="#m741efc42ff" y="7.2"/>
      </g>
     </g>
     <g id="text_8">
      <!-- 8 -->
      <defs>
       <path d="
M31.7812 34.625
Q24.75 34.625 20.7188 30.8594
Q16.7031 27.0938 16.7031 20.5156
Q16.7031 13.9219 20.7188 10.1562
Q24.75 6.39062 31.7812 6.39062
Q38.8125 6.39062 42.8594 10.1719
Q46.9219 13.9688 46.9219 20.5156
Q46.9219 27.0938 42.8906 30.8594
Q38.875 34.625 31.7812 34.625
M21.9219 38.8125
Q15.5781 40.375 12.0312 44.7188
Q8.5 49.0781 8.5 55.3281
Q8.5 64.0625 14.7188 69.1406
Q20.9531 74.2188 31.7812 74.2188
Q42.6719 74.2188 48.875 69.1406
Q55.0781 64.0625 55.0781 55.3281
Q55.0781 49.0781 51.5312 44.7188
Q48 40.375 41.7031 38.8125
Q48.8281 37.1562 52.7969 32.3125
Q56.7812 27.4844 56.7812 20.5156
Q56.7812 9.90625 50.3125 4.23438
Q43.8438 -1.42188 31.7812 -1.42188
Q19.7344 -1.42188 13.25 4.23438
Q6.78125 9.90625 6.78125 20.5156
Q6.78125 27.4844 10.7812 32.3125
Q14.7969 37.1562 21.9219 38.8125
M18.3125 54.3906
Q18.3125 48.7344 21.8438 45.5625
Q25.3906 42.3906 31.7812 42.3906
Q38.1406 42.3906 41.7188 45.5625
Q45.3125 48.7344 45.3125 54.3906
Q45.3125 60.0625 41.7188 63.2344
Q38.1406 66.4062 31.7812 66.4062
Q25.3906 66.4062 21.8438 63.2344
Q18.3125 60.0625 18.3125 54.3906" id="BitstreamVeraSans-Roman-38"/>
      </defs>
      <g transform="translate(422.334499821 371.996875)scale(0.2 -0.2)">
       <use xlink:href="#BitstreamVeraSans-Roman-38"/>
      </g>
     </g>
    </g>
    <g id="xtick_10"/>
    <g id="xtick_11">
     <g id="line2d_32">
      <defs>
       <path d="
M0 0
L0 -2" id="m177f7580d0" style="stroke:#000000;stroke-width:0.5;"/>
      </defs>
      <g>
       <use style="stroke:#000000;stroke-width:0.5;" x="59.6174973142" xlink:href="#m177f7580d0" y="352.8"/>
      </g>
     </g>
     <g id="line2d_33">
      <defs>
       <path d="
M0 0
L0 2" id="m5284c7e2a0" style="stroke:#000000;stroke-width:0.5;"/>
      </defs>
      <g>
       <use style="stroke:#000000;stroke-width:0.5;" x="59.6174973142" xlink:href="#m5284c7e2a0" y="7.2"/>
      </g>
     </g>
    </g>
    <g id="xtick_12">
     <g id="line2d_34">
      <g>
       <use style="stroke:#000000;stroke-width:0.5;" x="112.148497672" xlink:href="#m177f7580d0" y="352.8"/>
      </g>
     </g>
     <g id="line2d_35">
      <g>
       <use style="stroke:#000000;stroke-width:0.5;" x="112.148497672" xlink:href="#m5284c7e2a0" y="7.2"/>
      </g>
     </g>
    </g>
    <g id="xtick_13">
     <g id="line2d_36">
      <g>
       <use style="stroke:#000000;stroke-width:0.5;" x="164.67949803" xlink:href="#m177f7580d0" y="352.8"/>
      </g>
     </g>
     <g id="line2d_37">
      <g>
       <use style="stroke:#000000;stroke-width:0.5;" x="164.67949803" xlink:href="#m5284c7e2a0" y="7.2"/>
      </g>
     </g>
    </g>
    <g id="xtick_14">
     <g id="line2d_38">
      <g>
       <use style="stroke:#000000;stroke-width:0.5;" x="217.210498389" xlink:href="#m177f7580d0" y="352.8"/>
      </g>
     </g>
     <g id="line2d_39">
      <g>
       <use style="stroke:#000000;stroke-width:0.5;" x="217.210498389" xlink:href="#m5284c7e2a0" y="7.2"/>
      </g>
     </g>
    </g>
    <g id="xtick_15">
     <g id="line2d_40">
      <g>
       <use style="stroke:#000000;stroke-width:0.5;" x="269.741498747" xlink:href="#m177f7580d0" y="352.8"/>
      </g>
     </g>
     <g id="line2d_41">
      <g>
       <use style="stroke:#000000;stroke-width:0.5;" x="269.741498747" xlink:href="#m5284c7e2a0" y="7.2"/>
      </g>
     </g>
    </g>
    <g id="xtick_16">
     <g id="line2d_42">
      <g>
       <use style="stroke:#000000;stroke-width:0.5;" x="322.272499105" xlink:href="#m177f7580d0" y="352.8"/>
      </g>
     </g>
     <g id="line2d_43">
      <g>
       <use style="stroke:#000000;stroke-width:0.5;" x="322.272499105" xlink:href="#m5284c7e2a0" y="7.2"/>
      </g>
     </g>
    </g>
    <g id="xtick_17">
     <g id="line2d_44">
      <g>
       <use style="stroke:#000000;stroke-width:0.5;" x="374.803499463" xlink:href="#m177f7580d0" y="352.8"/>
      </g>
     </g>
     <g id="line2d_45">
      <g>
       <use style="stroke:#000000;stroke-width:0.5;" x="374.803499463" xlink:href="#m5284c7e2a0" y="7.2"/>
      </g>
     </g>
    </g>
    <g id="xtick_18">
     <g id="line2d_46">
      <g>
       <use style="stroke:#000000;stroke-width:0.5;" x="427.334499821" xlink:href="#m177f7580d0" y="352.8"/>
      </g>
     </g>
     <g id="line2d_47">
      <g>
       <use style="stroke:#000000;stroke-width:0.5;" x="427.334499821" xlink:href="#m5284c7e2a0" y="7.2"/>
      </g>
     </g>
    </g>
    <g id="text_9">
     <!-- log10 of Df -->
     <defs>
      <path id="BitstreamVeraSans-Roman-20"/>
      <path d="
M12.4062 8.29688
L28.5156 8.29688
L28.5156 63.9219
L10.9844 60.4062
L10.9844 69.3906
L28.4219 72.9062
L38.2812 72.9062
L38.2812 8.29688
L54.3906 8.29688
L54.3906 0
L12.4062 0
z
" id="BitstreamVeraSans-Roman-31"/>
      <path d="
M30.6094 48.3906
Q23.3906 48.3906 19.1875 42.75
Q14.9844 37.1094 14.9844 27.2969
Q14.9844 17.4844 19.1562 11.8438
Q23.3438 6.20312 30.6094 6.20312
Q37.7969 6.20312 41.9844 11.8594
Q46.1875 17.5312 46.1875 27.2969
Q46.1875 37.0156 41.9844 42.7031
Q37.7969 48.3906 30.6094 48.3906
M30.6094 56
Q42.3281 56 49.0156 48.375
Q55.7188 40.7656 55.7188 27.2969
Q55.7188 13.875 49.0156 6.21875
Q42.3281 -1.42188 30.6094 -1.42188
Q18.8438 -1.42188 12.1719 6.21875
Q5.51562 13.875 5.51562 27.2969
Q5.51562 40.7656 12.1719 48.375
Q18.8438 56 30.6094 56" id="BitstreamVeraSans-Roman-6f"/>
      <path d="
M9.42188 75.9844
L18.4062 75.9844
L18.4062 0
L9.42188 0
z
" id="BitstreamVeraSans-Roman-6c"/>
      <path d="
M19.6719 64.7969
L19.6719 8.10938
L31.5938 8.10938
Q46.6875 8.10938 53.6875 14.9375
Q60.6875 21.7812 60.6875 36.5312
Q60.6875 51.1719 53.6875 57.9844
Q46.6875 64.7969 31.5938 64.7969
z

M9.8125 72.9062
L30.0781 72.9062
Q51.2656 72.9062 61.1719 64.0938
Q71.0938 55.2812 71.0938 36.5312
Q71.0938 17.6719 61.125 8.82812
Q51.1719 0 30.0781 0
L9.8125 0
z
" id="BitstreamVeraSans-Roman-44"/>
      <path d="
M45.4062 27.9844
Q45.4062 37.75 41.375 43.1094
Q37.3594 48.4844 30.0781 48.4844
Q22.8594 48.4844 18.8281 43.1094
Q14.7969 37.75 14.7969 27.9844
Q14.7969 18.2656 18.8281 12.8906
Q22.8594 7.51562 30.0781 7.51562
Q37.3594 7.51562 41.375 12.8906
Q45.4062 18.2656 45.4062 27.9844
M54.3906 6.78125
Q54.3906 -7.17188 48.1875 -13.9844
Q42 -20.7969 29.2031 -20.7969
Q24.4688 -20.7969 20.2656 -20.0938
Q16.0625 -19.3906 12.1094 -17.9219
L12.1094 -9.1875
Q16.0625 -11.3281 19.9219 -12.3438
Q23.7812 -13.375 27.7812 -13.375
Q36.625 -13.375 41.0156 -8.76562
Q45.4062 -4.15625 45.4062 5.17188
L45.4062 9.625
Q42.625 4.78125 38.2812 2.39062
Q33.9375 0 27.875 0
Q17.8281 0 11.6719 7.65625
Q5.51562 15.3281 5.51562 27.9844
Q5.51562 40.6719 11.6719 48.3281
Q17.8281 56 27.875 56
Q33.9375 56 38.2812 53.6094
Q42.625 51.2188 45.4062 46.3906
L45.4062 54.6875
L54.3906 54.6875
z
" id="BitstreamVeraSans-Roman-67"/>
      <path d="
M37.1094 75.9844
L37.1094 68.5
L28.5156 68.5
Q23.6875 68.5 21.7969 66.5469
Q19.9219 64.5938 19.9219 59.5156
L19.9219 54.6875
L34.7188 54.6875
L34.7188 47.7031
L19.9219 47.7031
L19.9219 0
L10.8906 0
L10.8906 47.7031
L2.29688 47.7031
L2.29688 54.6875
L10.8906 54.6875
L10.8906 58.5
Q10.8906 67.625 15.1406 71.7969
Q19.3906 75.9844 28.6094 75.9844
z
" id="BitstreamVeraSans-Roman-66"/>
     </defs>
     <g transform="translate(175.0234375 396.353125)scale(0.2 -0.2)">
      <use xlink:href="#BitstreamVeraSans-Roman-6c"/>
      <use x="27.783203125" xlink:href="#BitstreamVeraSans-Roman-6f"/>
      <use x="88.96484375" xlink:href="#BitstreamVeraSans-Roman-67"/>
      <use x="152.44140625" xlink:href="#BitstreamVeraSans-Roman-31"/>
      <use x="216.064453125" xlink:href="#BitstreamVeraSans-Roman-30"/>
      <use x="279.6875" xlink:href="#BitstreamVeraSans-Roman-20"/>
      <use x="311.474609375" xlink:href="#BitstreamVeraSans-Roman-6f"/>
      <use x="372.65625" xlink:href="#BitstreamVeraSans-Roman-66"/>
      <use x="407.861328125" xlink:href="#BitstreamVeraSans-Roman-20"/>
      <use x="439.6484375" xlink:href="#BitstreamVeraSans-Roman-44"/>
      <use x="516.650390625" xlink:href="#BitstreamVeraSans-Roman-66"/>
     </g>
    </g>
   </g>
   <g id="matplotlib.axis_2">
    <g id="ytick_1">
     <g id="line2d_48">
      <path clip-path="url(#p99b4b0da67)" d="
M7.2 352.8
L453.6 352.8" style="fill:none;stroke:#000000;stroke-dasharray:1.000000,3.000000;stroke-dashoffset:0.0;stroke-width:0.5;"/>
     </g>
     <g id="line2d_49">
      <defs>
       <path d="
M0 0
L4 0" id="m728421d6d4" style="stroke:#000000;stroke-width:0.5;"/>
      </defs>
      <g>
       <use style="stroke:#000000;stroke-width:0.5;" x="7.2" xlink:href="#m728421d6d4" y="352.8"/>
      </g>
     </g>
     <g id="line2d_50">
      <defs>
       <path d="
M0 0
L-4 0" id="mcb0005524f" style="stroke:#000000;stroke-width:0.5;"/>
      </defs>
      <g>
       <use style="stroke:#000000;stroke-width:0.5;" x="453.6" xlink:href="#mcb0005524f" y="352.8"/>
      </g>
     </g>
    </g>
    <g id="ytick_2">
     <g id="line2d_51">
      <path clip-path="url(#p99b4b0da67)" d="
M7.2 284.364
L453.6 284.364" style="fill:none;stroke:#000000;stroke-dasharray:1.000000,3.000000;stroke-dashoffset:0.0;stroke-width:0.5;"/>
     </g>
     <g id="line2d_52">
      <g>
       <use style="stroke:#000000;stroke-width:0.5;" x="7.2" xlink:href="#m728421d6d4" y="284.364356436"/>
      </g>
     </g>
     <g id="line2d_53">
      <g>
       <use style="stroke:#000000;stroke-width:0.5;" x="453.6" xlink:href="#mcb0005524f" y="284.364356436"/>
      </g>
     </g>
    </g>
    <g id="ytick_3">
     <g id="line2d_54">
      <path clip-path="url(#p99b4b0da67)" d="
M7.2 215.929
L453.6 215.929" style="fill:none;stroke:#000000;stroke-dasharray:1.000000,3.000000;stroke-dashoffset:0.0;stroke-width:0.5;"/>
     </g>
     <g id="line2d_55">
      <g>
       <use style="stroke:#000000;stroke-width:0.5;" x="7.2" xlink:href="#m728421d6d4" y="215.928712871"/>
      </g>
     </g>
     <g id="line2d_56">
      <g>
       <use style="stroke:#000000;stroke-width:0.5;" x="453.6" xlink:href="#mcb0005524f" y="215.928712871"/>
      </g>
     </g>
    </g>
    <g id="ytick_4">
     <g id="line2d_57">
      <path clip-path="url(#p99b4b0da67)" d="
M7.2 147.493
L453.6 147.493" style="fill:none;stroke:#000000;stroke-dasharray:1.000000,3.000000;stroke-dashoffset:0.0;stroke-width:0.5;"/>
     </g>
     <g id="line2d_58">
      <g>
       <use style="stroke:#000000;stroke-width:0.5;" x="7.2" xlink:href="#m728421d6d4" y="147.493069307"/>
      </g>
     </g>
     <g id="line2d_59">
      <g>
       <use style="stroke:#000000;stroke-width:0.5;" x="453.6" xlink:href="#mcb0005524f" y="147.493069307"/>
      </g>
     </g>
    </g>
    <g id="ytick_5">
     <g id="line2d_60">
      <path clip-path="url(#p99b4b0da67)" d="
M7.2 79.0574
L453.6 79.0574" style="fill:none;stroke:#000000;stroke-dasharray:1.000000,3.000000;stroke-dashoffset:0.0;stroke-width:0.5;"/>
     </g>
     <g id="line2d_61">
      <g>
       <use style="stroke:#000000;stroke-width:0.5;" x="7.2" xlink:href="#m728421d6d4" y="79.0574257426"/>
      </g>
     </g>
     <g id="line2d_62">
      <g>
       <use style="stroke:#000000;stroke-width:0.5;" x="453.6" xlink:href="#mcb0005524f" y="79.0574257426"/>
      </g>
     </g>
    </g>
    <g id="ytick_6">
     <g id="line2d_63">
      <path clip-path="url(#p99b4b0da67)" d="
M7.2 10.6218
L453.6 10.6218" style="fill:none;stroke:#000000;stroke-dasharray:1.000000,3.000000;stroke-dashoffset:0.0;stroke-width:0.5;"/>
     </g>
     <g id="line2d_64">
      <g>
       <use style="stroke:#000000;stroke-width:0.5;" x="7.2" xlink:href="#m728421d6d4" y="10.6217821782"/>
      </g>
     </g>
     <g id="line2d_65">
      <g>
       <use style="stroke:#000000;stroke-width:0.5;" x="453.6" xlink:href="#mcb0005524f" y="10.6217821782"/>
      </g>
     </g>
    </g>
   </g>
   <g id="text_10">
    <!-- {f6-f9}, 5-D -->
    <defs>
     <path d="
M12.5 -9.28125
L15.9219 -9.28125
Q22.75 -9.28125 24.8281 -7.17188
Q26.9062 -5.07812 26.9062 1.90625
L26.9062 14.0156
Q26.9062 21.625 29.0938 25.0938
Q31.2969 28.5625 36.7188 29.8906
Q31.2969 31.1094 29.0938 34.5625
Q26.9062 38.0312 26.9062 45.7031
L26.9062 57.8125
Q26.9062 64.75 24.8281 66.875
Q22.75 69 15.9219 69
L12.5 69
L12.5 75.9844
L15.5781 75.9844
Q27.7344 75.9844 31.8125 72.3906
Q35.8906 68.7969 35.8906 58.0156
L35.8906 46.2969
Q35.8906 39.0156 38.5156 36.2031
Q41.1562 33.4062 48.0938 33.4062
L51.125 33.4062
L51.125 26.4219
L48.0938 26.4219
Q41.1562 26.4219 38.5156 23.5781
Q35.8906 20.75 35.8906 13.375
L35.8906 1.70312
Q35.8906 -9.07812 31.8125 -12.6875
Q27.7344 -16.3125 15.5781 -16.3125
L12.5 -16.3125
z
" id="BitstreamVeraSans-Roman-7d"/>
     <path d="
M10.9844 1.51562
L10.9844 10.5
Q14.7031 8.73438 18.5 7.8125
Q22.3125 6.89062 25.9844 6.89062
Q35.75 6.89062 40.8906 13.4531
Q46.0469 20.0156 46.7812 33.4062
Q43.9531 29.2031 39.5938 26.9531
Q35.25 24.7031 29.9844 24.7031
Q19.0469 24.7031 12.6719 31.3125
Q6.29688 37.9375 6.29688 49.4219
Q6.29688 60.6406 12.9375 67.4219
Q19.5781 74.2188 30.6094 74.2188
Q43.2656 74.2188 49.9219 64.5156
Q56.5938 54.8281 56.5938 36.375
Q56.5938 19.1406 48.4062 8.85938
Q40.2344 -1.42188 26.4219 -1.42188
Q22.7031 -1.42188 18.8906 -0.6875
Q15.0938 0.046875 10.9844 1.51562
M30.6094 32.4219
Q37.25 32.4219 41.125 36.9531
Q45.0156 41.5 45.0156 49.4219
Q45.0156 57.2812 41.125 61.8438
Q37.25 66.4062 30.6094 66.4062
Q23.9688 66.4062 20.0938 61.8438
Q16.2188 57.2812 16.2188 49.4219
Q16.2188 41.5 20.0938 36.9531
Q23.9688 32.4219 30.6094 32.4219" id="BitstreamVeraSans-Roman-39"/>
     <path d="
M51.125 -9.28125
L51.125 -16.3125
L48.0938 -16.3125
Q35.9375 -16.3125 31.8125 -12.6875
Q27.6875 -9.07812 27.6875 1.70312
L27.6875 13.375
Q27.6875 20.75 25.0469 23.5781
Q22.4062 26.4219 15.4844 26.4219
L12.5 26.4219
L12.5 33.4062
L15.4844 33.4062
Q22.4688 33.4062 25.0781 36.2031
Q27.6875 39.0156 27.6875 46.2969
L27.6875 58.0156
Q27.6875 68.7969 31.8125 72.3906
Q35.9375 75.9844 48.0938 75.9844
L51.125 75.9844
L51.125 69
L47.7969 69
Q40.9219 69 38.8125 66.8438
Q36.7188 64.7031 36.7188 57.8125
L36.7188 45.7031
Q36.7188 38.0312 34.5 34.5625
Q32.2812 31.1094 26.9062 29.8906
Q32.3281 28.5625 34.5156 25.0938
Q36.7188 21.625 36.7188 14.0156
L36.7188 1.90625
Q36.7188 -4.98438 38.8125 -7.125
Q40.9219 -9.28125 47.7969 -9.28125
z
" id="BitstreamVeraSans-Roman-7b"/>
     <path d="
M11.7188 12.4062
L22.0156 12.4062
L22.0156 4
L14.0156 -11.625
L7.71875 -11.625
L11.7188 4
z
" id="BitstreamVeraSans-Roman-2c"/>
     <path d="
M10.7969 72.9062
L49.5156 72.9062
L49.5156 64.5938
L19.8281 64.5938
L19.8281 46.7344
Q21.9688 47.4688 24.1094 47.8281
Q26.2656 48.1875 28.4219 48.1875
Q40.625 48.1875 47.75 41.5
Q54.8906 34.8125 54.8906 23.3906
Q54.8906 11.625 47.5625 5.09375
Q40.2344 -1.42188 26.9062 -1.42188
Q22.3125 -1.42188 17.5469 -0.640625
Q12.7969 0.140625 7.71875 1.70312
L7.71875 11.625
Q12.1094 9.23438 16.7969 8.0625
Q21.4844 6.89062 26.7031 6.89062
Q35.1562 6.89062 40.0781 11.3281
Q45.0156 15.7656 45.0156 23.3906
Q45.0156 31 40.0781 35.4375
Q35.1562 39.8906 26.7031 39.8906
Q22.75 39.8906 18.8125 39.0156
Q14.8906 38.1406 10.7969 36.2812
z
" id="BitstreamVeraSans-Roman-35"/>
    </defs>
    <g transform="translate(325.60325 345.888)scale(0.2 -0.2)">
     <use xlink:href="#BitstreamVeraSans-Roman-7b"/>
     <use x="63.623046875" xlink:href="#BitstreamVeraSans-Roman-66"/>
     <use x="98.828125" xlink:href="#BitstreamVeraSans-Roman-36"/>
     <use x="162.451171875" xlink:href="#BitstreamVeraSans-Roman-2d"/>
     <use x="198.53515625" xlink:href="#BitstreamVeraSans-Roman-66"/>
     <use x="233.740234375" xlink:href="#BitstreamVeraSans-Roman-39"/>
     <use x="297.36328125" xlink:href="#BitstreamVeraSans-Roman-7d"/>
     <use x="360.986328125" xlink:href="#BitstreamVeraSans-Roman-2c"/>
     <use x="392.7734375" xlink:href="#BitstreamVeraSans-Roman-20"/>
     <use x="424.560546875" xlink:href="#BitstreamVeraSans-Roman-35"/>
     <use x="488.18359375" xlink:href="#BitstreamVeraSans-Roman-2d"/>
     <use x="524.267578125" xlink:href="#BitstreamVeraSans-Roman-44"/>
    </g>
   </g>
   <g id="text_11">
    <!-- v2.1.1.3 -->
    <defs>
     <path d="
M2.98438 54.6875
L12.5 54.6875
L29.5938 8.79688
L46.6875 54.6875
L56.2031 54.6875
L35.6875 0
L23.4844 0
z
" id="BitstreamVeraSans-Roman-76"/>
     <path d="
M40.5781 39.3125
Q47.6562 37.7969 51.625 33
Q55.6094 28.2188 55.6094 21.1875
Q55.6094 10.4062 48.1875 4.48438
Q40.7656 -1.42188 27.0938 -1.42188
Q22.5156 -1.42188 17.6562 -0.515625
Q12.7969 0.390625 7.625 2.20312
L7.625 11.7188
Q11.7188 9.32812 16.5938 8.10938
Q21.4844 6.89062 26.8125 6.89062
Q36.0781 6.89062 40.9375 10.5469
Q45.7969 14.2031 45.7969 21.1875
Q45.7969 27.6406 41.2812 31.2656
Q36.7656 34.9062 28.7188 34.9062
L20.2188 34.9062
L20.2188 43.0156
L29.1094 43.0156
Q36.375 43.0156 40.2344 45.9219
Q44.0938 48.8281 44.0938 54.2969
Q44.0938 59.9062 40.1094 62.9062
Q36.1406 65.9219 28.7188 65.9219
Q24.6562 65.9219 20.0156 65.0312
Q15.375 64.1562 9.8125 62.3125
L9.8125 71.0938
Q15.4375 72.6562 20.3438 73.4375
Q25.25 74.2188 29.5938 74.2188
Q40.8281 74.2188 47.3594 69.1094
Q53.9062 64.0156 53.9062 55.3281
Q53.9062 49.2656 50.4375 45.0938
Q46.9688 40.9219 40.5781 39.3125" id="BitstreamVeraSans-Roman-33"/>
     <path d="
M10.6875 12.4062
L21 12.4062
L21 0
L10.6875 0
z
" id="BitstreamVeraSans-Roman-2e"/>
    </defs>
    <g style="fill:#808080;" transform="translate(210.4984375 347.2643125)scale(0.1 -0.1)">
     <use xlink:href="#BitstreamVeraSans-Roman-76"/>
     <use x="59.1796875" xlink:href="#BitstreamVeraSans-Roman-32"/>
     <use x="122.802734375" xlink:href="#BitstreamVeraSans-Roman-2e"/>
     <use x="154.58984375" xlink:href="#BitstreamVeraSans-Roman-31"/>
     <use x="218.212890625" xlink:href="#BitstreamVeraSans-Roman-2e"/>
     <use x="250.0" xlink:href="#BitstreamVeraSans-Roman-31"/>
     <use x="313.623046875" xlink:href="#BitstreamVeraSans-Roman-2e"/>
     <use x="345.41015625" xlink:href="#BitstreamVeraSans-Roman-33"/>
    </g>
   </g>
  </g>
 </g>
 <defs>
  <clipPath id="p99b4b0da67">
   <rect height="345.6" width="446.4" x="7.2" y="7.2"/>
  </clipPath>
 </defs>
</svg>
