<?xml version="1.0" encoding="utf-8" standalone="no"?>
<!DOCTYPE svg PUBLIC "-//W3C//DTD SVG 1.1//EN"
  "http://www.w3.org/Graphics/SVG/1.1/DTD/svg11.dtd">
<!-- Created with matplotlib (http://matplotlib.org/) -->
<svg height="407pt" version="1.1" viewBox="0 0 460 407" width="460pt" xmlns="http://www.w3.org/2000/svg" xmlns:xlink="http://www.w3.org/1999/xlink">
 <defs>
  <style type="text/css">
*{stroke-linecap:butt;stroke-linejoin:round;}
  </style>
 </defs>
 <g id="figure_1">
  <g id="patch_1">
   <path d="
M0 407.712
L460.8 407.712
L460.8 0
L0 0
z
" style="fill:#ffffff;"/>
  </g>
  <g id="axes_1">
   <g id="patch_2">
    <path d="
M7.2 352.8
L453.6 352.8
L453.6 7.2
L7.2 7.2
z
" style="fill:#ffffff;"/>
   </g>
   <g id="line2d_1">
    <path clip-path="url(#p99b4b0da67)" d="
M-1 266.115
L-0.688875 266.115
L-0.688875 261.552
L-0.536509 261.552
L-0.501791 252.428
L0.0825373 252.428
L0.0825373 247.865
L1.56322 247.865
L1.56322 243.303
L2.10462 243.303
L2.10462 238.741
L2.90238 238.741
L2.90238 234.178
L3.02506 234.178
L3.12765 225.053
L3.53815 225.053
L3.53815 220.491
L3.75811 220.491
L3.75811 215.929
L3.92066 215.929
L3.92066 211.366
L4.04129 211.366
L4.04129 206.804
L4.35789 206.804
L4.41838 197.679
L4.53207 197.679
L4.53207 193.117
L4.91249 193.117
L4.95685 179.43
L5.09907 179.43
L5.16489 170.305
L5.43966 170.305
L5.43966 165.743
L5.75998 165.743
L5.75998 161.18
L6.1806 161.18
L6.27874 142.931
L6.34131 142.931
L6.44874 120.119
L6.6685 120.119
L6.6685 115.556
L6.8539 115.556
L6.89288 101.869
L167.645 101.869
L167.645 97.3069
L176.176 97.3069
L176.176 92.7446
L189.984 92.7446
L189.984 88.1822
L190.781 88.1822
L190.781 83.6198
L194.492 83.6198
L194.492 79.0574
L218.504 79.0574
L218.504 74.495
L231.254 74.495
L231.254 69.9327
L236.088 69.9327
L236.088 65.3703
L236.316 65.3703
L236.316 60.8079
L236.562 60.8079
L236.647 51.6832
L236.682 51.6832
L236.792 37.996
L237.176 37.996
L237.244 24.3089
L237.461 24.3089
L237.507 15.1842
L238.908 15.1842
L238.908 10.6218
L238.908 10.6218
L453.6 10.6218
L453.6 10.6218" style="fill:none;stroke:#ff0000;stroke-linecap:square;stroke-width:3.0;"/>
   </g>
   <g id="line2d_2">
    <path clip-path="url(#p99b4b0da67)" d="
M230.321 352.8
L230.321 348.238
L241.527 348.238
L241.527 343.675
L242.056 343.675
L242.056 339.113
L243.924 339.113
L243.924 334.55
L244.212 334.55
L244.212 329.988
L247.787 329.988
L247.787 325.426
L248.135 325.426
L248.135 320.863
L248.444 320.863
L248.444 316.301
L248.938 316.301
L248.938 311.739
L249.452 311.739
L249.485 302.614
L250.053 302.614
L250.053 298.051
L250.33 298.051
L250.33 293.489
L251.064 293.489
L251.064 288.927
L252.441 288.927
L252.441 284.364
L252.792 284.364
L252.792 279.802
L254.298 279.802
L254.298 275.24
L255.797 275.24
L255.797 270.677
L257.522 270.677
L257.522 266.115
L258.636 266.115
L258.636 261.552
L259.466 261.552
L259.466 256.99
L260.385 256.99
L260.385 252.428
L262.469 252.428
L262.469 247.865
L262.61 247.865
L262.61 243.303
L262.855 243.303
L262.855 238.741
L263.63 238.741
L263.63 234.178
L264.233 234.178
L264.233 229.616
L264.623 229.616
L264.634 220.491
L265.032 220.491
L265.032 215.929
L265.163 215.929
L265.163 211.366
L265.461 211.366
L265.499 202.242
L265.839 202.242
L265.892 193.117
L265.972 193.117
L265.972 188.554
L266.143 188.554
L266.143 183.992
L266.321 183.992
L266.416 161.18
L266.537 161.18
L266.537 156.618
L266.751 156.618
L266.751 152.055
L267.009 152.055
L267.057 138.368
L267.433 138.368
L267.433 133.806
L268.586 133.806
L268.629 124.681
L268.84 124.681
L268.84 120.119
L269.794 120.119
L269.794 115.556
L270.991 115.556
L270.991 110.994
L271.913 110.994
L271.913 106.432
L272.146 106.432
L272.146 101.869
L272.395 101.869
L272.395 97.3069
L272.786 97.3069
L272.786 92.7446
L273.189 92.7446
L273.189 88.1822
L273.821 88.1822
L273.821 83.6198
L274.644 83.6198
L274.644 79.0574
L298.064 79.0574
L298.064 74.495
L301.303 74.495
L301.303 69.9327
L309.158 69.9327
L309.158 65.3703
L310.741 65.3703
L310.741 60.8079
L317.753 60.8079
L317.753 56.2455
L319.367 56.2455
L319.367 51.6832
L320.929 51.6832
L320.929 47.1208
L322.535 47.1208
L322.535 42.5584
L331.59 42.5584
L331.59 37.996
L333.37 37.996
L333.37 33.4337
L335.671 33.4337
L335.696 24.3089
L342.07 24.3089
L342.07 19.7465
L346.89 19.7465
L346.89 15.1842
L354.507 15.1842
L354.507 10.6218
L354.507 10.6218
L453.6 10.6218
L453.6 10.6218" style="fill:none;stroke:#00bfbf;stroke-linecap:square;"/>
   </g>
   <g id="line2d_3">
    <path clip-path="url(#p99b4b0da67)" d="
M229.414 352.8
L229.414 348.238
L230.321 348.238
L230.321 343.675
L237.394 343.675
L237.394 339.113
L237.564 339.113
L237.564 334.55
L238.199 334.55
L238.199 329.988
L240.161 329.988
L240.161 325.426
L240.696 325.426
L240.696 320.863
L240.95 320.863
L240.95 316.301
L242.056 316.301
L242.056 311.739
L242.292 311.739
L242.292 307.176
L242.638 307.176
L242.675 298.051
L243.281 298.051
L243.281 293.489
L243.924 293.489
L243.924 288.927
L244.156 288.927
L244.156 284.364
L245.89 284.364
L245.89 279.802
L248.682 279.802
L248.682 275.24
L249.452 275.24
L249.452 270.677
L249.68 270.677
L249.68 266.115
L252.792 266.115
L252.792 261.552
L255.797 261.552
L255.797 256.99
L257.522 256.99
L257.522 252.428
L258.419 252.428
L258.419 247.865
L259.229 247.865
L259.229 243.303
L259.466 243.303
L259.466 238.741
L260.321 238.741
L260.321 234.178
L261.247 234.178
L261.247 229.616
L261.379 229.616
L261.379 225.053
L262.053 225.053
L262.146 215.929
L262.232 215.929
L262.232 211.366
L262.346 211.366
L262.346 206.804
L262.469 206.804
L262.469 202.242
L262.61 202.242
L262.61 197.679
L263.726 197.679
L263.726 193.117
L263.98 193.117
L263.98 188.554
L264.169 188.554
L264.169 183.992
L264.438 183.992
L264.515 170.305
L264.623 170.305
L264.623 165.743
L264.878 165.743
L264.878 161.18
L265.746 161.18
L265.852 147.493
L265.999 147.493
L265.999 142.931
L266.315 142.931
L266.383 133.806
L266.492 133.806
L266.492 129.244
L266.751 129.244
L266.751 124.681
L267.7 124.681
L267.7 120.119
L267.891 120.119
L267.891 115.556
L268.538 115.556
L268.629 106.432
L268.735 106.432
L268.735 101.869
L270.028 101.869
L270.028 97.3069
L271.913 97.3069
L271.924 88.1822
L272.395 88.1822
L272.395 83.6198
L272.658 83.6198
L272.658 79.0574
L294.636 79.0574
L294.636 74.495
L295.24 74.495
L295.24 69.9327
L298.064 69.9327
L298.064 65.3703
L301.303 65.3703
L301.303 60.8079
L307.461 60.8079
L307.461 56.2455
L309.158 56.2455
L309.158 51.6832
L310.741 51.6832
L310.741 47.1208
L317.753 47.1208
L317.753 42.5584
L320.525 42.5584
L320.525 37.996
L320.929 37.996
L320.929 33.4337
L321.347 33.4337
L321.347 28.8713
L322.535 28.8713
L322.535 24.3089
L324.623 24.3089
L324.623 19.7465
L330.942 19.7465
L330.942 15.1842
L334.097 15.1842
L334.097 10.6218
L334.097 10.6218
L453.6 10.6218
L453.6 10.6218" style="fill:none;stroke:#bf00bf;stroke-linecap:square;"/>
   </g>
   <g id="line2d_4">
    <path clip-path="url(#p99b4b0da67)" d="
M224.617 352.8
L224.617 348.238
L229.414 348.238
L229.414 343.675
L230.321 343.675
L230.321 339.113
L235.715 339.113
L235.715 334.55
L236.139 334.55
L236.139 329.988
L236.746 329.988
L236.746 325.426
L237.394 325.426
L237.394 320.863
L237.564 320.863
L237.564 316.301
L238.199 316.301
L238.199 311.739
L239.454 311.739
L239.454 307.176
L240.161 307.176
L240.161 302.614
L240.696 302.614
L240.696 298.051
L241.019 298.051
L241.019 293.489
L241.898 293.489
L241.898 288.927
L242.675 288.927
L242.675 284.364
L243.924 284.364
L243.924 279.802
L244.156 279.802
L244.156 275.24
L245.167 275.24
L245.167 270.677
L245.89 270.677
L245.89 266.115
L246.946 266.115
L246.946 261.552
L247.395 261.552
L247.395 256.99
L249.038 256.99
L249.038 252.428
L249.68 252.428
L249.68 247.865
L251.265 247.865
L251.265 243.303
L252.792 243.303
L252.792 238.741
L253.009 238.741
L253.009 234.178
L255.01 234.178
L255.063 225.053
L255.797 225.053
L255.797 220.491
L256.123 220.491
L256.123 215.929
L257.811 215.929
L257.811 211.366
L258.691 211.366
L258.691 206.804
L261.12 206.804
L261.12 202.242
L261.247 202.242
L261.247 197.679
L261.379 197.679
L261.487 188.554
L262.146 188.554
L262.146 183.992
L262.531 183.992
L262.61 174.867
L262.65 174.867
L262.65 170.305
L263.044 170.305
L263.044 165.743
L263.315 165.743
L263.315 161.18
L263.546 161.18
L263.546 156.618
L263.664 156.618
L263.765 147.493
L263.98 147.493
L263.986 138.368
L264.878 138.368
L264.94 129.244
L265.499 129.244
L265.542 120.119
L265.666 120.119
L265.726 110.994
L266.029 110.994
L266.029 106.432
L266.383 106.432
L266.383 101.869
L266.751 101.869
L266.751 97.3069
L267.518 97.3069
L267.518 92.7446
L268.248 92.7446
L268.248 88.1822
L268.892 88.1822
L268.892 83.6198
L270.804 83.6198
L270.804 79.0574
L294.636 79.0574
L294.636 74.495
L295.24 74.495
L295.24 69.9327
L298.064 69.9327
L298.064 65.3703
L301.303 65.3703
L301.303 60.8079
L301.687 60.8079
L301.687 56.2455
L304.104 56.2455
L304.104 51.6832
L307.461 51.6832
L307.461 47.1208
L310.741 47.1208
L310.741 42.5584
L314.19 42.5584
L314.19 37.996
L317.753 37.996
L317.753 33.4337
L318.582 33.4337
L318.582 28.8713
L319 28.8713
L319 24.3089
L322.03 24.3089
L322.03 19.7465
L324.623 19.7465
L324.623 15.1842
L325.668 15.1842
L325.668 10.6218
L325.668 10.6218
L453.6 10.6218
L453.6 10.6218" style="fill:none;stroke:#000000;stroke-linecap:square;"/>
   </g>
   <g id="line2d_5">
    <path clip-path="url(#p99b4b0da67)" d="
M224.617 352.8
L224.617 348.238
L226.458 348.238
L226.458 343.675
L228.057 343.675
L228.057 339.113
L229.414 339.113
L229.414 334.55
L230.321 334.55
L230.321 329.988
L231.081 329.988
L231.081 325.426
L232.714 325.426
L232.714 320.863
L232.874 320.863
L232.874 316.301
L233.719 316.301
L233.719 311.739
L234.265 311.739
L234.265 307.176
L234.876 307.176
L234.876 302.614
L235.358 302.614
L235.358 298.051
L235.57 298.051
L235.57 293.489
L235.715 293.489
L235.715 288.927
L237.564 288.927
L237.564 284.364
L237.914 284.364
L237.914 279.802
L238.277 279.802
L238.277 275.24
L238.926 275.24
L238.926 270.677
L239.922 270.677
L239.966 261.552
L240.505 261.552
L240.505 256.99
L240.632 256.99
L240.632 252.428
L240.877 252.428
L240.877 247.865
L242.675 247.865
L242.675 243.303
L243.044 243.303
L243.044 238.741
L243.714 238.741
L243.714 234.178
L244.823 234.178
L244.823 229.616
L247.161 229.616
L247.161 225.053
L247.395 225.053
L247.395 220.491
L249.21 220.491
L249.21 215.929
L250.726 215.929
L250.726 211.366
L251.265 211.366
L251.265 206.804
L251.497 206.804
L251.497 202.242
L252.779 202.242
L252.779 197.679
L253.328 197.679
L253.328 193.117
L253.83 193.117
L253.83 188.554
L254.234 188.554
L254.234 183.992
L254.357 183.992
L254.357 179.43
L256.123 179.43
L256.123 174.867
L256.334 174.867
L256.334 170.305
L256.901 170.305
L256.901 165.743
L257.428 165.743
L257.428 161.18
L257.811 161.18
L257.811 156.618
L258.252 156.618
L258.252 152.055
L258.65 152.055
L258.65 147.493
L259.231 147.493
L259.231 142.931
L259.446 142.931
L259.506 133.806
L261.558 133.806
L261.558 129.244
L262.146 129.244
L262.146 124.681
L262.81 124.681
L262.81 120.119
L263.233 120.119
L263.233 115.556
L263.396 115.556
L263.396 110.994
L263.866 110.994
L263.866 106.432
L263.986 106.432
L264.081 97.3069
L264.175 97.3069
L264.219 88.1822
L264.36 88.1822
L264.36 83.6198
L264.572 83.6198
L264.572 79.0574
L265.666 79.0574
L265.666 74.495
L267.495 74.495
L267.495 69.9327
L281.172 69.9327
L281.172 65.3703
L289.501 65.3703
L289.501 60.8079
L294.636 60.8079
L294.636 56.2455
L295.24 56.2455
L295.24 51.6832
L296.579 51.6832
L296.579 47.1208
L299.201 47.1208
L299.201 42.5584
L301.303 42.5584
L301.303 37.996
L301.855 37.996
L301.855 33.4337
L303.111 33.4337
L303.111 28.8713
L303.428 28.8713
L303.428 24.3089
L303.568 24.3089
L303.568 19.7465
L307.351 19.7465
L307.461 10.6218
L307.461 10.6218
L453.6 10.6218
L453.6 10.6218" style="fill:none;stroke:#00bfbf;stroke-linecap:square;"/>
   </g>
   <g id="line2d_6">
    <path clip-path="url(#p99b4b0da67)" d="
M174.466 352.8
L174.466 348.238
L188.27 348.238
L188.27 343.675
L198.113 343.675
L198.113 339.113
L198.285 339.113
L198.285 334.55
L199.404 334.55
L199.404 329.988
L207.773 329.988
L207.773 325.426
L210.06 325.426
L210.06 320.863
L212.06 320.863
L212.06 316.301
L213.28 316.301
L213.28 311.739
L215.149 311.739
L215.149 307.176
L217.893 307.176
L217.893 302.614
L218.124 302.614
L218.124 298.051
L219.296 298.051
L219.296 293.489
L219.503 293.489
L219.503 288.927
L219.946 288.927
L219.946 284.364
L220.271 284.364
L220.271 279.802
L223.074 279.802
L223.074 275.24
L223.398 275.24
L223.398 270.677
L223.541 270.677
L223.541 266.115
L223.951 266.115
L224.044 256.99
L224.304 256.99
L224.329 247.865
L224.612 247.865
L224.706 229.616
L224.9 229.616
L224.96 215.929
L225.106 215.929
L225.106 211.366
L225.311 211.366
L225.377 197.679
L225.645 197.679
L225.645 193.117
L226.294 193.117
L226.33 183.992
L226.406 183.992
L226.458 174.867
L226.544 174.867
L226.544 170.305
L226.918 170.305
L226.918 165.743
L227.053 165.743
L227.053 161.18
L227.575 161.18
L227.603 152.055
L227.936 152.055
L228.037 138.368
L228.072 138.368
L228.164 129.244
L229.414 129.244
L229.414 124.681
L229.667 124.681
L229.667 120.119
L230.625 120.119
L230.625 115.556
L231.843 115.556
L231.843 110.994
L233.56 110.994
L233.56 106.432
L236.785 106.432
L236.785 101.869
L237.542 101.869
L237.542 97.3069
L237.905 97.3069
L237.905 92.7446
L238.684 92.7446
L238.684 88.1822
L239.636 88.1822
L239.636 83.6198
L239.888 83.6198
L239.888 79.0574
L246.746 79.0574
L246.746 74.495
L249.715 74.495
L249.715 69.9327
L250.521 69.9327
L250.521 65.3703
L251.67 65.3703
L251.67 60.8079
L251.986 60.8079
L251.997 51.6832
L254.071 51.6832
L254.071 47.1208
L254.285 47.1208
L254.347 37.996
L254.73 37.996
L254.73 33.4337
L254.901 33.4337
L254.901 28.8713
L255.201 28.8713
L255.201 24.3089
L255.695 24.3089
L255.695 19.7465
L256.489 19.7465
L256.526 10.6218
L256.526 10.6218
L453.6 10.6218
L453.6 10.6218" style="fill:none;stroke:#bf00bf;stroke-linecap:square;"/>
   </g>
   <g id="line2d_7">
    <path clip-path="url(#p99b4b0da67)" d="
M-1 311.739
L-0.688875 311.739
L-0.688875 307.176
L3.02506 307.176
L3.02506 302.614
L3.53815 302.614
L3.53815 298.051
L3.92066 298.051
L3.92066 293.489
L4.41838 293.489
L4.41838 288.927
L4.53207 288.927
L4.53207 284.364
L36.6196 284.364
L36.6196 279.802
L74.9897 279.802
L74.9897 275.24
L106.557 275.24
L106.557 270.677
L112.559 270.677
L112.559 266.115
L139.324 266.115
L139.324 261.552
L141.255 261.552
L141.255 256.99
L153.014 256.99
L153.014 252.428
L166.914 252.428
L166.914 247.865
L168.384 247.865
L168.384 243.303
L173.225 243.303
L173.225 238.741
L177.44 238.741
L177.44 234.178
L182.808 234.178
L182.808 229.616
L184.816 229.616
L184.816 225.053
L190.016 225.053
L190.016 220.491
L191.213 220.491
L191.213 215.929
L200.449 215.929
L200.449 211.366
L200.796 211.366
L200.829 202.242
L202.26 202.242
L202.26 197.679
L205.508 197.679
L205.508 193.117
L208.013 193.117
L208.013 188.554
L209.353 188.554
L209.432 179.43
L210.64 179.43
L210.64 174.867
L213.008 174.867
L213.022 156.618
L215.043 156.618
L215.043 152.055
L217.126 152.055
L217.126 147.493
L217.546 147.493
L217.546 142.931
L219.74 142.931
L219.74 138.368
L220.578 138.368
L220.578 133.806
L220.741 133.806
L220.741 129.244
L220.932 129.244
L220.932 124.681
L221.639 124.681
L221.639 120.119
L221.855 120.119
L221.952 110.994
L222.07 110.994
L222.07 106.432
L222.59 106.432
L222.686 88.1822
L227.539 88.1822
L227.539 83.6198
L228.068 83.6198
L228.068 79.0574
L240.351 79.0574
L240.351 74.495
L242.975 74.495
L242.975 69.9327
L243.509 69.9327
L243.603 60.8079
L244.193 60.8079
L244.212 51.6832
L244.956 51.6832
L245.007 42.5584
L246.219 42.5584
L246.219 37.996
L247.308 37.996
L247.31 28.8713
L248.291 28.8713
L248.291 24.3089
L248.436 24.3089
L248.436 19.7465
L248.92 19.7465
L248.92 15.1842
L249.35 15.1842
L249.35 10.6218
L249.35 10.6218
L453.6 10.6218
L453.6 10.6218" style="fill:none;stroke:#000000;stroke-linecap:square;"/>
   </g>
   <g id="line2d_8">
    <path clip-path="url(#p99b4b0da67)" d="
M-1 275.24
L-0.688875 275.24
L-0.688875 270.677
L-0.536509 270.677
L-0.501791 261.552
L0.0825373 261.552
L0.0825373 256.99
L2.10462 256.99
L2.10462 252.428
L2.90238 252.428
L2.90238 247.865
L3.02506 247.865
L3.12765 238.741
L3.53815 238.741
L3.53815 234.178
L3.75811 234.178
L3.75811 229.616
L3.92066 229.616
L3.92066 225.053
L4.04129 225.053
L4.04129 220.491
L4.35789 220.491
L4.41838 211.366
L4.53207 211.366
L4.53207 206.804
L4.92882 206.804
L4.95685 197.679
L5.09907 197.679
L5.09907 193.117
L5.43966 193.117
L5.43966 188.554
L6.24544 188.554
L6.34182 174.867
L6.39069 174.867
L6.39069 170.305
L6.6685 170.305
L6.6685 165.743
L6.86812 165.743
L6.86812 161.18
L10.569 161.18
L10.569 156.618
L107.664 156.618
L107.664 152.055
L118.474 152.055
L118.474 147.493
L121.403 147.493
L121.403 142.931
L185.235 142.931
L185.235 138.368
L191.964 138.368
L191.964 133.806
L192.907 133.806
L192.907 129.244
L195.833 129.244
L195.833 124.681
L196.551 124.681
L196.551 120.119
L199.1 120.119
L199.1 115.556
L204.361 115.556
L204.361 110.994
L204.682 110.994
L204.682 106.432
L205.707 106.432
L205.707 101.869
L210.399 101.869
L210.455 92.7446
L211.856 92.7446
L211.856 88.1822
L212.317 88.1822
L212.317 83.6198
L217.099 83.6198
L217.099 79.0574
L218.504 79.0574
L218.504 74.495
L231.254 74.495
L231.254 69.9327
L236.99 69.9327
L237.093 56.2455
L237.663 56.2455
L237.663 51.6832
L238.037 51.6832
L238.037 47.1208
L238.415 47.1208
L238.415 42.5584
L238.619 42.5584
L238.678 28.8713
L239.099 28.8713
L239.174 19.7465
L239.448 19.7465
L239.448 15.1842
L240.56 15.1842
L240.56 10.6218
L240.56 10.6218
L453.6 10.6218
L453.6 10.6218" style="fill:none;stroke:#00bfbf;stroke-linecap:square;"/>
   </g>
   <g id="patch_3">
    <path d="
M7.2 7.2
L453.6 7.2" style="fill:none;stroke:#000000;stroke-linecap:square;stroke-linejoin:miter;"/>
   </g>
   <g id="patch_4">
    <path d="
M453.6 352.8
L453.6 7.2" style="fill:none;stroke:#000000;stroke-linecap:square;stroke-linejoin:miter;"/>
   </g>
   <g id="patch_5">
    <path d="
M7.2 352.8
L453.6 352.8" style="fill:none;stroke:#000000;stroke-linecap:square;stroke-linejoin:miter;"/>
   </g>
   <g id="patch_6">
    <path d="
M7.2 352.8
L7.2 7.2" style="fill:none;stroke:#000000;stroke-linecap:square;stroke-linejoin:miter;"/>
   </g>
   <g id="matplotlib.axis_1">
    <g id="xtick_1"/>
    <g id="xtick_2">
     <g id="line2d_9">
      <path clip-path="url(#p99b4b0da67)" d="
M59.6175 352.8
L59.6175 7.2" style="fill:none;stroke:#000000;stroke-dasharray:1.000000,3.000000;stroke-dashoffset:0.0;stroke-width:0.5;"/>
     </g>
     <g id="line2d_10">
      <defs>
       <path d="
M0 0
L0 -4" id="m93b0483c22" style="stroke:#000000;stroke-width:0.5;"/>
      </defs>
      <g>
       <use style="stroke:#000000;stroke-width:0.5;" x="59.6174973142" xlink:href="#m93b0483c22" y="352.8"/>
      </g>
     </g>
     <g id="line2d_11">
      <defs>
       <path d="
M0 0
L0 4" id="m741efc42ff" style="stroke:#000000;stroke-width:0.5;"/>
      </defs>
      <g>
       <use style="stroke:#000000;stroke-width:0.5;" x="59.6174973142" xlink:href="#m741efc42ff" y="7.2"/>
      </g>
     </g>
     <g id="text_1">
      <!-- -6 -->
      <defs>
       <path d="
M33.0156 40.375
Q26.375 40.375 22.4844 35.8281
Q18.6094 31.2969 18.6094 23.3906
Q18.6094 15.5312 22.4844 10.9531
Q26.375 6.39062 33.0156 6.39062
Q39.6562 6.39062 43.5312 10.9531
Q47.4062 15.5312 47.4062 23.3906
Q47.4062 31.2969 43.5312 35.8281
Q39.6562 40.375 33.0156 40.375
M52.5938 71.2969
L52.5938 62.3125
Q48.875 64.0625 45.0938 64.9844
Q41.3125 65.9219 37.5938 65.9219
Q27.8281 65.9219 22.6719 59.3281
Q17.5312 52.7344 16.7969 39.4062
Q19.6719 43.6562 24.0156 45.9219
Q28.375 48.1875 33.5938 48.1875
Q44.5781 48.1875 50.9531 41.5156
Q57.3281 34.8594 57.3281 23.3906
Q57.3281 12.1562 50.6875 5.35938
Q44.0469 -1.42188 33.0156 -1.42188
Q20.3594 -1.42188 13.6719 8.26562
Q6.98438 17.9688 6.98438 36.375
Q6.98438 53.6562 15.1875 63.9375
Q23.3906 74.2188 37.2031 74.2188
Q40.9219 74.2188 44.7031 73.4844
Q48.4844 72.75 52.5938 71.2969" id="BitstreamVeraSans-Roman-36"/>
       <path d="
M4.89062 31.3906
L31.2031 31.3906
L31.2031 23.3906
L4.89062 23.3906
z
" id="BitstreamVeraSans-Roman-2d"/>
      </defs>
      <g transform="translate(50.7659348142 371.996875)scale(0.2 -0.2)">
       <use xlink:href="#BitstreamVeraSans-Roman-2d"/>
       <use x="36.083984375" xlink:href="#BitstreamVeraSans-Roman-36"/>
      </g>
     </g>
    </g>
    <g id="xtick_3">
     <g id="line2d_12">
      <path clip-path="url(#p99b4b0da67)" d="
M112.148 352.8
L112.148 7.2" style="fill:none;stroke:#000000;stroke-dasharray:1.000000,3.000000;stroke-dashoffset:0.0;stroke-width:0.5;"/>
     </g>
     <g id="line2d_13">
      <g>
       <use style="stroke:#000000;stroke-width:0.5;" x="112.148497672" xlink:href="#m93b0483c22" y="352.8"/>
      </g>
     </g>
     <g id="line2d_14">
      <g>
       <use style="stroke:#000000;stroke-width:0.5;" x="112.148497672" xlink:href="#m741efc42ff" y="7.2"/>
      </g>
     </g>
     <g id="text_2">
      <!-- -4 -->
      <defs>
       <path d="
M37.7969 64.3125
L12.8906 25.3906
L37.7969 25.3906
z

M35.2031 72.9062
L47.6094 72.9062
L47.6094 25.3906
L58.0156 25.3906
L58.0156 17.1875
L47.6094 17.1875
L47.6094 0
L37.7969 0
L37.7969 17.1875
L4.89062 17.1875
L4.89062 26.7031
z
" id="BitstreamVeraSans-Roman-34"/>
      </defs>
      <g transform="translate(103.228185172 371.996875)scale(0.2 -0.2)">
       <use xlink:href="#BitstreamVeraSans-Roman-2d"/>
       <use x="36.083984375" xlink:href="#BitstreamVeraSans-Roman-34"/>
      </g>
     </g>
    </g>
    <g id="xtick_4">
     <g id="line2d_15">
      <path clip-path="url(#p99b4b0da67)" d="
M164.679 352.8
L164.679 7.2" style="fill:none;stroke:#000000;stroke-dasharray:1.000000,3.000000;stroke-dashoffset:0.0;stroke-width:0.5;"/>
     </g>
     <g id="line2d_16">
      <g>
       <use style="stroke:#000000;stroke-width:0.5;" x="164.67949803" xlink:href="#m93b0483c22" y="352.8"/>
      </g>
     </g>
     <g id="line2d_17">
      <g>
       <use style="stroke:#000000;stroke-width:0.5;" x="164.67949803" xlink:href="#m741efc42ff" y="7.2"/>
      </g>
     </g>
     <g id="text_3">
      <!-- -2 -->
      <defs>
       <path d="
M19.1875 8.29688
L53.6094 8.29688
L53.6094 0
L7.32812 0
L7.32812 8.29688
Q12.9375 14.1094 22.625 23.8906
Q32.3281 33.6875 34.8125 36.5312
Q39.5469 41.8438 41.4219 45.5312
Q43.3125 49.2188 43.3125 52.7812
Q43.3125 58.5938 39.2344 62.25
Q35.1562 65.9219 28.6094 65.9219
Q23.9688 65.9219 18.8125 64.3125
Q13.6719 62.7031 7.8125 59.4219
L7.8125 69.3906
Q13.7656 71.7812 18.9375 73
Q24.125 74.2188 28.4219 74.2188
Q39.75 74.2188 46.4844 68.5469
Q53.2188 62.8906 53.2188 53.4219
Q53.2188 48.9219 51.5312 44.8906
Q49.8594 40.875 45.4062 35.4062
Q44.1875 33.9844 37.6406 27.2188
Q31.1094 20.4531 19.1875 8.29688" id="BitstreamVeraSans-Roman-32"/>
      </defs>
      <g transform="translate(156.19981053 371.996875)scale(0.2 -0.2)">
       <use xlink:href="#BitstreamVeraSans-Roman-2d"/>
       <use x="36.083984375" xlink:href="#BitstreamVeraSans-Roman-32"/>
      </g>
     </g>
    </g>
    <g id="xtick_5">
     <g id="line2d_18">
      <path clip-path="url(#p99b4b0da67)" d="
M217.21 352.8
L217.21 7.2" style="fill:none;stroke:#000000;stroke-dasharray:1.000000,3.000000;stroke-dashoffset:0.0;stroke-width:0.5;"/>
     </g>
     <g id="line2d_19">
      <g>
       <use style="stroke:#000000;stroke-width:0.5;" x="217.210498389" xlink:href="#m93b0483c22" y="352.8"/>
      </g>
     </g>
     <g id="line2d_20">
      <g>
       <use style="stroke:#000000;stroke-width:0.5;" x="217.210498389" xlink:href="#m741efc42ff" y="7.2"/>
      </g>
     </g>
     <g id="text_4">
      <!-- 0 -->
      <defs>
       <path d="
M31.7812 66.4062
Q24.1719 66.4062 20.3281 58.9062
Q16.5 51.4219 16.5 36.375
Q16.5 21.3906 20.3281 13.8906
Q24.1719 6.39062 31.7812 6.39062
Q39.4531 6.39062 43.2812 13.8906
Q47.125 21.3906 47.125 36.375
Q47.125 51.4219 43.2812 58.9062
Q39.4531 66.4062 31.7812 66.4062
M31.7812 74.2188
Q44.0469 74.2188 50.5156 64.5156
Q56.9844 54.8281 56.9844 36.375
Q56.9844 17.9688 50.5156 8.26562
Q44.0469 -1.42188 31.7812 -1.42188
Q19.5312 -1.42188 13.0625 8.26562
Q6.59375 17.9688 6.59375 36.375
Q6.59375 54.8281 13.0625 64.5156
Q19.5312 74.2188 31.7812 74.2188" id="BitstreamVeraSans-Roman-30"/>
      </defs>
      <g transform="translate(212.171435889 371.996875)scale(0.2 -0.2)">
       <use xlink:href="#BitstreamVeraSans-Roman-30"/>
      </g>
     </g>
    </g>
    <g id="xtick_6">
     <g id="line2d_21">
      <path clip-path="url(#p99b4b0da67)" d="
M269.741 352.8
L269.741 7.2" style="fill:none;stroke:#000000;stroke-dasharray:1.000000,3.000000;stroke-dashoffset:0.0;stroke-width:0.5;"/>
     </g>
     <g id="line2d_22">
      <g>
       <use style="stroke:#000000;stroke-width:0.5;" x="269.741498747" xlink:href="#m93b0483c22" y="352.8"/>
      </g>
     </g>
     <g id="line2d_23">
      <g>
       <use style="stroke:#000000;stroke-width:0.5;" x="269.741498747" xlink:href="#m741efc42ff" y="7.2"/>
      </g>
     </g>
     <g id="text_5">
      <!-- 2 -->
      <g transform="translate(265.113373747 371.996875)scale(0.2 -0.2)">
       <use xlink:href="#BitstreamVeraSans-Roman-32"/>
      </g>
     </g>
    </g>
    <g id="xtick_7">
     <g id="line2d_24">
      <path clip-path="url(#p99b4b0da67)" d="
M322.272 352.8
L322.272 7.2" style="fill:none;stroke:#000000;stroke-dasharray:1.000000,3.000000;stroke-dashoffset:0.0;stroke-width:0.5;"/>
     </g>
     <g id="line2d_25">
      <g>
       <use style="stroke:#000000;stroke-width:0.5;" x="322.272499105" xlink:href="#m93b0483c22" y="352.8"/>
      </g>
     </g>
     <g id="line2d_26">
      <g>
       <use style="stroke:#000000;stroke-width:0.5;" x="322.272499105" xlink:href="#m741efc42ff" y="7.2"/>
      </g>
     </g>
     <g id="text_6">
      <!-- 4 -->
      <g transform="translate(316.959999105 371.996875)scale(0.2 -0.2)">
       <use xlink:href="#BitstreamVeraSans-Roman-34"/>
      </g>
     </g>
    </g>
    <g id="xtick_8">
     <g id="line2d_27">
      <path clip-path="url(#p99b4b0da67)" d="
M374.803 352.8
L374.803 7.2" style="fill:none;stroke:#000000;stroke-dasharray:1.000000,3.000000;stroke-dashoffset:0.0;stroke-width:0.5;"/>
     </g>
     <g id="line2d_28">
      <g>
       <use style="stroke:#000000;stroke-width:0.5;" x="374.803499463" xlink:href="#m93b0483c22" y="352.8"/>
      </g>
     </g>
     <g id="line2d_29">
      <g>
       <use style="stroke:#000000;stroke-width:0.5;" x="374.803499463" xlink:href="#m741efc42ff" y="7.2"/>
      </g>
     </g>
     <g id="text_7">
      <!-- 6 -->
      <g transform="translate(369.769124463 371.996875)scale(0.2 -0.2)">
       <use xlink:href="#BitstreamVeraSans-Roman-36"/>
      </g>
     </g>
    </g>
    <g id="xtick_9">
     <g id="line2d_30">
      <path clip-path="url(#p99b4b0da67)" d="
M427.334 352.8
L427.334 7.2" style="fill:none;stroke:#000000;stroke-dasharray:1.000000,3.000000;stroke-dashoffset:0.0;stroke-width:0.5;"/>
     </g>
     <g id="line2d_31">
      <g>
       <use style="stroke:#000000;stroke-width:0.5;" x="427.334499821" xlink:href="#m93b0483c22" y="352.8"/>
      </g>
     </g>
     <g id="line2d_32">
      <g>
       <use style="stroke:#000000;stroke-width:0.5;" x="427.334499821" xlink:href="#m741efc42ff" y="7.2"/>
      </g>
     </g>
     <g id="text_8">
      <!-- 8 -->
      <defs>
       <path d="
M31.7812 34.625
Q24.75 34.625 20.7188 30.8594
Q16.7031 27.0938 16.7031 20.5156
Q16.7031 13.9219 20.7188 10.1562
Q24.75 6.39062 31.7812 6.39062
Q38.8125 6.39062 42.8594 10.1719
Q46.9219 13.9688 46.9219 20.5156
Q46.9219 27.0938 42.8906 30.8594
Q38.875 34.625 31.7812 34.625
M21.9219 38.8125
Q15.5781 40.375 12.0312 44.7188
Q8.5 49.0781 8.5 55.3281
Q8.5 64.0625 14.7188 69.1406
Q20.9531 74.2188 31.7812 74.2188
Q42.6719 74.2188 48.875 69.1406
Q55.0781 64.0625 55.0781 55.3281
Q55.0781 49.0781 51.5312 44.7188
Q48 40.375 41.7031 38.8125
Q48.8281 37.1562 52.7969 32.3125
Q56.7812 27.4844 56.7812 20.5156
Q56.7812 9.90625 50.3125 4.23438
Q43.8438 -1.42188 31.7812 -1.42188
Q19.7344 -1.42188 13.25 4.23438
Q6.78125 9.90625 6.78125 20.5156
Q6.78125 27.4844 10.7812 32.3125
Q14.7969 37.1562 21.9219 38.8125
M18.3125 54.3906
Q18.3125 48.7344 21.8438 45.5625
Q25.3906 42.3906 31.7812 42.3906
Q38.1406 42.3906 41.7188 45.5625
Q45.3125 48.7344 45.3125 54.3906
Q45.3125 60.0625 41.7188 63.2344
Q38.1406 66.4062 31.7812 66.4062
Q25.3906 66.4062 21.8438 63.2344
Q18.3125 60.0625 18.3125 54.3906" id="BitstreamVeraSans-Roman-38"/>
      </defs>
      <g transform="translate(422.334499821 371.996875)scale(0.2 -0.2)">
       <use xlink:href="#BitstreamVeraSans-Roman-38"/>
      </g>
     </g>
    </g>
    <g id="xtick_10"/>
    <g id="xtick_11">
     <g id="line2d_33">
      <defs>
       <path d="
M0 0
L0 -2" id="m177f7580d0" style="stroke:#000000;stroke-width:0.5;"/>
      </defs>
      <g>
       <use style="stroke:#000000;stroke-width:0.5;" x="59.6174973142" xlink:href="#m177f7580d0" y="352.8"/>
      </g>
     </g>
     <g id="line2d_34">
      <defs>
       <path d="
M0 0
L0 2" id="m5284c7e2a0" style="stroke:#000000;stroke-width:0.5;"/>
      </defs>
      <g>
       <use style="stroke:#000000;stroke-width:0.5;" x="59.6174973142" xlink:href="#m5284c7e2a0" y="7.2"/>
      </g>
     </g>
    </g>
    <g id="xtick_12">
     <g id="line2d_35">
      <g>
       <use style="stroke:#000000;stroke-width:0.5;" x="112.148497672" xlink:href="#m177f7580d0" y="352.8"/>
      </g>
     </g>
     <g id="line2d_36">
      <g>
       <use style="stroke:#000000;stroke-width:0.5;" x="112.148497672" xlink:href="#m5284c7e2a0" y="7.2"/>
      </g>
     </g>
    </g>
    <g id="xtick_13">
     <g id="line2d_37">
      <g>
       <use style="stroke:#000000;stroke-width:0.5;" x="164.67949803" xlink:href="#m177f7580d0" y="352.8"/>
      </g>
     </g>
     <g id="line2d_38">
      <g>
       <use style="stroke:#000000;stroke-width:0.5;" x="164.67949803" xlink:href="#m5284c7e2a0" y="7.2"/>
      </g>
     </g>
    </g>
    <g id="xtick_14">
     <g id="line2d_39">
      <g>
       <use style="stroke:#000000;stroke-width:0.5;" x="217.210498389" xlink:href="#m177f7580d0" y="352.8"/>
      </g>
     </g>
     <g id="line2d_40">
      <g>
       <use style="stroke:#000000;stroke-width:0.5;" x="217.210498389" xlink:href="#m5284c7e2a0" y="7.2"/>
      </g>
     </g>
    </g>
    <g id="xtick_15">
     <g id="line2d_41">
      <g>
       <use style="stroke:#000000;stroke-width:0.5;" x="269.741498747" xlink:href="#m177f7580d0" y="352.8"/>
      </g>
     </g>
     <g id="line2d_42">
      <g>
       <use style="stroke:#000000;stroke-width:0.5;" x="269.741498747" xlink:href="#m5284c7e2a0" y="7.2"/>
      </g>
     </g>
    </g>
    <g id="xtick_16">
     <g id="line2d_43">
      <g>
       <use style="stroke:#000000;stroke-width:0.5;" x="322.272499105" xlink:href="#m177f7580d0" y="352.8"/>
      </g>
     </g>
     <g id="line2d_44">
      <g>
       <use style="stroke:#000000;stroke-width:0.5;" x="322.272499105" xlink:href="#m5284c7e2a0" y="7.2"/>
      </g>
     </g>
    </g>
    <g id="xtick_17">
     <g id="line2d_45">
      <g>
       <use style="stroke:#000000;stroke-width:0.5;" x="374.803499463" xlink:href="#m177f7580d0" y="352.8"/>
      </g>
     </g>
     <g id="line2d_46">
      <g>
       <use style="stroke:#000000;stroke-width:0.5;" x="374.803499463" xlink:href="#m5284c7e2a0" y="7.2"/>
      </g>
     </g>
    </g>
    <g id="xtick_18">
     <g id="line2d_47">
      <g>
       <use style="stroke:#000000;stroke-width:0.5;" x="427.334499821" xlink:href="#m177f7580d0" y="352.8"/>
      </g>
     </g>
     <g id="line2d_48">
      <g>
       <use style="stroke:#000000;stroke-width:0.5;" x="427.334499821" xlink:href="#m5284c7e2a0" y="7.2"/>
      </g>
     </g>
    </g>
    <g id="text_9">
     <!-- log10 of Df -->
     <defs>
      <path id="BitstreamVeraSans-Roman-20"/>
      <path d="
M12.4062 8.29688
L28.5156 8.29688
L28.5156 63.9219
L10.9844 60.4062
L10.9844 69.3906
L28.4219 72.9062
L38.2812 72.9062
L38.2812 8.29688
L54.3906 8.29688
L54.3906 0
L12.4062 0
z
" id="BitstreamVeraSans-Roman-31"/>
      <path d="
M30.6094 48.3906
Q23.3906 48.3906 19.1875 42.75
Q14.9844 37.1094 14.9844 27.2969
Q14.9844 17.4844 19.1562 11.8438
Q23.3438 6.20312 30.6094 6.20312
Q37.7969 6.20312 41.9844 11.8594
Q46.1875 17.5312 46.1875 27.2969
Q46.1875 37.0156 41.9844 42.7031
Q37.7969 48.3906 30.6094 48.3906
M30.6094 56
Q42.3281 56 49.0156 48.375
Q55.7188 40.7656 55.7188 27.2969
Q55.7188 13.875 49.0156 6.21875
Q42.3281 -1.42188 30.6094 -1.42188
Q18.8438 -1.42188 12.1719 6.21875
Q5.51562 13.875 5.51562 27.2969
Q5.51562 40.7656 12.1719 48.375
Q18.8438 56 30.6094 56" id="BitstreamVeraSans-Roman-6f"/>
      <path d="
M9.42188 75.9844
L18.4062 75.9844
L18.4062 0
L9.42188 0
z
" id="BitstreamVeraSans-Roman-6c"/>
      <path d="
M19.6719 64.7969
L19.6719 8.10938
L31.5938 8.10938
Q46.6875 8.10938 53.6875 14.9375
Q60.6875 21.7812 60.6875 36.5312
Q60.6875 51.1719 53.6875 57.9844
Q46.6875 64.7969 31.5938 64.7969
z

M9.8125 72.9062
L30.0781 72.9062
Q51.2656 72.9062 61.1719 64.0938
Q71.0938 55.2812 71.0938 36.5312
Q71.0938 17.6719 61.125 8.82812
Q51.1719 0 30.0781 0
L9.8125 0
z
" id="BitstreamVeraSans-Roman-44"/>
      <path d="
M45.4062 27.9844
Q45.4062 37.75 41.375 43.1094
Q37.3594 48.4844 30.0781 48.4844
Q22.8594 48.4844 18.8281 43.1094
Q14.7969 37.75 14.7969 27.9844
Q14.7969 18.2656 18.8281 12.8906
Q22.8594 7.51562 30.0781 7.51562
Q37.3594 7.51562 41.375 12.8906
Q45.4062 18.2656 45.4062 27.9844
M54.3906 6.78125
Q54.3906 -7.17188 48.1875 -13.9844
Q42 -20.7969 29.2031 -20.7969
Q24.4688 -20.7969 20.2656 -20.0938
Q16.0625 -19.3906 12.1094 -17.9219
L12.1094 -9.1875
Q16.0625 -11.3281 19.9219 -12.3438
Q23.7812 -13.375 27.7812 -13.375
Q36.625 -13.375 41.0156 -8.76562
Q45.4062 -4.15625 45.4062 5.17188
L45.4062 9.625
Q42.625 4.78125 38.2812 2.39062
Q33.9375 0 27.875 0
Q17.8281 0 11.6719 7.65625
Q5.51562 15.3281 5.51562 27.9844
Q5.51562 40.6719 11.6719 48.3281
Q17.8281 56 27.875 56
Q33.9375 56 38.2812 53.6094
Q42.625 51.2188 45.4062 46.3906
L45.4062 54.6875
L54.3906 54.6875
z
" id="BitstreamVeraSans-Roman-67"/>
      <path d="
M37.1094 75.9844
L37.1094 68.5
L28.5156 68.5
Q23.6875 68.5 21.7969 66.5469
Q19.9219 64.5938 19.9219 59.5156
L19.9219 54.6875
L34.7188 54.6875
L34.7188 47.7031
L19.9219 47.7031
L19.9219 0
L10.8906 0
L10.8906 47.7031
L2.29688 47.7031
L2.29688 54.6875
L10.8906 54.6875
L10.8906 58.5
Q10.8906 67.625 15.1406 71.7969
Q19.3906 75.9844 28.6094 75.9844
z
" id="BitstreamVeraSans-Roman-66"/>
     </defs>
     <g transform="translate(175.0234375 396.353125)scale(0.2 -0.2)">
      <use xlink:href="#BitstreamVeraSans-Roman-6c"/>
      <use x="27.783203125" xlink:href="#BitstreamVeraSans-Roman-6f"/>
      <use x="88.96484375" xlink:href="#BitstreamVeraSans-Roman-67"/>
      <use x="152.44140625" xlink:href="#BitstreamVeraSans-Roman-31"/>
      <use x="216.064453125" xlink:href="#BitstreamVeraSans-Roman-30"/>
      <use x="279.6875" xlink:href="#BitstreamVeraSans-Roman-20"/>
      <use x="311.474609375" xlink:href="#BitstreamVeraSans-Roman-6f"/>
      <use x="372.65625" xlink:href="#BitstreamVeraSans-Roman-66"/>
      <use x="407.861328125" xlink:href="#BitstreamVeraSans-Roman-20"/>
      <use x="439.6484375" xlink:href="#BitstreamVeraSans-Roman-44"/>
      <use x="516.650390625" xlink:href="#BitstreamVeraSans-Roman-66"/>
     </g>
    </g>
   </g>
   <g id="matplotlib.axis_2">
    <g id="ytick_1">
     <g id="line2d_49">
      <path clip-path="url(#p99b4b0da67)" d="
M7.2 352.8
L453.6 352.8" style="fill:none;stroke:#000000;stroke-dasharray:1.000000,3.000000;stroke-dashoffset:0.0;stroke-width:0.5;"/>
     </g>
     <g id="line2d_50">
      <defs>
       <path d="
M0 0
L4 0" id="m728421d6d4" style="stroke:#000000;stroke-width:0.5;"/>
      </defs>
      <g>
       <use style="stroke:#000000;stroke-width:0.5;" x="7.2" xlink:href="#m728421d6d4" y="352.8"/>
      </g>
     </g>
     <g id="line2d_51">
      <defs>
       <path d="
M0 0
L-4 0" id="mcb0005524f" style="stroke:#000000;stroke-width:0.5;"/>
      </defs>
      <g>
       <use style="stroke:#000000;stroke-width:0.5;" x="453.6" xlink:href="#mcb0005524f" y="352.8"/>
      </g>
     </g>
    </g>
    <g id="ytick_2">
     <g id="line2d_52">
      <path clip-path="url(#p99b4b0da67)" d="
M7.2 284.364
L453.6 284.364" style="fill:none;stroke:#000000;stroke-dasharray:1.000000,3.000000;stroke-dashoffset:0.0;stroke-width:0.5;"/>
     </g>
     <g id="line2d_53">
      <g>
       <use style="stroke:#000000;stroke-width:0.5;" x="7.2" xlink:href="#m728421d6d4" y="284.364356436"/>
      </g>
     </g>
     <g id="line2d_54">
      <g>
       <use style="stroke:#000000;stroke-width:0.5;" x="453.6" xlink:href="#mcb0005524f" y="284.364356436"/>
      </g>
     </g>
    </g>
    <g id="ytick_3">
     <g id="line2d_55">
      <path clip-path="url(#p99b4b0da67)" d="
M7.2 215.929
L453.6 215.929" style="fill:none;stroke:#000000;stroke-dasharray:1.000000,3.000000;stroke-dashoffset:0.0;stroke-width:0.5;"/>
     </g>
     <g id="line2d_56">
      <g>
       <use style="stroke:#000000;stroke-width:0.5;" x="7.2" xlink:href="#m728421d6d4" y="215.928712871"/>
      </g>
     </g>
     <g id="line2d_57">
      <g>
       <use style="stroke:#000000;stroke-width:0.5;" x="453.6" xlink:href="#mcb0005524f" y="215.928712871"/>
      </g>
     </g>
    </g>
    <g id="ytick_4">
     <g id="line2d_58">
      <path clip-path="url(#p99b4b0da67)" d="
M7.2 147.493
L453.6 147.493" style="fill:none;stroke:#000000;stroke-dasharray:1.000000,3.000000;stroke-dashoffset:0.0;stroke-width:0.5;"/>
     </g>
     <g id="line2d_59">
      <g>
       <use style="stroke:#000000;stroke-width:0.5;" x="7.2" xlink:href="#m728421d6d4" y="147.493069307"/>
      </g>
     </g>
     <g id="line2d_60">
      <g>
       <use style="stroke:#000000;stroke-width:0.5;" x="453.6" xlink:href="#mcb0005524f" y="147.493069307"/>
      </g>
     </g>
    </g>
    <g id="ytick_5">
     <g id="line2d_61">
      <path clip-path="url(#p99b4b0da67)" d="
M7.2 79.0574
L453.6 79.0574" style="fill:none;stroke:#000000;stroke-dasharray:1.000000,3.000000;stroke-dashoffset:0.0;stroke-width:0.5;"/>
     </g>
     <g id="line2d_62">
      <g>
       <use style="stroke:#000000;stroke-width:0.5;" x="7.2" xlink:href="#m728421d6d4" y="79.0574257426"/>
      </g>
     </g>
     <g id="line2d_63">
      <g>
       <use style="stroke:#000000;stroke-width:0.5;" x="453.6" xlink:href="#mcb0005524f" y="79.0574257426"/>
      </g>
     </g>
    </g>
    <g id="ytick_6">
     <g id="line2d_64">
      <path clip-path="url(#p99b4b0da67)" d="
M7.2 10.6218
L453.6 10.6218" style="fill:none;stroke:#000000;stroke-dasharray:1.000000,3.000000;stroke-dashoffset:0.0;stroke-width:0.5;"/>
     </g>
     <g id="line2d_65">
      <g>
       <use style="stroke:#000000;stroke-width:0.5;" x="7.2" xlink:href="#m728421d6d4" y="10.6217821782"/>
      </g>
     </g>
     <g id="line2d_66">
      <g>
       <use style="stroke:#000000;stroke-width:0.5;" x="453.6" xlink:href="#mcb0005524f" y="10.6217821782"/>
      </g>
     </g>
    </g>
   </g>
   <g id="text_10">
    <!-- {f20-f24}, 5-D -->
    <defs>
     <path d="
M12.5 -9.28125
L15.9219 -9.28125
Q22.75 -9.28125 24.8281 -7.17188
Q26.9062 -5.07812 26.9062 1.90625
L26.9062 14.0156
Q26.9062 21.625 29.0938 25.0938
Q31.2969 28.5625 36.7188 29.8906
Q31.2969 31.1094 29.0938 34.5625
Q26.9062 38.0312 26.9062 45.7031
L26.9062 57.8125
Q26.9062 64.75 24.8281 66.875
Q22.75 69 15.9219 69
L12.5 69
L12.5 75.9844
L15.5781 75.9844
Q27.7344 75.9844 31.8125 72.3906
Q35.8906 68.7969 35.8906 58.0156
L35.8906 46.2969
Q35.8906 39.0156 38.5156 36.2031
Q41.1562 33.4062 48.0938 33.4062
L51.125 33.4062
L51.125 26.4219
L48.0938 26.4219
Q41.1562 26.4219 38.5156 23.5781
Q35.8906 20.75 35.8906 13.375
L35.8906 1.70312
Q35.8906 -9.07812 31.8125 -12.6875
Q27.7344 -16.3125 15.5781 -16.3125
L12.5 -16.3125
z
" id="BitstreamVeraSans-Roman-7d"/>
     <path d="
M51.125 -9.28125
L51.125 -16.3125
L48.0938 -16.3125
Q35.9375 -16.3125 31.8125 -12.6875
Q27.6875 -9.07812 27.6875 1.70312
L27.6875 13.375
Q27.6875 20.75 25.0469 23.5781
Q22.4062 26.4219 15.4844 26.4219
L12.5 26.4219
L12.5 33.4062
L15.4844 33.4062
Q22.4688 33.4062 25.0781 36.2031
Q27.6875 39.0156 27.6875 46.2969
L27.6875 58.0156
Q27.6875 68.7969 31.8125 72.3906
Q35.9375 75.9844 48.0938 75.9844
L51.125 75.9844
L51.125 69
L47.7969 69
Q40.9219 69 38.8125 66.8438
Q36.7188 64.7031 36.7188 57.8125
L36.7188 45.7031
Q36.7188 38.0312 34.5 34.5625
Q32.2812 31.1094 26.9062 29.8906
Q32.3281 28.5625 34.5156 25.0938
Q36.7188 21.625 36.7188 14.0156
L36.7188 1.90625
Q36.7188 -4.98438 38.8125 -7.125
Q40.9219 -9.28125 47.7969 -9.28125
z
" id="BitstreamVeraSans-Roman-7b"/>
     <path d="
M11.7188 12.4062
L22.0156 12.4062
L22.0156 4
L14.0156 -11.625
L7.71875 -11.625
L11.7188 4
z
" id="BitstreamVeraSans-Roman-2c"/>
     <path d="
M10.7969 72.9062
L49.5156 72.9062
L49.5156 64.5938
L19.8281 64.5938
L19.8281 46.7344
Q21.9688 47.4688 24.1094 47.8281
Q26.2656 48.1875 28.4219 48.1875
Q40.625 48.1875 47.75 41.5
Q54.8906 34.8125 54.8906 23.3906
Q54.8906 11.625 47.5625 5.09375
Q40.2344 -1.42188 26.9062 -1.42188
Q22.3125 -1.42188 17.5469 -0.640625
Q12.7969 0.140625 7.71875 1.70312
L7.71875 11.625
Q12.1094 9.23438 16.7969 8.0625
Q21.4844 6.89062 26.7031 6.89062
Q35.1562 6.89062 40.0781 11.3281
Q45.0156 15.7656 45.0156 23.3906
Q45.0156 31 40.0781 35.4375
Q35.1562 39.8906 26.7031 39.8906
Q22.75 39.8906 18.8125 39.0156
Q14.8906 38.1406 10.7969 36.2812
z
" id="BitstreamVeraSans-Roman-35"/>
    </defs>
    <g transform="translate(300.15325 345.888)scale(0.2 -0.2)">
     <use xlink:href="#BitstreamVeraSans-Roman-7b"/>
     <use x="63.623046875" xlink:href="#BitstreamVeraSans-Roman-66"/>
     <use x="98.828125" xlink:href="#BitstreamVeraSans-Roman-32"/>
     <use x="162.451171875" xlink:href="#BitstreamVeraSans-Roman-30"/>
     <use x="226.07421875" xlink:href="#BitstreamVeraSans-Roman-2d"/>
     <use x="262.158203125" xlink:href="#BitstreamVeraSans-Roman-66"/>
     <use x="297.36328125" xlink:href="#BitstreamVeraSans-Roman-32"/>
     <use x="360.986328125" xlink:href="#BitstreamVeraSans-Roman-34"/>
     <use x="424.609375" xlink:href="#BitstreamVeraSans-Roman-7d"/>
     <use x="488.232421875" xlink:href="#BitstreamVeraSans-Roman-2c"/>
     <use x="520.01953125" xlink:href="#BitstreamVeraSans-Roman-20"/>
     <use x="551.806640625" xlink:href="#BitstreamVeraSans-Roman-35"/>
     <use x="615.4296875" xlink:href="#BitstreamVeraSans-Roman-2d"/>
     <use x="651.513671875" xlink:href="#BitstreamVeraSans-Roman-44"/>
    </g>
   </g>
   <g id="text_11">
    <!-- v2.1.1.3 -->
    <defs>
     <path d="
M2.98438 54.6875
L12.5 54.6875
L29.5938 8.79688
L46.6875 54.6875
L56.2031 54.6875
L35.6875 0
L23.4844 0
z
" id="BitstreamVeraSans-Roman-76"/>
     <path d="
M40.5781 39.3125
Q47.6562 37.7969 51.625 33
Q55.6094 28.2188 55.6094 21.1875
Q55.6094 10.4062 48.1875 4.48438
Q40.7656 -1.42188 27.0938 -1.42188
Q22.5156 -1.42188 17.6562 -0.515625
Q12.7969 0.390625 7.625 2.20312
L7.625 11.7188
Q11.7188 9.32812 16.5938 8.10938
Q21.4844 6.89062 26.8125 6.89062
Q36.0781 6.89062 40.9375 10.5469
Q45.7969 14.2031 45.7969 21.1875
Q45.7969 27.6406 41.2812 31.2656
Q36.7656 34.9062 28.7188 34.9062
L20.2188 34.9062
L20.2188 43.0156
L29.1094 43.0156
Q36.375 43.0156 40.2344 45.9219
Q44.0938 48.8281 44.0938 54.2969
Q44.0938 59.9062 40.1094 62.9062
Q36.1406 65.9219 28.7188 65.9219
Q24.6562 65.9219 20.0156 65.0312
Q15.375 64.1562 9.8125 62.3125
L9.8125 71.0938
Q15.4375 72.6562 20.3438 73.4375
Q25.25 74.2188 29.5938 74.2188
Q40.8281 74.2188 47.3594 69.1094
Q53.9062 64.0156 53.9062 55.3281
Q53.9062 49.2656 50.4375 45.0938
Q46.9688 40.9219 40.5781 39.3125" id="BitstreamVeraSans-Roman-33"/>
     <path d="
M10.6875 12.4062
L21 12.4062
L21 0
L10.6875 0
z
" id="BitstreamVeraSans-Roman-2e"/>
    </defs>
    <g style="fill:#808080;" transform="translate(210.4984375 347.2643125)scale(0.1 -0.1)">
     <use xlink:href="#BitstreamVeraSans-Roman-76"/>
     <use x="59.1796875" xlink:href="#BitstreamVeraSans-Roman-32"/>
     <use x="122.802734375" xlink:href="#BitstreamVeraSans-Roman-2e"/>
     <use x="154.58984375" xlink:href="#BitstreamVeraSans-Roman-31"/>
     <use x="218.212890625" xlink:href="#BitstreamVeraSans-Roman-2e"/>
     <use x="250.0" xlink:href="#BitstreamVeraSans-Roman-31"/>
     <use x="313.623046875" xlink:href="#BitstreamVeraSans-Roman-2e"/>
     <use x="345.41015625" xlink:href="#BitstreamVeraSans-Roman-33"/>
    </g>
   </g>
  </g>
 </g>
 <defs>
  <clipPath id="p99b4b0da67">
   <rect height="345.6" width="446.4" x="7.2" y="7.2"/>
  </clipPath>
 </defs>
</svg>
