<?xml version="1.0" encoding="utf-8" standalone="no"?>
<!DOCTYPE svg PUBLIC "-//W3C//DTD SVG 1.1//EN"
  "http://www.w3.org/Graphics/SVG/1.1/DTD/svg11.dtd">
<!-- Created with matplotlib (http://matplotlib.org/) -->
<svg height="413pt" version="1.1" viewBox="0 0 518 413" width="518pt" xmlns="http://www.w3.org/2000/svg" xmlns:xlink="http://www.w3.org/1999/xlink">
 <defs>
  <style type="text/css">
*{stroke-linecap:butt;stroke-linejoin:round;}
  </style>
 </defs>
 <g id="figure_1">
  <g id="patch_1">
   <path d="
M0 413.969
L518.522 413.969
L518.522 0
L0 0
z
" style="fill:#ffffff;"/>
  </g>
  <g id="axes_1">
   <g id="patch_2">
    <path d="
M64.9219 359.056
L511.322 359.056
L511.322 13.4563
L64.9219 13.4563
z
" style="fill:#ffffff;"/>
   </g>
   <g id="line2d_1">
    <path clip-path="url(#p4b24e7e61f)" d="
M281.716 359.056
L281.716 353.353
L284.978 353.353
L284.978 347.65
L286.214 347.65
L286.214 341.947
L286.214 341.947
L286.214 336.244
L286.818 336.244
L286.818 330.541
L287.017 330.541
L287.017 324.839
L287.216 324.839
L287.216 319.136
L288.194 319.136
L288.194 313.433
L288.771 313.433
L288.771 307.73
L288.961 307.73
L288.961 302.027
L288.961 302.027
L288.961 296.324
L289.15 296.324
L289.15 290.621
L289.15 290.621
L289.15 284.918
L289.713 284.918
L289.713 279.215
L289.713 279.215
L289.713 273.512
L290.998 273.512
L290.998 267.809
L291.358 267.809
L291.358 262.106
L291.536 262.106
L291.536 256.403
L291.714 256.403
L291.714 250.7
L291.892 250.7
L291.892 244.997
L292.419 244.997
L292.419 239.294
L292.419 239.294
L292.419 233.591
L292.593 233.591
L292.593 227.888
L295.609 227.888
L295.609 222.185
L297.194 222.185
L297.194 216.482
L297.504 216.482
L297.504 210.779
L316.371 210.779
L316.371 205.076
L319.772 205.076
L319.772 199.373
L323.446 199.373
L323.446 193.67
L331.582 193.67
L331.582 187.967
L331.582 187.967
L331.582 187.967
L511.322 187.967" style="fill:none;stroke:#f5deb3;stroke-linecap:square;"/>
   </g>
   <g id="line2d_2"/>
   <g id="line2d_3">
    <path clip-path="url(#p4b24e7e61f)" d="
M282.379 359.056
L282.379 353.353
L289.312 353.353
L289.312 347.65
L292.676 347.65
L292.676 341.947
L298.051 341.947
L298.051 336.244
L298.699 336.244
L298.699 330.541
L299.033 330.541
L299.033 324.839
L299.061 324.839
L299.061 319.136
L299.174 319.136
L299.174 313.433
L300.11 313.433
L300.11 307.73
L300.78 307.73
L300.78 302.027
L300.97 302.027
L300.97 296.324
L301.313 296.324
L301.313 290.621
L301.527 290.621
L301.527 284.918
L301.58 284.918
L301.58 279.215
L301.613 279.215
L301.613 273.512
L301.647 273.512
L301.647 267.809
L301.753 267.809
L301.753 262.106
L303.556 262.106
L303.556 256.403
L304.192 256.403
L304.192 250.7
L304.8 250.7
L304.8 244.997
L305.314 244.997
L305.314 239.294
L306.341 239.294
L306.341 233.591
L306.807 233.591
L306.807 227.888
L314.286 227.888
L314.286 222.185
L315.052 222.185
L315.052 216.482
L315.515 216.482
L315.515 210.779
L316.231 210.779
L316.231 205.076
L316.301 205.076
L316.301 199.373
L316.329 199.373
L316.329 193.67
L317.743 193.67
L317.743 187.967
L317.883 187.967
L317.883 182.264
L318.95 182.264
L318.95 176.561
L319.591 176.561
L319.591 170.858
L319.707 170.858
L319.707 165.155
L320.477 165.155
L320.477 159.452
L321.041 159.452
L321.041 153.749
L322.305 153.749
L322.305 148.046
L324.787 148.046
L324.787 142.343
L326.794 142.343
L326.794 136.641
L334.13 136.641
L334.13 130.938
L337.077 130.938
L337.077 125.235
L337.277 125.235
L337.277 119.532
L338.391 119.532
L338.391 113.829
L338.723 113.829
L338.723 108.126
L339.212 108.126
L339.212 102.423
L339.212 102.423
L339.212 102.423
L511.322 102.423" style="fill:none;stroke:#f5deb3;stroke-linecap:square;"/>
   </g>
   <g id="line2d_4">
    <path clip-path="url(#p4b24e7e61f)" d="
M335.013 359.056
L335.013 353.353
L339.867 353.353
L339.867 347.65
L342.796 347.65
L342.796 341.947
L343.307 341.947
L343.307 336.244
L346.679 336.244
L346.679 330.541
L346.7 330.541
L346.7 324.839
L348.425 324.839
L348.425 319.136
L349.167 319.136
L349.167 313.433
L349.184 313.433
L349.184 307.73
L349.629 307.73
L349.629 302.027
L350.21 302.027
L350.21 296.324
L350.614 296.324
L350.614 290.621
L351.821 290.621
L351.821 284.918
L352.249 284.918
L352.249 279.215
L352.435 279.215
L352.435 273.512
L354.791 273.512
L354.791 267.809
L356.126 267.809
L356.126 262.106
L356.688 262.106
L356.688 256.403
L357.059 256.403
L357.059 250.7
L360.241 250.7
L360.241 244.997
L368.961 244.997
L368.961 239.294
L371.952 239.294
L371.952 233.591
L375.595 233.591
L375.595 227.888
L378.027 227.888
L378.027 222.185
L379.514 222.185
L379.514 216.482
L382.716 216.482
L382.716 210.779
L386.07 210.779
L386.07 205.076
L390.738 205.076
L390.738 199.373
L391.389 199.373
L391.389 193.67
L393.22 193.67
L393.22 187.967
L393.22 187.967
L393.22 187.967
L511.322 187.967" style="fill:none;stroke:#f5deb3;stroke-linecap:square;"/>
   </g>
   <g id="line2d_5">
    <path clip-path="url(#p4b24e7e61f)" d="
M323.131 359.056
L323.131 353.353
L325.48 353.353
L325.48 347.65
L327.811 347.65
L327.811 341.947
L327.994 341.947
L327.994 336.244
L329.692 336.244
L329.692 330.541
L330.141 330.541
L330.141 324.839
L331.969 324.839
L331.969 319.136
L332.416 319.136
L332.416 313.433
L332.482 313.433
L332.482 307.73
L332.533 307.73
L332.533 302.027
L333.163 302.027
L333.163 296.324
L334.868 296.324
L334.868 290.621
L335.172 290.621
L335.172 284.918
L335.7 284.918
L335.7 279.215
L335.706 279.215
L335.706 273.512
L335.987 273.512
L335.987 267.809
L336.1 267.809
L336.1 262.106
L336.547 262.106
L336.547 256.403
L336.675 256.403
L336.675 250.7
L336.914 250.7
L336.914 244.997
L336.953 244.997
L336.953 239.294
L337.035 239.294
L337.035 233.591
L337.459 233.591
L337.459 227.888
L337.576 227.888
L337.576 222.185
L338.021 222.185
L338.021 216.482
L339.316 216.482
L339.316 210.779
L339.757 210.779
L339.757 205.076
L339.86 205.076
L339.86 199.373
L340.072 199.373
L340.072 193.67
L340.507 193.67
L340.507 187.967
L342.178 187.967
L342.178 182.264
L343.021 182.264
L343.021 176.561
L343.147 176.561
L343.147 170.858
L343.966 170.858
L343.966 165.155
L344.239 165.155
L344.239 159.452
L347.3 159.452
L347.3 153.749
L347.372 153.749
L347.372 148.046
L347.898 148.046
L347.898 142.343
L368.874 142.343
L368.874 136.641
L369.851 136.641
L369.851 130.938
L381.084 130.938
L381.084 125.235
L381.976 125.235
L381.976 119.532
L386.807 119.532
L386.807 113.829
L389.181 113.829
L389.181 108.126
L395.047 108.126
L395.047 102.423
L395.047 102.423
L395.047 102.423
L511.322 102.423" style="fill:none;stroke:#f5deb3;stroke-linecap:square;"/>
   </g>
   <g id="line2d_6"/>
   <g id="line2d_7">
    <path clip-path="url(#p4b24e7e61f)" d="
M319.194 359.056
L319.194 353.353
L319.651 353.353
L319.651 347.65
L321.574 347.65
L321.574 341.947
L322.164 341.947
L322.164 336.244
L322.494 336.244
L322.494 330.541
L322.778 330.541
L322.778 324.839
L323.5 324.839
L323.5 319.136
L323.847 319.136
L323.847 313.433
L324.153 313.433
L324.153 307.73
L325.229 307.73
L325.229 302.027
L325.289 302.027
L325.289 296.324
L326.179 296.324
L326.179 290.621
L327.656 290.621
L327.656 284.918
L327.818 284.918
L327.818 279.215
L329.753 279.215
L329.753 273.512
L351.086 273.512
L351.086 267.809
L353.038 267.809
L353.038 262.106
L353.567 262.106
L353.567 256.403
L354.616 256.403
L354.616 250.7
L354.74 250.7
L354.74 244.997
L355.41 244.997
L355.41 239.294
L355.622 239.294
L355.622 233.591
L357.353 233.591
L357.353 227.888
L357.749 227.888
L357.749 222.185
L358.691 222.185
L358.691 216.482
L358.779 216.482
L358.779 210.779
L358.882 210.779
L358.882 205.076
L358.94 205.076
L358.94 199.373
L360.497 199.373
L360.497 193.67
L361.283 193.67
L361.283 187.967
L361.528 187.967
L361.528 182.264
L362.808 182.264
L362.808 176.561
L362.983 176.561
L362.983 170.858
L363.529 170.858
L363.529 165.155
L363.67 165.155
L363.67 159.452
L364.142 159.452
L364.142 153.749
L364.778 153.749
L364.778 148.046
L365.647 148.046
L365.647 142.343
L365.862 142.343
L365.862 136.641
L366.936 136.641
L366.936 130.938
L367.295 130.938
L367.295 125.235
L367.56 125.235
L367.56 119.532
L368.193 119.532
L368.193 113.829
L396.868 113.829
L396.868 108.126
L423.776 108.126
L423.776 102.423
L503.452 102.423
L503.452 96.7197
L519.522 96.7197" style="fill:none;stroke:#f5deb3;stroke-linecap:square;"/>
   </g>
   <g id="line2d_8">
    <path clip-path="url(#p4b24e7e61f)" d="
M453.063 359.056
L453.063 353.353
L453.136 353.353
L453.136 347.65
L453.192 347.65
L453.192 341.947
L453.675 341.947
L453.675 336.244
L453.691 336.244
L453.691 330.541
L453.724 330.541
L453.724 324.839
L453.793 324.839
L453.793 319.136
L453.795 319.136
L453.795 313.433
L453.815 313.433
L453.815 307.73
L453.914 307.73
L453.914 302.027
L453.968 302.027
L453.968 296.324
L454.457 296.324
L454.457 290.621
L454.459 290.621
L454.459 284.918
L454.655 284.918
L454.655 279.215
L455.853 279.215
L455.853 273.512
L455.853 273.512
L455.853 273.512
L511.322 273.512" style="fill:none;stroke:#f5deb3;stroke-linecap:square;"/>
   </g>
   <g id="line2d_9">
    <path clip-path="url(#p4b24e7e61f)" d="
M318.169 359.056
L318.169 353.353
L320.594 353.353
L320.594 347.65
L320.741 347.65
L320.741 341.947
L322.678 341.947
L322.678 336.244
L322.965 336.244
L322.965 330.541
L323.048 330.541
L323.048 324.839
L323.34 324.839
L323.34 319.136
L323.754 319.136
L323.754 313.433
L324.494 313.433
L324.494 307.73
L324.647 307.73
L324.647 302.027
L324.999 302.027
L324.999 296.324
L326.682 296.324
L326.682 290.621
L327.1 290.621
L327.1 284.918
L328.141 284.918
L328.141 279.215
L330.476 279.215
L330.476 273.512
L331.427 273.512
L331.427 267.809
L347.337 267.809
L347.337 262.106
L347.569 262.106
L347.569 256.403
L348.12 256.403
L348.12 250.7
L348.124 250.7
L348.124 244.997
L348.759 244.997
L348.759 239.294
L348.855 239.294
L348.855 233.591
L349.984 233.591
L349.984 227.888
L350.396 227.888
L350.396 222.185
L350.48 222.185
L350.48 216.482
L350.561 216.482
L350.561 210.779
L350.608 210.779
L350.608 205.076
L350.762 205.076
L350.762 199.373
L351.024 199.373
L351.024 193.67
L351.602 193.67
L351.602 187.967
L351.733 187.967
L351.733 182.264
L352.328 182.264
L352.328 176.561
L352.814 176.561
L352.814 170.858
L353.307 170.858
L353.307 165.155
L353.341 165.155
L353.341 159.452
L353.757 159.452
L353.757 153.749
L354.315 153.749
L354.315 148.046
L355.532 148.046
L355.532 142.343
L356.08 142.343
L356.08 136.641
L357.071 136.641
L357.071 130.938
L357.636 130.938
L357.636 125.235
L359.621 125.235
L359.621 119.532
L360.452 119.532
L360.452 113.829
L360.49 113.829
L360.49 108.126
L367.688 108.126
L367.688 102.423
L369.77 102.423
L369.77 96.7197
L371.235 96.7197
L371.235 91.0167
L371.474 91.0167
L371.474 85.3138
L371.788 85.3138
L371.788 79.6108
L372.032 79.6108
L372.032 73.9078
L373.577 73.9078
L373.577 68.2049
L374.194 68.2049
L374.194 62.5019
L375.322 62.5019
L375.322 56.7989
L376.19 56.7989
L376.19 51.0959
L377.518 51.0959
L377.518 45.393
L378.723 45.393
L378.723 39.69
L378.997 39.69
L378.997 33.987
L379.786 33.987
L379.786 28.2841
L379.902 28.2841
L379.902 22.5811
L387.186 22.5811
L387.186 16.8781
L387.186 16.8781
L387.186 16.8781
L511.322 16.8781" style="fill:none;stroke:#f5deb3;stroke-linecap:square;"/>
   </g>
   <g id="line2d_10">
    <path clip-path="url(#p4b24e7e61f)" d="
M526.38 359.056" style="fill:none;stroke:#f5deb3;stroke-linecap:square;"/>
   </g>
   <g id="line2d_11">
    <path clip-path="url(#p4b24e7e61f)" d="
M329.449 359.056
L329.449 353.353
L332.74 353.353
L332.74 347.65
L337.394 347.65
L337.394 341.947
L344.359 341.947
L344.359 336.244
L345.362 336.244
L345.362 330.541
L345.884 330.541
L345.884 324.839
L349.406 324.839
L349.406 319.136
L349.46 319.136
L349.46 313.433
L350.042 313.433
L350.042 307.73
L361.526 307.73
L361.526 302.027
L362.111 302.027
L362.111 296.324
L365.166 296.324
L365.166 290.621
L367.053 290.621
L367.053 284.918
L381.123 284.918
L381.123 279.215
L470.081 279.215
L470.081 273.512
L494.742 273.512
L494.742 267.809
L495.91 267.809
L495.91 262.106
L498.317 262.106
L498.317 256.403
L498.476 256.403
L498.476 250.7
L498.518 250.7
L498.518 244.997
L498.751 244.997
L498.751 239.294
L498.898 239.294
L498.898 233.591
L498.934 233.591
L498.934 227.888
L498.969 227.888
L498.969 222.185
L499.075 222.185
L499.075 216.482
L499.097 216.482
L499.097 210.779
L499.106 210.779
L499.106 205.076
L499.118 205.076
L499.118 199.373
L499.149 199.373
L499.149 193.67
L499.152 193.67
L499.152 187.967
L499.178 187.967
L499.178 182.264
L499.201 182.264
L499.201 176.561
L499.223 176.561
L499.223 170.858
L499.226 170.858
L499.226 165.155
L499.254 165.155
L499.254 159.452
L499.331 159.452
L499.331 153.749
L499.497 153.749
L499.497 148.046
L499.614 148.046
L499.614 142.343
L499.854 142.343
L499.854 136.641
L519.522 136.641" style="fill:none;stroke:#f5deb3;stroke-linecap:square;"/>
   </g>
   <g id="line2d_12">
    <path clip-path="url(#p4b24e7e61f)" d="
M284.918 359.056
L284.918 353.353
L290.032 353.353
L290.032 347.65
L290.216 347.65
L290.216 341.947
L291.841 341.947
L291.841 336.244
L292.194 336.244
L292.194 330.541
L292.89 330.541
L292.89 324.839
L293.404 324.839
L293.404 319.136
L293.404 319.136
L293.404 313.433
L293.744 313.433
L293.744 307.73
L293.744 307.73
L293.744 302.027
L293.913 302.027
L293.913 296.324
L294.081 296.324
L294.081 290.621
L294.248 290.621
L294.248 284.918
L294.415 284.918
L294.415 279.215
L294.415 279.215
L294.415 273.512
L294.911 273.512
L294.911 267.809
L294.911 267.809
L294.911 262.106
L294.911 262.106
L294.911 256.403
L295.401 256.403
L295.401 250.7
L295.401 250.7
L295.401 244.997
L295.401 244.997
L295.401 239.294
L295.885 239.294
L295.885 233.591
L296.045 233.591
L296.045 227.888
L298.827 227.888
L298.827 222.185
L303.619 222.185
L303.619 216.482
L321.224 216.482
L321.224 210.779
L324.157 210.779
L324.157 205.076
L324.559 205.076
L324.559 199.373
L325.037 199.373
L325.037 193.67
L335.228 193.67
L335.228 187.967
L335.228 187.967
L335.228 187.967
L511.322 187.967" style="fill:none;stroke:#f5deb3;stroke-linecap:square;"/>
   </g>
   <g id="line2d_13"/>
   <g id="line2d_14"/>
   <g id="line2d_15"/>
   <g id="line2d_16">
    <path clip-path="url(#p4b24e7e61f)" d="
M435.457 359.056
L435.457 353.353
L436.371 353.353
L436.371 347.65
L442.582 347.65
L442.582 341.947
L463.619 341.947
L463.619 336.244
L463.713 336.244
L463.713 330.541
L464.093 330.541
L464.093 324.839
L478.917 324.839
L478.917 319.136
L482.539 319.136
L482.539 313.433
L484.099 313.433
L484.099 307.73
L488.791 307.73
L488.791 302.027
L491.298 302.027
L491.298 296.324
L493.399 296.324
L493.399 290.621
L503.505 290.621
L503.505 284.918
L512.014 284.918
L512.014 279.215
L512.341 279.215
L512.341 273.512
L519.522 273.512" style="fill:none;stroke:#f5deb3;stroke-linecap:square;"/>
   </g>
   <g id="line2d_17">
    <path clip-path="url(#p4b24e7e61f)" d="
M437.806 359.056
L437.806 353.353
L440.501 353.353
L440.501 347.65
L442.578 347.65
L442.578 341.947
L442.812 341.947
L442.812 336.244
L446.993 336.244
L446.993 330.541
L447.938 330.541
L447.938 324.839
L448 324.839
L448 319.136
L453.164 319.136
L453.164 313.433
L453.906 313.433
L453.906 307.73
L453.989 307.73
L453.989 302.027
L455.905 302.027
L455.905 296.324
L458.104 296.324
L458.104 290.621
L458.464 290.621
L458.464 284.918
L466.228 284.918
L466.228 279.215
L472.029 279.215
L472.029 273.512
L497.235 273.512
L497.235 267.809
L503.893 267.809
L503.893 262.106
L505.888 262.106
L505.888 256.403
L507.091 256.403
L507.091 250.7
L508.17 250.7
L508.17 244.997
L508.538 244.997
L508.538 239.294
L509.603 239.294
L509.603 233.591
L509.974 233.591
L509.974 227.888
L511.015 227.888
L511.015 222.185
L511.242 222.185
L511.242 216.482
L511.242 216.482
L511.242 216.482
L511.322 216.482" style="fill:none;stroke:#f5deb3;stroke-linecap:square;"/>
   </g>
   <g id="line2d_18">
    <path clip-path="url(#p4b24e7e61f)" d="
M259.67 359.056
L259.67 353.353
L269.038 353.353
L269.038 347.65
L269.199 347.65
L269.199 341.947
L269.822 341.947
L269.822 336.244
L270.051 336.244
L270.051 330.541
L272.802 330.541
L272.802 324.839
L272.896 324.839
L272.896 319.136
L272.989 319.136
L272.989 313.433
L273.042 313.433
L273.042 307.73
L273.479 307.73
L273.479 302.027
L273.806 302.027
L273.806 296.324
L273.937 296.324
L273.937 290.621
L273.976 290.621
L273.976 284.918
L274.17 284.918
L274.17 279.215
L274.492 279.215
L274.492 273.512
L274.646 273.512
L274.646 267.809
L275.781 267.809
L275.781 262.106
L276.128 262.106
L276.128 256.403
L276.153 256.403
L276.153 250.7
L276.215 250.7
L276.215 244.997
L277.104 244.997
L277.104 239.294
L279.355 239.294
L279.355 233.591
L279.639 233.591
L279.639 227.888
L284.738 227.888
L284.738 222.185
L299.287 222.185
L299.287 216.482
L303.885 216.482
L303.885 210.779
L305.665 210.779
L305.665 205.076
L306.69 205.076
L306.69 199.373
L308.395 199.373
L308.395 193.67
L308.771 193.67
L308.771 187.967
L309.498 187.967
L309.498 182.264
L309.935 182.264
L309.935 176.561
L310.945 176.561
L310.945 170.858
L312.787 170.858
L312.787 165.155
L317.332 165.155
L317.332 159.452
L319.185 159.452
L319.185 153.749
L321.929 153.749
L321.929 148.046
L322.382 148.046
L322.382 142.343
L325.806 142.343
L325.806 136.641
L326.146 136.641
L326.146 130.938
L327.983 130.938
L327.983 125.235
L334.545 125.235
L334.545 119.532
L346.521 119.532
L346.521 113.829
L348.587 113.829
L348.587 108.126
L355.662 108.126
L355.662 102.423
L355.662 102.423
L355.662 102.423
L511.322 102.423" style="fill:none;stroke:#f5deb3;stroke-linecap:square;"/>
   </g>
   <g id="line2d_19"/>
   <g id="line2d_20">
    <path clip-path="url(#p4b24e7e61f)" d="
M343.269 359.056
L343.269 353.353
L347.313 353.353
L347.313 347.65
L351.721 347.65
L351.721 341.947
L355.971 341.947
L355.971 336.244
L357.984 336.244
L357.984 330.541
L359.523 330.541
L359.523 324.839
L361.484 324.839
L361.484 319.136
L362.36 319.136
L362.36 313.433
L363.751 313.433
L363.751 307.73
L364.134 307.73
L364.134 302.027
L364.359 302.027
L364.359 296.324
L367.628 296.324
L367.628 290.621
L367.683 290.621
L367.683 284.918
L369.323 284.918
L369.323 279.215
L369.896 279.215
L369.896 273.512
L370.932 273.512
L370.932 267.809
L372.991 267.809
L372.991 262.106
L373.141 262.106
L373.141 256.403
L375.393 256.403
L375.393 250.7
L378.504 250.7
L378.504 244.997
L384.036 244.997
L384.036 239.294
L386.471 239.294
L386.471 233.591
L398.104 233.591
L398.104 227.888
L408.15 227.888
L408.15 222.185
L411.632 222.185
L411.632 216.482
L411.687 216.482
L411.687 210.779
L413.356 210.779
L413.356 205.076
L417.074 205.076
L417.074 199.373
L448.033 199.373
L448.033 193.67
L448.852 193.67
L448.852 187.967
L448.852 187.967
L448.852 187.967
L511.322 187.967" style="fill:none;stroke:#f5deb3;stroke-linecap:square;"/>
   </g>
   <g id="line2d_21"/>
   <g id="line2d_22">
    <path clip-path="url(#p4b24e7e61f)" d="
M347.861 359.056
L347.861 353.353
L348.109 353.353
L348.109 347.65
L349.462 347.65
L349.462 341.947
L350.378 341.947
L350.378 336.244
L350.782 336.244
L350.782 330.541
L350.871 330.541
L350.871 324.839
L351.33 324.839
L351.33 319.136
L351.729 319.136
L351.729 313.433
L352.295 313.433
L352.295 307.73
L352.706 307.73
L352.706 302.027
L353.614 302.027
L353.614 296.324
L354.539 296.324
L354.539 290.621
L354.637 290.621
L354.637 284.918
L355.91 284.918
L355.91 279.215
L356.213 279.215
L356.213 273.512
L356.793 273.512
L356.793 267.809
L356.823 267.809
L356.823 262.106
L357.082 262.106
L357.082 256.403
L357.933 256.403
L357.933 250.7
L358.817 250.7
L358.817 244.997
L359.223 244.997
L359.223 239.294
L359.66 239.294
L359.66 233.591
L360.361 233.591
L360.361 227.888
L362.025 227.888
L362.025 222.185
L363.176 222.185
L363.176 216.482
L364.12 216.482
L364.12 210.779
L364.124 210.779
L364.124 205.076
L367.376 205.076
L367.376 199.373
L368.382 199.373
L368.382 193.67
L369.615 193.67
L369.615 187.967
L384.642 187.967
L384.642 182.264
L387.683 182.264
L387.683 176.561
L388.572 176.561
L388.572 170.858
L389.147 170.858
L389.147 165.155
L390.829 165.155
L390.829 159.452
L391.65 159.452
L391.65 153.749
L392.273 153.749
L392.273 148.046
L405.781 148.046
L405.781 142.343
L408.18 142.343
L408.18 136.641
L413.674 136.641
L413.674 130.938
L418.181 130.938
L418.181 125.235
L426.738 125.235
L426.738 119.532
L433.084 119.532
L433.084 113.829
L441.045 113.829
L441.045 108.126
L441.045 108.126
L441.045 108.126
L511.322 108.126" style="fill:none;stroke:#f5deb3;stroke-linecap:square;"/>
   </g>
   <g id="line2d_23">
    <path clip-path="url(#p4b24e7e61f)" d="
M490.31 359.056
L490.31 353.353
L500.283 353.353
L500.283 347.65
L514.081 347.65
L514.081 341.947
L518.658 341.947
L518.658 336.244
L519.522 336.244" style="fill:none;stroke:#f5deb3;stroke-linecap:square;"/>
   </g>
   <g id="line2d_24">
    <path clip-path="url(#p4b24e7e61f)" d="
M328.941 359.056
L328.941 353.353
L338.172 353.353
L338.172 347.65
L339.799 347.65
L339.799 341.947
L341.758 341.947
L341.758 336.244
L341.796 336.244
L341.796 330.541
L342.572 330.541
L342.572 324.839
L343.353 324.839
L343.353 319.136
L346.964 319.136
L346.964 313.433
L347.845 313.433
L347.845 307.73
L348.159 307.73
L348.159 302.027
L349.228 302.027
L349.228 296.324
L349.676 296.324
L349.676 290.621
L349.693 290.621
L349.693 284.918
L351.602 284.918
L351.602 279.215
L351.778 279.215
L351.778 273.512
L410.677 273.512
L410.677 267.809
L410.91 267.809
L410.91 262.106
L411.356 262.106
L411.356 256.403
L412.812 256.403
L412.812 250.7
L412.839 250.7
L412.839 244.997
L413.219 244.997
L413.219 239.294
L413.732 239.294
L413.732 233.591
L413.935 233.591
L413.935 227.888
L414.074 227.888
L414.074 222.185
L414.141 222.185
L414.141 216.482
L414.777 216.482
L414.777 210.779
L415.089 210.779
L415.089 205.076
L415.095 205.076
L415.095 199.373
L415.193 199.373
L415.193 193.67
L415.307 193.67
L415.307 187.967
L415.314 187.967
L415.314 182.264
L415.513 182.264
L415.513 176.561
L415.575 176.561
L415.575 170.858
L415.812 170.858
L415.812 165.155
L415.969 165.155
L415.969 159.452
L416.005 159.452
L416.005 153.749
L416.109 153.749
L416.109 148.046
L416.563 148.046
L416.563 142.343
L416.788 142.343
L416.788 136.641
L417.63 136.641
L417.63 130.938
L418.194 130.938
L418.194 125.235
L418.6 125.235
L418.6 119.532
L419.145 119.532
L419.145 113.829
L421.073 113.829
L421.073 108.126
L422.471 108.126
L422.471 102.423
L427.985 102.423
L427.985 96.7197
L430.461 96.7197
L430.461 91.0167
L431.206 91.0167
L431.206 85.3138
L431.455 85.3138
L431.455 79.6108
L431.922 79.6108
L431.922 73.9078
L432.093 73.9078
L432.093 68.2049
L433.2 68.2049
L433.2 62.5019
L434.346 62.5019
L434.346 56.7989
L434.41 56.7989
L434.41 51.0959
L434.874 51.0959
L434.874 45.393
L435.176 45.393
L435.176 39.69
L435.833 39.69
L435.833 33.987
L436.415 33.987
L436.415 28.2841
L436.917 28.2841
L436.917 22.5811
L437.831 22.5811
L437.831 16.8781
L437.831 16.8781
L437.831 16.8781
L511.322 16.8781" style="fill:none;stroke:#f5deb3;stroke-linecap:square;"/>
   </g>
   <g id="line2d_25">
    <path clip-path="url(#p4b24e7e61f)" d="
M459.446 359.056
L459.446 353.353
L460.026 353.353
L460.026 347.65
L460.212 347.65
L460.212 341.947
L460.213 341.947
L460.213 336.244
L461.103 336.244
L461.103 330.541
L461.409 330.541
L461.409 324.839
L461.573 324.839
L461.573 319.136
L461.877 319.136
L461.877 313.433
L462.379 313.433
L462.379 307.73
L462.609 307.73
L462.609 302.027
L462.805 302.027
L462.805 296.324
L463.199 296.324
L463.199 290.621
L463.49 290.621
L463.49 284.918
L464.053 284.918
L464.053 279.215
L465.334 279.215
L465.334 273.512
L465.334 273.512
L465.334 273.512
L511.322 273.512" style="fill:none;stroke:#f5deb3;stroke-linecap:square;"/>
   </g>
   <g id="line2d_26">
    <path clip-path="url(#p4b24e7e61f)" d="
M363.281 359.056
L363.281 353.353
L367.33 353.353
L367.33 347.65
L368.708 347.65
L368.708 341.947
L369.836 341.947
L369.836 336.244
L370.244 336.244
L370.244 330.541
L371.15 330.541
L371.15 324.839
L371.355 324.839
L371.355 319.136
L372.694 319.136
L372.694 313.433
L374.626 313.433
L374.626 307.73
L375.005 307.73
L375.005 302.027
L376.763 302.027
L376.763 296.324
L378.059 296.324
L378.059 290.621
L379.812 290.621
L379.812 284.918
L380.029 284.918
L380.029 279.215
L381.802 279.215
L381.802 273.512
L381.819 273.512
L381.819 267.809
L382.957 267.809
L382.957 262.106
L383.749 262.106
L383.749 256.403
L384.738 256.403
L384.738 250.7
L388.233 250.7
L388.233 244.997
L389.019 244.997
L389.019 239.294
L389.604 239.294
L389.604 233.591
L389.653 233.591
L389.653 227.888
L390.464 227.888
L390.464 222.185
L390.545 222.185
L390.545 216.482
L391.298 216.482
L391.298 210.779
L391.342 210.779
L391.342 205.076
L391.878 205.076
L391.878 199.373
L392.11 199.373
L392.11 193.67
L392.723 193.67
L392.723 187.967
L393.977 187.967
L393.977 182.264
L394.011 182.264
L394.011 176.561
L394.077 176.561
L394.077 170.858
L394.113 170.858
L394.113 165.155
L394.252 165.155
L394.252 159.452
L394.94 159.452
L394.94 153.749
L395.368 153.749
L395.368 148.046
L396.228 148.046
L396.228 142.343
L399.948 142.343
L399.948 136.641
L436.885 136.641
L436.885 130.938
L448.149 130.938
L448.149 125.235
L448.866 125.235
L448.866 119.532
L449.416 119.532
L449.416 113.829
L453.119 113.829
L453.119 108.126
L457.886 108.126
L457.886 102.423
L484.51 102.423
L484.51 96.7197
L491.523 96.7197
L491.523 91.0167
L509.497 91.0167
L509.497 85.3138
L519.522 85.3138" style="fill:none;stroke:#f5deb3;stroke-linecap:square;"/>
   </g>
   <g id="line2d_27"/>
   <g id="line2d_28">
    <path clip-path="url(#p4b24e7e61f)" d="
M304.553 359.056
L304.553 353.353
L306.743 353.353
L306.743 347.65
L307.758 347.65
L307.758 341.947
L308.276 341.947
L308.276 336.244
L310.491 336.244
L310.491 330.541
L310.705 330.541
L310.705 324.839
L311.104 324.839
L311.104 319.136
L311.482 319.136
L311.482 313.433
L364.473 313.433
L364.473 307.73
L364.536 307.73
L364.536 302.027
L364.732 302.027
L364.732 296.324
L364.859 296.324
L364.859 290.621
L365.252 290.621
L365.252 284.918
L376.122 284.918
L376.122 279.215
L377.877 279.215
L377.877 273.512
L378.167 273.512
L378.167 267.809
L378.254 267.809
L378.254 262.106
L378.386 262.106
L378.386 256.403
L378.831 256.403
L378.831 250.7
L379.469 250.7
L379.469 244.997
L379.998 244.997
L379.998 239.294
L380.224 239.294
L380.224 233.591
L380.8 233.591
L380.8 227.888
L381.273 227.888
L381.273 222.185
L381.359 222.185
L381.359 216.482
L381.395 216.482
L381.395 210.779
L382.022 210.779
L382.022 205.076
L382.325 205.076
L382.325 199.373
L382.366 199.373
L382.366 193.67
L382.543 193.67
L382.543 187.967
L383.36 187.967
L383.36 182.264
L383.656 182.264
L383.656 176.561
L383.779 176.561
L383.779 170.858
L383.85 170.858
L383.85 165.155
L383.878 165.155
L383.878 159.452
L384.736 159.452
L384.736 153.749
L385.113 153.749
L385.113 148.046
L385.174 148.046
L385.174 142.343
L385.237 142.343
L385.237 136.641
L385.339 136.641
L385.339 130.938
L385.453 130.938
L385.453 125.235
L385.922 125.235
L385.922 119.532
L387.551 119.532
L387.551 113.829
L389.047 113.829
L389.047 108.126
L389.208 108.126
L389.208 102.423
L391.204 102.423
L391.204 96.7197
L391.288 96.7197
L391.288 91.0167
L391.563 91.0167
L391.563 85.3138
L392.203 85.3138
L392.203 79.6108
L393.335 79.6108
L393.335 73.9078
L393.946 73.9078
L393.946 68.2049
L395.004 68.2049
L395.004 62.5019
L395.361 62.5019
L395.361 56.7989
L396.378 56.7989
L396.378 51.0959
L397.626 51.0959
L397.626 45.393
L400.575 45.393
L400.575 39.69
L402.012 39.69
L402.012 33.987
L402.442 33.987
L402.442 28.2841
L422.722 28.2841
L422.722 22.5811
L424.233 22.5811
L424.233 16.8781
L424.233 16.8781
L424.233 16.8781
L511.322 16.8781" style="fill:none;stroke:#f5deb3;stroke-linecap:square;"/>
   </g>
   <g id="line2d_29">
    <path clip-path="url(#p4b24e7e61f)" d="
M266.25 359.056
L266.25 353.353
L266.25 353.353
L266.25 347.65
L266.25 347.65
L266.25 341.947
L278.186 341.947
L278.186 336.244
L278.186 336.244
L278.186 330.541
L278.186 330.541
L278.186 324.839
L297.548 324.839
L297.548 319.136
L297.548 319.136
L297.548 313.433
L297.548 313.433
L297.548 307.73
L298.247 307.73
L298.247 302.027
L298.247 302.027
L298.247 296.324
L298.247 296.324
L298.247 290.621
L310.748 290.621
L310.748 284.918
L310.748 284.918
L310.748 279.215
L310.748 279.215
L310.748 273.512
L312.384 273.512
L312.384 267.809
L312.384 267.809
L312.384 262.106
L312.384 262.106
L312.384 256.403
L312.731 256.403
L312.731 250.7
L312.731 250.7
L312.731 244.997
L312.731 244.997
L312.731 239.294
L313.888 239.294
L313.888 233.591
L313.888 233.591
L313.888 227.888
L313.888 227.888
L313.888 222.185
L313.947 222.185
L313.947 216.482
L313.947 216.482
L313.947 210.779
L313.947 210.779
L313.947 205.076
L335.249 205.076
L335.249 199.373
L335.249 199.373
L335.249 193.67
L335.249 193.67
L335.249 187.967
L335.249 187.967
L335.249 187.967
L511.322 187.967" style="fill:none;stroke:#f5deb3;stroke-linecap:square;"/>
   </g>
   <g id="line2d_30"/>
   <g id="line2d_31">
    <path clip-path="url(#p4b24e7e61f)" d="
M295.323 359.056
L295.323 353.353
L296.098 353.353
L296.098 347.65
L298.16 347.65
L298.16 341.947
L298.174 341.947
L298.174 336.244
L298.856 336.244
L298.856 330.541
L299.631 330.541
L299.631 324.839
L300.963 324.839
L300.963 319.136
L301.846 319.136
L301.846 313.433
L303.058 313.433
L303.058 307.73
L304.862 307.73
L304.862 302.027
L305.07 302.027
L305.07 296.324
L306.091 296.324
L306.091 290.621
L310.249 290.621
L310.249 284.918
L311.098 284.918
L311.098 279.215
L316.589 279.215
L316.589 273.512
L324.506 273.512
L324.506 267.809
L326.01 267.809
L326.01 262.106
L326.747 262.106
L326.747 256.403
L327.114 256.403
L327.114 250.7
L327.857 250.7
L327.857 244.997
L327.86 244.997
L327.86 239.294
L328.218 239.294
L328.218 233.591
L329.191 233.591
L329.191 227.888
L330.201 227.888
L330.201 222.185
L330.248 222.185
L330.248 216.482
L331.028 216.482
L331.028 210.779
L331.511 210.779
L331.511 205.076
L331.838 205.076
L331.838 199.373
L332.467 199.373
L332.467 193.67
L333.717 193.67
L333.717 187.967
L372.08 187.967
L372.08 182.264
L372.256 182.264
L372.256 176.561
L372.895 176.561
L372.895 170.858
L373.276 170.858
L373.276 165.155
L373.711 165.155
L373.711 159.452
L374.44 159.452
L374.44 153.749
L374.76 153.749
L374.76 148.046
L375.195 148.046
L375.195 142.343
L375.23 142.343
L375.23 136.641
L375.492 136.641
L375.492 130.938
L375.765 130.938
L375.765 125.235
L376.196 125.235
L376.196 119.532
L377.272 119.532
L377.272 113.829
L378.176 113.829
L378.176 108.126
L378.661 108.126
L378.661 102.423
L386.137 102.423
L386.137 96.7197
L392.052 96.7197
L392.052 91.0167
L393.079 91.0167
L393.079 85.3138
L393.492 85.3138
L393.492 79.6108
L395.208 79.6108
L395.208 73.9078
L395.59 73.9078
L395.59 68.2049
L395.942 68.2049
L395.942 62.5019
L397.326 62.5019
L397.326 56.7989
L397.846 56.7989
L397.846 51.0959
L397.846 51.0959
L397.846 45.393
L398.054 45.393
L398.054 39.69
L398.466 39.69
L398.466 33.987
L398.621 33.987
L398.621 28.2841
L399.555 28.2841
L399.555 22.5811
L399.698 22.5811
L399.698 16.8781
L399.698 16.8781
L399.698 16.8781
L511.322 16.8781" style="fill:none;stroke:#000000;stroke-linecap:square;"/>
   </g>
   <g id="line2d_32">
    <path clip-path="url(#p4b24e7e61f)" style="fill:none;stroke:#000000;stroke-linecap:square;"/>
   </g>
   <g id="line2d_33">
    <path clip-path="url(#p4b24e7e61f)" d="
M342.255 359.056
L342.255 353.353
L351.376 353.353
L351.376 347.65
L352.91 347.65
L352.91 341.947
L355.152 341.947
L355.152 336.244
L356.048 336.244
L356.048 330.541
L356.613 330.541
L356.613 324.839
L356.87 324.839
L356.87 319.136
L358.3 319.136
L358.3 313.433
L358.302 313.433
L358.302 307.73
L358.965 307.73
L358.965 302.027
L359.295 302.027
L359.295 296.324
L359.634 296.324
L359.634 290.621
L360.594 290.621
L360.594 284.918
L360.921 284.918
L360.921 279.215
L361.846 279.215
L361.846 273.512
L363.02 273.512
L363.02 267.809
L364.099 267.809
L364.099 262.106
L397.422 262.106
L397.422 256.403
L397.462 256.403
L397.462 250.7
L397.982 250.7
L397.982 244.997
L398.543 244.997
L398.543 239.294
L398.756 239.294
L398.756 233.591
L399.122 233.591
L399.122 227.888
L399.184 227.888
L399.184 222.185
L399.305 222.185
L399.305 216.482
L399.425 216.482
L399.425 210.779
L399.627 210.779
L399.627 205.076
L399.689 205.076
L399.689 199.373
L400.107 199.373
L400.107 193.67
L400.299 193.67
L400.299 187.967
L400.659 187.967
L400.659 182.264
L400.723 182.264
L400.723 176.561
L413.968 176.561
L413.968 170.858
L413.993 170.858
L413.993 165.155
L414.468 165.155
L414.468 159.452
L415.489 159.452
L415.489 153.749
L417.181 153.749
L417.181 148.046
L417.427 148.046
L417.427 142.343
L417.464 142.343
L417.464 136.641
L418.501 136.641
L418.501 130.938
L418.698 130.938
L418.698 125.235
L419.603 125.235
L419.603 119.532
L419.977 119.532
L419.977 113.829
L420.231 113.829
L420.231 108.126
L420.337 108.126
L420.337 102.423
L420.943 102.423
L420.943 96.7197
L421.295 96.7197
L421.295 91.0167
L421.295 91.0167
L421.295 91.0167
L511.322 91.0167" style="fill:none;stroke:#00bfbf;stroke-linecap:square;"/>
   </g>
   <g id="line2d_34">
    <path clip-path="url(#p4b24e7e61f)" style="fill:none;stroke:#00bfbf;stroke-linecap:square;"/>
   </g>
   <g id="line2d_35">
    <path clip-path="url(#p4b24e7e61f)" d="
M375.239 359.056
L375.239 353.353
L375.307 353.353
L375.307 347.65
L379.68 347.65
L379.68 341.947
L381.601 341.947
L381.601 336.244
L381.981 336.244
L381.981 330.541
L381.985 330.541
L381.985 324.839
L382.549 324.839
L382.549 319.136
L382.859 319.136
L382.859 313.433
L383.38 313.433
L383.38 307.73
L384.016 307.73
L384.016 302.027
L384.106 302.027
L384.106 296.324
L384.327 296.324
L384.327 290.621
L385.181 290.621
L385.181 284.918
L386.384 284.918
L386.384 279.215
L387.973 279.215
L387.973 273.512
L400.269 273.512
L400.269 267.809
L401.922 267.809
L401.922 262.106
L402.334 262.106
L402.334 256.403
L402.455 256.403
L402.455 250.7
L403.358 250.7
L403.358 244.997
L403.569 244.997
L403.569 239.294
L403.733 239.294
L403.733 233.591
L403.872 233.591
L403.872 227.888
L404.052 227.888
L404.052 222.185
L404.181 222.185
L404.181 216.482
L404.403 216.482
L404.403 210.779
L404.847 210.779
L404.847 205.076
L405.01 205.076
L405.01 199.373
L405.164 199.373
L405.164 193.67
L405.219 193.67
L405.219 187.967
L405.5 187.967
L405.5 182.264
L418.312 182.264
L418.312 176.561
L418.353 176.561
L418.353 170.858
L418.494 170.858
L418.494 165.155
L419.65 165.155
L419.65 159.452
L420.631 159.452
L420.631 153.749
L420.998 153.749
L420.998 148.046
L421.745 148.046
L421.745 142.343
L422.562 142.343
L422.562 136.641
L423.268 136.641
L423.268 130.938
L424.12 130.938
L424.12 125.235
L424.169 125.235
L424.169 119.532
L424.278 119.532
L424.278 113.829
L424.295 113.829
L424.295 108.126
L424.536 108.126
L424.536 102.423
L424.893 102.423
L424.893 96.7197
L446.682 96.7197
L446.682 91.0167
L446.682 91.0167
L446.682 91.0167
L511.322 91.0167" style="fill:none;stroke:#bf00bf;stroke-linecap:square;"/>
   </g>
   <g id="line2d_36">
    <path clip-path="url(#p4b24e7e61f)" style="fill:none;stroke:#bf00bf;stroke-linecap:square;"/>
   </g>
   <g id="line2d_37">
    <path clip-path="url(#p4b24e7e61f)" d="
M393.991 359.056
L393.991 353.353
L394.694 353.353
L394.694 347.65
L397.912 347.65
L397.912 341.947
L398.49 341.947
L398.49 336.244
L398.996 336.244
L398.996 330.541
L399.5 330.541
L399.5 324.839
L399.82 324.839
L399.82 319.136
L399.985 319.136
L399.985 313.433
L400.703 313.433
L400.703 307.73
L400.774 307.73
L400.774 302.027
L402.713 302.027
L402.713 296.324
L402.784 296.324
L402.784 290.621
L403.056 290.621
L403.056 284.918
L403.236 284.918
L403.236 279.215
L405.17 279.215
L405.17 273.512
L405.913 273.512
L405.913 267.809
L406.336 267.809
L406.336 262.106
L406.754 262.106
L406.754 256.403
L407.397 256.403
L407.397 250.7
L407.629 250.7
L407.629 244.997
L407.814 244.997
L407.814 239.294
L407.883 239.294
L407.883 233.591
L408.412 233.591
L408.412 227.888
L408.416 227.888
L408.416 222.185
L408.54 222.185
L408.54 216.482
L408.884 216.482
L408.884 210.779
L409.033 210.779
L409.033 205.076
L409.163 205.076
L409.163 199.373
L409.326 199.373
L409.326 193.67
L409.431 193.67
L409.431 187.967
L410.148 187.967
L410.148 182.264
L421.663 182.264
L421.663 176.561
L421.677 176.561
L421.677 170.858
L421.898 170.858
L421.898 165.155
L423.046 165.155
L423.046 159.452
L424.299 159.452
L424.299 153.749
L424.366 153.749
L424.366 148.046
L425.066 148.046
L425.066 142.343
L426.316 142.343
L426.316 136.641
L426.579 136.641
L426.579 130.938
L426.878 130.938
L426.878 125.235
L427.376 125.235
L427.376 119.532
L427.401 119.532
L427.401 113.829
L427.903 113.829
L427.903 108.126
L428.007 108.126
L428.007 102.423
L428.405 102.423
L428.405 96.7197
L446.757 96.7197
L446.757 91.0167
L446.757 91.0167
L446.757 91.0167
L511.322 91.0167" style="fill:none;stroke:#ff0000;stroke-linecap:square;stroke-width:3.0;"/>
   </g>
   <g id="line2d_38">
    <path clip-path="url(#p4b24e7e61f)" style="fill:none;stroke:#ff0000;stroke-linecap:square;stroke-width:3.0;"/>
   </g>
   <g id="line2d_39">
    <path clip-path="url(#p4b24e7e61f)" d="
M511.322 359.056
L511.322 13.4563" style="fill:none;stroke:#000000;stroke-linecap:square;"/>
   </g>
   <g id="patch_3">
    <path d="
M64.9219 13.4563
L511.322 13.4563" style="fill:none;stroke:#000000;stroke-linecap:square;stroke-linejoin:miter;"/>
   </g>
   <g id="patch_4">
    <path d="
M511.322 359.056
L511.322 13.4563" style="fill:none;stroke:#000000;stroke-linecap:square;stroke-linejoin:miter;"/>
   </g>
   <g id="patch_5">
    <path d="
M64.9219 359.056
L511.322 359.056" style="fill:none;stroke:#000000;stroke-linecap:square;stroke-linejoin:miter;"/>
   </g>
   <g id="patch_6">
    <path d="
M64.9219 359.056
L64.9219 13.4563" style="fill:none;stroke:#000000;stroke-linecap:square;stroke-linejoin:miter;"/>
   </g>
   <g id="matplotlib.axis_1">
    <g id="xtick_1">
     <g id="line2d_40">
      <path clip-path="url(#p4b24e7e61f)" d="
M159.921 359.056
L159.921 13.4563" style="fill:none;stroke:#000000;stroke-dasharray:1.000000,3.000000;stroke-dashoffset:0.0;stroke-width:0.5;"/>
     </g>
     <g id="line2d_41">
      <defs>
       <path d="
M0 0
L0 -4" id="m93b0483c22" style="stroke:#000000;stroke-width:0.5;"/>
      </defs>
      <g>
       <use style="stroke:#000000;stroke-width:0.5;" x="159.921417365" xlink:href="#m93b0483c22" y="359.056342822"/>
      </g>
     </g>
     <g id="line2d_42">
      <defs>
       <path d="
M0 0
L0 4" id="m741efc42ff" style="stroke:#000000;stroke-width:0.5;"/>
      </defs>
      <g>
       <use style="stroke:#000000;stroke-width:0.5;" x="159.921417365" xlink:href="#m741efc42ff" y="13.4563428218"/>
      </g>
     </g>
     <g id="text_1">
      <!-- 1 -->
      <defs>
       <path d="
M12.4062 8.29688
L28.5156 8.29688
L28.5156 63.9219
L10.9844 60.4062
L10.9844 69.3906
L28.4219 72.9062
L38.2812 72.9062
L38.2812 8.29688
L54.3906 8.29688
L54.3906 0
L12.4062 0
z
" id="BitstreamVeraSans-Roman-31"/>
      </defs>
      <g transform="translate(155.580792365 378.253217822)scale(0.2 -0.2)">
       <use xlink:href="#BitstreamVeraSans-Roman-31"/>
      </g>
     </g>
    </g>
    <g id="xtick_2">
     <g id="line2d_43">
      <path clip-path="url(#p4b24e7e61f)" d="
M254.921 359.056
L254.921 13.4563" style="fill:none;stroke:#000000;stroke-dasharray:1.000000,3.000000;stroke-dashoffset:0.0;stroke-width:0.5;"/>
     </g>
     <g id="line2d_44">
      <g>
       <use style="stroke:#000000;stroke-width:0.5;" x="254.920959731" xlink:href="#m93b0483c22" y="359.056342822"/>
      </g>
     </g>
     <g id="line2d_45">
      <g>
       <use style="stroke:#000000;stroke-width:0.5;" x="254.920959731" xlink:href="#m741efc42ff" y="13.4563428218"/>
      </g>
     </g>
     <g id="text_2">
      <!-- 2 -->
      <defs>
       <path d="
M19.1875 8.29688
L53.6094 8.29688
L53.6094 0
L7.32812 0
L7.32812 8.29688
Q12.9375 14.1094 22.625 23.8906
Q32.3281 33.6875 34.8125 36.5312
Q39.5469 41.8438 41.4219 45.5312
Q43.3125 49.2188 43.3125 52.7812
Q43.3125 58.5938 39.2344 62.25
Q35.1562 65.9219 28.6094 65.9219
Q23.9688 65.9219 18.8125 64.3125
Q13.6719 62.7031 7.8125 59.4219
L7.8125 69.3906
Q13.7656 71.7812 18.9375 73
Q24.125 74.2188 28.4219 74.2188
Q39.75 74.2188 46.4844 68.5469
Q53.2188 62.8906 53.2188 53.4219
Q53.2188 48.9219 51.5312 44.8906
Q49.8594 40.875 45.4062 35.4062
Q44.1875 33.9844 37.6406 27.2188
Q31.1094 20.4531 19.1875 8.29688" id="BitstreamVeraSans-Roman-32"/>
      </defs>
      <g transform="translate(250.292834731 378.253217822)scale(0.2 -0.2)">
       <use xlink:href="#BitstreamVeraSans-Roman-32"/>
      </g>
     </g>
    </g>
    <g id="xtick_3">
     <g id="line2d_46">
      <path clip-path="url(#p4b24e7e61f)" d="
M349.921 359.056
L349.921 13.4563" style="fill:none;stroke:#000000;stroke-dasharray:1.000000,3.000000;stroke-dashoffset:0.0;stroke-width:0.5;"/>
     </g>
     <g id="line2d_47">
      <g>
       <use style="stroke:#000000;stroke-width:0.5;" x="349.920502096" xlink:href="#m93b0483c22" y="359.056342822"/>
      </g>
     </g>
     <g id="line2d_48">
      <g>
       <use style="stroke:#000000;stroke-width:0.5;" x="349.920502096" xlink:href="#m741efc42ff" y="13.4563428218"/>
      </g>
     </g>
     <g id="text_3">
      <!-- 3 -->
      <defs>
       <path d="
M40.5781 39.3125
Q47.6562 37.7969 51.625 33
Q55.6094 28.2188 55.6094 21.1875
Q55.6094 10.4062 48.1875 4.48438
Q40.7656 -1.42188 27.0938 -1.42188
Q22.5156 -1.42188 17.6562 -0.515625
Q12.7969 0.390625 7.625 2.20312
L7.625 11.7188
Q11.7188 9.32812 16.5938 8.10938
Q21.4844 6.89062 26.8125 6.89062
Q36.0781 6.89062 40.9375 10.5469
Q45.7969 14.2031 45.7969 21.1875
Q45.7969 27.6406 41.2812 31.2656
Q36.7656 34.9062 28.7188 34.9062
L20.2188 34.9062
L20.2188 43.0156
L29.1094 43.0156
Q36.375 43.0156 40.2344 45.9219
Q44.0938 48.8281 44.0938 54.2969
Q44.0938 59.9062 40.1094 62.9062
Q36.1406 65.9219 28.7188 65.9219
Q24.6562 65.9219 20.0156 65.0312
Q15.375 64.1562 9.8125 62.3125
L9.8125 71.0938
Q15.4375 72.6562 20.3438 73.4375
Q25.25 74.2188 29.5938 74.2188
Q40.8281 74.2188 47.3594 69.1094
Q53.9062 64.0156 53.9062 55.3281
Q53.9062 49.2656 50.4375 45.0938
Q46.9688 40.9219 40.5781 39.3125" id="BitstreamVeraSans-Roman-33"/>
      </defs>
      <g transform="translate(345.122064596 378.253217822)scale(0.2 -0.2)">
       <use xlink:href="#BitstreamVeraSans-Roman-33"/>
      </g>
     </g>
    </g>
    <g id="xtick_4">
     <g id="line2d_49">
      <path clip-path="url(#p4b24e7e61f)" d="
M444.92 359.056
L444.92 13.4563" style="fill:none;stroke:#000000;stroke-dasharray:1.000000,3.000000;stroke-dashoffset:0.0;stroke-width:0.5;"/>
     </g>
     <g id="line2d_50">
      <g>
       <use style="stroke:#000000;stroke-width:0.5;" x="444.920044461" xlink:href="#m93b0483c22" y="359.056342822"/>
      </g>
     </g>
     <g id="line2d_51">
      <g>
       <use style="stroke:#000000;stroke-width:0.5;" x="444.920044461" xlink:href="#m741efc42ff" y="13.4563428218"/>
      </g>
     </g>
     <g id="text_4">
      <!-- 4 -->
      <defs>
       <path d="
M37.7969 64.3125
L12.8906 25.3906
L37.7969 25.3906
z

M35.2031 72.9062
L47.6094 72.9062
L47.6094 25.3906
L58.0156 25.3906
L58.0156 17.1875
L47.6094 17.1875
L47.6094 0
L37.7969 0
L37.7969 17.1875
L4.89062 17.1875
L4.89062 26.7031
z
" id="BitstreamVeraSans-Roman-34"/>
      </defs>
      <g transform="translate(439.607544461 378.253217822)scale(0.2 -0.2)">
       <use xlink:href="#BitstreamVeraSans-Roman-34"/>
      </g>
     </g>
    </g>
    <g id="xtick_5">
     <g id="line2d_52">
      <defs>
       <path d="
M0 0
L0 -2" id="m177f7580d0" style="stroke:#000000;stroke-width:0.5;"/>
      </defs>
      <g>
       <use style="stroke:#000000;stroke-width:0.5;" x="93.5195868263" xlink:href="#m177f7580d0" y="359.056342822"/>
      </g>
     </g>
     <g id="line2d_53">
      <defs>
       <path d="
M0 0
L0 2" id="m5284c7e2a0" style="stroke:#000000;stroke-width:0.5;"/>
      </defs>
      <g>
       <use style="stroke:#000000;stroke-width:0.5;" x="93.5195868263" xlink:href="#m5284c7e2a0" y="13.4563428218"/>
      </g>
     </g>
    </g>
    <g id="xtick_6">
     <g id="line2d_54">
      <g>
       <use style="stroke:#000000;stroke-width:0.5;" x="110.248175851" xlink:href="#m177f7580d0" y="359.056342822"/>
      </g>
     </g>
     <g id="line2d_55">
      <g>
       <use style="stroke:#000000;stroke-width:0.5;" x="110.248175851" xlink:href="#m5284c7e2a0" y="13.4563428218"/>
      </g>
     </g>
    </g>
    <g id="xtick_7">
     <g id="line2d_56">
      <g>
       <use style="stroke:#000000;stroke-width:0.5;" x="122.117298653" xlink:href="#m177f7580d0" y="359.056342822"/>
      </g>
     </g>
     <g id="line2d_57">
      <g>
       <use style="stroke:#000000;stroke-width:0.5;" x="122.117298653" xlink:href="#m5284c7e2a0" y="13.4563428218"/>
      </g>
     </g>
    </g>
    <g id="xtick_8">
     <g id="line2d_58">
      <g>
       <use style="stroke:#000000;stroke-width:0.5;" x="131.323705539" xlink:href="#m177f7580d0" y="359.056342822"/>
      </g>
     </g>
     <g id="line2d_59">
      <g>
       <use style="stroke:#000000;stroke-width:0.5;" x="131.323705539" xlink:href="#m5284c7e2a0" y="13.4563428218"/>
      </g>
     </g>
    </g>
    <g id="xtick_9">
     <g id="line2d_60">
      <g>
       <use style="stroke:#000000;stroke-width:0.5;" x="138.845887677" xlink:href="#m177f7580d0" y="359.056342822"/>
      </g>
     </g>
     <g id="line2d_61">
      <g>
       <use style="stroke:#000000;stroke-width:0.5;" x="138.845887677" xlink:href="#m5284c7e2a0" y="13.4563428218"/>
      </g>
     </g>
    </g>
    <g id="xtick_10">
     <g id="line2d_62">
      <g>
       <use style="stroke:#000000;stroke-width:0.5;" x="145.205802055" xlink:href="#m177f7580d0" y="359.056342822"/>
      </g>
     </g>
     <g id="line2d_63">
      <g>
       <use style="stroke:#000000;stroke-width:0.5;" x="145.205802055" xlink:href="#m5284c7e2a0" y="13.4563428218"/>
      </g>
     </g>
    </g>
    <g id="xtick_11">
     <g id="line2d_64">
      <g>
       <use style="stroke:#000000;stroke-width:0.5;" x="150.715010479" xlink:href="#m177f7580d0" y="359.056342822"/>
      </g>
     </g>
     <g id="line2d_65">
      <g>
       <use style="stroke:#000000;stroke-width:0.5;" x="150.715010479" xlink:href="#m5284c7e2a0" y="13.4563428218"/>
      </g>
     </g>
    </g>
    <g id="xtick_12">
     <g id="line2d_66">
      <g>
       <use style="stroke:#000000;stroke-width:0.5;" x="155.574476702" xlink:href="#m177f7580d0" y="359.056342822"/>
      </g>
     </g>
     <g id="line2d_67">
      <g>
       <use style="stroke:#000000;stroke-width:0.5;" x="155.574476702" xlink:href="#m5284c7e2a0" y="13.4563428218"/>
      </g>
     </g>
    </g>
    <g id="xtick_13">
     <g id="line2d_68">
      <g>
       <use style="stroke:#000000;stroke-width:0.5;" x="188.519129192" xlink:href="#m177f7580d0" y="359.056342822"/>
      </g>
     </g>
     <g id="line2d_69">
      <g>
       <use style="stroke:#000000;stroke-width:0.5;" x="188.519129192" xlink:href="#m5284c7e2a0" y="13.4563428218"/>
      </g>
     </g>
    </g>
    <g id="xtick_14">
     <g id="line2d_70">
      <g>
       <use style="stroke:#000000;stroke-width:0.5;" x="205.247718216" xlink:href="#m177f7580d0" y="359.056342822"/>
      </g>
     </g>
     <g id="line2d_71">
      <g>
       <use style="stroke:#000000;stroke-width:0.5;" x="205.247718216" xlink:href="#m5284c7e2a0" y="13.4563428218"/>
      </g>
     </g>
    </g>
    <g id="xtick_15">
     <g id="line2d_72">
      <g>
       <use style="stroke:#000000;stroke-width:0.5;" x="217.116841018" xlink:href="#m177f7580d0" y="359.056342822"/>
      </g>
     </g>
     <g id="line2d_73">
      <g>
       <use style="stroke:#000000;stroke-width:0.5;" x="217.116841018" xlink:href="#m5284c7e2a0" y="13.4563428218"/>
      </g>
     </g>
    </g>
    <g id="xtick_16">
     <g id="line2d_74">
      <g>
       <use style="stroke:#000000;stroke-width:0.5;" x="226.323247904" xlink:href="#m177f7580d0" y="359.056342822"/>
      </g>
     </g>
     <g id="line2d_75">
      <g>
       <use style="stroke:#000000;stroke-width:0.5;" x="226.323247904" xlink:href="#m5284c7e2a0" y="13.4563428218"/>
      </g>
     </g>
    </g>
    <g id="xtick_17">
     <g id="line2d_76">
      <g>
       <use style="stroke:#000000;stroke-width:0.5;" x="233.845430043" xlink:href="#m177f7580d0" y="359.056342822"/>
      </g>
     </g>
     <g id="line2d_77">
      <g>
       <use style="stroke:#000000;stroke-width:0.5;" x="233.845430043" xlink:href="#m5284c7e2a0" y="13.4563428218"/>
      </g>
     </g>
    </g>
    <g id="xtick_18">
     <g id="line2d_78">
      <g>
       <use style="stroke:#000000;stroke-width:0.5;" x="240.20534442" xlink:href="#m177f7580d0" y="359.056342822"/>
      </g>
     </g>
     <g id="line2d_79">
      <g>
       <use style="stroke:#000000;stroke-width:0.5;" x="240.20534442" xlink:href="#m5284c7e2a0" y="13.4563428218"/>
      </g>
     </g>
    </g>
    <g id="xtick_19">
     <g id="line2d_80">
      <g>
       <use style="stroke:#000000;stroke-width:0.5;" x="245.714552844" xlink:href="#m177f7580d0" y="359.056342822"/>
      </g>
     </g>
     <g id="line2d_81">
      <g>
       <use style="stroke:#000000;stroke-width:0.5;" x="245.714552844" xlink:href="#m5284c7e2a0" y="13.4563428218"/>
      </g>
     </g>
    </g>
    <g id="xtick_20">
     <g id="line2d_82">
      <g>
       <use style="stroke:#000000;stroke-width:0.5;" x="250.574019067" xlink:href="#m177f7580d0" y="359.056342822"/>
      </g>
     </g>
     <g id="line2d_83">
      <g>
       <use style="stroke:#000000;stroke-width:0.5;" x="250.574019067" xlink:href="#m5284c7e2a0" y="13.4563428218"/>
      </g>
     </g>
    </g>
    <g id="xtick_21">
     <g id="line2d_84">
      <g>
       <use style="stroke:#000000;stroke-width:0.5;" x="283.518671557" xlink:href="#m177f7580d0" y="359.056342822"/>
      </g>
     </g>
     <g id="line2d_85">
      <g>
       <use style="stroke:#000000;stroke-width:0.5;" x="283.518671557" xlink:href="#m5284c7e2a0" y="13.4563428218"/>
      </g>
     </g>
    </g>
    <g id="xtick_22">
     <g id="line2d_86">
      <g>
       <use style="stroke:#000000;stroke-width:0.5;" x="300.247260582" xlink:href="#m177f7580d0" y="359.056342822"/>
      </g>
     </g>
     <g id="line2d_87">
      <g>
       <use style="stroke:#000000;stroke-width:0.5;" x="300.247260582" xlink:href="#m5284c7e2a0" y="13.4563428218"/>
      </g>
     </g>
    </g>
    <g id="xtick_23">
     <g id="line2d_88">
      <g>
       <use style="stroke:#000000;stroke-width:0.5;" x="312.116383383" xlink:href="#m177f7580d0" y="359.056342822"/>
      </g>
     </g>
     <g id="line2d_89">
      <g>
       <use style="stroke:#000000;stroke-width:0.5;" x="312.116383383" xlink:href="#m5284c7e2a0" y="13.4563428218"/>
      </g>
     </g>
    </g>
    <g id="xtick_24">
     <g id="line2d_90">
      <g>
       <use style="stroke:#000000;stroke-width:0.5;" x="321.322790269" xlink:href="#m177f7580d0" y="359.056342822"/>
      </g>
     </g>
     <g id="line2d_91">
      <g>
       <use style="stroke:#000000;stroke-width:0.5;" x="321.322790269" xlink:href="#m5284c7e2a0" y="13.4563428218"/>
      </g>
     </g>
    </g>
    <g id="xtick_25">
     <g id="line2d_92">
      <g>
       <use style="stroke:#000000;stroke-width:0.5;" x="328.844972408" xlink:href="#m177f7580d0" y="359.056342822"/>
      </g>
     </g>
     <g id="line2d_93">
      <g>
       <use style="stroke:#000000;stroke-width:0.5;" x="328.844972408" xlink:href="#m5284c7e2a0" y="13.4563428218"/>
      </g>
     </g>
    </g>
    <g id="xtick_26">
     <g id="line2d_94">
      <g>
       <use style="stroke:#000000;stroke-width:0.5;" x="335.204886786" xlink:href="#m177f7580d0" y="359.056342822"/>
      </g>
     </g>
     <g id="line2d_95">
      <g>
       <use style="stroke:#000000;stroke-width:0.5;" x="335.204886786" xlink:href="#m5284c7e2a0" y="13.4563428218"/>
      </g>
     </g>
    </g>
    <g id="xtick_27">
     <g id="line2d_96">
      <g>
       <use style="stroke:#000000;stroke-width:0.5;" x="340.714095209" xlink:href="#m177f7580d0" y="359.056342822"/>
      </g>
     </g>
     <g id="line2d_97">
      <g>
       <use style="stroke:#000000;stroke-width:0.5;" x="340.714095209" xlink:href="#m5284c7e2a0" y="13.4563428218"/>
      </g>
     </g>
    </g>
    <g id="xtick_28">
     <g id="line2d_98">
      <g>
       <use style="stroke:#000000;stroke-width:0.5;" x="345.573561433" xlink:href="#m177f7580d0" y="359.056342822"/>
      </g>
     </g>
     <g id="line2d_99">
      <g>
       <use style="stroke:#000000;stroke-width:0.5;" x="345.573561433" xlink:href="#m5284c7e2a0" y="13.4563428218"/>
      </g>
     </g>
    </g>
    <g id="xtick_29">
     <g id="line2d_100">
      <g>
       <use style="stroke:#000000;stroke-width:0.5;" x="378.518213922" xlink:href="#m177f7580d0" y="359.056342822"/>
      </g>
     </g>
     <g id="line2d_101">
      <g>
       <use style="stroke:#000000;stroke-width:0.5;" x="378.518213922" xlink:href="#m5284c7e2a0" y="13.4563428218"/>
      </g>
     </g>
    </g>
    <g id="xtick_30">
     <g id="line2d_102">
      <g>
       <use style="stroke:#000000;stroke-width:0.5;" x="395.246802947" xlink:href="#m177f7580d0" y="359.056342822"/>
      </g>
     </g>
     <g id="line2d_103">
      <g>
       <use style="stroke:#000000;stroke-width:0.5;" x="395.246802947" xlink:href="#m5284c7e2a0" y="13.4563428218"/>
      </g>
     </g>
    </g>
    <g id="xtick_31">
     <g id="line2d_104">
      <g>
       <use style="stroke:#000000;stroke-width:0.5;" x="407.115925748" xlink:href="#m177f7580d0" y="359.056342822"/>
      </g>
     </g>
     <g id="line2d_105">
      <g>
       <use style="stroke:#000000;stroke-width:0.5;" x="407.115925748" xlink:href="#m5284c7e2a0" y="13.4563428218"/>
      </g>
     </g>
    </g>
    <g id="xtick_32">
     <g id="line2d_106">
      <g>
       <use style="stroke:#000000;stroke-width:0.5;" x="416.322332635" xlink:href="#m177f7580d0" y="359.056342822"/>
      </g>
     </g>
     <g id="line2d_107">
      <g>
       <use style="stroke:#000000;stroke-width:0.5;" x="416.322332635" xlink:href="#m5284c7e2a0" y="13.4563428218"/>
      </g>
     </g>
    </g>
    <g id="xtick_33">
     <g id="line2d_108">
      <g>
       <use style="stroke:#000000;stroke-width:0.5;" x="423.844514773" xlink:href="#m177f7580d0" y="359.056342822"/>
      </g>
     </g>
     <g id="line2d_109">
      <g>
       <use style="stroke:#000000;stroke-width:0.5;" x="423.844514773" xlink:href="#m5284c7e2a0" y="13.4563428218"/>
      </g>
     </g>
    </g>
    <g id="xtick_34">
     <g id="line2d_110">
      <g>
       <use style="stroke:#000000;stroke-width:0.5;" x="430.204429151" xlink:href="#m177f7580d0" y="359.056342822"/>
      </g>
     </g>
     <g id="line2d_111">
      <g>
       <use style="stroke:#000000;stroke-width:0.5;" x="430.204429151" xlink:href="#m5284c7e2a0" y="13.4563428218"/>
      </g>
     </g>
    </g>
    <g id="xtick_35">
     <g id="line2d_112">
      <g>
       <use style="stroke:#000000;stroke-width:0.5;" x="435.713637575" xlink:href="#m177f7580d0" y="359.056342822"/>
      </g>
     </g>
     <g id="line2d_113">
      <g>
       <use style="stroke:#000000;stroke-width:0.5;" x="435.713637575" xlink:href="#m5284c7e2a0" y="13.4563428218"/>
      </g>
     </g>
    </g>
    <g id="xtick_36">
     <g id="line2d_114">
      <g>
       <use style="stroke:#000000;stroke-width:0.5;" x="440.573103798" xlink:href="#m177f7580d0" y="359.056342822"/>
      </g>
     </g>
     <g id="line2d_115">
      <g>
       <use style="stroke:#000000;stroke-width:0.5;" x="440.573103798" xlink:href="#m5284c7e2a0" y="13.4563428218"/>
      </g>
     </g>
    </g>
    <g id="xtick_37">
     <g id="line2d_116">
      <g>
       <use style="stroke:#000000;stroke-width:0.5;" x="473.517756287" xlink:href="#m177f7580d0" y="359.056342822"/>
      </g>
     </g>
     <g id="line2d_117">
      <g>
       <use style="stroke:#000000;stroke-width:0.5;" x="473.517756287" xlink:href="#m5284c7e2a0" y="13.4563428218"/>
      </g>
     </g>
    </g>
    <g id="xtick_38">
     <g id="line2d_118">
      <g>
       <use style="stroke:#000000;stroke-width:0.5;" x="490.246345312" xlink:href="#m177f7580d0" y="359.056342822"/>
      </g>
     </g>
     <g id="line2d_119">
      <g>
       <use style="stroke:#000000;stroke-width:0.5;" x="490.246345312" xlink:href="#m5284c7e2a0" y="13.4563428218"/>
      </g>
     </g>
    </g>
    <g id="xtick_39">
     <g id="line2d_120">
      <g>
       <use style="stroke:#000000;stroke-width:0.5;" x="502.115468114" xlink:href="#m177f7580d0" y="359.056342822"/>
      </g>
     </g>
     <g id="line2d_121">
      <g>
       <use style="stroke:#000000;stroke-width:0.5;" x="502.115468114" xlink:href="#m5284c7e2a0" y="13.4563428218"/>
      </g>
     </g>
    </g>
    <g id="xtick_40">
     <g id="line2d_122">
      <g>
       <use style="stroke:#000000;stroke-width:0.5;" x="511.321875" xlink:href="#m177f7580d0" y="359.056342822"/>
      </g>
     </g>
     <g id="line2d_123">
      <g>
       <use style="stroke:#000000;stroke-width:0.5;" x="511.321875" xlink:href="#m5284c7e2a0" y="13.4563428218"/>
      </g>
     </g>
    </g>
    <g id="text_5">
     <!-- log10 of FEvals / DIM -->
     <defs>
      <path id="BitstreamVeraSans-Roman-20"/>
      <path d="
M31.7812 66.4062
Q24.1719 66.4062 20.3281 58.9062
Q16.5 51.4219 16.5 36.375
Q16.5 21.3906 20.3281 13.8906
Q24.1719 6.39062 31.7812 6.39062
Q39.4531 6.39062 43.2812 13.8906
Q47.125 21.3906 47.125 36.375
Q47.125 51.4219 43.2812 58.9062
Q39.4531 66.4062 31.7812 66.4062
M31.7812 74.2188
Q44.0469 74.2188 50.5156 64.5156
Q56.9844 54.8281 56.9844 36.375
Q56.9844 17.9688 50.5156 8.26562
Q44.0469 -1.42188 31.7812 -1.42188
Q19.5312 -1.42188 13.0625 8.26562
Q6.59375 17.9688 6.59375 36.375
Q6.59375 54.8281 13.0625 64.5156
Q19.5312 74.2188 31.7812 74.2188" id="BitstreamVeraSans-Roman-30"/>
      <path d="
M9.8125 72.9062
L24.5156 72.9062
L43.1094 23.2969
L61.8125 72.9062
L76.5156 72.9062
L76.5156 0
L66.8906 0
L66.8906 64.0156
L48.0938 14.0156
L38.1875 14.0156
L19.3906 64.0156
L19.3906 0
L9.8125 0
z
" id="BitstreamVeraSans-Roman-4d"/>
      <path d="
M30.6094 48.3906
Q23.3906 48.3906 19.1875 42.75
Q14.9844 37.1094 14.9844 27.2969
Q14.9844 17.4844 19.1562 11.8438
Q23.3438 6.20312 30.6094 6.20312
Q37.7969 6.20312 41.9844 11.8594
Q46.1875 17.5312 46.1875 27.2969
Q46.1875 37.0156 41.9844 42.7031
Q37.7969 48.3906 30.6094 48.3906
M30.6094 56
Q42.3281 56 49.0156 48.375
Q55.7188 40.7656 55.7188 27.2969
Q55.7188 13.875 49.0156 6.21875
Q42.3281 -1.42188 30.6094 -1.42188
Q18.8438 -1.42188 12.1719 6.21875
Q5.51562 13.875 5.51562 27.2969
Q5.51562 40.7656 12.1719 48.375
Q18.8438 56 30.6094 56" id="BitstreamVeraSans-Roman-6f"/>
      <path d="
M9.42188 75.9844
L18.4062 75.9844
L18.4062 0
L9.42188 0
z
" id="BitstreamVeraSans-Roman-6c"/>
      <path d="
M9.8125 72.9062
L51.7031 72.9062
L51.7031 64.5938
L19.6719 64.5938
L19.6719 43.1094
L48.5781 43.1094
L48.5781 34.8125
L19.6719 34.8125
L19.6719 0
L9.8125 0
z
" id="BitstreamVeraSans-Roman-46"/>
      <path d="
M9.8125 72.9062
L55.9062 72.9062
L55.9062 64.5938
L19.6719 64.5938
L19.6719 43.0156
L54.3906 43.0156
L54.3906 34.7188
L19.6719 34.7188
L19.6719 8.29688
L56.7812 8.29688
L56.7812 0
L9.8125 0
z
" id="BitstreamVeraSans-Roman-45"/>
      <path d="
M19.6719 64.7969
L19.6719 8.10938
L31.5938 8.10938
Q46.6875 8.10938 53.6875 14.9375
Q60.6875 21.7812 60.6875 36.5312
Q60.6875 51.1719 53.6875 57.9844
Q46.6875 64.7969 31.5938 64.7969
z

M9.8125 72.9062
L30.0781 72.9062
Q51.2656 72.9062 61.1719 64.0938
Q71.0938 55.2812 71.0938 36.5312
Q71.0938 17.6719 61.125 8.82812
Q51.1719 0 30.0781 0
L9.8125 0
z
" id="BitstreamVeraSans-Roman-44"/>
      <path d="
M25.3906 72.9062
L33.6875 72.9062
L8.29688 -9.28125
L0 -9.28125
z
" id="BitstreamVeraSans-Roman-2f"/>
      <path d="
M2.98438 54.6875
L12.5 54.6875
L29.5938 8.79688
L46.6875 54.6875
L56.2031 54.6875
L35.6875 0
L23.4844 0
z
" id="BitstreamVeraSans-Roman-76"/>
      <path d="
M45.4062 27.9844
Q45.4062 37.75 41.375 43.1094
Q37.3594 48.4844 30.0781 48.4844
Q22.8594 48.4844 18.8281 43.1094
Q14.7969 37.75 14.7969 27.9844
Q14.7969 18.2656 18.8281 12.8906
Q22.8594 7.51562 30.0781 7.51562
Q37.3594 7.51562 41.375 12.8906
Q45.4062 18.2656 45.4062 27.9844
M54.3906 6.78125
Q54.3906 -7.17188 48.1875 -13.9844
Q42 -20.7969 29.2031 -20.7969
Q24.4688 -20.7969 20.2656 -20.0938
Q16.0625 -19.3906 12.1094 -17.9219
L12.1094 -9.1875
Q16.0625 -11.3281 19.9219 -12.3438
Q23.7812 -13.375 27.7812 -13.375
Q36.625 -13.375 41.0156 -8.76562
Q45.4062 -4.15625 45.4062 5.17188
L45.4062 9.625
Q42.625 4.78125 38.2812 2.39062
Q33.9375 0 27.875 0
Q17.8281 0 11.6719 7.65625
Q5.51562 15.3281 5.51562 27.9844
Q5.51562 40.6719 11.6719 48.3281
Q17.8281 56 27.875 56
Q33.9375 56 38.2812 53.6094
Q42.625 51.2188 45.4062 46.3906
L45.4062 54.6875
L54.3906 54.6875
z
" id="BitstreamVeraSans-Roman-67"/>
      <path d="
M37.1094 75.9844
L37.1094 68.5
L28.5156 68.5
Q23.6875 68.5 21.7969 66.5469
Q19.9219 64.5938 19.9219 59.5156
L19.9219 54.6875
L34.7188 54.6875
L34.7188 47.7031
L19.9219 47.7031
L19.9219 0
L10.8906 0
L10.8906 47.7031
L2.29688 47.7031
L2.29688 54.6875
L10.8906 54.6875
L10.8906 58.5
Q10.8906 67.625 15.1406 71.7969
Q19.3906 75.9844 28.6094 75.9844
z
" id="BitstreamVeraSans-Roman-66"/>
      <path d="
M34.2812 27.4844
Q23.3906 27.4844 19.1875 25
Q14.9844 22.5156 14.9844 16.5
Q14.9844 11.7188 18.1406 8.90625
Q21.2969 6.10938 26.7031 6.10938
Q34.1875 6.10938 38.7031 11.4062
Q43.2188 16.7031 43.2188 25.4844
L43.2188 27.4844
z

M52.2031 31.2031
L52.2031 0
L43.2188 0
L43.2188 8.29688
Q40.1406 3.32812 35.5469 0.953125
Q30.9531 -1.42188 24.3125 -1.42188
Q15.9219 -1.42188 10.9531 3.29688
Q6 8.01562 6 15.9219
Q6 25.1406 12.1719 29.8281
Q18.3594 34.5156 30.6094 34.5156
L43.2188 34.5156
L43.2188 35.4062
Q43.2188 41.6094 39.1406 45
Q35.0625 48.3906 27.6875 48.3906
Q23 48.3906 18.5469 47.2656
Q14.1094 46.1406 10.0156 43.8906
L10.0156 52.2031
Q14.9375 54.1094 19.5781 55.0469
Q24.2188 56 28.6094 56
Q40.4844 56 46.3438 49.8438
Q52.2031 43.7031 52.2031 31.2031" id="BitstreamVeraSans-Roman-61"/>
      <path d="
M44.2812 53.0781
L44.2812 44.5781
Q40.4844 46.5312 36.375 47.5
Q32.2812 48.4844 27.875 48.4844
Q21.1875 48.4844 17.8438 46.4375
Q14.5 44.3906 14.5 40.2812
Q14.5 37.1562 16.8906 35.375
Q19.2812 33.5938 26.5156 31.9844
L29.5938 31.2969
Q39.1562 29.25 43.1875 25.5156
Q47.2188 21.7812 47.2188 15.0938
Q47.2188 7.46875 41.1875 3.01562
Q35.1562 -1.42188 24.6094 -1.42188
Q20.2188 -1.42188 15.4531 -0.5625
Q10.6875 0.296875 5.42188 2
L5.42188 11.2812
Q10.4062 8.6875 15.2344 7.39062
Q20.0625 6.10938 24.8125 6.10938
Q31.1562 6.10938 34.5625 8.28125
Q37.9844 10.4531 37.9844 14.4062
Q37.9844 18.0625 35.5156 20.0156
Q33.0625 21.9688 24.7031 23.7812
L21.5781 24.5156
Q13.2344 26.2656 9.51562 29.9062
Q5.8125 33.5469 5.8125 39.8906
Q5.8125 47.6094 11.2812 51.7969
Q16.75 56 26.8125 56
Q31.7812 56 36.1719 55.2656
Q40.5781 54.5469 44.2812 53.0781" id="BitstreamVeraSans-Roman-73"/>
      <path d="
M9.8125 72.9062
L19.6719 72.9062
L19.6719 0
L9.8125 0
z
" id="BitstreamVeraSans-Roman-49"/>
     </defs>
     <g transform="translate(184.025 402.609467822)scale(0.2 -0.2)">
      <use xlink:href="#BitstreamVeraSans-Roman-6c"/>
      <use x="27.783203125" xlink:href="#BitstreamVeraSans-Roman-6f"/>
      <use x="88.96484375" xlink:href="#BitstreamVeraSans-Roman-67"/>
      <use x="152.44140625" xlink:href="#BitstreamVeraSans-Roman-31"/>
      <use x="216.064453125" xlink:href="#BitstreamVeraSans-Roman-30"/>
      <use x="279.6875" xlink:href="#BitstreamVeraSans-Roman-20"/>
      <use x="311.474609375" xlink:href="#BitstreamVeraSans-Roman-6f"/>
      <use x="372.65625" xlink:href="#BitstreamVeraSans-Roman-66"/>
      <use x="407.861328125" xlink:href="#BitstreamVeraSans-Roman-20"/>
      <use x="439.6484375" xlink:href="#BitstreamVeraSans-Roman-46"/>
      <use x="497.16796875" xlink:href="#BitstreamVeraSans-Roman-45"/>
      <use x="560.3515625" xlink:href="#BitstreamVeraSans-Roman-76"/>
      <use x="619.53125" xlink:href="#BitstreamVeraSans-Roman-61"/>
      <use x="680.810546875" xlink:href="#BitstreamVeraSans-Roman-6c"/>
      <use x="708.59375" xlink:href="#BitstreamVeraSans-Roman-73"/>
      <use x="760.693359375" xlink:href="#BitstreamVeraSans-Roman-20"/>
      <use x="792.48046875" xlink:href="#BitstreamVeraSans-Roman-2f"/>
      <use x="826.171875" xlink:href="#BitstreamVeraSans-Roman-20"/>
      <use x="857.958984375" xlink:href="#BitstreamVeraSans-Roman-44"/>
      <use x="934.9609375" xlink:href="#BitstreamVeraSans-Roman-49"/>
      <use x="964.453125" xlink:href="#BitstreamVeraSans-Roman-4d"/>
     </g>
    </g>
   </g>
   <g id="matplotlib.axis_2">
    <g id="ytick_1">
     <g id="line2d_124">
      <path clip-path="url(#p4b24e7e61f)" d="
M64.9219 359.056
L511.322 359.056" style="fill:none;stroke:#000000;stroke-dasharray:1.000000,3.000000;stroke-dashoffset:0.0;stroke-width:0.5;"/>
     </g>
     <g id="line2d_125">
      <defs>
       <path d="
M0 0
L4 0" id="m728421d6d4" style="stroke:#000000;stroke-width:0.5;"/>
      </defs>
      <g>
       <use style="stroke:#000000;stroke-width:0.5;" x="64.921875" xlink:href="#m728421d6d4" y="359.056342822"/>
      </g>
     </g>
     <g id="line2d_126">
      <defs>
       <path d="
M0 0
L-4 0" id="mcb0005524f" style="stroke:#000000;stroke-width:0.5;"/>
      </defs>
      <g>
       <use style="stroke:#000000;stroke-width:0.5;" x="511.321875" xlink:href="#mcb0005524f" y="359.056342822"/>
      </g>
     </g>
     <g id="text_6">
      <!-- 0.0 -->
      <defs>
       <path d="
M10.6875 12.4062
L21 12.4062
L21 0
L10.6875 0
z
" id="BitstreamVeraSans-Roman-2e"/>
      </defs>
      <g transform="translate(31.7625 364.575092822)scale(0.2 -0.2)">
       <use xlink:href="#BitstreamVeraSans-Roman-30"/>
       <use x="63.623046875" xlink:href="#BitstreamVeraSans-Roman-2e"/>
       <use x="95.41015625" xlink:href="#BitstreamVeraSans-Roman-30"/>
      </g>
     </g>
    </g>
    <g id="ytick_2">
     <g id="line2d_127">
      <path clip-path="url(#p4b24e7e61f)" d="
M64.9219 290.621
L511.322 290.621" style="fill:none;stroke:#000000;stroke-dasharray:1.000000,3.000000;stroke-dashoffset:0.0;stroke-width:0.5;"/>
     </g>
     <g id="line2d_128">
      <g>
       <use style="stroke:#000000;stroke-width:0.5;" x="64.921875" xlink:href="#m728421d6d4" y="290.620699257"/>
      </g>
     </g>
     <g id="line2d_129">
      <g>
       <use style="stroke:#000000;stroke-width:0.5;" x="511.321875" xlink:href="#mcb0005524f" y="290.620699257"/>
      </g>
     </g>
     <g id="text_7">
      <!-- 0.2 -->
      <g transform="translate(32.4375 296.139449257)scale(0.2 -0.2)">
       <use xlink:href="#BitstreamVeraSans-Roman-30"/>
       <use x="63.623046875" xlink:href="#BitstreamVeraSans-Roman-2e"/>
       <use x="95.41015625" xlink:href="#BitstreamVeraSans-Roman-32"/>
      </g>
     </g>
    </g>
    <g id="ytick_3">
     <g id="line2d_130">
      <path clip-path="url(#p4b24e7e61f)" d="
M64.9219 222.185
L511.322 222.185" style="fill:none;stroke:#000000;stroke-dasharray:1.000000,3.000000;stroke-dashoffset:0.0;stroke-width:0.5;"/>
     </g>
     <g id="line2d_131">
      <g>
       <use style="stroke:#000000;stroke-width:0.5;" x="64.921875" xlink:href="#m728421d6d4" y="222.185055693"/>
      </g>
     </g>
     <g id="line2d_132">
      <g>
       <use style="stroke:#000000;stroke-width:0.5;" x="511.321875" xlink:href="#mcb0005524f" y="222.185055693"/>
      </g>
     </g>
     <g id="text_8">
      <!-- 0.4 -->
      <g transform="translate(31.55625 227.703805693)scale(0.2 -0.2)">
       <use xlink:href="#BitstreamVeraSans-Roman-30"/>
       <use x="63.623046875" xlink:href="#BitstreamVeraSans-Roman-2e"/>
       <use x="95.41015625" xlink:href="#BitstreamVeraSans-Roman-34"/>
      </g>
     </g>
    </g>
    <g id="ytick_4">
     <g id="line2d_133">
      <path clip-path="url(#p4b24e7e61f)" d="
M64.9219 153.749
L511.322 153.749" style="fill:none;stroke:#000000;stroke-dasharray:1.000000,3.000000;stroke-dashoffset:0.0;stroke-width:0.5;"/>
     </g>
     <g id="line2d_134">
      <g>
       <use style="stroke:#000000;stroke-width:0.5;" x="64.921875" xlink:href="#m728421d6d4" y="153.749412129"/>
      </g>
     </g>
     <g id="line2d_135">
      <g>
       <use style="stroke:#000000;stroke-width:0.5;" x="511.321875" xlink:href="#mcb0005524f" y="153.749412129"/>
      </g>
     </g>
     <g id="text_9">
      <!-- 0.6 -->
      <defs>
       <path d="
M33.0156 40.375
Q26.375 40.375 22.4844 35.8281
Q18.6094 31.2969 18.6094 23.3906
Q18.6094 15.5312 22.4844 10.9531
Q26.375 6.39062 33.0156 6.39062
Q39.6562 6.39062 43.5312 10.9531
Q47.4062 15.5312 47.4062 23.3906
Q47.4062 31.2969 43.5312 35.8281
Q39.6562 40.375 33.0156 40.375
M52.5938 71.2969
L52.5938 62.3125
Q48.875 64.0625 45.0938 64.9844
Q41.3125 65.9219 37.5938 65.9219
Q27.8281 65.9219 22.6719 59.3281
Q17.5312 52.7344 16.7969 39.4062
Q19.6719 43.6562 24.0156 45.9219
Q28.375 48.1875 33.5938 48.1875
Q44.5781 48.1875 50.9531 41.5156
Q57.3281 34.8594 57.3281 23.3906
Q57.3281 12.1562 50.6875 5.35938
Q44.0469 -1.42188 33.0156 -1.42188
Q20.3594 -1.42188 13.6719 8.26562
Q6.98438 17.9688 6.98438 36.375
Q6.98438 53.6562 15.1875 63.9375
Q23.3906 74.2188 37.2031 74.2188
Q40.9219 74.2188 44.7031 73.4844
Q48.4844 72.75 52.5938 71.2969" id="BitstreamVeraSans-Roman-36"/>
      </defs>
      <g transform="translate(31.69375 159.268162129)scale(0.2 -0.2)">
       <use xlink:href="#BitstreamVeraSans-Roman-30"/>
       <use x="63.623046875" xlink:href="#BitstreamVeraSans-Roman-2e"/>
       <use x="95.41015625" xlink:href="#BitstreamVeraSans-Roman-36"/>
      </g>
     </g>
    </g>
    <g id="ytick_5">
     <g id="line2d_136">
      <path clip-path="url(#p4b24e7e61f)" d="
M64.9219 85.3138
L511.322 85.3138" style="fill:none;stroke:#000000;stroke-dasharray:1.000000,3.000000;stroke-dashoffset:0.0;stroke-width:0.5;"/>
     </g>
     <g id="line2d_137">
      <g>
       <use style="stroke:#000000;stroke-width:0.5;" x="64.921875" xlink:href="#m728421d6d4" y="85.3137685644"/>
      </g>
     </g>
     <g id="line2d_138">
      <g>
       <use style="stroke:#000000;stroke-width:0.5;" x="511.321875" xlink:href="#mcb0005524f" y="85.3137685644"/>
      </g>
     </g>
     <g id="text_10">
      <!-- 0.8 -->
      <defs>
       <path d="
M31.7812 34.625
Q24.75 34.625 20.7188 30.8594
Q16.7031 27.0938 16.7031 20.5156
Q16.7031 13.9219 20.7188 10.1562
Q24.75 6.39062 31.7812 6.39062
Q38.8125 6.39062 42.8594 10.1719
Q46.9219 13.9688 46.9219 20.5156
Q46.9219 27.0938 42.8906 30.8594
Q38.875 34.625 31.7812 34.625
M21.9219 38.8125
Q15.5781 40.375 12.0312 44.7188
Q8.5 49.0781 8.5 55.3281
Q8.5 64.0625 14.7188 69.1406
Q20.9531 74.2188 31.7812 74.2188
Q42.6719 74.2188 48.875 69.1406
Q55.0781 64.0625 55.0781 55.3281
Q55.0781 49.0781 51.5312 44.7188
Q48 40.375 41.7031 38.8125
Q48.8281 37.1562 52.7969 32.3125
Q56.7812 27.4844 56.7812 20.5156
Q56.7812 9.90625 50.3125 4.23438
Q43.8438 -1.42188 31.7812 -1.42188
Q19.7344 -1.42188 13.25 4.23438
Q6.78125 9.90625 6.78125 20.5156
Q6.78125 27.4844 10.7812 32.3125
Q14.7969 37.1562 21.9219 38.8125
M18.3125 54.3906
Q18.3125 48.7344 21.8438 45.5625
Q25.3906 42.3906 31.7812 42.3906
Q38.1406 42.3906 41.7188 45.5625
Q45.3125 48.7344 45.3125 54.3906
Q45.3125 60.0625 41.7188 63.2344
Q38.1406 66.4062 31.7812 66.4062
Q25.3906 66.4062 21.8438 63.2344
Q18.3125 60.0625 18.3125 54.3906" id="BitstreamVeraSans-Roman-38"/>
      </defs>
      <g transform="translate(31.803125 90.8325185644)scale(0.2 -0.2)">
       <use xlink:href="#BitstreamVeraSans-Roman-30"/>
       <use x="63.623046875" xlink:href="#BitstreamVeraSans-Roman-2e"/>
       <use x="95.41015625" xlink:href="#BitstreamVeraSans-Roman-38"/>
      </g>
     </g>
    </g>
    <g id="ytick_6">
     <g id="line2d_139">
      <path clip-path="url(#p4b24e7e61f)" d="
M64.9219 16.8781
L511.322 16.8781" style="fill:none;stroke:#000000;stroke-dasharray:1.000000,3.000000;stroke-dashoffset:0.0;stroke-width:0.5;"/>
     </g>
     <g id="line2d_140">
      <g>
       <use style="stroke:#000000;stroke-width:0.5;" x="64.921875" xlink:href="#m728421d6d4" y="16.878125"/>
      </g>
     </g>
     <g id="line2d_141">
      <g>
       <use style="stroke:#000000;stroke-width:0.5;" x="511.321875" xlink:href="#mcb0005524f" y="16.878125"/>
      </g>
     </g>
     <g id="text_11">
      <!-- 1.0 -->
      <g transform="translate(32.640625 22.396875)scale(0.2 -0.2)">
       <use xlink:href="#BitstreamVeraSans-Roman-31"/>
       <use x="63.623046875" xlink:href="#BitstreamVeraSans-Roman-2e"/>
       <use x="95.41015625" xlink:href="#BitstreamVeraSans-Roman-30"/>
      </g>
     </g>
    </g>
    <g id="text_12">
     <!-- proportion of trials -->
     <defs>
      <path d="
M54.8906 33.0156
L54.8906 0
L45.9062 0
L45.9062 32.7188
Q45.9062 40.4844 42.875 44.3281
Q39.8438 48.1875 33.7969 48.1875
Q26.5156 48.1875 22.3125 43.5469
Q18.1094 38.9219 18.1094 30.9062
L18.1094 0
L9.07812 0
L9.07812 54.6875
L18.1094 54.6875
L18.1094 46.1875
Q21.3438 51.125 25.7031 53.5625
Q30.0781 56 35.7969 56
Q45.2188 56 50.0469 50.1719
Q54.8906 44.3438 54.8906 33.0156" id="BitstreamVeraSans-Roman-6e"/>
      <path d="
M9.42188 54.6875
L18.4062 54.6875
L18.4062 0
L9.42188 0
z

M9.42188 75.9844
L18.4062 75.9844
L18.4062 64.5938
L9.42188 64.5938
z
" id="BitstreamVeraSans-Roman-69"/>
      <path d="
M18.3125 70.2188
L18.3125 54.6875
L36.8125 54.6875
L36.8125 47.7031
L18.3125 47.7031
L18.3125 18.0156
Q18.3125 11.3281 20.1406 9.42188
Q21.9688 7.51562 27.5938 7.51562
L36.8125 7.51562
L36.8125 0
L27.5938 0
Q17.1875 0 13.2344 3.875
Q9.28125 7.76562 9.28125 18.0156
L9.28125 47.7031
L2.6875 47.7031
L2.6875 54.6875
L9.28125 54.6875
L9.28125 70.2188
z
" id="BitstreamVeraSans-Roman-74"/>
      <path d="
M41.1094 46.2969
Q39.5938 47.1719 37.8125 47.5781
Q36.0312 48 33.8906 48
Q26.2656 48 22.1875 43.0469
Q18.1094 38.0938 18.1094 28.8125
L18.1094 0
L9.07812 0
L9.07812 54.6875
L18.1094 54.6875
L18.1094 46.1875
Q20.9531 51.1719 25.4844 53.5781
Q30.0312 56 36.5312 56
Q37.4531 56 38.5781 55.875
Q39.7031 55.7656 41.0625 55.5156
z
" id="BitstreamVeraSans-Roman-72"/>
      <path d="
M18.1094 8.20312
L18.1094 -20.7969
L9.07812 -20.7969
L9.07812 54.6875
L18.1094 54.6875
L18.1094 46.3906
Q20.9531 51.2656 25.2656 53.625
Q29.5938 56 35.5938 56
Q45.5625 56 51.7812 48.0938
Q58.0156 40.1875 58.0156 27.2969
Q58.0156 14.4062 51.7812 6.48438
Q45.5625 -1.42188 35.5938 -1.42188
Q29.5938 -1.42188 25.2656 0.953125
Q20.9531 3.32812 18.1094 8.20312
M48.6875 27.2969
Q48.6875 37.2031 44.6094 42.8438
Q40.5312 48.4844 33.4062 48.4844
Q26.2656 48.4844 22.1875 42.8438
Q18.1094 37.2031 18.1094 27.2969
Q18.1094 17.3906 22.1875 11.75
Q26.2656 6.10938 33.4062 6.10938
Q40.5312 6.10938 44.6094 11.75
Q48.6875 17.3906 48.6875 27.2969" id="BitstreamVeraSans-Roman-70"/>
     </defs>
     <g transform="translate(22.396875 278.775092822)rotate(-90.0)scale(0.2 -0.2)">
      <use xlink:href="#BitstreamVeraSans-Roman-70"/>
      <use x="63.4765625" xlink:href="#BitstreamVeraSans-Roman-72"/>
      <use x="102.33984375" xlink:href="#BitstreamVeraSans-Roman-6f"/>
      <use x="163.521484375" xlink:href="#BitstreamVeraSans-Roman-70"/>
      <use x="226.998046875" xlink:href="#BitstreamVeraSans-Roman-6f"/>
      <use x="288.1796875" xlink:href="#BitstreamVeraSans-Roman-72"/>
      <use x="329.29296875" xlink:href="#BitstreamVeraSans-Roman-74"/>
      <use x="368.501953125" xlink:href="#BitstreamVeraSans-Roman-69"/>
      <use x="396.28515625" xlink:href="#BitstreamVeraSans-Roman-6f"/>
      <use x="457.466796875" xlink:href="#BitstreamVeraSans-Roman-6e"/>
      <use x="520.845703125" xlink:href="#BitstreamVeraSans-Roman-20"/>
      <use x="552.6328125" xlink:href="#BitstreamVeraSans-Roman-6f"/>
      <use x="613.814453125" xlink:href="#BitstreamVeraSans-Roman-66"/>
      <use x="649.01953125" xlink:href="#BitstreamVeraSans-Roman-20"/>
      <use x="680.806640625" xlink:href="#BitstreamVeraSans-Roman-74"/>
      <use x="720.015625" xlink:href="#BitstreamVeraSans-Roman-72"/>
      <use x="761.12890625" xlink:href="#BitstreamVeraSans-Roman-69"/>
      <use x="788.912109375" xlink:href="#BitstreamVeraSans-Roman-61"/>
      <use x="850.19140625" xlink:href="#BitstreamVeraSans-Roman-6c"/>
      <use x="877.974609375" xlink:href="#BitstreamVeraSans-Roman-73"/>
     </g>
    </g>
   </g>
   <g id="text_13">
    <!-- {f6-f9}, 20-D -->
    <defs>
     <path d="
M11.7188 12.4062
L22.0156 12.4062
L22.0156 4
L14.0156 -11.625
L7.71875 -11.625
L11.7188 4
z
" id="BitstreamVeraSans-Roman-2c"/>
     <path d="
M12.5 -9.28125
L15.9219 -9.28125
Q22.75 -9.28125 24.8281 -7.17188
Q26.9062 -5.07812 26.9062 1.90625
L26.9062 14.0156
Q26.9062 21.625 29.0938 25.0938
Q31.2969 28.5625 36.7188 29.8906
Q31.2969 31.1094 29.0938 34.5625
Q26.9062 38.0312 26.9062 45.7031
L26.9062 57.8125
Q26.9062 64.75 24.8281 66.875
Q22.75 69 15.9219 69
L12.5 69
L12.5 75.9844
L15.5781 75.9844
Q27.7344 75.9844 31.8125 72.3906
Q35.8906 68.7969 35.8906 58.0156
L35.8906 46.2969
Q35.8906 39.0156 38.5156 36.2031
Q41.1562 33.4062 48.0938 33.4062
L51.125 33.4062
L51.125 26.4219
L48.0938 26.4219
Q41.1562 26.4219 38.5156 23.5781
Q35.8906 20.75 35.8906 13.375
L35.8906 1.70312
Q35.8906 -9.07812 31.8125 -12.6875
Q27.7344 -16.3125 15.5781 -16.3125
L12.5 -16.3125
z
" id="BitstreamVeraSans-Roman-7d"/>
     <path d="
M10.9844 1.51562
L10.9844 10.5
Q14.7031 8.73438 18.5 7.8125
Q22.3125 6.89062 25.9844 6.89062
Q35.75 6.89062 40.8906 13.4531
Q46.0469 20.0156 46.7812 33.4062
Q43.9531 29.2031 39.5938 26.9531
Q35.25 24.7031 29.9844 24.7031
Q19.0469 24.7031 12.6719 31.3125
Q6.29688 37.9375 6.29688 49.4219
Q6.29688 60.6406 12.9375 67.4219
Q19.5781 74.2188 30.6094 74.2188
Q43.2656 74.2188 49.9219 64.5156
Q56.5938 54.8281 56.5938 36.375
Q56.5938 19.1406 48.4062 8.85938
Q40.2344 -1.42188 26.4219 -1.42188
Q22.7031 -1.42188 18.8906 -0.6875
Q15.0938 0.046875 10.9844 1.51562
M30.6094 32.4219
Q37.25 32.4219 41.125 36.9531
Q45.0156 41.5 45.0156 49.4219
Q45.0156 57.2812 41.125 61.8438
Q37.25 66.4062 30.6094 66.4062
Q23.9688 66.4062 20.0938 61.8438
Q16.2188 57.2812 16.2188 49.4219
Q16.2188 41.5 20.0938 36.9531
Q23.9688 32.4219 30.6094 32.4219" id="BitstreamVeraSans-Roman-39"/>
     <path d="
M51.125 -9.28125
L51.125 -16.3125
L48.0938 -16.3125
Q35.9375 -16.3125 31.8125 -12.6875
Q27.6875 -9.07812 27.6875 1.70312
L27.6875 13.375
Q27.6875 20.75 25.0469 23.5781
Q22.4062 26.4219 15.4844 26.4219
L12.5 26.4219
L12.5 33.4062
L15.4844 33.4062
Q22.4688 33.4062 25.0781 36.2031
Q27.6875 39.0156 27.6875 46.2969
L27.6875 58.0156
Q27.6875 68.7969 31.8125 72.3906
Q35.9375 75.9844 48.0938 75.9844
L51.125 75.9844
L51.125 69
L47.7969 69
Q40.9219 69 38.8125 66.8438
Q36.7188 64.7031 36.7188 57.8125
L36.7188 45.7031
Q36.7188 38.0312 34.5 34.5625
Q32.2812 31.1094 26.9062 29.8906
Q32.3281 28.5625 34.5156 25.0938
Q36.7188 21.625 36.7188 14.0156
L36.7188 1.90625
Q36.7188 -4.98438 38.8125 -7.125
Q40.9219 -9.28125 47.7969 -9.28125
z
" id="BitstreamVeraSans-Roman-7b"/>
     <path d="
M4.89062 31.3906
L31.2031 31.3906
L31.2031 23.3906
L4.89062 23.3906
z
" id="BitstreamVeraSans-Roman-2d"/>
    </defs>
    <g transform="translate(222.225 35.5652178218)scale(0.2 -0.2)">
     <use xlink:href="#BitstreamVeraSans-Roman-7b"/>
     <use x="63.623046875" xlink:href="#BitstreamVeraSans-Roman-66"/>
     <use x="98.828125" xlink:href="#BitstreamVeraSans-Roman-36"/>
     <use x="162.451171875" xlink:href="#BitstreamVeraSans-Roman-2d"/>
     <use x="198.53515625" xlink:href="#BitstreamVeraSans-Roman-66"/>
     <use x="233.740234375" xlink:href="#BitstreamVeraSans-Roman-39"/>
     <use x="297.36328125" xlink:href="#BitstreamVeraSans-Roman-7d"/>
     <use x="360.986328125" xlink:href="#BitstreamVeraSans-Roman-2c"/>
     <use x="392.7734375" xlink:href="#BitstreamVeraSans-Roman-20"/>
     <use x="424.560546875" xlink:href="#BitstreamVeraSans-Roman-32"/>
     <use x="488.18359375" xlink:href="#BitstreamVeraSans-Roman-30"/>
     <use x="551.806640625" xlink:href="#BitstreamVeraSans-Roman-2d"/>
     <use x="587.890625" xlink:href="#BitstreamVeraSans-Roman-44"/>
    </g>
   </g>
   <g id="text_14">
    <!-- absolute targets -->
    <defs>
     <path d="
M56.2031 29.5938
L56.2031 25.2031
L14.8906 25.2031
Q15.4844 15.9219 20.4844 11.0625
Q25.4844 6.20312 34.4219 6.20312
Q39.5938 6.20312 44.4531 7.46875
Q49.3125 8.73438 54.1094 11.2812
L54.1094 2.78125
Q49.2656 0.734375 44.1875 -0.34375
Q39.1094 -1.42188 33.8906 -1.42188
Q20.7969 -1.42188 13.1562 6.1875
Q5.51562 13.8125 5.51562 26.8125
Q5.51562 40.2344 12.7656 48.1094
Q20.0156 56 32.3281 56
Q43.3594 56 49.7812 48.8906
Q56.2031 41.7969 56.2031 29.5938
M47.2188 32.2344
Q47.125 39.5938 43.0938 43.9844
Q39.0625 48.3906 32.4219 48.3906
Q24.9062 48.3906 20.3906 44.1406
Q15.875 39.8906 15.1875 32.1719
z
" id="BitstreamVeraSans-Roman-65"/>
     <path d="
M8.5 21.5781
L8.5 54.6875
L17.4844 54.6875
L17.4844 21.9219
Q17.4844 14.1562 20.5 10.2656
Q23.5312 6.39062 29.5938 6.39062
Q36.8594 6.39062 41.0781 11.0312
Q45.3125 15.6719 45.3125 23.6875
L45.3125 54.6875
L54.2969 54.6875
L54.2969 0
L45.3125 0
L45.3125 8.40625
Q42.0469 3.42188 37.7188 1
Q33.4062 -1.42188 27.6875 -1.42188
Q18.2656 -1.42188 13.375 4.4375
Q8.5 10.2969 8.5 21.5781" id="BitstreamVeraSans-Roman-75"/>
     <path d="
M48.6875 27.2969
Q48.6875 37.2031 44.6094 42.8438
Q40.5312 48.4844 33.4062 48.4844
Q26.2656 48.4844 22.1875 42.8438
Q18.1094 37.2031 18.1094 27.2969
Q18.1094 17.3906 22.1875 11.75
Q26.2656 6.10938 33.4062 6.10938
Q40.5312 6.10938 44.6094 11.75
Q48.6875 17.3906 48.6875 27.2969
M18.1094 46.3906
Q20.9531 51.2656 25.2656 53.625
Q29.5938 56 35.5938 56
Q45.5625 56 51.7812 48.0938
Q58.0156 40.1875 58.0156 27.2969
Q58.0156 14.4062 51.7812 6.48438
Q45.5625 -1.42188 35.5938 -1.42188
Q29.5938 -1.42188 25.2656 0.953125
Q20.9531 3.32812 18.1094 8.20312
L18.1094 0
L9.07812 0
L9.07812 75.9844
L18.1094 75.9844
z
" id="BitstreamVeraSans-Roman-62"/>
    </defs>
    <g transform="translate(64.921875 359.056342822)scale(0.14 -0.14)">
     <use xlink:href="#BitstreamVeraSans-Roman-61"/>
     <use x="61.279296875" xlink:href="#BitstreamVeraSans-Roman-62"/>
     <use x="124.755859375" xlink:href="#BitstreamVeraSans-Roman-73"/>
     <use x="176.85546875" xlink:href="#BitstreamVeraSans-Roman-6f"/>
     <use x="238.037109375" xlink:href="#BitstreamVeraSans-Roman-6c"/>
     <use x="265.8203125" xlink:href="#BitstreamVeraSans-Roman-75"/>
     <use x="329.19921875" xlink:href="#BitstreamVeraSans-Roman-74"/>
     <use x="368.408203125" xlink:href="#BitstreamVeraSans-Roman-65"/>
     <use x="429.931640625" xlink:href="#BitstreamVeraSans-Roman-20"/>
     <use x="461.71875" xlink:href="#BitstreamVeraSans-Roman-74"/>
     <use x="500.927734375" xlink:href="#BitstreamVeraSans-Roman-61"/>
     <use x="562.20703125" xlink:href="#BitstreamVeraSans-Roman-72"/>
     <use x="601.5703125" xlink:href="#BitstreamVeraSans-Roman-67"/>
     <use x="665.046875" xlink:href="#BitstreamVeraSans-Roman-65"/>
     <use x="726.5703125" xlink:href="#BitstreamVeraSans-Roman-74"/>
     <use x="765.779296875" xlink:href="#BitstreamVeraSans-Roman-73"/>
    </g>
   </g>
   <g id="text_15">
    <!-- v2.1.1.3 -->
    <g style="fill:#808080;" transform="translate(268.2203125 353.520655322)scale(0.1 -0.1)">
     <use xlink:href="#BitstreamVeraSans-Roman-76"/>
     <use x="59.1796875" xlink:href="#BitstreamVeraSans-Roman-32"/>
     <use x="122.802734375" xlink:href="#BitstreamVeraSans-Roman-2e"/>
     <use x="154.58984375" xlink:href="#BitstreamVeraSans-Roman-31"/>
     <use x="218.212890625" xlink:href="#BitstreamVeraSans-Roman-2e"/>
     <use x="250.0" xlink:href="#BitstreamVeraSans-Roman-31"/>
     <use x="313.623046875" xlink:href="#BitstreamVeraSans-Roman-2e"/>
     <use x="345.41015625" xlink:href="#BitstreamVeraSans-Roman-33"/>
    </g>
   </g>
   <g id="legend_1">
    <g id="patch_7">
     <path d="
M74.9219 146.881
L211.022 146.881
L211.022 23.4563
L74.9219 23.4563
z
" style="fill:#ffffff;opacity:0.2;stroke:#000000;stroke-linejoin:miter;"/>
    </g>
    <g id="line2d_142">
     <path d="
M88.9219 39.6532
L116.922 39.6532" style="fill:none;stroke:#000000;stroke-linecap:square;"/>
    </g>
    <g id="line2d_143"/>
    <g id="text_16">
     <!-- 1: 4/4 -->
     <defs>
      <path d="
M11.7188 12.4062
L22.0156 12.4062
L22.0156 0
L11.7188 0
z

M11.7188 51.7031
L22.0156 51.7031
L22.0156 39.3125
L11.7188 39.3125
z
" id="BitstreamVeraSans-Roman-3a"/>
     </defs>
     <g transform="translate(138.921875 46.6532178218)scale(0.2 -0.2)">
      <use xlink:href="#BitstreamVeraSans-Roman-31"/>
      <use x="63.623046875" xlink:href="#BitstreamVeraSans-Roman-3a"/>
      <use x="97.314453125" xlink:href="#BitstreamVeraSans-Roman-20"/>
      <use x="129.1015625" xlink:href="#BitstreamVeraSans-Roman-34"/>
      <use x="192.724609375" xlink:href="#BitstreamVeraSans-Roman-2f"/>
      <use x="226.416015625" xlink:href="#BitstreamVeraSans-Roman-34"/>
     </g>
    </g>
    <g id="line2d_144">
     <path d="
M88.9219 69.0095
L116.922 69.0095" style="fill:none;stroke:#00bfbf;stroke-linecap:square;"/>
    </g>
    <g id="line2d_145"/>
    <g id="text_17">
     <!-- -1: 4/4 -->
     <g transform="translate(138.921875 76.0094678218)scale(0.2 -0.2)">
      <use xlink:href="#BitstreamVeraSans-Roman-2d"/>
      <use x="36.083984375" xlink:href="#BitstreamVeraSans-Roman-31"/>
      <use x="99.70703125" xlink:href="#BitstreamVeraSans-Roman-3a"/>
      <use x="133.3984375" xlink:href="#BitstreamVeraSans-Roman-20"/>
      <use x="165.185546875" xlink:href="#BitstreamVeraSans-Roman-34"/>
      <use x="228.80859375" xlink:href="#BitstreamVeraSans-Roman-2f"/>
      <use x="262.5" xlink:href="#BitstreamVeraSans-Roman-34"/>
     </g>
    </g>
    <g id="line2d_146">
     <path d="
M88.9219 98.3657
L116.922 98.3657" style="fill:none;stroke:#bf00bf;stroke-linecap:square;"/>
    </g>
    <g id="line2d_147"/>
    <g id="text_18">
     <!-- -4: 4/4 -->
     <g transform="translate(138.921875 105.365717822)scale(0.2 -0.2)">
      <use xlink:href="#BitstreamVeraSans-Roman-2d"/>
      <use x="36.083984375" xlink:href="#BitstreamVeraSans-Roman-34"/>
      <use x="99.70703125" xlink:href="#BitstreamVeraSans-Roman-3a"/>
      <use x="133.3984375" xlink:href="#BitstreamVeraSans-Roman-20"/>
      <use x="165.185546875" xlink:href="#BitstreamVeraSans-Roman-34"/>
      <use x="228.80859375" xlink:href="#BitstreamVeraSans-Roman-2f"/>
      <use x="262.5" xlink:href="#BitstreamVeraSans-Roman-34"/>
     </g>
    </g>
    <g id="line2d_148">
     <path d="
M88.9219 127.722
L116.922 127.722" style="fill:none;stroke:#ff0000;stroke-linecap:square;stroke-width:3.0;"/>
    </g>
    <g id="line2d_149"/>
    <g id="text_19">
     <!-- -8: 4/4 -->
     <g transform="translate(138.921875 134.721967822)scale(0.2 -0.2)">
      <use xlink:href="#BitstreamVeraSans-Roman-2d"/>
      <use x="36.083984375" xlink:href="#BitstreamVeraSans-Roman-38"/>
      <use x="99.70703125" xlink:href="#BitstreamVeraSans-Roman-3a"/>
      <use x="133.3984375" xlink:href="#BitstreamVeraSans-Roman-20"/>
      <use x="165.185546875" xlink:href="#BitstreamVeraSans-Roman-34"/>
      <use x="228.80859375" xlink:href="#BitstreamVeraSans-Roman-2f"/>
      <use x="262.5" xlink:href="#BitstreamVeraSans-Roman-34"/>
     </g>
    </g>
   </g>
  </g>
 </g>
 <defs>
  <clipPath id="p4b24e7e61f">
   <rect height="345.6" width="446.4" x="64.921875" y="13.4563428218"/>
  </clipPath>
 </defs>
</svg>
