<?xml version="1.0" encoding="utf-8" standalone="no"?>
<!DOCTYPE svg PUBLIC "-//W3C//DTD SVG 1.1//EN"
  "http://www.w3.org/Graphics/SVG/1.1/DTD/svg11.dtd">
<!-- Created with matplotlib (http://matplotlib.org/) -->
<svg height="407pt" version="1.1" viewBox="0 0 460 407" width="460pt" xmlns="http://www.w3.org/2000/svg" xmlns:xlink="http://www.w3.org/1999/xlink">
 <defs>
  <style type="text/css">
*{stroke-linecap:butt;stroke-linejoin:round;}
  </style>
 </defs>
 <g id="figure_1">
  <g id="patch_1">
   <path d="
M0 407.712
L460.8 407.712
L460.8 0
L0 0
z
" style="fill:#ffffff;"/>
  </g>
  <g id="axes_1">
   <g id="patch_2">
    <path d="
M7.2 352.8
L453.6 352.8
L453.6 7.2
L7.2 7.2
z
" style="fill:#ffffff;"/>
   </g>
   <g id="line2d_1">
    <path clip-path="url(#p99b4b0da67)" d="
M-20.3442 352.8
M-1 307.176
L-0.224848 307.176
L-0.224848 301.473
L0.636104 301.473
L0.636104 295.77
L1.12172 295.77
L1.12172 290.067
L2.73112 290.067
L2.73112 284.364
L2.99889 284.364
L2.99889 278.661
L3.00658 278.661
L3.00658 272.958
L3.03491 272.958
L3.03491 267.255
L3.03899 267.255
L3.03899 261.552
L3.18534 261.552
L3.18534 255.85
L3.23852 255.85
L3.23852 250.147
L3.77105 250.147
L3.77105 244.444
L3.77597 244.444
L3.77597 238.741
L3.77645 238.741
L3.77645 233.038
L4.07013 233.038
L4.07013 227.335
L4.13673 227.335
L4.13673 221.632
L4.18055 221.632
L4.18055 215.929
L4.36192 215.929
L4.36192 210.226
L4.545 210.226
L4.545 204.523
L4.57347 204.523
L4.57347 198.82
L4.59676 198.82
L4.59676 193.117
L4.80117 193.117
L4.80117 187.414
L4.82328 187.414
L4.82328 181.711
L4.90686 181.711
L4.90686 176.008
L4.97604 176.008
L4.97604 170.305
L5.31223 170.305
L5.31223 164.602
L5.35672 164.602
L5.35672 158.899
L5.451 158.899
L5.451 153.196
L5.67667 153.196
L5.67667 147.493
L5.70254 147.493
L5.70254 141.79
L5.72725 141.79
L5.72725 136.087
L5.78542 136.087
L5.78542 130.384
L5.84124 130.384
L5.84124 124.681
L6.01291 124.681
L6.01291 118.978
L6.08402 118.978
L6.08402 113.275
L6.12007 113.275
L6.12007 107.572
L6.15371 107.572
L6.15371 101.869
L6.17125 101.869
L6.17125 96.1663
L6.18911 96.1663
L6.18911 90.4634
L6.3901 90.4634
L6.3901 84.7604
L6.43268 84.7604
L6.43268 79.0574
L6.45806 79.0574
L6.45806 73.3545
L6.64749 73.3545
L6.64749 67.6515
L6.66823 67.6515
L6.66823 61.9485
L6.71702 61.9485
L6.71702 56.2455
L6.7335 56.2455
L6.7335 50.5426
L6.73415 50.5426
L6.73415 44.8396
L6.76081 44.8396
L6.76081 39.1366
L6.84975 39.1366
L6.84975 33.4337
L6.85667 33.4337
L6.85667 27.7307
L6.89479 27.7307
L6.89479 22.0277
L7.04929 22.0277
L7.04929 16.3248
L7.06171 16.3248
L7.06171 10.6218
L7.06171 10.6218
L7.06171 10.6218
L453.6 10.6218" style="fill:none;stroke:#ff0000;stroke-linecap:square;stroke-width:3.0;"/>
   </g>
   <g id="line2d_2">
    <path clip-path="url(#p99b4b0da67)" d="
M272.149 352.8
L272.149 347.097
L272.149 347.097
L272.149 341.394
L272.149 341.394
L272.149 335.691
L272.149 335.691
L272.149 329.988
L272.149 329.988
L272.149 324.285
L272.149 324.285
L272.149 318.582
L272.149 318.582
L272.149 312.879
L272.149 312.879
L272.149 307.176
L272.149 307.176
L272.149 301.473
L272.149 301.473
L272.149 295.77
L272.149 295.77
L272.149 290.067
L272.149 290.067
L272.149 284.364
L272.149 284.364
L272.149 278.661
L272.149 278.661
L272.149 272.958
L272.149 272.958
L272.149 267.255
L286.983 267.255
L286.983 261.552
L287.593 261.552
L287.593 255.85
L289.312 255.85
L289.312 250.147
L289.777 250.147
L289.777 244.444
L290.18 244.444
L290.18 238.741
L291.541 238.741
L291.541 233.038
L293.007 233.038
L293.007 227.335
L293.429 227.335
L293.429 221.632
L295.062 221.632
L295.062 215.929
L295.234 215.929
L295.234 210.226
L295.554 210.226
L295.554 204.523
L296.686 204.523
L296.686 198.82
L298.138 198.82
L298.138 193.117
L306.459 193.117
L306.459 187.414
L306.915 187.414
L306.915 181.711
L333.197 181.711
L333.197 176.008
L334.314 176.008
L334.314 170.305
L335.454 170.305
L335.454 164.602
L337.853 164.602
L337.853 158.899
L340.082 158.899
L340.082 153.196
L340.274 153.196
L340.274 147.493
L340.638 147.493
L340.638 141.79
L341.337 141.79
L341.337 136.087
L341.755 136.087
L341.755 130.384
L342.214 130.384
L342.214 124.681
L342.847 124.681
L342.847 118.978
L344.321 118.978
L344.321 113.275
L345.012 113.275
L345.012 107.572
L345.527 107.572
L345.527 101.869
L345.753 101.869
L345.753 96.1663
L348.25 96.1663
L348.25 90.4634
L360.543 90.4634
L360.543 84.7604
L362.111 84.7604
L362.111 79.0574
L362.696 79.0574
L362.696 73.3545
L362.744 73.3545
L362.744 67.6515
L362.835 67.6515
L362.835 61.9485
L363.301 61.9485
L363.301 56.2455
L363.566 56.2455
L363.566 50.5426
L366.292 50.5426
L366.292 44.8396
L368.515 44.8396
L368.515 39.1366
L368.606 39.1366
L368.606 33.4337
L369.421 33.4337
L369.421 27.7307
L369.425 27.7307
L369.425 22.0277
L369.497 22.0277
L369.497 16.3248
L370.477 16.3248
L370.477 10.6218
L370.477 10.6218
L370.477 10.6218
L453.6 10.6218" style="fill:none;stroke:#00bfbf;stroke-linecap:square;"/>
   </g>
   <g id="line2d_3">
    <path clip-path="url(#p99b4b0da67)" d="
M272.149 352.8
L272.149 347.097
L272.149 347.097
L272.149 341.394
L272.149 341.394
L272.149 335.691
L272.149 335.691
L272.149 329.988
L272.149 329.988
L272.149 324.285
L272.149 324.285
L272.149 318.582
L272.149 318.582
L272.149 312.879
L272.149 312.879
L272.149 307.176
L272.149 307.176
L272.149 301.473
L272.149 301.473
L272.149 295.77
L272.149 295.77
L272.149 290.067
L272.149 290.067
L272.149 284.364
L272.149 284.364
L272.149 278.661
L272.149 278.661
L272.149 272.958
L272.149 272.958
L272.149 267.255
L279.685 267.255
L279.685 261.552
L284.66 261.552
L284.66 255.85
L286.23 255.85
L286.23 250.147
L286.74 250.147
L286.74 244.444
L287.05 244.444
L287.05 238.741
L287.282 238.741
L287.282 233.038
L287.593 233.038
L287.593 227.335
L289.624 227.335
L289.624 221.632
L290.18 221.632
L290.18 215.929
L291.021 215.929
L291.021 210.226
L292.043 210.226
L292.043 204.523
L292.327 204.523
L292.327 198.82
L295.062 198.82
L295.062 193.117
L296.285 193.117
L296.285 187.414
L302.282 187.414
L302.282 181.711
L333.197 181.711
L333.197 176.008
L334.314 176.008
L334.314 170.305
L335.454 170.305
L335.454 164.602
L337.853 164.602
L337.853 158.899
L338.034 158.899
L338.034 153.196
L340.274 153.196
L340.274 147.493
L340.638 147.493
L340.638 141.79
L341.337 141.79
L341.337 136.087
L341.755 136.087
L341.755 130.384
L342.214 130.384
L342.214 124.681
L342.847 124.681
L342.847 118.978
L344.321 118.978
L344.321 113.275
L345.012 113.275
L345.012 107.572
L345.527 107.572
L345.527 101.869
L345.753 101.869
L345.753 96.1663
L348.25 96.1663
L348.25 90.4634
L354.657 90.4634
L354.657 84.7604
L355.434 84.7604
L355.434 79.0574
L357.423 79.0574
L357.423 73.3545
L358.364 73.3545
L358.364 67.6515
L358.448 67.6515
L358.448 61.9485
L360.062 61.9485
L360.062 56.2455
L360.914 56.2455
L360.914 50.5426
L361.135 50.5426
L361.135 44.8396
L363.614 44.8396
L363.614 39.1366
L363.865 39.1366
L363.865 33.4337
L366.047 33.4337
L366.047 27.7307
L368.473 27.7307
L368.473 22.0277
L368.515 22.0277
L368.515 16.3248
L368.814 16.3248
L368.814 10.6218
L368.814 10.6218
L368.814 10.6218
L453.6 10.6218" style="fill:none;stroke:#bf00bf;stroke-linecap:square;"/>
   </g>
   <g id="line2d_4">
    <path clip-path="url(#p99b4b0da67)" d="
M272.149 352.8
L272.149 347.097
L272.149 347.097
L272.149 341.394
L272.149 341.394
L272.149 335.691
L272.149 335.691
L272.149 329.988
L272.149 329.988
L272.149 324.285
L272.149 324.285
L272.149 318.582
L272.149 318.582
L272.149 312.879
L272.149 312.879
L272.149 307.176
L272.149 307.176
L272.149 301.473
L272.149 301.473
L272.149 295.77
L272.149 295.77
L272.149 290.067
L272.149 290.067
L272.149 284.364
L272.149 284.364
L272.149 278.661
L272.149 278.661
L272.149 272.958
L272.149 272.958
L272.149 267.255
L278.46 267.255
L278.46 261.552
L279.685 261.552
L279.685 255.85
L281.219 255.85
L281.219 250.147
L281.282 250.147
L281.282 244.444
L283.835 244.444
L283.835 238.741
L284.2 238.741
L284.2 233.038
L284.448 233.038
L284.448 227.335
L284.475 227.335
L284.475 221.632
L284.492 221.632
L284.492 215.929
L284.508 215.929
L284.508 210.226
L284.66 210.226
L284.66 204.523
L287.096 204.523
L287.096 198.82
L287.138 198.82
L287.138 193.117
L288.104 193.117
L288.104 187.414
L291.915 187.414
L291.915 181.711
L328.657 181.711
L328.657 176.008
L329.219 176.008
L329.219 170.305
L330.522 170.305
L330.522 164.602
L331.12 164.602
L331.12 158.899
L331.499 158.899
L331.499 153.196
L331.818 153.196
L331.818 147.493
L332.839 147.493
L332.839 141.79
L334.043 141.79
L334.043 136.087
L334.159 136.087
L334.159 130.384
L335.082 130.384
L335.082 124.681
L336.12 124.681
L336.12 118.978
L336.258 118.978
L336.258 113.275
L336.56 113.275
L336.56 107.572
L336.804 107.572
L336.804 101.869
L338.185 101.869
L338.185 96.1663
L338.451 96.1663
L338.451 90.4634
L340.021 90.4634
L340.021 84.7604
L341.297 84.7604
L341.297 79.0574
L342.282 79.0574
L342.282 73.3545
L342.539 73.3545
L342.539 67.6515
L343.645 67.6515
L343.645 61.9485
L344.392 61.9485
L344.392 56.2455
L345.576 56.2455
L345.576 50.5426
L347.115 50.5426
L347.115 44.8396
L352.805 44.8396
L352.805 39.1366
L353.506 39.1366
L353.506 33.4337
L354.85 33.4337
L354.85 27.7307
L356.488 27.7307
L356.488 22.0277
L358.879 22.0277
L358.879 16.3248
L362.028 16.3248
L362.028 10.6218
L362.028 10.6218
L362.028 10.6218
L453.6 10.6218" style="fill:none;stroke:#000000;stroke-linecap:square;"/>
   </g>
   <g id="line2d_5">
    <path clip-path="url(#p99b4b0da67)" d="
M259.837 352.8
L259.837 347.097
L268.572 347.097
L268.572 341.394
L269.793 341.394
L269.793 335.691
L272.149 335.691
L272.149 329.988
L272.149 329.988
L272.149 324.285
L272.149 324.285
L272.149 318.582
L272.149 318.582
L272.149 312.879
L272.149 312.879
L272.149 307.176
L272.149 307.176
L272.149 301.473
L272.149 301.473
L272.149 295.77
L272.149 295.77
L272.149 290.067
L272.149 290.067
L272.149 284.364
L272.149 284.364
L272.149 278.661
L272.149 278.661
L272.149 272.958
L272.149 272.958
L272.149 267.255
L272.149 267.255
L272.149 261.552
L272.149 261.552
L272.149 255.85
L272.149 255.85
L272.149 250.147
L272.383 250.147
L272.383 244.444
L272.909 244.444
L272.909 238.741
L273.124 238.741
L273.124 233.038
L274.736 233.038
L274.736 227.335
L275.446 227.335
L275.446 221.632
L276.03 221.632
L276.03 215.929
L276.499 215.929
L276.499 210.226
L276.64 210.226
L276.64 204.523
L276.784 204.523
L276.784 198.82
L277.429 198.82
L277.429 193.117
L277.796 193.117
L277.796 187.414
L280.998 187.414
L280.998 181.711
L281.312 181.711
L281.312 176.008
L285.099 176.008
L285.099 170.305
L285.149 170.305
L285.149 164.602
L285.736 164.602
L285.736 158.899
L287.869 158.899
L287.869 153.196
L288.482 153.196
L288.482 147.493
L290.549 147.493
L290.549 141.79
L293.104 141.79
L293.104 136.087
L293.361 136.087
L293.361 130.384
L296.192 130.384
L296.192 124.681
L296.64 124.681
L296.64 118.978
L299.419 118.978
L299.419 113.275
L301.979 113.275
L301.979 107.572
L303.743 107.572
L303.743 101.869
L306.245 101.869
L306.245 96.1663
L309.444 96.1663
L309.444 90.4634
L312.726 90.4634
L312.726 84.7604
L313.576 84.7604
L313.576 79.0574
L313.691 79.0574
L313.691 73.3545
L314.193 73.3545
L314.193 67.6515
L314.607 67.6515
L314.607 61.9485
L314.795 61.9485
L314.795 56.2455
L316.467 56.2455
L316.467 50.5426
L317.268 50.5426
L317.268 44.8396
L318.408 44.8396
L318.408 39.1366
L319.164 39.1366
L319.164 33.4337
L320.766 33.4337
L320.766 27.7307
L321.973 27.7307
L321.973 22.0277
L322.756 22.0277
L322.756 16.3248
L336.195 16.3248
L336.195 10.6218
L336.195 10.6218
L336.195 10.6218
L453.6 10.6218" style="fill:none;stroke:#00bfbf;stroke-linecap:square;"/>
   </g>
   <g id="line2d_6">
    <path clip-path="url(#p99b4b0da67)" d="
M226.634 352.8
L226.634 347.097
L226.958 347.097
L226.958 341.394
L227.192 341.394
L227.192 335.691
L227.706 335.691
L227.706 329.988
L229.921 329.988
L229.921 324.285
L230.612 324.285
L230.612 318.582
L230.99 318.582
L230.99 312.879
L232.289 312.879
L232.289 307.176
L233.265 307.176
L233.265 301.473
L234.234 301.473
L234.234 295.77
L234.849 295.77
L234.849 290.067
L235.609 290.067
L235.609 284.364
L237.219 284.364
L237.219 278.661
L237.322 278.661
L237.322 272.958
L237.394 272.958
L237.394 267.255
L237.773 267.255
L237.773 261.552
L238.431 261.552
L238.431 255.85
L239.291 255.85
L239.291 250.147
L239.834 250.147
L239.834 244.444
L240.115 244.444
L240.115 238.741
L241.207 238.741
L241.207 233.038
L241.869 233.038
L241.869 227.335
L245.809 227.335
L245.809 221.632
L246.217 221.632
L246.217 215.929
L247.268 215.929
L247.268 210.226
L247.694 210.226
L247.694 204.523
L248.23 204.523
L248.23 198.82
L248.382 198.82
L248.382 193.117
L248.479 193.117
L248.479 187.414
L248.942 187.414
L248.942 181.711
L249.03 181.711
L249.03 176.008
L249.131 176.008
L249.131 170.305
L249.141 170.305
L249.141 164.602
L249.22 164.602
L249.22 158.899
L249.255 158.899
L249.255 153.196
L249.533 153.196
L249.533 147.493
L249.74 147.493
L249.74 141.79
L249.775 141.79
L249.775 136.087
L249.8 136.087
L249.8 130.384
L249.807 130.384
L249.807 124.681
L249.885 124.681
L249.885 118.978
L249.946 118.978
L249.946 113.275
L249.96 113.275
L249.96 107.572
L249.993 107.572
L249.993 101.869
L249.998 101.869
L249.998 96.1663
L250.278 96.1663
L250.278 90.4634
L250.348 90.4634
L250.348 84.7604
L250.395 84.7604
L250.395 79.0574
L250.456 79.0574
L250.456 73.3545
L250.555 73.3545
L250.555 67.6515
L251.74 67.6515
L251.74 61.9485
L253.264 61.9485
L253.264 56.2455
L253.609 56.2455
L253.609 50.5426
L255.55 50.5426
L255.55 44.8396
L267.087 44.8396
L267.087 39.1366
L267.828 39.1366
L267.828 33.4337
L267.833 33.4337
L267.833 27.7307
L268.796 27.7307
L268.796 22.0277
L270.708 22.0277
L270.708 16.3248
L272.149 16.3248
L272.149 10.6218
L272.149 10.6218
L272.149 10.6218
L453.6 10.6218" style="fill:none;stroke:#bf00bf;stroke-linecap:square;"/>
   </g>
   <g id="line2d_7">
    <path clip-path="url(#p99b4b0da67)" d="
M-0.224848 352.8
L-0.224848 347.097
L3.18534 347.097
L3.18534 341.394
L4.07013 341.394
L4.07013 335.691
L4.13673 335.691
L4.13673 329.988
L4.18055 329.988
L4.18055 324.285
L4.36192 324.285
L4.36192 318.582
L4.545 318.582
L4.545 312.879
L4.82328 312.879
L4.82328 307.176
L5.35672 307.176
L5.35672 301.473
L5.451 301.473
L5.451 295.77
L5.67667 295.77
L5.67667 290.067
L6.01291 290.067
L6.01291 284.364
L6.08402 284.364
L6.08402 278.661
L6.15371 278.661
L6.15371 272.958
L6.18911 272.958
L6.18911 267.255
L6.3901 267.255
L6.3901 261.552
L6.43268 261.552
L6.43268 255.85
L6.45806 255.85
L6.45806 250.147
L6.64749 250.147
L6.64749 244.444
L6.66823 244.444
L6.66823 238.741
L6.7335 238.741
L6.7335 233.038
L6.73415 233.038
L6.73415 227.335
L6.76081 227.335
L6.76081 221.632
L6.85667 221.632
L6.85667 215.929
L6.89479 215.929
L6.89479 210.226
L7.04929 210.226
L7.04929 204.523
L7.06171 204.523
L7.06171 198.82
L15.1789 198.82
L15.1789 193.117
L27.9083 193.117
L27.9083 187.414
L40.7538 187.414
L40.7538 181.711
L43.7361 181.711
L43.7361 176.008
L44.1921 176.008
L44.1921 170.305
L53.2611 170.305
L53.2611 164.602
L63.2229 164.602
L63.2229 158.899
L66.9521 158.899
L66.9521 153.196
L67.0021 153.196
L67.0021 147.493
L78.6648 147.493
L78.6648 141.79
L82.7946 141.79
L82.7946 136.087
L91.0178 136.087
L91.0178 130.384
L96.4638 130.384
L96.4638 124.681
L113.109 124.681
L113.109 118.978
L139.514 118.978
L139.514 113.275
L152.033 113.275
L152.033 107.572
L159.421 107.572
L159.421 101.869
L212.583 101.869
L212.583 96.1663
L217.452 96.1663
L217.452 90.4634
L218.108 90.4634
L218.108 84.7604
L219.388 84.7604
L219.388 79.0574
L221.855 79.0574
L221.855 73.3545
L222.062 73.3545
L222.062 67.6515
L222.344 67.6515
L222.344 61.9485
L224.921 61.9485
L224.921 56.2455
L225.098 56.2455
L225.098 50.5426
L225.388 50.5426
L225.388 44.8396
L225.689 44.8396
L225.689 39.1366
L226.59 39.1366
L226.59 33.4337
L228.172 33.4337
L228.172 27.7307
L230.901 27.7307
L230.901 22.0277
L230.915 22.0277
L230.915 16.3248
L232.986 16.3248
L232.986 10.6218
L232.986 10.6218
L232.986 10.6218
L453.6 10.6218" style="fill:none;stroke:#000000;stroke-linecap:square;"/>
   </g>
   <g id="line2d_8">
    <path clip-path="url(#p99b4b0da67)" d="
M-20.3442 352.8
M-1 307.176
L-0.224848 307.176
L-0.224848 301.473
L0.636104 301.473
L0.636104 295.77
L1.12172 295.77
L1.12172 290.067
L2.73112 290.067
L2.73112 284.364
L2.99889 284.364
L2.99889 278.661
L3.00658 278.661
L3.00658 272.958
L3.03491 272.958
L3.03491 267.255
L3.03899 267.255
L3.03899 261.552
L3.18534 261.552
L3.18534 255.85
L3.23852 255.85
L3.23852 250.147
L3.77105 250.147
L3.77105 244.444
L3.77645 244.444
L3.77645 238.741
L4.07013 238.741
L4.07013 233.038
L4.13673 233.038
L4.13673 227.335
L4.18055 227.335
L4.18055 221.632
L4.36192 221.632
L4.36192 215.929
L4.545 215.929
L4.545 210.226
L4.57347 210.226
L4.57347 204.523
L4.59676 204.523
L4.59676 198.82
L4.80117 198.82
L4.80117 193.117
L4.82328 193.117
L4.82328 187.414
L4.90686 187.414
L4.90686 181.711
L4.97604 181.711
L4.97604 176.008
L5.31223 176.008
L5.31223 170.305
L5.35672 170.305
L5.35672 164.602
L5.451 164.602
L5.451 158.899
L5.67667 158.899
L5.67667 153.196
L5.70254 153.196
L5.70254 147.493
L5.72725 147.493
L5.72725 141.79
L5.78542 141.79
L5.78542 136.087
L5.84124 136.087
L5.84124 130.384
L6.01291 130.384
L6.01291 124.681
L6.08402 124.681
L6.08402 118.978
L6.12007 118.978
L6.12007 113.275
L6.15371 113.275
L6.15371 107.572
L6.17125 107.572
L6.17125 101.869
L6.18911 101.869
L6.18911 96.1663
L6.3901 96.1663
L6.3901 90.4634
L6.43268 90.4634
L6.43268 84.7604
L6.45806 84.7604
L6.45806 79.0574
L6.64749 79.0574
L6.64749 73.3545
L6.66823 73.3545
L6.66823 67.6515
L6.71702 67.6515
L6.71702 61.9485
L6.7335 61.9485
L6.7335 56.2455
L6.73415 56.2455
L6.73415 50.5426
L6.76081 50.5426
L6.76081 44.8396
L6.84975 44.8396
L6.84975 39.1366
L6.85667 39.1366
L6.85667 33.4337
L6.89479 33.4337
L6.89479 27.7307
L7.04929 27.7307
L7.04929 22.0277
L7.06171 22.0277
L7.06171 16.3248
L153.707 16.3248
L153.707 10.6218
L153.707 10.6218
L153.707 10.6218
L453.6 10.6218" style="fill:none;stroke:#00bfbf;stroke-linecap:square;"/>
   </g>
   <g id="patch_3">
    <path d="
M7.2 7.2
L453.6 7.2" style="fill:none;stroke:#000000;stroke-linecap:square;stroke-linejoin:miter;"/>
   </g>
   <g id="patch_4">
    <path d="
M453.6 352.8
L453.6 7.2" style="fill:none;stroke:#000000;stroke-linecap:square;stroke-linejoin:miter;"/>
   </g>
   <g id="patch_5">
    <path d="
M7.2 352.8
L453.6 352.8" style="fill:none;stroke:#000000;stroke-linecap:square;stroke-linejoin:miter;"/>
   </g>
   <g id="patch_6">
    <path d="
M7.2 352.8
L7.2 7.2" style="fill:none;stroke:#000000;stroke-linecap:square;stroke-linejoin:miter;"/>
   </g>
   <g id="matplotlib.axis_1">
    <g id="xtick_1"/>
    <g id="xtick_2">
     <g id="line2d_9">
      <path clip-path="url(#p99b4b0da67)" d="
M59.6175 352.8
L59.6175 7.2" style="fill:none;stroke:#000000;stroke-dasharray:1.000000,3.000000;stroke-dashoffset:0.0;stroke-width:0.5;"/>
     </g>
     <g id="line2d_10">
      <defs>
       <path d="
M0 0
L0 -4" id="m93b0483c22" style="stroke:#000000;stroke-width:0.5;"/>
      </defs>
      <g>
       <use style="stroke:#000000;stroke-width:0.5;" x="59.6174973142" xlink:href="#m93b0483c22" y="352.8"/>
      </g>
     </g>
     <g id="line2d_11">
      <defs>
       <path d="
M0 0
L0 4" id="m741efc42ff" style="stroke:#000000;stroke-width:0.5;"/>
      </defs>
      <g>
       <use style="stroke:#000000;stroke-width:0.5;" x="59.6174973142" xlink:href="#m741efc42ff" y="7.2"/>
      </g>
     </g>
     <g id="text_1">
      <!-- -6 -->
      <defs>
       <path d="
M33.0156 40.375
Q26.375 40.375 22.4844 35.8281
Q18.6094 31.2969 18.6094 23.3906
Q18.6094 15.5312 22.4844 10.9531
Q26.375 6.39062 33.0156 6.39062
Q39.6562 6.39062 43.5312 10.9531
Q47.4062 15.5312 47.4062 23.3906
Q47.4062 31.2969 43.5312 35.8281
Q39.6562 40.375 33.0156 40.375
M52.5938 71.2969
L52.5938 62.3125
Q48.875 64.0625 45.0938 64.9844
Q41.3125 65.9219 37.5938 65.9219
Q27.8281 65.9219 22.6719 59.3281
Q17.5312 52.7344 16.7969 39.4062
Q19.6719 43.6562 24.0156 45.9219
Q28.375 48.1875 33.5938 48.1875
Q44.5781 48.1875 50.9531 41.5156
Q57.3281 34.8594 57.3281 23.3906
Q57.3281 12.1562 50.6875 5.35938
Q44.0469 -1.42188 33.0156 -1.42188
Q20.3594 -1.42188 13.6719 8.26562
Q6.98438 17.9688 6.98438 36.375
Q6.98438 53.6562 15.1875 63.9375
Q23.3906 74.2188 37.2031 74.2188
Q40.9219 74.2188 44.7031 73.4844
Q48.4844 72.75 52.5938 71.2969" id="BitstreamVeraSans-Roman-36"/>
       <path d="
M4.89062 31.3906
L31.2031 31.3906
L31.2031 23.3906
L4.89062 23.3906
z
" id="BitstreamVeraSans-Roman-2d"/>
      </defs>
      <g transform="translate(50.7659348142 371.996875)scale(0.2 -0.2)">
       <use xlink:href="#BitstreamVeraSans-Roman-2d"/>
       <use x="36.083984375" xlink:href="#BitstreamVeraSans-Roman-36"/>
      </g>
     </g>
    </g>
    <g id="xtick_3">
     <g id="line2d_12">
      <path clip-path="url(#p99b4b0da67)" d="
M112.148 352.8
L112.148 7.2" style="fill:none;stroke:#000000;stroke-dasharray:1.000000,3.000000;stroke-dashoffset:0.0;stroke-width:0.5;"/>
     </g>
     <g id="line2d_13">
      <g>
       <use style="stroke:#000000;stroke-width:0.5;" x="112.148497672" xlink:href="#m93b0483c22" y="352.8"/>
      </g>
     </g>
     <g id="line2d_14">
      <g>
       <use style="stroke:#000000;stroke-width:0.5;" x="112.148497672" xlink:href="#m741efc42ff" y="7.2"/>
      </g>
     </g>
     <g id="text_2">
      <!-- -4 -->
      <defs>
       <path d="
M37.7969 64.3125
L12.8906 25.3906
L37.7969 25.3906
z

M35.2031 72.9062
L47.6094 72.9062
L47.6094 25.3906
L58.0156 25.3906
L58.0156 17.1875
L47.6094 17.1875
L47.6094 0
L37.7969 0
L37.7969 17.1875
L4.89062 17.1875
L4.89062 26.7031
z
" id="BitstreamVeraSans-Roman-34"/>
      </defs>
      <g transform="translate(103.228185172 371.996875)scale(0.2 -0.2)">
       <use xlink:href="#BitstreamVeraSans-Roman-2d"/>
       <use x="36.083984375" xlink:href="#BitstreamVeraSans-Roman-34"/>
      </g>
     </g>
    </g>
    <g id="xtick_4">
     <g id="line2d_15">
      <path clip-path="url(#p99b4b0da67)" d="
M164.679 352.8
L164.679 7.2" style="fill:none;stroke:#000000;stroke-dasharray:1.000000,3.000000;stroke-dashoffset:0.0;stroke-width:0.5;"/>
     </g>
     <g id="line2d_16">
      <g>
       <use style="stroke:#000000;stroke-width:0.5;" x="164.67949803" xlink:href="#m93b0483c22" y="352.8"/>
      </g>
     </g>
     <g id="line2d_17">
      <g>
       <use style="stroke:#000000;stroke-width:0.5;" x="164.67949803" xlink:href="#m741efc42ff" y="7.2"/>
      </g>
     </g>
     <g id="text_3">
      <!-- -2 -->
      <defs>
       <path d="
M19.1875 8.29688
L53.6094 8.29688
L53.6094 0
L7.32812 0
L7.32812 8.29688
Q12.9375 14.1094 22.625 23.8906
Q32.3281 33.6875 34.8125 36.5312
Q39.5469 41.8438 41.4219 45.5312
Q43.3125 49.2188 43.3125 52.7812
Q43.3125 58.5938 39.2344 62.25
Q35.1562 65.9219 28.6094 65.9219
Q23.9688 65.9219 18.8125 64.3125
Q13.6719 62.7031 7.8125 59.4219
L7.8125 69.3906
Q13.7656 71.7812 18.9375 73
Q24.125 74.2188 28.4219 74.2188
Q39.75 74.2188 46.4844 68.5469
Q53.2188 62.8906 53.2188 53.4219
Q53.2188 48.9219 51.5312 44.8906
Q49.8594 40.875 45.4062 35.4062
Q44.1875 33.9844 37.6406 27.2188
Q31.1094 20.4531 19.1875 8.29688" id="BitstreamVeraSans-Roman-32"/>
      </defs>
      <g transform="translate(156.19981053 371.996875)scale(0.2 -0.2)">
       <use xlink:href="#BitstreamVeraSans-Roman-2d"/>
       <use x="36.083984375" xlink:href="#BitstreamVeraSans-Roman-32"/>
      </g>
     </g>
    </g>
    <g id="xtick_5">
     <g id="line2d_18">
      <path clip-path="url(#p99b4b0da67)" d="
M217.21 352.8
L217.21 7.2" style="fill:none;stroke:#000000;stroke-dasharray:1.000000,3.000000;stroke-dashoffset:0.0;stroke-width:0.5;"/>
     </g>
     <g id="line2d_19">
      <g>
       <use style="stroke:#000000;stroke-width:0.5;" x="217.210498389" xlink:href="#m93b0483c22" y="352.8"/>
      </g>
     </g>
     <g id="line2d_20">
      <g>
       <use style="stroke:#000000;stroke-width:0.5;" x="217.210498389" xlink:href="#m741efc42ff" y="7.2"/>
      </g>
     </g>
     <g id="text_4">
      <!-- 0 -->
      <defs>
       <path d="
M31.7812 66.4062
Q24.1719 66.4062 20.3281 58.9062
Q16.5 51.4219 16.5 36.375
Q16.5 21.3906 20.3281 13.8906
Q24.1719 6.39062 31.7812 6.39062
Q39.4531 6.39062 43.2812 13.8906
Q47.125 21.3906 47.125 36.375
Q47.125 51.4219 43.2812 58.9062
Q39.4531 66.4062 31.7812 66.4062
M31.7812 74.2188
Q44.0469 74.2188 50.5156 64.5156
Q56.9844 54.8281 56.9844 36.375
Q56.9844 17.9688 50.5156 8.26562
Q44.0469 -1.42188 31.7812 -1.42188
Q19.5312 -1.42188 13.0625 8.26562
Q6.59375 17.9688 6.59375 36.375
Q6.59375 54.8281 13.0625 64.5156
Q19.5312 74.2188 31.7812 74.2188" id="BitstreamVeraSans-Roman-30"/>
      </defs>
      <g transform="translate(212.171435889 371.996875)scale(0.2 -0.2)">
       <use xlink:href="#BitstreamVeraSans-Roman-30"/>
      </g>
     </g>
    </g>
    <g id="xtick_6">
     <g id="line2d_21">
      <path clip-path="url(#p99b4b0da67)" d="
M269.741 352.8
L269.741 7.2" style="fill:none;stroke:#000000;stroke-dasharray:1.000000,3.000000;stroke-dashoffset:0.0;stroke-width:0.5;"/>
     </g>
     <g id="line2d_22">
      <g>
       <use style="stroke:#000000;stroke-width:0.5;" x="269.741498747" xlink:href="#m93b0483c22" y="352.8"/>
      </g>
     </g>
     <g id="line2d_23">
      <g>
       <use style="stroke:#000000;stroke-width:0.5;" x="269.741498747" xlink:href="#m741efc42ff" y="7.2"/>
      </g>
     </g>
     <g id="text_5">
      <!-- 2 -->
      <g transform="translate(265.113373747 371.996875)scale(0.2 -0.2)">
       <use xlink:href="#BitstreamVeraSans-Roman-32"/>
      </g>
     </g>
    </g>
    <g id="xtick_7">
     <g id="line2d_24">
      <path clip-path="url(#p99b4b0da67)" d="
M322.272 352.8
L322.272 7.2" style="fill:none;stroke:#000000;stroke-dasharray:1.000000,3.000000;stroke-dashoffset:0.0;stroke-width:0.5;"/>
     </g>
     <g id="line2d_25">
      <g>
       <use style="stroke:#000000;stroke-width:0.5;" x="322.272499105" xlink:href="#m93b0483c22" y="352.8"/>
      </g>
     </g>
     <g id="line2d_26">
      <g>
       <use style="stroke:#000000;stroke-width:0.5;" x="322.272499105" xlink:href="#m741efc42ff" y="7.2"/>
      </g>
     </g>
     <g id="text_6">
      <!-- 4 -->
      <g transform="translate(316.959999105 371.996875)scale(0.2 -0.2)">
       <use xlink:href="#BitstreamVeraSans-Roman-34"/>
      </g>
     </g>
    </g>
    <g id="xtick_8">
     <g id="line2d_27">
      <path clip-path="url(#p99b4b0da67)" d="
M374.803 352.8
L374.803 7.2" style="fill:none;stroke:#000000;stroke-dasharray:1.000000,3.000000;stroke-dashoffset:0.0;stroke-width:0.5;"/>
     </g>
     <g id="line2d_28">
      <g>
       <use style="stroke:#000000;stroke-width:0.5;" x="374.803499463" xlink:href="#m93b0483c22" y="352.8"/>
      </g>
     </g>
     <g id="line2d_29">
      <g>
       <use style="stroke:#000000;stroke-width:0.5;" x="374.803499463" xlink:href="#m741efc42ff" y="7.2"/>
      </g>
     </g>
     <g id="text_7">
      <!-- 6 -->
      <g transform="translate(369.769124463 371.996875)scale(0.2 -0.2)">
       <use xlink:href="#BitstreamVeraSans-Roman-36"/>
      </g>
     </g>
    </g>
    <g id="xtick_9">
     <g id="line2d_30">
      <path clip-path="url(#p99b4b0da67)" d="
M427.334 352.8
L427.334 7.2" style="fill:none;stroke:#000000;stroke-dasharray:1.000000,3.000000;stroke-dashoffset:0.0;stroke-width:0.5;"/>
     </g>
     <g id="line2d_31">
      <g>
       <use style="stroke:#000000;stroke-width:0.5;" x="427.334499821" xlink:href="#m93b0483c22" y="352.8"/>
      </g>
     </g>
     <g id="line2d_32">
      <g>
       <use style="stroke:#000000;stroke-width:0.5;" x="427.334499821" xlink:href="#m741efc42ff" y="7.2"/>
      </g>
     </g>
     <g id="text_8">
      <!-- 8 -->
      <defs>
       <path d="
M31.7812 34.625
Q24.75 34.625 20.7188 30.8594
Q16.7031 27.0938 16.7031 20.5156
Q16.7031 13.9219 20.7188 10.1562
Q24.75 6.39062 31.7812 6.39062
Q38.8125 6.39062 42.8594 10.1719
Q46.9219 13.9688 46.9219 20.5156
Q46.9219 27.0938 42.8906 30.8594
Q38.875 34.625 31.7812 34.625
M21.9219 38.8125
Q15.5781 40.375 12.0312 44.7188
Q8.5 49.0781 8.5 55.3281
Q8.5 64.0625 14.7188 69.1406
Q20.9531 74.2188 31.7812 74.2188
Q42.6719 74.2188 48.875 69.1406
Q55.0781 64.0625 55.0781 55.3281
Q55.0781 49.0781 51.5312 44.7188
Q48 40.375 41.7031 38.8125
Q48.8281 37.1562 52.7969 32.3125
Q56.7812 27.4844 56.7812 20.5156
Q56.7812 9.90625 50.3125 4.23438
Q43.8438 -1.42188 31.7812 -1.42188
Q19.7344 -1.42188 13.25 4.23438
Q6.78125 9.90625 6.78125 20.5156
Q6.78125 27.4844 10.7812 32.3125
Q14.7969 37.1562 21.9219 38.8125
M18.3125 54.3906
Q18.3125 48.7344 21.8438 45.5625
Q25.3906 42.3906 31.7812 42.3906
Q38.1406 42.3906 41.7188 45.5625
Q45.3125 48.7344 45.3125 54.3906
Q45.3125 60.0625 41.7188 63.2344
Q38.1406 66.4062 31.7812 66.4062
Q25.3906 66.4062 21.8438 63.2344
Q18.3125 60.0625 18.3125 54.3906" id="BitstreamVeraSans-Roman-38"/>
      </defs>
      <g transform="translate(422.334499821 371.996875)scale(0.2 -0.2)">
       <use xlink:href="#BitstreamVeraSans-Roman-38"/>
      </g>
     </g>
    </g>
    <g id="xtick_10"/>
    <g id="xtick_11">
     <g id="line2d_33">
      <defs>
       <path d="
M0 0
L0 -2" id="m177f7580d0" style="stroke:#000000;stroke-width:0.5;"/>
      </defs>
      <g>
       <use style="stroke:#000000;stroke-width:0.5;" x="59.6174973142" xlink:href="#m177f7580d0" y="352.8"/>
      </g>
     </g>
     <g id="line2d_34">
      <defs>
       <path d="
M0 0
L0 2" id="m5284c7e2a0" style="stroke:#000000;stroke-width:0.5;"/>
      </defs>
      <g>
       <use style="stroke:#000000;stroke-width:0.5;" x="59.6174973142" xlink:href="#m5284c7e2a0" y="7.2"/>
      </g>
     </g>
    </g>
    <g id="xtick_12">
     <g id="line2d_35">
      <g>
       <use style="stroke:#000000;stroke-width:0.5;" x="112.148497672" xlink:href="#m177f7580d0" y="352.8"/>
      </g>
     </g>
     <g id="line2d_36">
      <g>
       <use style="stroke:#000000;stroke-width:0.5;" x="112.148497672" xlink:href="#m5284c7e2a0" y="7.2"/>
      </g>
     </g>
    </g>
    <g id="xtick_13">
     <g id="line2d_37">
      <g>
       <use style="stroke:#000000;stroke-width:0.5;" x="164.67949803" xlink:href="#m177f7580d0" y="352.8"/>
      </g>
     </g>
     <g id="line2d_38">
      <g>
       <use style="stroke:#000000;stroke-width:0.5;" x="164.67949803" xlink:href="#m5284c7e2a0" y="7.2"/>
      </g>
     </g>
    </g>
    <g id="xtick_14">
     <g id="line2d_39">
      <g>
       <use style="stroke:#000000;stroke-width:0.5;" x="217.210498389" xlink:href="#m177f7580d0" y="352.8"/>
      </g>
     </g>
     <g id="line2d_40">
      <g>
       <use style="stroke:#000000;stroke-width:0.5;" x="217.210498389" xlink:href="#m5284c7e2a0" y="7.2"/>
      </g>
     </g>
    </g>
    <g id="xtick_15">
     <g id="line2d_41">
      <g>
       <use style="stroke:#000000;stroke-width:0.5;" x="269.741498747" xlink:href="#m177f7580d0" y="352.8"/>
      </g>
     </g>
     <g id="line2d_42">
      <g>
       <use style="stroke:#000000;stroke-width:0.5;" x="269.741498747" xlink:href="#m5284c7e2a0" y="7.2"/>
      </g>
     </g>
    </g>
    <g id="xtick_16">
     <g id="line2d_43">
      <g>
       <use style="stroke:#000000;stroke-width:0.5;" x="322.272499105" xlink:href="#m177f7580d0" y="352.8"/>
      </g>
     </g>
     <g id="line2d_44">
      <g>
       <use style="stroke:#000000;stroke-width:0.5;" x="322.272499105" xlink:href="#m5284c7e2a0" y="7.2"/>
      </g>
     </g>
    </g>
    <g id="xtick_17">
     <g id="line2d_45">
      <g>
       <use style="stroke:#000000;stroke-width:0.5;" x="374.803499463" xlink:href="#m177f7580d0" y="352.8"/>
      </g>
     </g>
     <g id="line2d_46">
      <g>
       <use style="stroke:#000000;stroke-width:0.5;" x="374.803499463" xlink:href="#m5284c7e2a0" y="7.2"/>
      </g>
     </g>
    </g>
    <g id="xtick_18">
     <g id="line2d_47">
      <g>
       <use style="stroke:#000000;stroke-width:0.5;" x="427.334499821" xlink:href="#m177f7580d0" y="352.8"/>
      </g>
     </g>
     <g id="line2d_48">
      <g>
       <use style="stroke:#000000;stroke-width:0.5;" x="427.334499821" xlink:href="#m5284c7e2a0" y="7.2"/>
      </g>
     </g>
    </g>
    <g id="text_9">
     <!-- log10 of Df -->
     <defs>
      <path id="BitstreamVeraSans-Roman-20"/>
      <path d="
M12.4062 8.29688
L28.5156 8.29688
L28.5156 63.9219
L10.9844 60.4062
L10.9844 69.3906
L28.4219 72.9062
L38.2812 72.9062
L38.2812 8.29688
L54.3906 8.29688
L54.3906 0
L12.4062 0
z
" id="BitstreamVeraSans-Roman-31"/>
      <path d="
M30.6094 48.3906
Q23.3906 48.3906 19.1875 42.75
Q14.9844 37.1094 14.9844 27.2969
Q14.9844 17.4844 19.1562 11.8438
Q23.3438 6.20312 30.6094 6.20312
Q37.7969 6.20312 41.9844 11.8594
Q46.1875 17.5312 46.1875 27.2969
Q46.1875 37.0156 41.9844 42.7031
Q37.7969 48.3906 30.6094 48.3906
M30.6094 56
Q42.3281 56 49.0156 48.375
Q55.7188 40.7656 55.7188 27.2969
Q55.7188 13.875 49.0156 6.21875
Q42.3281 -1.42188 30.6094 -1.42188
Q18.8438 -1.42188 12.1719 6.21875
Q5.51562 13.875 5.51562 27.2969
Q5.51562 40.7656 12.1719 48.375
Q18.8438 56 30.6094 56" id="BitstreamVeraSans-Roman-6f"/>
      <path d="
M9.42188 75.9844
L18.4062 75.9844
L18.4062 0
L9.42188 0
z
" id="BitstreamVeraSans-Roman-6c"/>
      <path d="
M19.6719 64.7969
L19.6719 8.10938
L31.5938 8.10938
Q46.6875 8.10938 53.6875 14.9375
Q60.6875 21.7812 60.6875 36.5312
Q60.6875 51.1719 53.6875 57.9844
Q46.6875 64.7969 31.5938 64.7969
z

M9.8125 72.9062
L30.0781 72.9062
Q51.2656 72.9062 61.1719 64.0938
Q71.0938 55.2812 71.0938 36.5312
Q71.0938 17.6719 61.125 8.82812
Q51.1719 0 30.0781 0
L9.8125 0
z
" id="BitstreamVeraSans-Roman-44"/>
      <path d="
M45.4062 27.9844
Q45.4062 37.75 41.375 43.1094
Q37.3594 48.4844 30.0781 48.4844
Q22.8594 48.4844 18.8281 43.1094
Q14.7969 37.75 14.7969 27.9844
Q14.7969 18.2656 18.8281 12.8906
Q22.8594 7.51562 30.0781 7.51562
Q37.3594 7.51562 41.375 12.8906
Q45.4062 18.2656 45.4062 27.9844
M54.3906 6.78125
Q54.3906 -7.17188 48.1875 -13.9844
Q42 -20.7969 29.2031 -20.7969
Q24.4688 -20.7969 20.2656 -20.0938
Q16.0625 -19.3906 12.1094 -17.9219
L12.1094 -9.1875
Q16.0625 -11.3281 19.9219 -12.3438
Q23.7812 -13.375 27.7812 -13.375
Q36.625 -13.375 41.0156 -8.76562
Q45.4062 -4.15625 45.4062 5.17188
L45.4062 9.625
Q42.625 4.78125 38.2812 2.39062
Q33.9375 0 27.875 0
Q17.8281 0 11.6719 7.65625
Q5.51562 15.3281 5.51562 27.9844
Q5.51562 40.6719 11.6719 48.3281
Q17.8281 56 27.875 56
Q33.9375 56 38.2812 53.6094
Q42.625 51.2188 45.4062 46.3906
L45.4062 54.6875
L54.3906 54.6875
z
" id="BitstreamVeraSans-Roman-67"/>
      <path d="
M37.1094 75.9844
L37.1094 68.5
L28.5156 68.5
Q23.6875 68.5 21.7969 66.5469
Q19.9219 64.5938 19.9219 59.5156
L19.9219 54.6875
L34.7188 54.6875
L34.7188 47.7031
L19.9219 47.7031
L19.9219 0
L10.8906 0
L10.8906 47.7031
L2.29688 47.7031
L2.29688 54.6875
L10.8906 54.6875
L10.8906 58.5
Q10.8906 67.625 15.1406 71.7969
Q19.3906 75.9844 28.6094 75.9844
z
" id="BitstreamVeraSans-Roman-66"/>
     </defs>
     <g transform="translate(175.0234375 396.353125)scale(0.2 -0.2)">
      <use xlink:href="#BitstreamVeraSans-Roman-6c"/>
      <use x="27.783203125" xlink:href="#BitstreamVeraSans-Roman-6f"/>
      <use x="88.96484375" xlink:href="#BitstreamVeraSans-Roman-67"/>
      <use x="152.44140625" xlink:href="#BitstreamVeraSans-Roman-31"/>
      <use x="216.064453125" xlink:href="#BitstreamVeraSans-Roman-30"/>
      <use x="279.6875" xlink:href="#BitstreamVeraSans-Roman-20"/>
      <use x="311.474609375" xlink:href="#BitstreamVeraSans-Roman-6f"/>
      <use x="372.65625" xlink:href="#BitstreamVeraSans-Roman-66"/>
      <use x="407.861328125" xlink:href="#BitstreamVeraSans-Roman-20"/>
      <use x="439.6484375" xlink:href="#BitstreamVeraSans-Roman-44"/>
      <use x="516.650390625" xlink:href="#BitstreamVeraSans-Roman-66"/>
     </g>
    </g>
   </g>
   <g id="matplotlib.axis_2">
    <g id="ytick_1">
     <g id="line2d_49">
      <path clip-path="url(#p99b4b0da67)" d="
M7.2 352.8
L453.6 352.8" style="fill:none;stroke:#000000;stroke-dasharray:1.000000,3.000000;stroke-dashoffset:0.0;stroke-width:0.5;"/>
     </g>
     <g id="line2d_50">
      <defs>
       <path d="
M0 0
L4 0" id="m728421d6d4" style="stroke:#000000;stroke-width:0.5;"/>
      </defs>
      <g>
       <use style="stroke:#000000;stroke-width:0.5;" x="7.2" xlink:href="#m728421d6d4" y="352.8"/>
      </g>
     </g>
     <g id="line2d_51">
      <defs>
       <path d="
M0 0
L-4 0" id="mcb0005524f" style="stroke:#000000;stroke-width:0.5;"/>
      </defs>
      <g>
       <use style="stroke:#000000;stroke-width:0.5;" x="453.6" xlink:href="#mcb0005524f" y="352.8"/>
      </g>
     </g>
    </g>
    <g id="ytick_2">
     <g id="line2d_52">
      <path clip-path="url(#p99b4b0da67)" d="
M7.2 284.364
L453.6 284.364" style="fill:none;stroke:#000000;stroke-dasharray:1.000000,3.000000;stroke-dashoffset:0.0;stroke-width:0.5;"/>
     </g>
     <g id="line2d_53">
      <g>
       <use style="stroke:#000000;stroke-width:0.5;" x="7.2" xlink:href="#m728421d6d4" y="284.364356436"/>
      </g>
     </g>
     <g id="line2d_54">
      <g>
       <use style="stroke:#000000;stroke-width:0.5;" x="453.6" xlink:href="#mcb0005524f" y="284.364356436"/>
      </g>
     </g>
    </g>
    <g id="ytick_3">
     <g id="line2d_55">
      <path clip-path="url(#p99b4b0da67)" d="
M7.2 215.929
L453.6 215.929" style="fill:none;stroke:#000000;stroke-dasharray:1.000000,3.000000;stroke-dashoffset:0.0;stroke-width:0.5;"/>
     </g>
     <g id="line2d_56">
      <g>
       <use style="stroke:#000000;stroke-width:0.5;" x="7.2" xlink:href="#m728421d6d4" y="215.928712871"/>
      </g>
     </g>
     <g id="line2d_57">
      <g>
       <use style="stroke:#000000;stroke-width:0.5;" x="453.6" xlink:href="#mcb0005524f" y="215.928712871"/>
      </g>
     </g>
    </g>
    <g id="ytick_4">
     <g id="line2d_58">
      <path clip-path="url(#p99b4b0da67)" d="
M7.2 147.493
L453.6 147.493" style="fill:none;stroke:#000000;stroke-dasharray:1.000000,3.000000;stroke-dashoffset:0.0;stroke-width:0.5;"/>
     </g>
     <g id="line2d_59">
      <g>
       <use style="stroke:#000000;stroke-width:0.5;" x="7.2" xlink:href="#m728421d6d4" y="147.493069307"/>
      </g>
     </g>
     <g id="line2d_60">
      <g>
       <use style="stroke:#000000;stroke-width:0.5;" x="453.6" xlink:href="#mcb0005524f" y="147.493069307"/>
      </g>
     </g>
    </g>
    <g id="ytick_5">
     <g id="line2d_61">
      <path clip-path="url(#p99b4b0da67)" d="
M7.2 79.0574
L453.6 79.0574" style="fill:none;stroke:#000000;stroke-dasharray:1.000000,3.000000;stroke-dashoffset:0.0;stroke-width:0.5;"/>
     </g>
     <g id="line2d_62">
      <g>
       <use style="stroke:#000000;stroke-width:0.5;" x="7.2" xlink:href="#m728421d6d4" y="79.0574257426"/>
      </g>
     </g>
     <g id="line2d_63">
      <g>
       <use style="stroke:#000000;stroke-width:0.5;" x="453.6" xlink:href="#mcb0005524f" y="79.0574257426"/>
      </g>
     </g>
    </g>
    <g id="ytick_6">
     <g id="line2d_64">
      <path clip-path="url(#p99b4b0da67)" d="
M7.2 10.6218
L453.6 10.6218" style="fill:none;stroke:#000000;stroke-dasharray:1.000000,3.000000;stroke-dashoffset:0.0;stroke-width:0.5;"/>
     </g>
     <g id="line2d_65">
      <g>
       <use style="stroke:#000000;stroke-width:0.5;" x="7.2" xlink:href="#m728421d6d4" y="10.6217821782"/>
      </g>
     </g>
     <g id="line2d_66">
      <g>
       <use style="stroke:#000000;stroke-width:0.5;" x="453.6" xlink:href="#mcb0005524f" y="10.6217821782"/>
      </g>
     </g>
    </g>
   </g>
   <g id="text_10">
    <!-- {f6-f9}, 20-D -->
    <defs>
     <path d="
M12.5 -9.28125
L15.9219 -9.28125
Q22.75 -9.28125 24.8281 -7.17188
Q26.9062 -5.07812 26.9062 1.90625
L26.9062 14.0156
Q26.9062 21.625 29.0938 25.0938
Q31.2969 28.5625 36.7188 29.8906
Q31.2969 31.1094 29.0938 34.5625
Q26.9062 38.0312 26.9062 45.7031
L26.9062 57.8125
Q26.9062 64.75 24.8281 66.875
Q22.75 69 15.9219 69
L12.5 69
L12.5 75.9844
L15.5781 75.9844
Q27.7344 75.9844 31.8125 72.3906
Q35.8906 68.7969 35.8906 58.0156
L35.8906 46.2969
Q35.8906 39.0156 38.5156 36.2031
Q41.1562 33.4062 48.0938 33.4062
L51.125 33.4062
L51.125 26.4219
L48.0938 26.4219
Q41.1562 26.4219 38.5156 23.5781
Q35.8906 20.75 35.8906 13.375
L35.8906 1.70312
Q35.8906 -9.07812 31.8125 -12.6875
Q27.7344 -16.3125 15.5781 -16.3125
L12.5 -16.3125
z
" id="BitstreamVeraSans-Roman-7d"/>
     <path d="
M10.9844 1.51562
L10.9844 10.5
Q14.7031 8.73438 18.5 7.8125
Q22.3125 6.89062 25.9844 6.89062
Q35.75 6.89062 40.8906 13.4531
Q46.0469 20.0156 46.7812 33.4062
Q43.9531 29.2031 39.5938 26.9531
Q35.25 24.7031 29.9844 24.7031
Q19.0469 24.7031 12.6719 31.3125
Q6.29688 37.9375 6.29688 49.4219
Q6.29688 60.6406 12.9375 67.4219
Q19.5781 74.2188 30.6094 74.2188
Q43.2656 74.2188 49.9219 64.5156
Q56.5938 54.8281 56.5938 36.375
Q56.5938 19.1406 48.4062 8.85938
Q40.2344 -1.42188 26.4219 -1.42188
Q22.7031 -1.42188 18.8906 -0.6875
Q15.0938 0.046875 10.9844 1.51562
M30.6094 32.4219
Q37.25 32.4219 41.125 36.9531
Q45.0156 41.5 45.0156 49.4219
Q45.0156 57.2812 41.125 61.8438
Q37.25 66.4062 30.6094 66.4062
Q23.9688 66.4062 20.0938 61.8438
Q16.2188 57.2812 16.2188 49.4219
Q16.2188 41.5 20.0938 36.9531
Q23.9688 32.4219 30.6094 32.4219" id="BitstreamVeraSans-Roman-39"/>
     <path d="
M51.125 -9.28125
L51.125 -16.3125
L48.0938 -16.3125
Q35.9375 -16.3125 31.8125 -12.6875
Q27.6875 -9.07812 27.6875 1.70312
L27.6875 13.375
Q27.6875 20.75 25.0469 23.5781
Q22.4062 26.4219 15.4844 26.4219
L12.5 26.4219
L12.5 33.4062
L15.4844 33.4062
Q22.4688 33.4062 25.0781 36.2031
Q27.6875 39.0156 27.6875 46.2969
L27.6875 58.0156
Q27.6875 68.7969 31.8125 72.3906
Q35.9375 75.9844 48.0938 75.9844
L51.125 75.9844
L51.125 69
L47.7969 69
Q40.9219 69 38.8125 66.8438
Q36.7188 64.7031 36.7188 57.8125
L36.7188 45.7031
Q36.7188 38.0312 34.5 34.5625
Q32.2812 31.1094 26.9062 29.8906
Q32.3281 28.5625 34.5156 25.0938
Q36.7188 21.625 36.7188 14.0156
L36.7188 1.90625
Q36.7188 -4.98438 38.8125 -7.125
Q40.9219 -9.28125 47.7969 -9.28125
z
" id="BitstreamVeraSans-Roman-7b"/>
     <path d="
M11.7188 12.4062
L22.0156 12.4062
L22.0156 4
L14.0156 -11.625
L7.71875 -11.625
L11.7188 4
z
" id="BitstreamVeraSans-Roman-2c"/>
    </defs>
    <g transform="translate(312.87825 345.888)scale(0.2 -0.2)">
     <use xlink:href="#BitstreamVeraSans-Roman-7b"/>
     <use x="63.623046875" xlink:href="#BitstreamVeraSans-Roman-66"/>
     <use x="98.828125" xlink:href="#BitstreamVeraSans-Roman-36"/>
     <use x="162.451171875" xlink:href="#BitstreamVeraSans-Roman-2d"/>
     <use x="198.53515625" xlink:href="#BitstreamVeraSans-Roman-66"/>
     <use x="233.740234375" xlink:href="#BitstreamVeraSans-Roman-39"/>
     <use x="297.36328125" xlink:href="#BitstreamVeraSans-Roman-7d"/>
     <use x="360.986328125" xlink:href="#BitstreamVeraSans-Roman-2c"/>
     <use x="392.7734375" xlink:href="#BitstreamVeraSans-Roman-20"/>
     <use x="424.560546875" xlink:href="#BitstreamVeraSans-Roman-32"/>
     <use x="488.18359375" xlink:href="#BitstreamVeraSans-Roman-30"/>
     <use x="551.806640625" xlink:href="#BitstreamVeraSans-Roman-2d"/>
     <use x="587.890625" xlink:href="#BitstreamVeraSans-Roman-44"/>
    </g>
   </g>
   <g id="text_11">
    <!-- v2.1.1.3 -->
    <defs>
     <path d="
M2.98438 54.6875
L12.5 54.6875
L29.5938 8.79688
L46.6875 54.6875
L56.2031 54.6875
L35.6875 0
L23.4844 0
z
" id="BitstreamVeraSans-Roman-76"/>
     <path d="
M40.5781 39.3125
Q47.6562 37.7969 51.625 33
Q55.6094 28.2188 55.6094 21.1875
Q55.6094 10.4062 48.1875 4.48438
Q40.7656 -1.42188 27.0938 -1.42188
Q22.5156 -1.42188 17.6562 -0.515625
Q12.7969 0.390625 7.625 2.20312
L7.625 11.7188
Q11.7188 9.32812 16.5938 8.10938
Q21.4844 6.89062 26.8125 6.89062
Q36.0781 6.89062 40.9375 10.5469
Q45.7969 14.2031 45.7969 21.1875
Q45.7969 27.6406 41.2812 31.2656
Q36.7656 34.9062 28.7188 34.9062
L20.2188 34.9062
L20.2188 43.0156
L29.1094 43.0156
Q36.375 43.0156 40.2344 45.9219
Q44.0938 48.8281 44.0938 54.2969
Q44.0938 59.9062 40.1094 62.9062
Q36.1406 65.9219 28.7188 65.9219
Q24.6562 65.9219 20.0156 65.0312
Q15.375 64.1562 9.8125 62.3125
L9.8125 71.0938
Q15.4375 72.6562 20.3438 73.4375
Q25.25 74.2188 29.5938 74.2188
Q40.8281 74.2188 47.3594 69.1094
Q53.9062 64.0156 53.9062 55.3281
Q53.9062 49.2656 50.4375 45.0938
Q46.9688 40.9219 40.5781 39.3125" id="BitstreamVeraSans-Roman-33"/>
     <path d="
M10.6875 12.4062
L21 12.4062
L21 0
L10.6875 0
z
" id="BitstreamVeraSans-Roman-2e"/>
    </defs>
    <g style="fill:#808080;" transform="translate(210.4984375 347.2643125)scale(0.1 -0.1)">
     <use xlink:href="#BitstreamVeraSans-Roman-76"/>
     <use x="59.1796875" xlink:href="#BitstreamVeraSans-Roman-32"/>
     <use x="122.802734375" xlink:href="#BitstreamVeraSans-Roman-2e"/>
     <use x="154.58984375" xlink:href="#BitstreamVeraSans-Roman-31"/>
     <use x="218.212890625" xlink:href="#BitstreamVeraSans-Roman-2e"/>
     <use x="250.0" xlink:href="#BitstreamVeraSans-Roman-31"/>
     <use x="313.623046875" xlink:href="#BitstreamVeraSans-Roman-2e"/>
     <use x="345.41015625" xlink:href="#BitstreamVeraSans-Roman-33"/>
    </g>
   </g>
  </g>
 </g>
 <defs>
  <clipPath id="p99b4b0da67">
   <rect height="345.6" width="446.4" x="7.2" y="7.2"/>
  </clipPath>
 </defs>
</svg>
