<?xml version="1.0" encoding="utf-8" standalone="no"?>
<!DOCTYPE svg PUBLIC "-//W3C//DTD SVG 1.1//EN"
  "http://www.w3.org/Graphics/SVG/1.1/DTD/svg11.dtd">
<!-- Created with matplotlib (http://matplotlib.org/) -->
<svg height="407pt" version="1.1" viewBox="0 0 460 407" width="460pt" xmlns="http://www.w3.org/2000/svg" xmlns:xlink="http://www.w3.org/1999/xlink">
 <defs>
  <style type="text/css">
*{stroke-linecap:butt;stroke-linejoin:round;}
  </style>
 </defs>
 <g id="figure_1">
  <g id="patch_1">
   <path d="
M0 407.712
L460.8 407.712
L460.8 0
L0 0
z
" style="fill:#ffffff;"/>
  </g>
  <g id="axes_1">
   <g id="patch_2">
    <path d="
M7.2 352.8
L453.6 352.8
L453.6 7.2
L7.2 7.2
z
" style="fill:#ffffff;"/>
   </g>
   <g id="line2d_1">
    <path clip-path="url(#p99b4b0da67)" d="
M-1 243.303
L-0.168363 243.303
L-0.168363 238.741
L1.59107 238.741
L1.59107 234.178
L1.89773 234.178
L1.89773 229.616
L2.06894 229.616
L2.08081 220.491
L3.06836 220.491
L3.06836 215.929
L3.20162 215.929
L3.20162 211.366
L4.16326 211.366
L4.16326 206.804
L5.07157 206.804
L5.07157 202.242
L5.32951 202.242
L5.32951 197.679
L6.05333 197.679
L6.13606 188.554
L7.04031 188.554
L7.06639 179.43
L180.919 179.43
L180.919 174.867
L183.667 174.867
L183.667 170.305
L189.255 170.305
L189.255 165.743
L189.5 165.743
L189.5 161.18
L191.389 161.18
L191.389 156.618
L195.964 156.618
L195.964 152.055
L199.104 152.055
L199.104 147.493
L200.431 147.493
L200.431 142.931
L205.167 142.931
L205.167 138.368
L206.355 138.368
L206.355 133.806
L207.369 133.806
L207.369 129.244
L207.482 129.244
L207.482 124.681
L207.649 124.681
L207.649 120.119
L208.246 120.119
L208.246 115.556
L208.845 115.556
L208.845 110.994
L209.54 110.994
L209.54 106.432
L210.025 106.432
L210.025 101.869
L210.818 101.869
L210.818 97.3069
L210.974 97.3069
L210.974 92.7446
L211.371 92.7446
L211.371 88.1822
L212.472 88.1822
L212.472 83.6198
L213.524 83.6198
L213.524 79.0574
L215.28 79.0574
L215.28 74.495
L228.159 74.495
L228.159 69.9327
L235.566 69.9327
L235.566 65.3703
L236.592 65.3703
L236.592 60.8079
L236.802 60.8079
L236.912 47.1208
L237.084 47.1208
L237.09 37.996
L237.245 37.996
L237.349 24.3089
L237.389 24.3089
L237.389 19.7465
L237.646 19.7465
L237.646 15.1842
L237.789 15.1842
L237.789 10.6218
L237.789 10.6218
L453.6 10.6218
L453.6 10.6218" style="fill:none;stroke:#ff0000;stroke-linecap:square;stroke-width:3.0;"/>
   </g>
   <g id="line2d_2">
    <path clip-path="url(#p99b4b0da67)" d="
M231.99 352.8
L231.99 348.238
L237.379 348.238
L237.379 343.675
L238.937 343.675
L238.937 339.113
L241.751 339.113
L241.751 334.55
L242.069 334.55
L242.069 329.988
L242.189 329.988
L242.189 325.426
L243.165 325.426
L243.165 320.863
L244.165 320.863
L244.165 316.301
L244.661 316.301
L244.661 311.739
L245.359 311.739
L245.359 307.176
L246.756 307.176
L246.756 302.614
L246.963 302.614
L246.963 298.051
L248.545 298.051
L248.545 293.489
L251.491 293.489
L251.491 288.927
L251.621 288.927
L251.621 284.364
L251.903 284.364
L251.903 279.802
L252.025 279.802
L252.025 275.24
L252.339 275.24
L252.339 270.677
L252.547 270.677
L252.547 266.115
L255.202 266.115
L255.202 261.552
L256.503 261.552
L256.503 256.99
L257.617 256.99
L257.652 247.865
L260.458 247.865
L260.458 243.303
L260.637 243.303
L260.637 238.741
L261.076 238.741
L261.076 234.178
L262.405 234.178
L262.483 225.053
L262.688 225.053
L262.688 220.491
L262.913 220.491
L262.926 211.366
L263.082 211.366
L263.082 206.804
L263.656 206.804
L263.656 202.242
L263.862 202.242
L263.862 197.679
L264.161 197.679
L264.187 183.992
L264.315 183.992
L264.315 179.43
L264.455 179.43
L264.495 170.305
L264.689 170.305
L264.689 165.743
L265.107 165.743
L265.107 161.18
L265.485 161.18
L265.576 142.931
L265.712 142.931
L265.772 133.806
L265.901 133.806
L265.918 124.681
L266.022 124.681
L266.022 120.119
L266.196 120.119
L266.264 110.994
L266.588 110.994
L266.588 106.432
L267.132 106.432
L267.132 101.869
L268.114 101.869
L268.114 97.3069
L269.162 97.3069
L269.162 92.7446
L269.301 92.7446
L269.312 79.0574
L269.973 79.0574
L269.973 74.495
L281.215 74.495
L281.215 69.9327
L284.747 69.9327
L284.747 65.3703
L306.231 65.3703
L306.231 60.8079
L309.61 60.8079
L309.61 56.2455
L317.52 56.2455
L317.52 10.6218
L317.52 10.6218
L453.6 10.6218
L453.6 10.6218" style="fill:none;stroke:#00bfbf;stroke-linecap:square;"/>
   </g>
   <g id="line2d_3">
    <path clip-path="url(#p99b4b0da67)" d="
M231.637 352.8
L231.637 348.238
L231.637 348.238
L231.637 348.238
L231.675 348.238
L231.675 343.675
L231.99 343.675
L231.99 339.113
L234.857 339.113
L234.857 334.55
L236.416 334.55
L236.416 329.988
L237.379 329.988
L237.379 325.426
L238.937 325.426
L238.937 320.863
L239.714 320.863
L239.714 316.301
L241.751 316.301
L241.825 307.176
L242.189 307.176
L242.189 302.614
L242.722 302.614
L242.722 298.051
L243.165 298.051
L243.165 293.489
L243.835 293.489
L243.835 288.927
L244.083 288.927
L244.083 284.364
L244.525 284.364
L244.525 279.802
L244.661 279.802
L244.661 275.24
L246.55 275.24
L246.55 270.677
L246.756 270.677
L246.756 266.115
L248.066 266.115
L248.066 261.552
L248.248 261.552
L248.248 256.99
L251.621 256.99
L251.621 252.428
L252.025 252.428
L252.025 247.865
L253.474 247.865
L253.474 243.303
L255.818 243.303
L255.818 238.741
L256.155 238.741
L256.155 234.178
L256.503 234.178
L256.503 229.616
L256.665 229.616
L256.681 220.491
L257.617 220.491
L257.652 206.804
L258.594 206.804
L258.594 202.242
L258.955 202.242
L258.955 197.679
L259.189 197.679
L259.189 193.117
L260.53 193.117
L260.637 183.992
L260.821 183.992
L260.821 179.43
L261.076 179.43
L261.076 174.867
L262.405 174.867
L262.405 170.305
L262.688 170.305
L262.766 161.18
L262.913 161.18
L262.913 156.618
L263.262 156.618
L263.262 152.055
L263.656 152.055
L263.656 147.493
L264.161 147.493
L264.264 133.806
L264.554 133.806
L264.562 124.681
L264.689 124.681
L264.689 120.119
L264.813 120.119
L264.813 115.556
L265.338 115.556
L265.338 110.994
L265.551 110.994
L265.551 106.432
L265.712 106.432
L265.807 97.3069
L265.918 97.3069
L265.918 92.7446
L266.196 92.7446
L266.196 88.1822
L267.132 88.1822
L267.132 83.6198
L267.377 83.6198
L267.468 74.495
L267.681 74.495
L267.681 69.9327
L267.988 69.9327
L267.988 65.3703
L269.312 65.3703
L269.312 60.8079
L284.747 60.8079
L284.747 56.2455
L286.884 56.2455
L286.884 51.6832
L307.645 51.6832
L307.645 47.1208
L310.793 47.1208
L310.793 42.5584
L312.548 42.5584
L312.548 37.996
L314.011 37.996
L314.011 33.4337
L314.547 33.4337
L314.547 28.8713
L316.96 28.8713
L316.96 24.3089
L317.52 24.3089
L317.52 10.6218
L317.52 10.6218
L453.6 10.6218
L453.6 10.6218" style="fill:none;stroke:#bf00bf;stroke-linecap:square;"/>
   </g>
   <g id="line2d_4">
    <path clip-path="url(#p99b4b0da67)" d="
M231.099 352.8
L231.099 348.238
L231.637 348.238
L231.675 339.113
L231.99 339.113
L231.99 334.55
L234.857 334.55
L234.857 329.988
L235.038 329.988
L235.038 325.426
L236.126 325.426
L236.126 320.863
L236.416 320.863
L236.416 316.301
L237.379 316.301
L237.379 311.739
L238.137 311.739
L238.137 307.176
L238.429 307.176
L238.429 302.614
L238.937 302.614
L238.937 298.051
L239.714 298.051
L239.714 293.489
L240.954 293.489
L240.954 288.927
L241.825 288.927
L241.825 284.364
L242.04 284.364
L242.04 279.802
L242.18 279.802
L242.189 270.677
L242.31 270.677
L242.31 266.115
L243.367 266.115
L243.403 256.99
L244.585 256.99
L244.585 252.428
L245.282 252.428
L245.282 247.865
L246.129 247.865
L246.129 243.303
L246.751 243.303
L246.751 238.741
L247.639 238.741
L247.639 234.178
L248.248 234.178
L248.248 229.616
L249.277 229.616
L249.277 225.053
L251.896 225.053
L251.896 220.491
L252.025 220.491
L252.025 215.929
L252.416 215.929
L252.416 211.366
L253.316 211.366
L253.316 206.804
L253.474 206.804
L253.474 202.242
L253.668 202.242
L253.668 197.679
L254.124 197.679
L254.124 193.117
L254.5 193.117
L254.585 183.992
L255.818 183.992
L255.818 179.43
L256.155 179.43
L256.155 174.867
L256.957 174.867
L256.957 170.305
L257.652 170.305
L257.652 165.743
L258.306 165.743
L258.306 161.18
L258.594 161.18
L258.594 156.618
L258.955 156.618
L258.955 152.055
L259.401 152.055
L259.401 147.493
L260.036 147.493
L260.036 142.931
L260.993 142.931
L260.993 138.368
L261.867 138.368
L261.867 133.806
L262.405 133.806
L262.405 129.244
L262.759 129.244
L262.766 120.119
L264.264 120.119
L264.264 115.556
L264.442 115.556
L264.535 101.869
L264.562 101.869
L264.562 97.3069
L264.683 97.3069
L264.689 88.1822
L264.813 88.1822
L264.813 83.6198
L265.551 83.6198
L265.551 79.0574
L265.72 79.0574
L265.72 74.495
L266.196 74.495
L266.196 69.9327
L266.829 69.9327
L266.935 60.8079
L267.681 60.8079
L267.681 56.2455
L272.421 56.2455
L272.421 51.6832
L274.287 51.6832
L274.287 47.1208
L283.262 47.1208
L283.262 42.5584
L286.884 42.5584
L286.884 37.996
L294.115 37.996
L294.115 33.4337
L297.98 33.4337
L297.98 28.8713
L301.947 28.8713
L301.947 24.3089
L304.901 24.3089
L304.901 19.7465
L307.686 19.7465
L307.686 15.1842
L314.547 15.1842
L314.547 10.6218
L314.547 10.6218
L453.6 10.6218
L453.6 10.6218" style="fill:none;stroke:#000000;stroke-linecap:square;"/>
   </g>
   <g id="line2d_5">
    <path clip-path="url(#p99b4b0da67)" d="
M209.75 352.8
L209.75 348.238
L222.579 348.238
L222.588 339.113
L225.942 339.113
L225.942 334.55
L227.845 334.55
L227.845 329.988
L228.662 329.988
L228.662 325.426
L229.67 325.426
L229.67 320.863
L230.035 320.863
L230.035 316.301
L231.051 316.301
L231.099 307.176
L231.216 307.176
L231.216 302.614
L231.445 302.614
L231.445 298.051
L231.637 298.051
L231.637 293.489
L231.879 293.489
L231.879 288.927
L232.335 288.927
L232.335 284.364
L233.546 284.364
L233.546 279.802
L233.959 279.802
L233.959 275.24
L234.149 275.24
L234.149 270.677
L234.542 270.677
L234.595 261.552
L235.691 261.552
L235.691 256.99
L236.011 256.99
L236.011 252.428
L236.126 252.428
L236.126 247.865
L236.268 247.865
L236.268 243.303
L237.127 243.303
L237.127 238.741
L237.345 238.741
L237.345 234.178
L237.678 234.178
L237.678 229.616
L238.436 229.616
L238.436 225.053
L239.407 225.053
L239.407 220.491
L240.69 220.491
L240.69 215.929
L242.183 215.929
L242.189 206.804
L243.299 206.804
L243.387 193.117
L243.587 193.117
L243.587 188.554
L244.524 188.554
L244.524 183.992
L245.522 183.992
L245.522 179.43
L246.129 179.43
L246.23 170.305
L246.751 170.305
L246.751 165.743
L247.204 165.743
L247.204 161.18
L247.639 161.18
L247.642 152.055
L248.248 152.055
L248.248 147.493
L248.471 147.493
L248.471 142.931
L249.274 142.931
L249.274 138.368
L250.53 138.368
L250.53 133.806
L251.765 133.806
L251.866 124.681
L251.939 124.681
L251.939 120.119
L252.568 120.119
L252.568 115.556
L252.889 115.556
L252.889 110.994
L253.921 110.994
L253.921 106.432
L254.384 106.432
L254.384 101.869
L254.922 101.869
L254.943 92.7446
L256.257 92.7446
L256.257 88.1822
L256.645 88.1822
L256.645 83.6198
L256.813 83.6198
L256.813 79.0574
L257.767 79.0574
L257.818 69.9327
L257.937 69.9327
L257.937 65.3703
L258.197 65.3703
L258.197 60.8079
L258.955 60.8079
L258.955 56.2455
L259.874 56.2455
L259.874 51.6832
L261.014 51.6832
L261.014 47.1208
L261.273 47.1208
L261.273 42.5584
L261.525 42.5584
L261.561 33.4337
L261.852 33.4337
L261.96 24.3089
L264.198 24.3089
L264.198 19.7465
L265.298 19.7465
L265.298 15.1842
L270.742 15.1842
L270.742 10.6218
L270.742 10.6218
L453.6 10.6218
L453.6 10.6218" style="fill:none;stroke:#00bfbf;stroke-linecap:square;"/>
   </g>
   <g id="line2d_6">
    <path clip-path="url(#p99b4b0da67)" d="
M52.9734 352.8
L52.9734 348.238
L67.4763 348.238
L67.4763 343.675
L82.2977 343.675
L82.2977 339.113
L167.776 339.113
L167.776 334.55
L169.054 334.55
L169.054 329.988
L213.009 329.988
L213.03 320.863
L213.23 320.863
L213.23 316.301
L213.532 316.301
L213.532 311.739
L216.383 311.739
L216.383 307.176
L219.15 307.176
L219.15 302.614
L219.714 302.614
L219.716 288.927
L220.912 288.927
L220.912 284.364
L221.221 284.364
L221.222 275.24
L221.533 275.24
L221.533 270.677
L221.694 270.677
L221.694 266.115
L222.588 266.115
L222.588 261.552
L223.526 261.552
L223.526 256.99
L223.77 256.99
L223.77 252.428
L224.485 252.428
L224.485 247.865
L224.708 247.865
L224.757 238.741
L225.073 238.741
L225.073 234.178
L225.214 234.178
L225.319 225.053
L225.379 225.053
L225.489 215.929
L225.653 215.929
L225.653 211.366
L225.788 211.366
L225.788 206.804
L226.126 206.804
L226.172 197.679
L226.276 197.679
L226.276 193.117
L226.77 193.117
L226.788 183.992
L226.923 183.992
L226.923 179.43
L227.134 179.43
L227.239 170.305
L228.07 170.305
L228.136 161.18
L228.219 161.18
L228.219 156.618
L228.662 156.618
L228.662 152.055
L229.14 152.055
L229.14 147.493
L229.734 147.493
L229.734 142.931
L231.944 142.931
L231.944 138.368
L232.916 138.368
L232.916 133.806
L237.227 133.806
L237.227 129.244
L238.117 129.244
L238.117 124.681
L238.837 124.681
L238.837 120.119
L239.426 120.119
L239.426 115.556
L239.842 115.556
L239.915 106.432
L241.943 106.432
L241.944 97.3069
L243.43 97.3069
L243.43 92.7446
L244.693 92.7446
L244.693 83.6198
L246.103 83.6198
L246.103 79.0574
L247.483 79.0574
L247.483 74.495
L247.781 74.495
L247.781 69.9327
L249.684 69.9327
L249.731 60.8079
L250.153 60.8079
L250.153 56.2455
L250.313 56.2455
L250.313 51.6832
L251.416 51.6832
L251.416 47.1208
L251.956 47.1208
L251.972 37.996
L252.247 37.996
L252.284 28.8713
L252.376 28.8713
L252.471 15.1842
L252.662 15.1842
L252.662 10.6218
L252.662 10.6218
L453.6 10.6218
L453.6 10.6218" style="fill:none;stroke:#bf00bf;stroke-linecap:square;"/>
   </g>
   <g id="line2d_7">
    <path clip-path="url(#p99b4b0da67)" d="
M-1 339.113
L-0.168363 339.113
L-0.168363 334.55
L1.59107 334.55
L1.59107 329.988
L6.05333 329.988
L6.05333 325.426
L7.29697 325.426
L7.29697 320.863
L54.1365 320.863
L54.1365 316.301
L76.9964 316.301
L76.9964 311.739
L82.3461 311.739
L82.3461 307.176
L97.3003 307.176
L97.3003 302.614
L109.31 302.614
L109.31 298.051
L114.341 298.051
L114.341 293.489
L120.038 293.489
L120.038 288.927
L123.267 288.927
L123.267 284.364
L177.659 284.364
L177.659 279.802
L190.843 279.802
L190.843 275.24
L195.964 275.24
L195.964 270.677
L200.431 270.677
L200.431 266.115
L206.355 266.115
L206.355 261.552
L208.633 261.552
L208.633 256.99
L209.54 256.99
L209.54 252.428
L210.686 252.428
L210.686 247.865
L211.044 247.865
L211.044 243.303
L212.472 243.303
L212.472 238.741
L213.008 238.741
L213.008 225.053
L213.532 225.053
L213.532 220.491
L213.864 220.491
L213.864 215.929
L214.432 215.929
L214.432 211.366
L214.623 211.366
L214.623 206.804
L216.383 206.804
L216.383 202.242
L217.092 202.242
L217.092 197.679
L217.549 197.679
L217.549 193.117
L218.765 193.117
L218.824 183.992
L219.141 183.992
L219.141 179.43
L219.398 179.43
L219.398 174.867
L219.715 174.867
L219.715 170.305
L219.877 170.305
L219.877 165.743
L220.228 165.743
L220.228 161.18
L220.711 161.18
L220.711 156.618
L220.9 156.618
L220.9 152.055
L221.221 152.055
L221.221 142.931
L221.533 142.931
L221.533 138.368
L221.954 138.368
L221.954 133.806
L222.492 133.806
L222.492 129.244
L222.705 129.244
L222.705 124.681
L223.51 124.681
L223.51 120.119
L224.394 120.119
L224.394 115.556
L224.516 115.556
L224.516 110.994
L224.859 110.994
L224.912 101.869
L225.047 101.869
L225.047 97.3069
L225.63 97.3069
L225.63 92.7446
L226.643 92.7446
L226.643 88.1822
L228.159 88.1822
L228.159 83.6198
L228.367 83.6198
L228.367 79.0574
L235.566 79.0574
L235.566 74.495
L235.712 74.495
L235.712 69.9327
L236.597 69.9327
L236.597 65.3703
L237.349 65.3703
L237.349 60.8079
L239.71 60.8079
L239.71 56.2455
L242.471 56.2455
L242.471 51.6832
L242.591 51.6832
L242.591 47.1208
L242.812 47.1208
L242.812 42.5584
L243.375 42.5584
L243.4 33.4337
L244.922 33.4337
L244.922 28.8713
L246.926 28.8713
L246.926 24.3089
L247.937 24.3089
L248 10.6218
L248 10.6218
L453.6 10.6218
L453.6 10.6218" style="fill:none;stroke:#000000;stroke-linecap:square;"/>
   </g>
   <g id="line2d_8">
    <path clip-path="url(#p99b4b0da67)" d="
M-1 279.802
L-0.168363 279.802
L-0.168363 275.24
L1.59107 275.24
L1.59107 270.677
L3.20162 270.677
L3.20162 266.115
L4.16326 266.115
L4.16326 261.552
L5.07157 261.552
L5.07157 256.99
L5.32951 256.99
L5.32951 252.428
L6.05333 252.428
L6.13606 243.303
L7.04031 243.303
L7.04031 238.741
L22.296 238.741
L22.296 234.178
L31.4552 234.178
L31.4552 229.616
L154.488 229.616
L154.488 225.053
L176.661 225.053
L176.661 220.491
L189.5 220.491
L189.5 215.929
L195.964 215.929
L195.964 211.366
L200.431 211.366
L200.431 206.804
L200.782 206.804
L200.784 193.117
L202.671 193.117
L202.671 188.554
L205.657 188.554
L205.657 183.992
L206.355 183.992
L206.355 179.43
L208.633 179.43
L208.633 174.867
L209.284 174.867
L209.284 170.305
L209.54 170.305
L209.54 165.743
L210.686 165.743
L210.686 161.18
L210.974 161.18
L210.974 156.618
L211.282 156.618
L211.282 152.055
L211.79 152.055
L211.79 147.493
L212.472 147.493
L212.472 142.931
L213.008 142.931
L213.008 133.806
L214.377 133.806
L214.42 124.681
L214.524 124.681
L214.623 115.556
L215.68 115.556
L215.68 110.994
L216.623 110.994
L216.623 106.432
L217.092 106.432
L217.092 101.869
L217.255 101.869
L217.255 97.3069
L217.578 97.3069
L217.578 92.7446
L219.713 92.7446
L219.713 88.1822
L222.305 88.1822
L222.305 83.6198
L226.667 83.6198
L226.667 79.0574
L228.159 79.0574
L228.159 74.495
L228.578 74.495
L228.578 69.9327
L235.566 69.9327
L235.566 65.3703
L237.245 65.3703
L237.349 56.2455
L238.006 56.2455
L238.006 51.6832
L238.501 51.6832
L238.501 47.1208
L238.95 47.1208
L239.019 37.996
L239.71 37.996
L239.738 28.8713
L239.909 28.8713
L239.909 24.3089
L240.227 24.3089
L240.227 19.7465
L240.533 19.7465
L240.533 15.1842
L240.952 15.1842
L240.952 10.6218
L240.952 10.6218
L453.6 10.6218
L453.6 10.6218" style="fill:none;stroke:#00bfbf;stroke-linecap:square;"/>
   </g>
   <g id="line2d_9">
    <path clip-path="url(#p99b4b0da67)" d="
M-1 243.303
L-0.168363 243.303
L-0.168363 238.741
L1.59107 238.741
L1.59107 234.178
L1.89773 234.178
L1.89773 229.616
L2.06894 229.616
L2.08081 220.491
L3.06836 220.491
L3.06836 215.929
L3.20162 215.929
L3.20162 211.366
L4.16326 211.366
L4.16326 206.804
L5.07157 206.804
L5.07157 202.242
L5.32951 202.242
L5.32951 197.679
L6.05333 197.679
L6.13606 188.554
L7.04031 188.554
L7.06639 179.43
L180.919 179.43
L180.919 174.867
L183.667 174.867
L183.667 170.305
L189.255 170.305
L189.255 165.743
L189.5 165.743
L189.5 161.18
L191.389 161.18
L191.389 156.618
L195.964 156.618
L195.964 152.055
L199.104 152.055
L199.104 147.493
L200.431 147.493
L200.431 142.931
L205.167 142.931
L205.167 138.368
L206.355 138.368
L206.355 133.806
L207.369 133.806
L207.369 129.244
L207.482 129.244
L207.482 124.681
L207.649 124.681
L207.649 120.119
L208.246 120.119
L208.246 115.556
L208.845 115.556
L208.845 110.994
L209.54 110.994
L209.54 106.432
L210.025 106.432
L210.025 101.869
L210.818 101.869
L210.818 97.3069
L210.974 97.3069
L210.974 92.7446
L211.371 92.7446
L211.371 88.1822
L212.472 88.1822
L212.472 83.6198
L213.524 83.6198
L213.524 79.0574
L215.28 79.0574
L215.28 74.495
L228.159 74.495
L228.159 69.9327
L235.566 69.9327
L235.566 65.3703
L236.592 65.3703
L236.592 60.8079
L236.802 60.8079
L236.912 47.1208
L237.084 47.1208
L237.09 37.996
L237.245 37.996
L237.349 24.3089
L237.389 24.3089
L237.389 19.7465
L237.646 19.7465
L237.646 15.1842
L237.789 15.1842
L237.789 10.6218
L237.789 10.6218
L453.6 10.6218
L453.6 10.6218" style="fill:none;stroke:#bf00bf;stroke-linecap:square;"/>
   </g>
   <g id="patch_3">
    <path d="
M7.2 7.2
L453.6 7.2" style="fill:none;stroke:#000000;stroke-linecap:square;stroke-linejoin:miter;"/>
   </g>
   <g id="patch_4">
    <path d="
M453.6 352.8
L453.6 7.2" style="fill:none;stroke:#000000;stroke-linecap:square;stroke-linejoin:miter;"/>
   </g>
   <g id="patch_5">
    <path d="
M7.2 352.8
L453.6 352.8" style="fill:none;stroke:#000000;stroke-linecap:square;stroke-linejoin:miter;"/>
   </g>
   <g id="patch_6">
    <path d="
M7.2 352.8
L7.2 7.2" style="fill:none;stroke:#000000;stroke-linecap:square;stroke-linejoin:miter;"/>
   </g>
   <g id="matplotlib.axis_1">
    <g id="xtick_1"/>
    <g id="xtick_2">
     <g id="line2d_10">
      <path clip-path="url(#p99b4b0da67)" d="
M59.6175 352.8
L59.6175 7.2" style="fill:none;stroke:#000000;stroke-dasharray:1.000000,3.000000;stroke-dashoffset:0.0;stroke-width:0.5;"/>
     </g>
     <g id="line2d_11">
      <defs>
       <path d="
M0 0
L0 -4" id="m93b0483c22" style="stroke:#000000;stroke-width:0.5;"/>
      </defs>
      <g>
       <use style="stroke:#000000;stroke-width:0.5;" x="59.6174973142" xlink:href="#m93b0483c22" y="352.8"/>
      </g>
     </g>
     <g id="line2d_12">
      <defs>
       <path d="
M0 0
L0 4" id="m741efc42ff" style="stroke:#000000;stroke-width:0.5;"/>
      </defs>
      <g>
       <use style="stroke:#000000;stroke-width:0.5;" x="59.6174973142" xlink:href="#m741efc42ff" y="7.2"/>
      </g>
     </g>
     <g id="text_1">
      <!-- -6 -->
      <defs>
       <path d="
M33.0156 40.375
Q26.375 40.375 22.4844 35.8281
Q18.6094 31.2969 18.6094 23.3906
Q18.6094 15.5312 22.4844 10.9531
Q26.375 6.39062 33.0156 6.39062
Q39.6562 6.39062 43.5312 10.9531
Q47.4062 15.5312 47.4062 23.3906
Q47.4062 31.2969 43.5312 35.8281
Q39.6562 40.375 33.0156 40.375
M52.5938 71.2969
L52.5938 62.3125
Q48.875 64.0625 45.0938 64.9844
Q41.3125 65.9219 37.5938 65.9219
Q27.8281 65.9219 22.6719 59.3281
Q17.5312 52.7344 16.7969 39.4062
Q19.6719 43.6562 24.0156 45.9219
Q28.375 48.1875 33.5938 48.1875
Q44.5781 48.1875 50.9531 41.5156
Q57.3281 34.8594 57.3281 23.3906
Q57.3281 12.1562 50.6875 5.35938
Q44.0469 -1.42188 33.0156 -1.42188
Q20.3594 -1.42188 13.6719 8.26562
Q6.98438 17.9688 6.98438 36.375
Q6.98438 53.6562 15.1875 63.9375
Q23.3906 74.2188 37.2031 74.2188
Q40.9219 74.2188 44.7031 73.4844
Q48.4844 72.75 52.5938 71.2969" id="BitstreamVeraSans-Roman-36"/>
       <path d="
M4.89062 31.3906
L31.2031 31.3906
L31.2031 23.3906
L4.89062 23.3906
z
" id="BitstreamVeraSans-Roman-2d"/>
      </defs>
      <g transform="translate(50.7659348142 371.996875)scale(0.2 -0.2)">
       <use xlink:href="#BitstreamVeraSans-Roman-2d"/>
       <use x="36.083984375" xlink:href="#BitstreamVeraSans-Roman-36"/>
      </g>
     </g>
    </g>
    <g id="xtick_3">
     <g id="line2d_13">
      <path clip-path="url(#p99b4b0da67)" d="
M112.148 352.8
L112.148 7.2" style="fill:none;stroke:#000000;stroke-dasharray:1.000000,3.000000;stroke-dashoffset:0.0;stroke-width:0.5;"/>
     </g>
     <g id="line2d_14">
      <g>
       <use style="stroke:#000000;stroke-width:0.5;" x="112.148497672" xlink:href="#m93b0483c22" y="352.8"/>
      </g>
     </g>
     <g id="line2d_15">
      <g>
       <use style="stroke:#000000;stroke-width:0.5;" x="112.148497672" xlink:href="#m741efc42ff" y="7.2"/>
      </g>
     </g>
     <g id="text_2">
      <!-- -4 -->
      <defs>
       <path d="
M37.7969 64.3125
L12.8906 25.3906
L37.7969 25.3906
z

M35.2031 72.9062
L47.6094 72.9062
L47.6094 25.3906
L58.0156 25.3906
L58.0156 17.1875
L47.6094 17.1875
L47.6094 0
L37.7969 0
L37.7969 17.1875
L4.89062 17.1875
L4.89062 26.7031
z
" id="BitstreamVeraSans-Roman-34"/>
      </defs>
      <g transform="translate(103.228185172 371.996875)scale(0.2 -0.2)">
       <use xlink:href="#BitstreamVeraSans-Roman-2d"/>
       <use x="36.083984375" xlink:href="#BitstreamVeraSans-Roman-34"/>
      </g>
     </g>
    </g>
    <g id="xtick_4">
     <g id="line2d_16">
      <path clip-path="url(#p99b4b0da67)" d="
M164.679 352.8
L164.679 7.2" style="fill:none;stroke:#000000;stroke-dasharray:1.000000,3.000000;stroke-dashoffset:0.0;stroke-width:0.5;"/>
     </g>
     <g id="line2d_17">
      <g>
       <use style="stroke:#000000;stroke-width:0.5;" x="164.67949803" xlink:href="#m93b0483c22" y="352.8"/>
      </g>
     </g>
     <g id="line2d_18">
      <g>
       <use style="stroke:#000000;stroke-width:0.5;" x="164.67949803" xlink:href="#m741efc42ff" y="7.2"/>
      </g>
     </g>
     <g id="text_3">
      <!-- -2 -->
      <defs>
       <path d="
M19.1875 8.29688
L53.6094 8.29688
L53.6094 0
L7.32812 0
L7.32812 8.29688
Q12.9375 14.1094 22.625 23.8906
Q32.3281 33.6875 34.8125 36.5312
Q39.5469 41.8438 41.4219 45.5312
Q43.3125 49.2188 43.3125 52.7812
Q43.3125 58.5938 39.2344 62.25
Q35.1562 65.9219 28.6094 65.9219
Q23.9688 65.9219 18.8125 64.3125
Q13.6719 62.7031 7.8125 59.4219
L7.8125 69.3906
Q13.7656 71.7812 18.9375 73
Q24.125 74.2188 28.4219 74.2188
Q39.75 74.2188 46.4844 68.5469
Q53.2188 62.8906 53.2188 53.4219
Q53.2188 48.9219 51.5312 44.8906
Q49.8594 40.875 45.4062 35.4062
Q44.1875 33.9844 37.6406 27.2188
Q31.1094 20.4531 19.1875 8.29688" id="BitstreamVeraSans-Roman-32"/>
      </defs>
      <g transform="translate(156.19981053 371.996875)scale(0.2 -0.2)">
       <use xlink:href="#BitstreamVeraSans-Roman-2d"/>
       <use x="36.083984375" xlink:href="#BitstreamVeraSans-Roman-32"/>
      </g>
     </g>
    </g>
    <g id="xtick_5">
     <g id="line2d_19">
      <path clip-path="url(#p99b4b0da67)" d="
M217.21 352.8
L217.21 7.2" style="fill:none;stroke:#000000;stroke-dasharray:1.000000,3.000000;stroke-dashoffset:0.0;stroke-width:0.5;"/>
     </g>
     <g id="line2d_20">
      <g>
       <use style="stroke:#000000;stroke-width:0.5;" x="217.210498389" xlink:href="#m93b0483c22" y="352.8"/>
      </g>
     </g>
     <g id="line2d_21">
      <g>
       <use style="stroke:#000000;stroke-width:0.5;" x="217.210498389" xlink:href="#m741efc42ff" y="7.2"/>
      </g>
     </g>
     <g id="text_4">
      <!-- 0 -->
      <defs>
       <path d="
M31.7812 66.4062
Q24.1719 66.4062 20.3281 58.9062
Q16.5 51.4219 16.5 36.375
Q16.5 21.3906 20.3281 13.8906
Q24.1719 6.39062 31.7812 6.39062
Q39.4531 6.39062 43.2812 13.8906
Q47.125 21.3906 47.125 36.375
Q47.125 51.4219 43.2812 58.9062
Q39.4531 66.4062 31.7812 66.4062
M31.7812 74.2188
Q44.0469 74.2188 50.5156 64.5156
Q56.9844 54.8281 56.9844 36.375
Q56.9844 17.9688 50.5156 8.26562
Q44.0469 -1.42188 31.7812 -1.42188
Q19.5312 -1.42188 13.0625 8.26562
Q6.59375 17.9688 6.59375 36.375
Q6.59375 54.8281 13.0625 64.5156
Q19.5312 74.2188 31.7812 74.2188" id="BitstreamVeraSans-Roman-30"/>
      </defs>
      <g transform="translate(212.171435889 371.996875)scale(0.2 -0.2)">
       <use xlink:href="#BitstreamVeraSans-Roman-30"/>
      </g>
     </g>
    </g>
    <g id="xtick_6">
     <g id="line2d_22">
      <path clip-path="url(#p99b4b0da67)" d="
M269.741 352.8
L269.741 7.2" style="fill:none;stroke:#000000;stroke-dasharray:1.000000,3.000000;stroke-dashoffset:0.0;stroke-width:0.5;"/>
     </g>
     <g id="line2d_23">
      <g>
       <use style="stroke:#000000;stroke-width:0.5;" x="269.741498747" xlink:href="#m93b0483c22" y="352.8"/>
      </g>
     </g>
     <g id="line2d_24">
      <g>
       <use style="stroke:#000000;stroke-width:0.5;" x="269.741498747" xlink:href="#m741efc42ff" y="7.2"/>
      </g>
     </g>
     <g id="text_5">
      <!-- 2 -->
      <g transform="translate(265.113373747 371.996875)scale(0.2 -0.2)">
       <use xlink:href="#BitstreamVeraSans-Roman-32"/>
      </g>
     </g>
    </g>
    <g id="xtick_7">
     <g id="line2d_25">
      <path clip-path="url(#p99b4b0da67)" d="
M322.272 352.8
L322.272 7.2" style="fill:none;stroke:#000000;stroke-dasharray:1.000000,3.000000;stroke-dashoffset:0.0;stroke-width:0.5;"/>
     </g>
     <g id="line2d_26">
      <g>
       <use style="stroke:#000000;stroke-width:0.5;" x="322.272499105" xlink:href="#m93b0483c22" y="352.8"/>
      </g>
     </g>
     <g id="line2d_27">
      <g>
       <use style="stroke:#000000;stroke-width:0.5;" x="322.272499105" xlink:href="#m741efc42ff" y="7.2"/>
      </g>
     </g>
     <g id="text_6">
      <!-- 4 -->
      <g transform="translate(316.959999105 371.996875)scale(0.2 -0.2)">
       <use xlink:href="#BitstreamVeraSans-Roman-34"/>
      </g>
     </g>
    </g>
    <g id="xtick_8">
     <g id="line2d_28">
      <path clip-path="url(#p99b4b0da67)" d="
M374.803 352.8
L374.803 7.2" style="fill:none;stroke:#000000;stroke-dasharray:1.000000,3.000000;stroke-dashoffset:0.0;stroke-width:0.5;"/>
     </g>
     <g id="line2d_29">
      <g>
       <use style="stroke:#000000;stroke-width:0.5;" x="374.803499463" xlink:href="#m93b0483c22" y="352.8"/>
      </g>
     </g>
     <g id="line2d_30">
      <g>
       <use style="stroke:#000000;stroke-width:0.5;" x="374.803499463" xlink:href="#m741efc42ff" y="7.2"/>
      </g>
     </g>
     <g id="text_7">
      <!-- 6 -->
      <g transform="translate(369.769124463 371.996875)scale(0.2 -0.2)">
       <use xlink:href="#BitstreamVeraSans-Roman-36"/>
      </g>
     </g>
    </g>
    <g id="xtick_9">
     <g id="line2d_31">
      <path clip-path="url(#p99b4b0da67)" d="
M427.334 352.8
L427.334 7.2" style="fill:none;stroke:#000000;stroke-dasharray:1.000000,3.000000;stroke-dashoffset:0.0;stroke-width:0.5;"/>
     </g>
     <g id="line2d_32">
      <g>
       <use style="stroke:#000000;stroke-width:0.5;" x="427.334499821" xlink:href="#m93b0483c22" y="352.8"/>
      </g>
     </g>
     <g id="line2d_33">
      <g>
       <use style="stroke:#000000;stroke-width:0.5;" x="427.334499821" xlink:href="#m741efc42ff" y="7.2"/>
      </g>
     </g>
     <g id="text_8">
      <!-- 8 -->
      <defs>
       <path d="
M31.7812 34.625
Q24.75 34.625 20.7188 30.8594
Q16.7031 27.0938 16.7031 20.5156
Q16.7031 13.9219 20.7188 10.1562
Q24.75 6.39062 31.7812 6.39062
Q38.8125 6.39062 42.8594 10.1719
Q46.9219 13.9688 46.9219 20.5156
Q46.9219 27.0938 42.8906 30.8594
Q38.875 34.625 31.7812 34.625
M21.9219 38.8125
Q15.5781 40.375 12.0312 44.7188
Q8.5 49.0781 8.5 55.3281
Q8.5 64.0625 14.7188 69.1406
Q20.9531 74.2188 31.7812 74.2188
Q42.6719 74.2188 48.875 69.1406
Q55.0781 64.0625 55.0781 55.3281
Q55.0781 49.0781 51.5312 44.7188
Q48 40.375 41.7031 38.8125
Q48.8281 37.1562 52.7969 32.3125
Q56.7812 27.4844 56.7812 20.5156
Q56.7812 9.90625 50.3125 4.23438
Q43.8438 -1.42188 31.7812 -1.42188
Q19.7344 -1.42188 13.25 4.23438
Q6.78125 9.90625 6.78125 20.5156
Q6.78125 27.4844 10.7812 32.3125
Q14.7969 37.1562 21.9219 38.8125
M18.3125 54.3906
Q18.3125 48.7344 21.8438 45.5625
Q25.3906 42.3906 31.7812 42.3906
Q38.1406 42.3906 41.7188 45.5625
Q45.3125 48.7344 45.3125 54.3906
Q45.3125 60.0625 41.7188 63.2344
Q38.1406 66.4062 31.7812 66.4062
Q25.3906 66.4062 21.8438 63.2344
Q18.3125 60.0625 18.3125 54.3906" id="BitstreamVeraSans-Roman-38"/>
      </defs>
      <g transform="translate(422.334499821 371.996875)scale(0.2 -0.2)">
       <use xlink:href="#BitstreamVeraSans-Roman-38"/>
      </g>
     </g>
    </g>
    <g id="xtick_10"/>
    <g id="xtick_11">
     <g id="line2d_34">
      <defs>
       <path d="
M0 0
L0 -2" id="m177f7580d0" style="stroke:#000000;stroke-width:0.5;"/>
      </defs>
      <g>
       <use style="stroke:#000000;stroke-width:0.5;" x="59.6174973142" xlink:href="#m177f7580d0" y="352.8"/>
      </g>
     </g>
     <g id="line2d_35">
      <defs>
       <path d="
M0 0
L0 2" id="m5284c7e2a0" style="stroke:#000000;stroke-width:0.5;"/>
      </defs>
      <g>
       <use style="stroke:#000000;stroke-width:0.5;" x="59.6174973142" xlink:href="#m5284c7e2a0" y="7.2"/>
      </g>
     </g>
    </g>
    <g id="xtick_12">
     <g id="line2d_36">
      <g>
       <use style="stroke:#000000;stroke-width:0.5;" x="112.148497672" xlink:href="#m177f7580d0" y="352.8"/>
      </g>
     </g>
     <g id="line2d_37">
      <g>
       <use style="stroke:#000000;stroke-width:0.5;" x="112.148497672" xlink:href="#m5284c7e2a0" y="7.2"/>
      </g>
     </g>
    </g>
    <g id="xtick_13">
     <g id="line2d_38">
      <g>
       <use style="stroke:#000000;stroke-width:0.5;" x="164.67949803" xlink:href="#m177f7580d0" y="352.8"/>
      </g>
     </g>
     <g id="line2d_39">
      <g>
       <use style="stroke:#000000;stroke-width:0.5;" x="164.67949803" xlink:href="#m5284c7e2a0" y="7.2"/>
      </g>
     </g>
    </g>
    <g id="xtick_14">
     <g id="line2d_40">
      <g>
       <use style="stroke:#000000;stroke-width:0.5;" x="217.210498389" xlink:href="#m177f7580d0" y="352.8"/>
      </g>
     </g>
     <g id="line2d_41">
      <g>
       <use style="stroke:#000000;stroke-width:0.5;" x="217.210498389" xlink:href="#m5284c7e2a0" y="7.2"/>
      </g>
     </g>
    </g>
    <g id="xtick_15">
     <g id="line2d_42">
      <g>
       <use style="stroke:#000000;stroke-width:0.5;" x="269.741498747" xlink:href="#m177f7580d0" y="352.8"/>
      </g>
     </g>
     <g id="line2d_43">
      <g>
       <use style="stroke:#000000;stroke-width:0.5;" x="269.741498747" xlink:href="#m5284c7e2a0" y="7.2"/>
      </g>
     </g>
    </g>
    <g id="xtick_16">
     <g id="line2d_44">
      <g>
       <use style="stroke:#000000;stroke-width:0.5;" x="322.272499105" xlink:href="#m177f7580d0" y="352.8"/>
      </g>
     </g>
     <g id="line2d_45">
      <g>
       <use style="stroke:#000000;stroke-width:0.5;" x="322.272499105" xlink:href="#m5284c7e2a0" y="7.2"/>
      </g>
     </g>
    </g>
    <g id="xtick_17">
     <g id="line2d_46">
      <g>
       <use style="stroke:#000000;stroke-width:0.5;" x="374.803499463" xlink:href="#m177f7580d0" y="352.8"/>
      </g>
     </g>
     <g id="line2d_47">
      <g>
       <use style="stroke:#000000;stroke-width:0.5;" x="374.803499463" xlink:href="#m5284c7e2a0" y="7.2"/>
      </g>
     </g>
    </g>
    <g id="xtick_18">
     <g id="line2d_48">
      <g>
       <use style="stroke:#000000;stroke-width:0.5;" x="427.334499821" xlink:href="#m177f7580d0" y="352.8"/>
      </g>
     </g>
     <g id="line2d_49">
      <g>
       <use style="stroke:#000000;stroke-width:0.5;" x="427.334499821" xlink:href="#m5284c7e2a0" y="7.2"/>
      </g>
     </g>
    </g>
    <g id="text_9">
     <!-- log10 of Df -->
     <defs>
      <path id="BitstreamVeraSans-Roman-20"/>
      <path d="
M12.4062 8.29688
L28.5156 8.29688
L28.5156 63.9219
L10.9844 60.4062
L10.9844 69.3906
L28.4219 72.9062
L38.2812 72.9062
L38.2812 8.29688
L54.3906 8.29688
L54.3906 0
L12.4062 0
z
" id="BitstreamVeraSans-Roman-31"/>
      <path d="
M30.6094 48.3906
Q23.3906 48.3906 19.1875 42.75
Q14.9844 37.1094 14.9844 27.2969
Q14.9844 17.4844 19.1562 11.8438
Q23.3438 6.20312 30.6094 6.20312
Q37.7969 6.20312 41.9844 11.8594
Q46.1875 17.5312 46.1875 27.2969
Q46.1875 37.0156 41.9844 42.7031
Q37.7969 48.3906 30.6094 48.3906
M30.6094 56
Q42.3281 56 49.0156 48.375
Q55.7188 40.7656 55.7188 27.2969
Q55.7188 13.875 49.0156 6.21875
Q42.3281 -1.42188 30.6094 -1.42188
Q18.8438 -1.42188 12.1719 6.21875
Q5.51562 13.875 5.51562 27.2969
Q5.51562 40.7656 12.1719 48.375
Q18.8438 56 30.6094 56" id="BitstreamVeraSans-Roman-6f"/>
      <path d="
M9.42188 75.9844
L18.4062 75.9844
L18.4062 0
L9.42188 0
z
" id="BitstreamVeraSans-Roman-6c"/>
      <path d="
M19.6719 64.7969
L19.6719 8.10938
L31.5938 8.10938
Q46.6875 8.10938 53.6875 14.9375
Q60.6875 21.7812 60.6875 36.5312
Q60.6875 51.1719 53.6875 57.9844
Q46.6875 64.7969 31.5938 64.7969
z

M9.8125 72.9062
L30.0781 72.9062
Q51.2656 72.9062 61.1719 64.0938
Q71.0938 55.2812 71.0938 36.5312
Q71.0938 17.6719 61.125 8.82812
Q51.1719 0 30.0781 0
L9.8125 0
z
" id="BitstreamVeraSans-Roman-44"/>
      <path d="
M45.4062 27.9844
Q45.4062 37.75 41.375 43.1094
Q37.3594 48.4844 30.0781 48.4844
Q22.8594 48.4844 18.8281 43.1094
Q14.7969 37.75 14.7969 27.9844
Q14.7969 18.2656 18.8281 12.8906
Q22.8594 7.51562 30.0781 7.51562
Q37.3594 7.51562 41.375 12.8906
Q45.4062 18.2656 45.4062 27.9844
M54.3906 6.78125
Q54.3906 -7.17188 48.1875 -13.9844
Q42 -20.7969 29.2031 -20.7969
Q24.4688 -20.7969 20.2656 -20.0938
Q16.0625 -19.3906 12.1094 -17.9219
L12.1094 -9.1875
Q16.0625 -11.3281 19.9219 -12.3438
Q23.7812 -13.375 27.7812 -13.375
Q36.625 -13.375 41.0156 -8.76562
Q45.4062 -4.15625 45.4062 5.17188
L45.4062 9.625
Q42.625 4.78125 38.2812 2.39062
Q33.9375 0 27.875 0
Q17.8281 0 11.6719 7.65625
Q5.51562 15.3281 5.51562 27.9844
Q5.51562 40.6719 11.6719 48.3281
Q17.8281 56 27.875 56
Q33.9375 56 38.2812 53.6094
Q42.625 51.2188 45.4062 46.3906
L45.4062 54.6875
L54.3906 54.6875
z
" id="BitstreamVeraSans-Roman-67"/>
      <path d="
M37.1094 75.9844
L37.1094 68.5
L28.5156 68.5
Q23.6875 68.5 21.7969 66.5469
Q19.9219 64.5938 19.9219 59.5156
L19.9219 54.6875
L34.7188 54.6875
L34.7188 47.7031
L19.9219 47.7031
L19.9219 0
L10.8906 0
L10.8906 47.7031
L2.29688 47.7031
L2.29688 54.6875
L10.8906 54.6875
L10.8906 58.5
Q10.8906 67.625 15.1406 71.7969
Q19.3906 75.9844 28.6094 75.9844
z
" id="BitstreamVeraSans-Roman-66"/>
     </defs>
     <g transform="translate(175.0234375 396.353125)scale(0.2 -0.2)">
      <use xlink:href="#BitstreamVeraSans-Roman-6c"/>
      <use x="27.783203125" xlink:href="#BitstreamVeraSans-Roman-6f"/>
      <use x="88.96484375" xlink:href="#BitstreamVeraSans-Roman-67"/>
      <use x="152.44140625" xlink:href="#BitstreamVeraSans-Roman-31"/>
      <use x="216.064453125" xlink:href="#BitstreamVeraSans-Roman-30"/>
      <use x="279.6875" xlink:href="#BitstreamVeraSans-Roman-20"/>
      <use x="311.474609375" xlink:href="#BitstreamVeraSans-Roman-6f"/>
      <use x="372.65625" xlink:href="#BitstreamVeraSans-Roman-66"/>
      <use x="407.861328125" xlink:href="#BitstreamVeraSans-Roman-20"/>
      <use x="439.6484375" xlink:href="#BitstreamVeraSans-Roman-44"/>
      <use x="516.650390625" xlink:href="#BitstreamVeraSans-Roman-66"/>
     </g>
    </g>
   </g>
   <g id="matplotlib.axis_2">
    <g id="ytick_1">
     <g id="line2d_50">
      <path clip-path="url(#p99b4b0da67)" d="
M7.2 352.8
L453.6 352.8" style="fill:none;stroke:#000000;stroke-dasharray:1.000000,3.000000;stroke-dashoffset:0.0;stroke-width:0.5;"/>
     </g>
     <g id="line2d_51">
      <defs>
       <path d="
M0 0
L4 0" id="m728421d6d4" style="stroke:#000000;stroke-width:0.5;"/>
      </defs>
      <g>
       <use style="stroke:#000000;stroke-width:0.5;" x="7.2" xlink:href="#m728421d6d4" y="352.8"/>
      </g>
     </g>
     <g id="line2d_52">
      <defs>
       <path d="
M0 0
L-4 0" id="mcb0005524f" style="stroke:#000000;stroke-width:0.5;"/>
      </defs>
      <g>
       <use style="stroke:#000000;stroke-width:0.5;" x="453.6" xlink:href="#mcb0005524f" y="352.8"/>
      </g>
     </g>
    </g>
    <g id="ytick_2">
     <g id="line2d_53">
      <path clip-path="url(#p99b4b0da67)" d="
M7.2 284.364
L453.6 284.364" style="fill:none;stroke:#000000;stroke-dasharray:1.000000,3.000000;stroke-dashoffset:0.0;stroke-width:0.5;"/>
     </g>
     <g id="line2d_54">
      <g>
       <use style="stroke:#000000;stroke-width:0.5;" x="7.2" xlink:href="#m728421d6d4" y="284.364356436"/>
      </g>
     </g>
     <g id="line2d_55">
      <g>
       <use style="stroke:#000000;stroke-width:0.5;" x="453.6" xlink:href="#mcb0005524f" y="284.364356436"/>
      </g>
     </g>
    </g>
    <g id="ytick_3">
     <g id="line2d_56">
      <path clip-path="url(#p99b4b0da67)" d="
M7.2 215.929
L453.6 215.929" style="fill:none;stroke:#000000;stroke-dasharray:1.000000,3.000000;stroke-dashoffset:0.0;stroke-width:0.5;"/>
     </g>
     <g id="line2d_57">
      <g>
       <use style="stroke:#000000;stroke-width:0.5;" x="7.2" xlink:href="#m728421d6d4" y="215.928712871"/>
      </g>
     </g>
     <g id="line2d_58">
      <g>
       <use style="stroke:#000000;stroke-width:0.5;" x="453.6" xlink:href="#mcb0005524f" y="215.928712871"/>
      </g>
     </g>
    </g>
    <g id="ytick_4">
     <g id="line2d_59">
      <path clip-path="url(#p99b4b0da67)" d="
M7.2 147.493
L453.6 147.493" style="fill:none;stroke:#000000;stroke-dasharray:1.000000,3.000000;stroke-dashoffset:0.0;stroke-width:0.5;"/>
     </g>
     <g id="line2d_60">
      <g>
       <use style="stroke:#000000;stroke-width:0.5;" x="7.2" xlink:href="#m728421d6d4" y="147.493069307"/>
      </g>
     </g>
     <g id="line2d_61">
      <g>
       <use style="stroke:#000000;stroke-width:0.5;" x="453.6" xlink:href="#mcb0005524f" y="147.493069307"/>
      </g>
     </g>
    </g>
    <g id="ytick_5">
     <g id="line2d_62">
      <path clip-path="url(#p99b4b0da67)" d="
M7.2 79.0574
L453.6 79.0574" style="fill:none;stroke:#000000;stroke-dasharray:1.000000,3.000000;stroke-dashoffset:0.0;stroke-width:0.5;"/>
     </g>
     <g id="line2d_63">
      <g>
       <use style="stroke:#000000;stroke-width:0.5;" x="7.2" xlink:href="#m728421d6d4" y="79.0574257426"/>
      </g>
     </g>
     <g id="line2d_64">
      <g>
       <use style="stroke:#000000;stroke-width:0.5;" x="453.6" xlink:href="#mcb0005524f" y="79.0574257426"/>
      </g>
     </g>
    </g>
    <g id="ytick_6">
     <g id="line2d_65">
      <path clip-path="url(#p99b4b0da67)" d="
M7.2 10.6218
L453.6 10.6218" style="fill:none;stroke:#000000;stroke-dasharray:1.000000,3.000000;stroke-dashoffset:0.0;stroke-width:0.5;"/>
     </g>
     <g id="line2d_66">
      <g>
       <use style="stroke:#000000;stroke-width:0.5;" x="7.2" xlink:href="#m728421d6d4" y="10.6217821782"/>
      </g>
     </g>
     <g id="line2d_67">
      <g>
       <use style="stroke:#000000;stroke-width:0.5;" x="453.6" xlink:href="#mcb0005524f" y="10.6217821782"/>
      </g>
     </g>
    </g>
   </g>
   <g id="text_10">
    <!-- {f20-f24}, 5-D -->
    <defs>
     <path d="
M12.5 -9.28125
L15.9219 -9.28125
Q22.75 -9.28125 24.8281 -7.17188
Q26.9062 -5.07812 26.9062 1.90625
L26.9062 14.0156
Q26.9062 21.625 29.0938 25.0938
Q31.2969 28.5625 36.7188 29.8906
Q31.2969 31.1094 29.0938 34.5625
Q26.9062 38.0312 26.9062 45.7031
L26.9062 57.8125
Q26.9062 64.75 24.8281 66.875
Q22.75 69 15.9219 69
L12.5 69
L12.5 75.9844
L15.5781 75.9844
Q27.7344 75.9844 31.8125 72.3906
Q35.8906 68.7969 35.8906 58.0156
L35.8906 46.2969
Q35.8906 39.0156 38.5156 36.2031
Q41.1562 33.4062 48.0938 33.4062
L51.125 33.4062
L51.125 26.4219
L48.0938 26.4219
Q41.1562 26.4219 38.5156 23.5781
Q35.8906 20.75 35.8906 13.375
L35.8906 1.70312
Q35.8906 -9.07812 31.8125 -12.6875
Q27.7344 -16.3125 15.5781 -16.3125
L12.5 -16.3125
z
" id="BitstreamVeraSans-Roman-7d"/>
     <path d="
M51.125 -9.28125
L51.125 -16.3125
L48.0938 -16.3125
Q35.9375 -16.3125 31.8125 -12.6875
Q27.6875 -9.07812 27.6875 1.70312
L27.6875 13.375
Q27.6875 20.75 25.0469 23.5781
Q22.4062 26.4219 15.4844 26.4219
L12.5 26.4219
L12.5 33.4062
L15.4844 33.4062
Q22.4688 33.4062 25.0781 36.2031
Q27.6875 39.0156 27.6875 46.2969
L27.6875 58.0156
Q27.6875 68.7969 31.8125 72.3906
Q35.9375 75.9844 48.0938 75.9844
L51.125 75.9844
L51.125 69
L47.7969 69
Q40.9219 69 38.8125 66.8438
Q36.7188 64.7031 36.7188 57.8125
L36.7188 45.7031
Q36.7188 38.0312 34.5 34.5625
Q32.2812 31.1094 26.9062 29.8906
Q32.3281 28.5625 34.5156 25.0938
Q36.7188 21.625 36.7188 14.0156
L36.7188 1.90625
Q36.7188 -4.98438 38.8125 -7.125
Q40.9219 -9.28125 47.7969 -9.28125
z
" id="BitstreamVeraSans-Roman-7b"/>
     <path d="
M11.7188 12.4062
L22.0156 12.4062
L22.0156 4
L14.0156 -11.625
L7.71875 -11.625
L11.7188 4
z
" id="BitstreamVeraSans-Roman-2c"/>
     <path d="
M10.7969 72.9062
L49.5156 72.9062
L49.5156 64.5938
L19.8281 64.5938
L19.8281 46.7344
Q21.9688 47.4688 24.1094 47.8281
Q26.2656 48.1875 28.4219 48.1875
Q40.625 48.1875 47.75 41.5
Q54.8906 34.8125 54.8906 23.3906
Q54.8906 11.625 47.5625 5.09375
Q40.2344 -1.42188 26.9062 -1.42188
Q22.3125 -1.42188 17.5469 -0.640625
Q12.7969 0.140625 7.71875 1.70312
L7.71875 11.625
Q12.1094 9.23438 16.7969 8.0625
Q21.4844 6.89062 26.7031 6.89062
Q35.1562 6.89062 40.0781 11.3281
Q45.0156 15.7656 45.0156 23.3906
Q45.0156 31 40.0781 35.4375
Q35.1562 39.8906 26.7031 39.8906
Q22.75 39.8906 18.8125 39.0156
Q14.8906 38.1406 10.7969 36.2812
z
" id="BitstreamVeraSans-Roman-35"/>
    </defs>
    <g transform="translate(300.15325 345.888)scale(0.2 -0.2)">
     <use xlink:href="#BitstreamVeraSans-Roman-7b"/>
     <use x="63.623046875" xlink:href="#BitstreamVeraSans-Roman-66"/>
     <use x="98.828125" xlink:href="#BitstreamVeraSans-Roman-32"/>
     <use x="162.451171875" xlink:href="#BitstreamVeraSans-Roman-30"/>
     <use x="226.07421875" xlink:href="#BitstreamVeraSans-Roman-2d"/>
     <use x="262.158203125" xlink:href="#BitstreamVeraSans-Roman-66"/>
     <use x="297.36328125" xlink:href="#BitstreamVeraSans-Roman-32"/>
     <use x="360.986328125" xlink:href="#BitstreamVeraSans-Roman-34"/>
     <use x="424.609375" xlink:href="#BitstreamVeraSans-Roman-7d"/>
     <use x="488.232421875" xlink:href="#BitstreamVeraSans-Roman-2c"/>
     <use x="520.01953125" xlink:href="#BitstreamVeraSans-Roman-20"/>
     <use x="551.806640625" xlink:href="#BitstreamVeraSans-Roman-35"/>
     <use x="615.4296875" xlink:href="#BitstreamVeraSans-Roman-2d"/>
     <use x="651.513671875" xlink:href="#BitstreamVeraSans-Roman-44"/>
    </g>
   </g>
   <g id="text_11">
    <!-- v2.1.1.3 -->
    <defs>
     <path d="
M2.98438 54.6875
L12.5 54.6875
L29.5938 8.79688
L46.6875 54.6875
L56.2031 54.6875
L35.6875 0
L23.4844 0
z
" id="BitstreamVeraSans-Roman-76"/>
     <path d="
M40.5781 39.3125
Q47.6562 37.7969 51.625 33
Q55.6094 28.2188 55.6094 21.1875
Q55.6094 10.4062 48.1875 4.48438
Q40.7656 -1.42188 27.0938 -1.42188
Q22.5156 -1.42188 17.6562 -0.515625
Q12.7969 0.390625 7.625 2.20312
L7.625 11.7188
Q11.7188 9.32812 16.5938 8.10938
Q21.4844 6.89062 26.8125 6.89062
Q36.0781 6.89062 40.9375 10.5469
Q45.7969 14.2031 45.7969 21.1875
Q45.7969 27.6406 41.2812 31.2656
Q36.7656 34.9062 28.7188 34.9062
L20.2188 34.9062
L20.2188 43.0156
L29.1094 43.0156
Q36.375 43.0156 40.2344 45.9219
Q44.0938 48.8281 44.0938 54.2969
Q44.0938 59.9062 40.1094 62.9062
Q36.1406 65.9219 28.7188 65.9219
Q24.6562 65.9219 20.0156 65.0312
Q15.375 64.1562 9.8125 62.3125
L9.8125 71.0938
Q15.4375 72.6562 20.3438 73.4375
Q25.25 74.2188 29.5938 74.2188
Q40.8281 74.2188 47.3594 69.1094
Q53.9062 64.0156 53.9062 55.3281
Q53.9062 49.2656 50.4375 45.0938
Q46.9688 40.9219 40.5781 39.3125" id="BitstreamVeraSans-Roman-33"/>
     <path d="
M10.6875 12.4062
L21 12.4062
L21 0
L10.6875 0
z
" id="BitstreamVeraSans-Roman-2e"/>
    </defs>
    <g style="fill:#808080;" transform="translate(210.4984375 347.2643125)scale(0.1 -0.1)">
     <use xlink:href="#BitstreamVeraSans-Roman-76"/>
     <use x="59.1796875" xlink:href="#BitstreamVeraSans-Roman-32"/>
     <use x="122.802734375" xlink:href="#BitstreamVeraSans-Roman-2e"/>
     <use x="154.58984375" xlink:href="#BitstreamVeraSans-Roman-31"/>
     <use x="218.212890625" xlink:href="#BitstreamVeraSans-Roman-2e"/>
     <use x="250.0" xlink:href="#BitstreamVeraSans-Roman-31"/>
     <use x="313.623046875" xlink:href="#BitstreamVeraSans-Roman-2e"/>
     <use x="345.41015625" xlink:href="#BitstreamVeraSans-Roman-33"/>
    </g>
   </g>
  </g>
 </g>
 <defs>
  <clipPath id="p99b4b0da67">
   <rect height="345.6" width="446.4" x="7.2" y="7.2"/>
  </clipPath>
 </defs>
</svg>
