<?xml version="1.0" encoding="utf-8" standalone="no"?>
<!DOCTYPE svg PUBLIC "-//W3C//DTD SVG 1.1//EN"
  "http://www.w3.org/Graphics/SVG/1.1/DTD/svg11.dtd">
<!-- Created with matplotlib (http://matplotlib.org/) -->
<svg height="407pt" version="1.1" viewBox="0 0 460 407" width="460pt" xmlns="http://www.w3.org/2000/svg" xmlns:xlink="http://www.w3.org/1999/xlink">
 <defs>
  <style type="text/css">
*{stroke-linecap:butt;stroke-linejoin:round;}
  </style>
 </defs>
 <g id="figure_1">
  <g id="patch_1">
   <path d="
M0 407.712
L460.8 407.712
L460.8 0
L0 0
z
" style="fill:#ffffff;"/>
  </g>
  <g id="axes_1">
   <g id="patch_2">
    <path d="
M7.2 352.8
L453.6 352.8
L453.6 7.2
L7.2 7.2
z
" style="fill:#ffffff;"/>
   </g>
   <g id="line2d_1">
    <path clip-path="url(#p99b4b0da67)" d="
M0.392443 352.8
L0.392443 348.238
L0.952533 348.238
L0.952533 343.675
L1.20834 343.675
L1.20834 339.113
L1.32895 339.113
L1.32895 334.55
L3.43631 334.55
L3.43631 329.988
L3.65818 329.988
L3.75715 311.739
L3.96767 311.739
L3.96767 307.176
L4.08352 307.176
L4.0965 298.051
L4.91985 298.051
L4.91985 293.489
L5.19118 293.489
L5.19118 288.927
L5.40125 288.927
L5.40125 284.364
L5.52574 284.364
L5.61662 275.24
L5.82494 275.24
L5.82494 270.677
L6.10784 270.677
L6.10784 266.115
L6.2832 266.115
L6.31278 256.99
L6.39597 256.99
L6.41557 247.865
L6.69403 247.865
L6.752 229.616
L6.83834 229.616
L6.83834 225.053
L6.95638 225.053
L6.95638 220.491
L7.07353 220.491
L7.0865 147.493
L229.685 147.493
L229.685 142.931
L232.966 142.931
L232.966 133.806
L235.512 133.806
L235.512 101.869
L237.591 101.869
L237.591 83.6198
L239.35 83.6198
L239.35 79.0574
L244.506 79.0574
L244.506 65.3703
L245.498 65.3703
L245.498 37.996
L246.411 37.996
L246.411 24.3089
L247.256 24.3089
L247.256 10.6218
L247.256 10.6218
L453.6 10.6218
L453.6 10.6218" style="fill:none;stroke:#ff0000;stroke-linecap:square;stroke-width:3.0;"/>
   </g>
   <g id="line2d_2">
    <path clip-path="url(#p99b4b0da67)" d="
M265.99 352.8
L265.99 348.238
L268.346 348.238
L268.346 343.675
L268.511 343.675
L268.551 334.55
L269.242 334.55
L269.242 329.988
L269.915 329.988
L269.915 325.426
L270.793 325.426
L270.793 320.863
L271.394 320.863
L271.394 316.301
L271.674 316.301
L271.674 311.739
L272.084 311.739
L272.118 302.614
L272.218 302.614
L272.272 288.927
L274.11 288.927
L274.11 284.364
L282.689 284.364
L282.689 279.802
L282.818 279.802
L282.871 270.677
L282.996 270.677
L282.996 266.115
L283.228 266.115
L283.309 256.99
L283.623 256.99
L283.623 252.428
L283.747 252.428
L283.776 243.303
L283.949 243.303
L284.006 229.616
L284.672 229.616
L284.672 225.053
L284.83 225.053
L284.94 215.929
L286.85 215.929
L286.85 211.366
L287.956 211.366
L287.956 206.804
L288.175 206.804
L288.175 202.242
L288.602 202.242
L288.602 197.679
L288.863 197.679
L288.863 193.117
L289.351 193.117
L289.364 183.992
L289.483 183.992
L289.483 179.43
L290.13 179.43
L290.13 174.867
L290.465 174.867
L290.521 161.18
L290.623 161.18
L290.623 156.618
L290.911 156.618
L290.978 147.493
L291.181 147.493
L291.181 142.931
L291.314 142.931
L291.314 138.368
L291.612 138.368
L291.612 133.806
L291.838 133.806
L291.925 124.681
L292.292 124.681
L292.292 120.119
L292.615 120.119
L292.615 115.556
L292.818 115.556
L292.835 106.432
L293.083 106.432
L293.169 97.3069
L293.247 97.3069
L293.247 92.7446
L294.623 92.7446
L294.623 88.1822
L295.004 88.1822
L295.004 83.6198
L295.221 83.6198
L295.221 79.0574
L380.893 79.0574
L380.893 74.495
L384.111 74.495
L384.111 69.9327
L387.211 69.9327
L387.211 65.3703
L387.701 65.3703
L387.701 60.8079
L388.64 60.8079
L388.64 56.2455
L390.788 56.2455
L390.788 51.6832
L391.047 51.6832
L391.047 47.1208
L392.513 47.1208
L392.513 42.5584
L393.571 42.5584
L393.571 37.996
L393.704 37.996
L393.704 33.4337
L395.47 33.4337
L395.47 28.8713
L397.385 28.8713
L397.385 24.3089
L399.862 24.3089
L399.862 19.7465
L400.386 19.7465
L400.386 15.1842
L402.801 15.1842
L402.801 10.6218
L402.801 10.6218
L453.6 10.6218
L453.6 10.6218" style="fill:none;stroke:#00bfbf;stroke-linecap:square;"/>
   </g>
   <g id="line2d_3">
    <path clip-path="url(#p99b4b0da67)" d="
M264.245 352.8
L264.245 348.238
L267.291 348.238
L267.341 339.113
L267.548 339.113
L267.548 334.55
L268.313 334.55
L268.313 329.988
L269.165 329.988
L269.242 320.863
L269.294 320.863
L269.294 316.301
L270.793 316.301
L270.793 311.739
L271.198 311.739
L271.198 307.176
L271.394 307.176
L271.394 302.614
L271.897 302.614
L271.899 293.489
L272.084 293.489
L272.084 288.927
L272.272 288.927
L272.272 284.364
L278.928 284.364
L278.928 279.802
L280.899 279.802
L280.911 270.677
L281.038 270.677
L281.116 261.552
L281.351 261.552
L281.351 256.99
L281.504 256.99
L281.539 243.303
L282.174 243.303
L282.174 238.741
L282.787 238.741
L282.84 229.616
L283.056 229.616
L283.056 225.053
L283.309 225.053
L283.309 220.491
L283.655 220.491
L283.655 215.929
L285.594 215.929
L285.594 211.366
L286.715 211.366
L286.715 206.804
L287.956 206.804
L287.956 202.242
L288.175 202.242
L288.175 197.679
L288.602 197.679
L288.602 193.117
L288.863 193.117
L288.863 188.554
L289.019 188.554
L289.096 179.43
L289.364 179.43
L289.364 174.867
L289.478 174.867
L289.483 165.743
L290.077 165.743
L290.16 152.055
L290.517 152.055
L290.517 147.493
L290.911 147.493
L290.978 138.368
L291.314 138.368
L291.314 133.806
L291.838 133.806
L291.925 124.681
L292.169 124.681
L292.169 120.119
L292.292 120.119
L292.347 110.994
L292.818 110.994
L292.835 101.869
L292.941 101.869
L292.941 97.3069
L293.083 97.3069
L293.097 88.1822
L293.247 88.1822
L293.247 83.6198
L295.004 83.6198
L295.004 79.0574
L370.285 79.0574
L370.285 74.495
L371.846 74.495
L371.846 69.9327
L374.33 69.9327
L374.33 65.3703
L375.866 65.3703
L375.866 60.8079
L380.678 60.8079
L380.678 56.2455
L384.035 56.2455
L384.035 51.6832
L385.32 51.6832
L385.32 47.1208
L386.314 47.1208
L386.314 42.5584
L387.95 42.5584
L387.95 37.996
L388.692 37.996
L388.692 33.4337
L391.024 33.4337
L391.024 28.8713
L393.571 28.8713
L393.571 24.3089
L393.93 24.3089
L393.93 19.7465
L394.291 19.7465
L394.291 15.1842
L395.931 15.1842
L395.931 10.6218
L395.931 10.6218
L453.6 10.6218
L453.6 10.6218" style="fill:none;stroke:#bf00bf;stroke-linecap:square;"/>
   </g>
   <g id="line2d_4">
    <path clip-path="url(#p99b4b0da67)" d="
M260.091 352.8
L260.091 348.238
L263.222 348.238
L263.313 339.113
L263.681 339.113
L263.681 334.55
L263.87 334.55
L263.91 320.863
L264.03 320.863
L264.03 316.301
L264.192 316.301
L264.192 311.739
L265.58 311.739
L265.58 307.176
L267.286 307.176
L267.286 302.614
L267.548 302.614
L267.548 298.051
L268.459 298.051
L268.498 288.927
L269.165 288.927
L269.165 284.364
L273.011 284.364
L273.011 279.802
L274.633 279.802
L274.633 275.24
L275.083 275.24
L275.083 270.677
L275.832 270.677
L275.832 266.115
L275.986 266.115
L275.986 261.552
L276.374 261.552
L276.374 256.99
L276.569 256.99
L276.569 252.428
L277.3 252.428
L277.344 243.303
L277.702 243.303
L277.702 238.741
L278.69 238.741
L278.69 234.178
L278.853 234.178
L278.853 229.616
L279.027 229.616
L279.027 225.053
L279.304 225.053
L279.304 220.491
L279.744 220.491
L279.744 215.929
L283.95 215.929
L283.95 211.366
L285.273 211.366
L285.273 206.804
L285.594 206.804
L285.594 202.242
L285.827 202.242
L285.831 193.117
L286.33 193.117
L286.398 179.43
L286.715 179.43
L286.715 174.867
L287.544 174.867
L287.633 161.18
L287.854 161.18
L287.854 156.618
L288.863 156.618
L288.863 152.055
L289.212 152.055
L289.247 142.931
L289.478 142.931
L289.483 129.244
L289.621 129.244
L289.676 120.119
L289.785 120.119
L289.813 110.994
L290.077 110.994
L290.077 106.432
L290.756 106.432
L290.756 101.869
L290.978 101.869
L290.978 97.3069
L291.517 97.3069
L291.517 92.7446
L291.842 92.7446
L291.842 88.1822
L292.515 88.1822
L292.515 83.6198
L292.818 83.6198
L292.818 79.0574
L362.239 79.0574
L362.239 74.495
L368.638 74.495
L368.638 69.9327
L370.285 69.9327
L370.285 65.3703
L371.846 65.3703
L371.846 60.8079
L374.2 60.8079
L374.2 56.2455
L374.33 56.2455
L374.33 51.6832
L376.319 51.6832
L376.319 47.1208
L376.776 47.1208
L376.776 42.5584
L379.305 42.5584
L379.305 37.996
L379.819 37.996
L379.819 33.4337
L380.748 33.4337
L380.748 28.8713
L380.929 28.8713
L380.929 24.3089
L381.769 24.3089
L381.769 19.7465
L382.835 19.7465
L382.835 15.1842
L388.36 15.1842
L388.36 10.6218
L388.36 10.6218
L453.6 10.6218
L453.6 10.6218" style="fill:none;stroke:#000000;stroke-linecap:square;"/>
   </g>
   <g id="line2d_5">
    <path clip-path="url(#p99b4b0da67)" d="
M235.939 352.8
L235.939 348.238
L240.244 348.238
L240.316 339.113
L241.783 339.113
L241.783 334.55
L242.04 334.55
L242.063 325.426
L244.698 325.426
L244.698 320.863
L245.789 320.863
L245.876 311.739
L246.957 311.739
L246.957 307.176
L247.456 307.176
L247.456 302.614
L247.743 302.614
L247.743 298.051
L248.311 298.051
L248.311 293.489
L248.895 293.489
L248.895 288.927
L249.516 288.927
L249.516 284.364
L249.71 284.364
L249.71 279.802
L249.931 279.802
L249.931 275.24
L250.208 275.24
L250.208 270.677
L250.465 270.677
L250.465 266.115
L250.749 266.115
L250.749 261.552
L250.863 261.552
L250.863 256.99
L251.046 256.99
L251.137 247.865
L251.72 247.865
L251.72 243.303
L252.529 243.303
L252.529 238.741
L252.73 238.741
L252.73 234.178
L253.615 234.178
L253.615 229.616
L255.592 229.616
L255.592 225.053
L257.728 225.053
L257.728 220.491
L258.454 220.491
L258.454 215.929
L278.226 215.929
L278.226 211.366
L278.908 211.366
L278.908 206.804
L279.776 206.804
L279.861 197.679
L280.812 197.679
L280.812 193.117
L281.226 193.117
L281.336 179.43
L281.414 179.43
L281.414 174.867
L281.67 174.867
L281.686 165.743
L283.093 165.743
L283.093 161.18
L283.417 161.18
L283.417 156.618
L283.573 156.618
L283.657 147.493
L283.77 147.493
L283.84 138.368
L283.957 138.368
L284.02 129.244
L284.152 129.244
L284.152 124.681
L284.41 124.681
L284.41 120.119
L285.071 120.119
L285.164 106.432
L285.447 106.432
L285.518 92.7446
L287.157 92.7446
L287.157 88.1822
L287.453 88.1822
L287.453 83.6198
L288.358 83.6198
L288.358 79.0574
L362.18 79.0574
L362.239 69.9327
L365.109 69.9327
L365.109 65.3703
L366.747 65.3703
L366.747 60.8079
L368.043 60.8079
L368.043 56.2455
L368.235 56.2455
L368.235 51.6832
L368.558 51.6832
L368.638 42.5584
L368.674 42.5584
L368.674 37.996
L371.823 37.996
L371.846 28.8713
L372.388 28.8713
L372.429 19.7465
L376.277 19.7465
L376.277 15.1842
L381.715 15.1842
L381.715 10.6218
L381.715 10.6218
L453.6 10.6218
L453.6 10.6218" style="fill:none;stroke:#00bfbf;stroke-linecap:square;"/>
   </g>
   <g id="line2d_6">
    <path clip-path="url(#p99b4b0da67)" d="
M7.0865 352.8
L7.0865 348.238
L7.0865 348.238
L7.0865 348.238
L7.0865 343.675
L7.0865 343.675
L7.0865 343.675
L7.0865 339.113
L7.0865 339.113
L7.0865 339.113
L7.0865 334.55
L7.0865 334.55
L7.0865 334.55
L7.0865 329.988
L7.0865 329.988
L7.0865 329.988
L7.0865 325.426
L7.0865 325.426
L7.0865 325.426
L7.0865 320.863
L7.0865 320.863
L7.0865 320.863
L7.0865 316.301
L7.0865 316.301
L7.0865 316.301
L7.0865 311.739
L7.0865 311.739
L7.0865 311.739
L7.0865 307.176
L7.0865 307.176
L7.0865 307.176
L7.0865 302.614
L7.0865 302.614
L7.0865 302.614
L7.0865 298.051
L7.0865 298.051
L7.0865 298.051
L7.0865 293.489
L7.0865 293.489
L7.0865 293.489
L7.0865 288.927
L7.0865 288.927
L7.0865 288.927
L7.0865 284.364
L49.3761 284.364
L49.3761 279.802
L63.4 279.802
L63.4 275.24
L63.7173 275.24
L63.7173 270.677
L64.6879 270.677
L64.6879 266.115
L67.9664 266.115
L67.9664 261.552
L68.1635 261.552
L68.1635 256.99
L70.8504 256.99
L70.8504 252.428
L71.0381 252.428
L71.0381 247.865
L71.4782 247.865
L71.4782 243.303
L73.3621 243.303
L73.3621 238.741
L74.5217 238.741
L74.5217 234.178
L75.0659 234.178
L75.0659 229.616
L78.9911 229.616
L78.9911 225.053
L85.9345 225.053
L85.9345 220.491
L95.9708 220.491
L95.9708 215.929
L254.108 215.929
L254.108 211.366
L255.917 211.366
L255.917 206.804
L257.942 206.804
L257.994 193.117
L258.379 193.117
L258.379 188.554
L259.309 188.554
L259.309 183.992
L260.059 183.992
L260.059 179.43
L260.606 179.43
L260.606 174.867
L261.265 174.867
L261.265 170.305
L261.7 170.305
L261.7 165.743
L261.967 165.743
L262.051 156.618
L262.858 156.618
L262.858 152.055
L263.533 152.055
L263.533 147.493
L263.722 147.493
L263.722 142.931
L263.838 142.931
L263.838 138.368
L264.468 138.368
L264.468 133.806
L265.188 133.806
L265.188 129.244
L265.661 129.244
L265.661 124.681
L266.337 124.681
L266.337 120.119
L266.658 120.119
L266.746 110.994
L267.974 110.994
L267.974 106.432
L268.429 106.432
L268.429 101.869
L269.594 101.869
L269.594 97.3069
L271.756 97.3069
L271.756 92.7446
L272.058 92.7446
L272.058 88.1822
L272.545 88.1822
L272.545 83.6198
L273.044 83.6198
L273.044 79.0574
L319.965 79.0574
L319.965 74.495
L324.968 74.495
L324.968 69.9327
L325.56 69.9327
L325.56 65.3703
L325.943 65.3703
L325.943 60.8079
L327.105 60.8079
L327.105 56.2455
L331.567 56.2455
L331.596 47.1208
L331.736 47.1208
L331.788 37.996
L332.714 37.996
L332.714 33.4337
L333.794 33.4337
L333.794 28.8713
L335.019 28.8713
L335.019 24.3089
L336.013 24.3089
L336.013 19.7465
L336.455 19.7465
L336.455 15.1842
L342.705 15.1842
L342.705 10.6218
L342.705 10.6218
L453.6 10.6218
L453.6 10.6218" style="fill:none;stroke:#bf00bf;stroke-linecap:square;"/>
   </g>
   <g id="line2d_7">
    <path clip-path="url(#p99b4b0da67)" d="
M0.392443 352.8
L0.392443 348.238
L0.952533 348.238
L0.952533 343.675
L1.32895 343.675
L1.32895 339.113
L3.43631 339.113
L3.43631 334.55
L3.65818 334.55
L3.75715 320.863
L3.96767 320.863
L3.96767 316.301
L4.08352 316.301
L4.0965 307.176
L4.91985 307.176
L4.91985 302.614
L5.19118 302.614
L5.19118 298.051
L5.40125 298.051
L5.40125 293.489
L5.52574 293.489
L5.61662 284.364
L6.10784 284.364
L6.10784 279.802
L6.2832 279.802
L6.31278 270.677
L6.39597 270.677
L6.41557 261.552
L6.69403 261.552
L6.752 243.303
L6.83834 243.303
L6.83834 238.741
L6.95638 238.741
L6.95638 234.178
L7.07353 234.178
L7.0865 161.18
L20.8084 161.18
L20.8084 156.618
L30.3942 156.618
L30.3942 152.055
L53.6299 152.055
L53.6299 147.493
L252.919 147.493
L252.919 142.931
L253.87 142.931
L253.87 138.368
L254.318 138.368
L254.318 133.806
L254.748 133.806
L254.748 120.119
L255.163 120.119
L255.163 115.556
L255.563 115.556
L255.563 110.994
L256.324 110.994
L256.324 106.432
L257.037 106.432
L257.037 101.869
L257.709 101.869
L257.709 92.7446
L258.03 92.7446
L258.03 83.6198
L259.788 83.6198
L259.788 79.0574
L260.057 79.0574
L260.057 69.9327
L260.319 69.9327
L260.319 60.8079
L261.071 60.8079
L261.071 51.6832
L261.311 51.6832
L261.311 47.1208
L261.777 47.1208
L261.777 42.5584
L262.442 42.5584
L262.442 33.4337
L262.655 33.4337
L262.655 24.3089
L263.272 24.3089
L263.272 19.7465
L263.47 19.7465
L263.47 15.1842
L267.963 15.1842
L267.963 10.6218
L267.963 10.6218
L453.6 10.6218
L453.6 10.6218" style="fill:none;stroke:#000000;stroke-linecap:square;"/>
   </g>
   <g id="line2d_8">
    <path clip-path="url(#p99b4b0da67)" d="
M0.392443 352.8
L0.392443 348.238
L0.952533 348.238
L0.952533 343.675
L1.20834 343.675
L1.20834 339.113
L1.32895 339.113
L1.32895 334.55
L3.43631 334.55
L3.43631 329.988
L3.65818 329.988
L3.75715 311.739
L3.96767 311.739
L3.96767 307.176
L4.08352 307.176
L4.0965 298.051
L4.91985 298.051
L4.91985 293.489
L5.19118 293.489
L5.19118 288.927
L5.40125 288.927
L5.40125 284.364
L5.52574 284.364
L5.61662 275.24
L5.82494 275.24
L5.82494 270.677
L6.10784 270.677
L6.10784 266.115
L6.2832 266.115
L6.31278 256.99
L6.39597 256.99
L6.41557 247.865
L6.69403 247.865
L6.752 229.616
L6.83834 229.616
L6.83834 225.053
L6.95638 225.053
L6.95638 220.491
L7.07353 220.491
L7.0865 147.493
L232.966 147.493
L232.966 142.931
L235.512 142.931
L235.512 133.806
L237.591 133.806
L237.591 124.681
L239.35 124.681
L239.35 120.119
L240.873 120.119
L240.873 101.869
L242.217 101.869
L242.217 92.7446
L243.418 92.7446
L243.418 83.6198
L244.506 83.6198
L244.506 79.0574
L245.498 79.0574
L245.498 69.9327
L246.411 69.9327
L246.411 65.3703
L247.256 65.3703
L247.256 47.1208
L247.555 47.1208
L247.555 42.5584
L248.043 42.5584
L248.043 24.3089
L248.78 24.3089
L248.78 19.7465
L249.471 19.7465
L249.471 10.6218
L249.471 10.6218
L453.6 10.6218
L453.6 10.6218" style="fill:none;stroke:#00bfbf;stroke-linecap:square;"/>
   </g>
   <g id="line2d_9">
    <path clip-path="url(#p99b4b0da67)" d="
M0.392443 352.8
L0.392443 348.238
L0.952533 348.238
L0.952533 343.675
L1.20834 343.675
L1.20834 339.113
L1.32895 339.113
L1.32895 334.55
L3.43631 334.55
L3.43631 329.988
L3.65818 329.988
L3.75715 311.739
L3.96767 311.739
L3.96767 307.176
L4.08352 307.176
L4.0965 298.051
L4.91985 298.051
L4.91985 293.489
L5.19118 293.489
L5.19118 288.927
L5.40125 288.927
L5.40125 284.364
L5.52574 284.364
L5.61662 275.24
L5.82494 275.24
L5.82494 270.677
L6.10784 270.677
L6.10784 266.115
L6.2832 266.115
L6.31278 256.99
L6.39597 256.99
L6.41557 247.865
L6.69403 247.865
L6.752 229.616
L6.83834 229.616
L6.83834 225.053
L6.95638 225.053
L6.95638 220.491
L7.07353 220.491
L7.0865 147.493
L229.685 147.493
L229.685 142.931
L232.966 142.931
L232.966 133.806
L235.512 133.806
L235.512 101.869
L237.591 101.869
L237.591 83.6198
L239.35 83.6198
L239.35 79.0574
L244.506 79.0574
L244.506 65.3703
L245.498 65.3703
L245.498 37.996
L246.411 37.996
L246.411 24.3089
L247.256 24.3089
L247.256 10.6218
L247.256 10.6218
L453.6 10.6218
L453.6 10.6218" style="fill:none;stroke:#bf00bf;stroke-linecap:square;"/>
   </g>
   <g id="patch_3">
    <path d="
M7.2 7.2
L453.6 7.2" style="fill:none;stroke:#000000;stroke-linecap:square;stroke-linejoin:miter;"/>
   </g>
   <g id="patch_4">
    <path d="
M453.6 352.8
L453.6 7.2" style="fill:none;stroke:#000000;stroke-linecap:square;stroke-linejoin:miter;"/>
   </g>
   <g id="patch_5">
    <path d="
M7.2 352.8
L453.6 352.8" style="fill:none;stroke:#000000;stroke-linecap:square;stroke-linejoin:miter;"/>
   </g>
   <g id="patch_6">
    <path d="
M7.2 352.8
L7.2 7.2" style="fill:none;stroke:#000000;stroke-linecap:square;stroke-linejoin:miter;"/>
   </g>
   <g id="matplotlib.axis_1">
    <g id="xtick_1"/>
    <g id="xtick_2">
     <g id="line2d_10">
      <path clip-path="url(#p99b4b0da67)" d="
M59.6175 352.8
L59.6175 7.2" style="fill:none;stroke:#000000;stroke-dasharray:1.000000,3.000000;stroke-dashoffset:0.0;stroke-width:0.5;"/>
     </g>
     <g id="line2d_11">
      <defs>
       <path d="
M0 0
L0 -4" id="m93b0483c22" style="stroke:#000000;stroke-width:0.5;"/>
      </defs>
      <g>
       <use style="stroke:#000000;stroke-width:0.5;" x="59.6174973142" xlink:href="#m93b0483c22" y="352.8"/>
      </g>
     </g>
     <g id="line2d_12">
      <defs>
       <path d="
M0 0
L0 4" id="m741efc42ff" style="stroke:#000000;stroke-width:0.5;"/>
      </defs>
      <g>
       <use style="stroke:#000000;stroke-width:0.5;" x="59.6174973142" xlink:href="#m741efc42ff" y="7.2"/>
      </g>
     </g>
     <g id="text_1">
      <!-- -6 -->
      <defs>
       <path d="
M33.0156 40.375
Q26.375 40.375 22.4844 35.8281
Q18.6094 31.2969 18.6094 23.3906
Q18.6094 15.5312 22.4844 10.9531
Q26.375 6.39062 33.0156 6.39062
Q39.6562 6.39062 43.5312 10.9531
Q47.4062 15.5312 47.4062 23.3906
Q47.4062 31.2969 43.5312 35.8281
Q39.6562 40.375 33.0156 40.375
M52.5938 71.2969
L52.5938 62.3125
Q48.875 64.0625 45.0938 64.9844
Q41.3125 65.9219 37.5938 65.9219
Q27.8281 65.9219 22.6719 59.3281
Q17.5312 52.7344 16.7969 39.4062
Q19.6719 43.6562 24.0156 45.9219
Q28.375 48.1875 33.5938 48.1875
Q44.5781 48.1875 50.9531 41.5156
Q57.3281 34.8594 57.3281 23.3906
Q57.3281 12.1562 50.6875 5.35938
Q44.0469 -1.42188 33.0156 -1.42188
Q20.3594 -1.42188 13.6719 8.26562
Q6.98438 17.9688 6.98438 36.375
Q6.98438 53.6562 15.1875 63.9375
Q23.3906 74.2188 37.2031 74.2188
Q40.9219 74.2188 44.7031 73.4844
Q48.4844 72.75 52.5938 71.2969" id="BitstreamVeraSans-Roman-36"/>
       <path d="
M4.89062 31.3906
L31.2031 31.3906
L31.2031 23.3906
L4.89062 23.3906
z
" id="BitstreamVeraSans-Roman-2d"/>
      </defs>
      <g transform="translate(50.7659348142 371.996875)scale(0.2 -0.2)">
       <use xlink:href="#BitstreamVeraSans-Roman-2d"/>
       <use x="36.083984375" xlink:href="#BitstreamVeraSans-Roman-36"/>
      </g>
     </g>
    </g>
    <g id="xtick_3">
     <g id="line2d_13">
      <path clip-path="url(#p99b4b0da67)" d="
M112.148 352.8
L112.148 7.2" style="fill:none;stroke:#000000;stroke-dasharray:1.000000,3.000000;stroke-dashoffset:0.0;stroke-width:0.5;"/>
     </g>
     <g id="line2d_14">
      <g>
       <use style="stroke:#000000;stroke-width:0.5;" x="112.148497672" xlink:href="#m93b0483c22" y="352.8"/>
      </g>
     </g>
     <g id="line2d_15">
      <g>
       <use style="stroke:#000000;stroke-width:0.5;" x="112.148497672" xlink:href="#m741efc42ff" y="7.2"/>
      </g>
     </g>
     <g id="text_2">
      <!-- -4 -->
      <defs>
       <path d="
M37.7969 64.3125
L12.8906 25.3906
L37.7969 25.3906
z

M35.2031 72.9062
L47.6094 72.9062
L47.6094 25.3906
L58.0156 25.3906
L58.0156 17.1875
L47.6094 17.1875
L47.6094 0
L37.7969 0
L37.7969 17.1875
L4.89062 17.1875
L4.89062 26.7031
z
" id="BitstreamVeraSans-Roman-34"/>
      </defs>
      <g transform="translate(103.228185172 371.996875)scale(0.2 -0.2)">
       <use xlink:href="#BitstreamVeraSans-Roman-2d"/>
       <use x="36.083984375" xlink:href="#BitstreamVeraSans-Roman-34"/>
      </g>
     </g>
    </g>
    <g id="xtick_4">
     <g id="line2d_16">
      <path clip-path="url(#p99b4b0da67)" d="
M164.679 352.8
L164.679 7.2" style="fill:none;stroke:#000000;stroke-dasharray:1.000000,3.000000;stroke-dashoffset:0.0;stroke-width:0.5;"/>
     </g>
     <g id="line2d_17">
      <g>
       <use style="stroke:#000000;stroke-width:0.5;" x="164.67949803" xlink:href="#m93b0483c22" y="352.8"/>
      </g>
     </g>
     <g id="line2d_18">
      <g>
       <use style="stroke:#000000;stroke-width:0.5;" x="164.67949803" xlink:href="#m741efc42ff" y="7.2"/>
      </g>
     </g>
     <g id="text_3">
      <!-- -2 -->
      <defs>
       <path d="
M19.1875 8.29688
L53.6094 8.29688
L53.6094 0
L7.32812 0
L7.32812 8.29688
Q12.9375 14.1094 22.625 23.8906
Q32.3281 33.6875 34.8125 36.5312
Q39.5469 41.8438 41.4219 45.5312
Q43.3125 49.2188 43.3125 52.7812
Q43.3125 58.5938 39.2344 62.25
Q35.1562 65.9219 28.6094 65.9219
Q23.9688 65.9219 18.8125 64.3125
Q13.6719 62.7031 7.8125 59.4219
L7.8125 69.3906
Q13.7656 71.7812 18.9375 73
Q24.125 74.2188 28.4219 74.2188
Q39.75 74.2188 46.4844 68.5469
Q53.2188 62.8906 53.2188 53.4219
Q53.2188 48.9219 51.5312 44.8906
Q49.8594 40.875 45.4062 35.4062
Q44.1875 33.9844 37.6406 27.2188
Q31.1094 20.4531 19.1875 8.29688" id="BitstreamVeraSans-Roman-32"/>
      </defs>
      <g transform="translate(156.19981053 371.996875)scale(0.2 -0.2)">
       <use xlink:href="#BitstreamVeraSans-Roman-2d"/>
       <use x="36.083984375" xlink:href="#BitstreamVeraSans-Roman-32"/>
      </g>
     </g>
    </g>
    <g id="xtick_5">
     <g id="line2d_19">
      <path clip-path="url(#p99b4b0da67)" d="
M217.21 352.8
L217.21 7.2" style="fill:none;stroke:#000000;stroke-dasharray:1.000000,3.000000;stroke-dashoffset:0.0;stroke-width:0.5;"/>
     </g>
     <g id="line2d_20">
      <g>
       <use style="stroke:#000000;stroke-width:0.5;" x="217.210498389" xlink:href="#m93b0483c22" y="352.8"/>
      </g>
     </g>
     <g id="line2d_21">
      <g>
       <use style="stroke:#000000;stroke-width:0.5;" x="217.210498389" xlink:href="#m741efc42ff" y="7.2"/>
      </g>
     </g>
     <g id="text_4">
      <!-- 0 -->
      <defs>
       <path d="
M31.7812 66.4062
Q24.1719 66.4062 20.3281 58.9062
Q16.5 51.4219 16.5 36.375
Q16.5 21.3906 20.3281 13.8906
Q24.1719 6.39062 31.7812 6.39062
Q39.4531 6.39062 43.2812 13.8906
Q47.125 21.3906 47.125 36.375
Q47.125 51.4219 43.2812 58.9062
Q39.4531 66.4062 31.7812 66.4062
M31.7812 74.2188
Q44.0469 74.2188 50.5156 64.5156
Q56.9844 54.8281 56.9844 36.375
Q56.9844 17.9688 50.5156 8.26562
Q44.0469 -1.42188 31.7812 -1.42188
Q19.5312 -1.42188 13.0625 8.26562
Q6.59375 17.9688 6.59375 36.375
Q6.59375 54.8281 13.0625 64.5156
Q19.5312 74.2188 31.7812 74.2188" id="BitstreamVeraSans-Roman-30"/>
      </defs>
      <g transform="translate(212.171435889 371.996875)scale(0.2 -0.2)">
       <use xlink:href="#BitstreamVeraSans-Roman-30"/>
      </g>
     </g>
    </g>
    <g id="xtick_6">
     <g id="line2d_22">
      <path clip-path="url(#p99b4b0da67)" d="
M269.741 352.8
L269.741 7.2" style="fill:none;stroke:#000000;stroke-dasharray:1.000000,3.000000;stroke-dashoffset:0.0;stroke-width:0.5;"/>
     </g>
     <g id="line2d_23">
      <g>
       <use style="stroke:#000000;stroke-width:0.5;" x="269.741498747" xlink:href="#m93b0483c22" y="352.8"/>
      </g>
     </g>
     <g id="line2d_24">
      <g>
       <use style="stroke:#000000;stroke-width:0.5;" x="269.741498747" xlink:href="#m741efc42ff" y="7.2"/>
      </g>
     </g>
     <g id="text_5">
      <!-- 2 -->
      <g transform="translate(265.113373747 371.996875)scale(0.2 -0.2)">
       <use xlink:href="#BitstreamVeraSans-Roman-32"/>
      </g>
     </g>
    </g>
    <g id="xtick_7">
     <g id="line2d_25">
      <path clip-path="url(#p99b4b0da67)" d="
M322.272 352.8
L322.272 7.2" style="fill:none;stroke:#000000;stroke-dasharray:1.000000,3.000000;stroke-dashoffset:0.0;stroke-width:0.5;"/>
     </g>
     <g id="line2d_26">
      <g>
       <use style="stroke:#000000;stroke-width:0.5;" x="322.272499105" xlink:href="#m93b0483c22" y="352.8"/>
      </g>
     </g>
     <g id="line2d_27">
      <g>
       <use style="stroke:#000000;stroke-width:0.5;" x="322.272499105" xlink:href="#m741efc42ff" y="7.2"/>
      </g>
     </g>
     <g id="text_6">
      <!-- 4 -->
      <g transform="translate(316.959999105 371.996875)scale(0.2 -0.2)">
       <use xlink:href="#BitstreamVeraSans-Roman-34"/>
      </g>
     </g>
    </g>
    <g id="xtick_8">
     <g id="line2d_28">
      <path clip-path="url(#p99b4b0da67)" d="
M374.803 352.8
L374.803 7.2" style="fill:none;stroke:#000000;stroke-dasharray:1.000000,3.000000;stroke-dashoffset:0.0;stroke-width:0.5;"/>
     </g>
     <g id="line2d_29">
      <g>
       <use style="stroke:#000000;stroke-width:0.5;" x="374.803499463" xlink:href="#m93b0483c22" y="352.8"/>
      </g>
     </g>
     <g id="line2d_30">
      <g>
       <use style="stroke:#000000;stroke-width:0.5;" x="374.803499463" xlink:href="#m741efc42ff" y="7.2"/>
      </g>
     </g>
     <g id="text_7">
      <!-- 6 -->
      <g transform="translate(369.769124463 371.996875)scale(0.2 -0.2)">
       <use xlink:href="#BitstreamVeraSans-Roman-36"/>
      </g>
     </g>
    </g>
    <g id="xtick_9">
     <g id="line2d_31">
      <path clip-path="url(#p99b4b0da67)" d="
M427.334 352.8
L427.334 7.2" style="fill:none;stroke:#000000;stroke-dasharray:1.000000,3.000000;stroke-dashoffset:0.0;stroke-width:0.5;"/>
     </g>
     <g id="line2d_32">
      <g>
       <use style="stroke:#000000;stroke-width:0.5;" x="427.334499821" xlink:href="#m93b0483c22" y="352.8"/>
      </g>
     </g>
     <g id="line2d_33">
      <g>
       <use style="stroke:#000000;stroke-width:0.5;" x="427.334499821" xlink:href="#m741efc42ff" y="7.2"/>
      </g>
     </g>
     <g id="text_8">
      <!-- 8 -->
      <defs>
       <path d="
M31.7812 34.625
Q24.75 34.625 20.7188 30.8594
Q16.7031 27.0938 16.7031 20.5156
Q16.7031 13.9219 20.7188 10.1562
Q24.75 6.39062 31.7812 6.39062
Q38.8125 6.39062 42.8594 10.1719
Q46.9219 13.9688 46.9219 20.5156
Q46.9219 27.0938 42.8906 30.8594
Q38.875 34.625 31.7812 34.625
M21.9219 38.8125
Q15.5781 40.375 12.0312 44.7188
Q8.5 49.0781 8.5 55.3281
Q8.5 64.0625 14.7188 69.1406
Q20.9531 74.2188 31.7812 74.2188
Q42.6719 74.2188 48.875 69.1406
Q55.0781 64.0625 55.0781 55.3281
Q55.0781 49.0781 51.5312 44.7188
Q48 40.375 41.7031 38.8125
Q48.8281 37.1562 52.7969 32.3125
Q56.7812 27.4844 56.7812 20.5156
Q56.7812 9.90625 50.3125 4.23438
Q43.8438 -1.42188 31.7812 -1.42188
Q19.7344 -1.42188 13.25 4.23438
Q6.78125 9.90625 6.78125 20.5156
Q6.78125 27.4844 10.7812 32.3125
Q14.7969 37.1562 21.9219 38.8125
M18.3125 54.3906
Q18.3125 48.7344 21.8438 45.5625
Q25.3906 42.3906 31.7812 42.3906
Q38.1406 42.3906 41.7188 45.5625
Q45.3125 48.7344 45.3125 54.3906
Q45.3125 60.0625 41.7188 63.2344
Q38.1406 66.4062 31.7812 66.4062
Q25.3906 66.4062 21.8438 63.2344
Q18.3125 60.0625 18.3125 54.3906" id="BitstreamVeraSans-Roman-38"/>
      </defs>
      <g transform="translate(422.334499821 371.996875)scale(0.2 -0.2)">
       <use xlink:href="#BitstreamVeraSans-Roman-38"/>
      </g>
     </g>
    </g>
    <g id="xtick_10"/>
    <g id="xtick_11">
     <g id="line2d_34">
      <defs>
       <path d="
M0 0
L0 -2" id="m177f7580d0" style="stroke:#000000;stroke-width:0.5;"/>
      </defs>
      <g>
       <use style="stroke:#000000;stroke-width:0.5;" x="59.6174973142" xlink:href="#m177f7580d0" y="352.8"/>
      </g>
     </g>
     <g id="line2d_35">
      <defs>
       <path d="
M0 0
L0 2" id="m5284c7e2a0" style="stroke:#000000;stroke-width:0.5;"/>
      </defs>
      <g>
       <use style="stroke:#000000;stroke-width:0.5;" x="59.6174973142" xlink:href="#m5284c7e2a0" y="7.2"/>
      </g>
     </g>
    </g>
    <g id="xtick_12">
     <g id="line2d_36">
      <g>
       <use style="stroke:#000000;stroke-width:0.5;" x="112.148497672" xlink:href="#m177f7580d0" y="352.8"/>
      </g>
     </g>
     <g id="line2d_37">
      <g>
       <use style="stroke:#000000;stroke-width:0.5;" x="112.148497672" xlink:href="#m5284c7e2a0" y="7.2"/>
      </g>
     </g>
    </g>
    <g id="xtick_13">
     <g id="line2d_38">
      <g>
       <use style="stroke:#000000;stroke-width:0.5;" x="164.67949803" xlink:href="#m177f7580d0" y="352.8"/>
      </g>
     </g>
     <g id="line2d_39">
      <g>
       <use style="stroke:#000000;stroke-width:0.5;" x="164.67949803" xlink:href="#m5284c7e2a0" y="7.2"/>
      </g>
     </g>
    </g>
    <g id="xtick_14">
     <g id="line2d_40">
      <g>
       <use style="stroke:#000000;stroke-width:0.5;" x="217.210498389" xlink:href="#m177f7580d0" y="352.8"/>
      </g>
     </g>
     <g id="line2d_41">
      <g>
       <use style="stroke:#000000;stroke-width:0.5;" x="217.210498389" xlink:href="#m5284c7e2a0" y="7.2"/>
      </g>
     </g>
    </g>
    <g id="xtick_15">
     <g id="line2d_42">
      <g>
       <use style="stroke:#000000;stroke-width:0.5;" x="269.741498747" xlink:href="#m177f7580d0" y="352.8"/>
      </g>
     </g>
     <g id="line2d_43">
      <g>
       <use style="stroke:#000000;stroke-width:0.5;" x="269.741498747" xlink:href="#m5284c7e2a0" y="7.2"/>
      </g>
     </g>
    </g>
    <g id="xtick_16">
     <g id="line2d_44">
      <g>
       <use style="stroke:#000000;stroke-width:0.5;" x="322.272499105" xlink:href="#m177f7580d0" y="352.8"/>
      </g>
     </g>
     <g id="line2d_45">
      <g>
       <use style="stroke:#000000;stroke-width:0.5;" x="322.272499105" xlink:href="#m5284c7e2a0" y="7.2"/>
      </g>
     </g>
    </g>
    <g id="xtick_17">
     <g id="line2d_46">
      <g>
       <use style="stroke:#000000;stroke-width:0.5;" x="374.803499463" xlink:href="#m177f7580d0" y="352.8"/>
      </g>
     </g>
     <g id="line2d_47">
      <g>
       <use style="stroke:#000000;stroke-width:0.5;" x="374.803499463" xlink:href="#m5284c7e2a0" y="7.2"/>
      </g>
     </g>
    </g>
    <g id="xtick_18">
     <g id="line2d_48">
      <g>
       <use style="stroke:#000000;stroke-width:0.5;" x="427.334499821" xlink:href="#m177f7580d0" y="352.8"/>
      </g>
     </g>
     <g id="line2d_49">
      <g>
       <use style="stroke:#000000;stroke-width:0.5;" x="427.334499821" xlink:href="#m5284c7e2a0" y="7.2"/>
      </g>
     </g>
    </g>
    <g id="text_9">
     <!-- log10 of Df -->
     <defs>
      <path id="BitstreamVeraSans-Roman-20"/>
      <path d="
M12.4062 8.29688
L28.5156 8.29688
L28.5156 63.9219
L10.9844 60.4062
L10.9844 69.3906
L28.4219 72.9062
L38.2812 72.9062
L38.2812 8.29688
L54.3906 8.29688
L54.3906 0
L12.4062 0
z
" id="BitstreamVeraSans-Roman-31"/>
      <path d="
M30.6094 48.3906
Q23.3906 48.3906 19.1875 42.75
Q14.9844 37.1094 14.9844 27.2969
Q14.9844 17.4844 19.1562 11.8438
Q23.3438 6.20312 30.6094 6.20312
Q37.7969 6.20312 41.9844 11.8594
Q46.1875 17.5312 46.1875 27.2969
Q46.1875 37.0156 41.9844 42.7031
Q37.7969 48.3906 30.6094 48.3906
M30.6094 56
Q42.3281 56 49.0156 48.375
Q55.7188 40.7656 55.7188 27.2969
Q55.7188 13.875 49.0156 6.21875
Q42.3281 -1.42188 30.6094 -1.42188
Q18.8438 -1.42188 12.1719 6.21875
Q5.51562 13.875 5.51562 27.2969
Q5.51562 40.7656 12.1719 48.375
Q18.8438 56 30.6094 56" id="BitstreamVeraSans-Roman-6f"/>
      <path d="
M9.42188 75.9844
L18.4062 75.9844
L18.4062 0
L9.42188 0
z
" id="BitstreamVeraSans-Roman-6c"/>
      <path d="
M19.6719 64.7969
L19.6719 8.10938
L31.5938 8.10938
Q46.6875 8.10938 53.6875 14.9375
Q60.6875 21.7812 60.6875 36.5312
Q60.6875 51.1719 53.6875 57.9844
Q46.6875 64.7969 31.5938 64.7969
z

M9.8125 72.9062
L30.0781 72.9062
Q51.2656 72.9062 61.1719 64.0938
Q71.0938 55.2812 71.0938 36.5312
Q71.0938 17.6719 61.125 8.82812
Q51.1719 0 30.0781 0
L9.8125 0
z
" id="BitstreamVeraSans-Roman-44"/>
      <path d="
M45.4062 27.9844
Q45.4062 37.75 41.375 43.1094
Q37.3594 48.4844 30.0781 48.4844
Q22.8594 48.4844 18.8281 43.1094
Q14.7969 37.75 14.7969 27.9844
Q14.7969 18.2656 18.8281 12.8906
Q22.8594 7.51562 30.0781 7.51562
Q37.3594 7.51562 41.375 12.8906
Q45.4062 18.2656 45.4062 27.9844
M54.3906 6.78125
Q54.3906 -7.17188 48.1875 -13.9844
Q42 -20.7969 29.2031 -20.7969
Q24.4688 -20.7969 20.2656 -20.0938
Q16.0625 -19.3906 12.1094 -17.9219
L12.1094 -9.1875
Q16.0625 -11.3281 19.9219 -12.3438
Q23.7812 -13.375 27.7812 -13.375
Q36.625 -13.375 41.0156 -8.76562
Q45.4062 -4.15625 45.4062 5.17188
L45.4062 9.625
Q42.625 4.78125 38.2812 2.39062
Q33.9375 0 27.875 0
Q17.8281 0 11.6719 7.65625
Q5.51562 15.3281 5.51562 27.9844
Q5.51562 40.6719 11.6719 48.3281
Q17.8281 56 27.875 56
Q33.9375 56 38.2812 53.6094
Q42.625 51.2188 45.4062 46.3906
L45.4062 54.6875
L54.3906 54.6875
z
" id="BitstreamVeraSans-Roman-67"/>
      <path d="
M37.1094 75.9844
L37.1094 68.5
L28.5156 68.5
Q23.6875 68.5 21.7969 66.5469
Q19.9219 64.5938 19.9219 59.5156
L19.9219 54.6875
L34.7188 54.6875
L34.7188 47.7031
L19.9219 47.7031
L19.9219 0
L10.8906 0
L10.8906 47.7031
L2.29688 47.7031
L2.29688 54.6875
L10.8906 54.6875
L10.8906 58.5
Q10.8906 67.625 15.1406 71.7969
Q19.3906 75.9844 28.6094 75.9844
z
" id="BitstreamVeraSans-Roman-66"/>
     </defs>
     <g transform="translate(175.0234375 396.353125)scale(0.2 -0.2)">
      <use xlink:href="#BitstreamVeraSans-Roman-6c"/>
      <use x="27.783203125" xlink:href="#BitstreamVeraSans-Roman-6f"/>
      <use x="88.96484375" xlink:href="#BitstreamVeraSans-Roman-67"/>
      <use x="152.44140625" xlink:href="#BitstreamVeraSans-Roman-31"/>
      <use x="216.064453125" xlink:href="#BitstreamVeraSans-Roman-30"/>
      <use x="279.6875" xlink:href="#BitstreamVeraSans-Roman-20"/>
      <use x="311.474609375" xlink:href="#BitstreamVeraSans-Roman-6f"/>
      <use x="372.65625" xlink:href="#BitstreamVeraSans-Roman-66"/>
      <use x="407.861328125" xlink:href="#BitstreamVeraSans-Roman-20"/>
      <use x="439.6484375" xlink:href="#BitstreamVeraSans-Roman-44"/>
      <use x="516.650390625" xlink:href="#BitstreamVeraSans-Roman-66"/>
     </g>
    </g>
   </g>
   <g id="matplotlib.axis_2">
    <g id="ytick_1">
     <g id="line2d_50">
      <path clip-path="url(#p99b4b0da67)" d="
M7.2 352.8
L453.6 352.8" style="fill:none;stroke:#000000;stroke-dasharray:1.000000,3.000000;stroke-dashoffset:0.0;stroke-width:0.5;"/>
     </g>
     <g id="line2d_51">
      <defs>
       <path d="
M0 0
L4 0" id="m728421d6d4" style="stroke:#000000;stroke-width:0.5;"/>
      </defs>
      <g>
       <use style="stroke:#000000;stroke-width:0.5;" x="7.2" xlink:href="#m728421d6d4" y="352.8"/>
      </g>
     </g>
     <g id="line2d_52">
      <defs>
       <path d="
M0 0
L-4 0" id="mcb0005524f" style="stroke:#000000;stroke-width:0.5;"/>
      </defs>
      <g>
       <use style="stroke:#000000;stroke-width:0.5;" x="453.6" xlink:href="#mcb0005524f" y="352.8"/>
      </g>
     </g>
    </g>
    <g id="ytick_2">
     <g id="line2d_53">
      <path clip-path="url(#p99b4b0da67)" d="
M7.2 284.364
L453.6 284.364" style="fill:none;stroke:#000000;stroke-dasharray:1.000000,3.000000;stroke-dashoffset:0.0;stroke-width:0.5;"/>
     </g>
     <g id="line2d_54">
      <g>
       <use style="stroke:#000000;stroke-width:0.5;" x="7.2" xlink:href="#m728421d6d4" y="284.364356436"/>
      </g>
     </g>
     <g id="line2d_55">
      <g>
       <use style="stroke:#000000;stroke-width:0.5;" x="453.6" xlink:href="#mcb0005524f" y="284.364356436"/>
      </g>
     </g>
    </g>
    <g id="ytick_3">
     <g id="line2d_56">
      <path clip-path="url(#p99b4b0da67)" d="
M7.2 215.929
L453.6 215.929" style="fill:none;stroke:#000000;stroke-dasharray:1.000000,3.000000;stroke-dashoffset:0.0;stroke-width:0.5;"/>
     </g>
     <g id="line2d_57">
      <g>
       <use style="stroke:#000000;stroke-width:0.5;" x="7.2" xlink:href="#m728421d6d4" y="215.928712871"/>
      </g>
     </g>
     <g id="line2d_58">
      <g>
       <use style="stroke:#000000;stroke-width:0.5;" x="453.6" xlink:href="#mcb0005524f" y="215.928712871"/>
      </g>
     </g>
    </g>
    <g id="ytick_4">
     <g id="line2d_59">
      <path clip-path="url(#p99b4b0da67)" d="
M7.2 147.493
L453.6 147.493" style="fill:none;stroke:#000000;stroke-dasharray:1.000000,3.000000;stroke-dashoffset:0.0;stroke-width:0.5;"/>
     </g>
     <g id="line2d_60">
      <g>
       <use style="stroke:#000000;stroke-width:0.5;" x="7.2" xlink:href="#m728421d6d4" y="147.493069307"/>
      </g>
     </g>
     <g id="line2d_61">
      <g>
       <use style="stroke:#000000;stroke-width:0.5;" x="453.6" xlink:href="#mcb0005524f" y="147.493069307"/>
      </g>
     </g>
    </g>
    <g id="ytick_5">
     <g id="line2d_62">
      <path clip-path="url(#p99b4b0da67)" d="
M7.2 79.0574
L453.6 79.0574" style="fill:none;stroke:#000000;stroke-dasharray:1.000000,3.000000;stroke-dashoffset:0.0;stroke-width:0.5;"/>
     </g>
     <g id="line2d_63">
      <g>
       <use style="stroke:#000000;stroke-width:0.5;" x="7.2" xlink:href="#m728421d6d4" y="79.0574257426"/>
      </g>
     </g>
     <g id="line2d_64">
      <g>
       <use style="stroke:#000000;stroke-width:0.5;" x="453.6" xlink:href="#mcb0005524f" y="79.0574257426"/>
      </g>
     </g>
    </g>
    <g id="ytick_6">
     <g id="line2d_65">
      <path clip-path="url(#p99b4b0da67)" d="
M7.2 10.6218
L453.6 10.6218" style="fill:none;stroke:#000000;stroke-dasharray:1.000000,3.000000;stroke-dashoffset:0.0;stroke-width:0.5;"/>
     </g>
     <g id="line2d_66">
      <g>
       <use style="stroke:#000000;stroke-width:0.5;" x="7.2" xlink:href="#m728421d6d4" y="10.6217821782"/>
      </g>
     </g>
     <g id="line2d_67">
      <g>
       <use style="stroke:#000000;stroke-width:0.5;" x="453.6" xlink:href="#mcb0005524f" y="10.6217821782"/>
      </g>
     </g>
    </g>
   </g>
   <g id="text_10">
    <!-- {f1-f5}, 20-D -->
    <defs>
     <path d="
M12.5 -9.28125
L15.9219 -9.28125
Q22.75 -9.28125 24.8281 -7.17188
Q26.9062 -5.07812 26.9062 1.90625
L26.9062 14.0156
Q26.9062 21.625 29.0938 25.0938
Q31.2969 28.5625 36.7188 29.8906
Q31.2969 31.1094 29.0938 34.5625
Q26.9062 38.0312 26.9062 45.7031
L26.9062 57.8125
Q26.9062 64.75 24.8281 66.875
Q22.75 69 15.9219 69
L12.5 69
L12.5 75.9844
L15.5781 75.9844
Q27.7344 75.9844 31.8125 72.3906
Q35.8906 68.7969 35.8906 58.0156
L35.8906 46.2969
Q35.8906 39.0156 38.5156 36.2031
Q41.1562 33.4062 48.0938 33.4062
L51.125 33.4062
L51.125 26.4219
L48.0938 26.4219
Q41.1562 26.4219 38.5156 23.5781
Q35.8906 20.75 35.8906 13.375
L35.8906 1.70312
Q35.8906 -9.07812 31.8125 -12.6875
Q27.7344 -16.3125 15.5781 -16.3125
L12.5 -16.3125
z
" id="BitstreamVeraSans-Roman-7d"/>
     <path d="
M51.125 -9.28125
L51.125 -16.3125
L48.0938 -16.3125
Q35.9375 -16.3125 31.8125 -12.6875
Q27.6875 -9.07812 27.6875 1.70312
L27.6875 13.375
Q27.6875 20.75 25.0469 23.5781
Q22.4062 26.4219 15.4844 26.4219
L12.5 26.4219
L12.5 33.4062
L15.4844 33.4062
Q22.4688 33.4062 25.0781 36.2031
Q27.6875 39.0156 27.6875 46.2969
L27.6875 58.0156
Q27.6875 68.7969 31.8125 72.3906
Q35.9375 75.9844 48.0938 75.9844
L51.125 75.9844
L51.125 69
L47.7969 69
Q40.9219 69 38.8125 66.8438
Q36.7188 64.7031 36.7188 57.8125
L36.7188 45.7031
Q36.7188 38.0312 34.5 34.5625
Q32.2812 31.1094 26.9062 29.8906
Q32.3281 28.5625 34.5156 25.0938
Q36.7188 21.625 36.7188 14.0156
L36.7188 1.90625
Q36.7188 -4.98438 38.8125 -7.125
Q40.9219 -9.28125 47.7969 -9.28125
z
" id="BitstreamVeraSans-Roman-7b"/>
     <path d="
M11.7188 12.4062
L22.0156 12.4062
L22.0156 4
L14.0156 -11.625
L7.71875 -11.625
L11.7188 4
z
" id="BitstreamVeraSans-Roman-2c"/>
     <path d="
M10.7969 72.9062
L49.5156 72.9062
L49.5156 64.5938
L19.8281 64.5938
L19.8281 46.7344
Q21.9688 47.4688 24.1094 47.8281
Q26.2656 48.1875 28.4219 48.1875
Q40.625 48.1875 47.75 41.5
Q54.8906 34.8125 54.8906 23.3906
Q54.8906 11.625 47.5625 5.09375
Q40.2344 -1.42188 26.9062 -1.42188
Q22.3125 -1.42188 17.5469 -0.640625
Q12.7969 0.140625 7.71875 1.70312
L7.71875 11.625
Q12.1094 9.23438 16.7969 8.0625
Q21.4844 6.89062 26.7031 6.89062
Q35.1562 6.89062 40.0781 11.3281
Q45.0156 15.7656 45.0156 23.3906
Q45.0156 31 40.0781 35.4375
Q35.1562 39.8906 26.7031 39.8906
Q22.75 39.8906 18.8125 39.0156
Q14.8906 38.1406 10.7969 36.2812
z
" id="BitstreamVeraSans-Roman-35"/>
    </defs>
    <g transform="translate(312.87825 345.888)scale(0.2 -0.2)">
     <use xlink:href="#BitstreamVeraSans-Roman-7b"/>
     <use x="63.623046875" xlink:href="#BitstreamVeraSans-Roman-66"/>
     <use x="98.828125" xlink:href="#BitstreamVeraSans-Roman-31"/>
     <use x="162.451171875" xlink:href="#BitstreamVeraSans-Roman-2d"/>
     <use x="198.53515625" xlink:href="#BitstreamVeraSans-Roman-66"/>
     <use x="233.740234375" xlink:href="#BitstreamVeraSans-Roman-35"/>
     <use x="297.36328125" xlink:href="#BitstreamVeraSans-Roman-7d"/>
     <use x="360.986328125" xlink:href="#BitstreamVeraSans-Roman-2c"/>
     <use x="392.7734375" xlink:href="#BitstreamVeraSans-Roman-20"/>
     <use x="424.560546875" xlink:href="#BitstreamVeraSans-Roman-32"/>
     <use x="488.18359375" xlink:href="#BitstreamVeraSans-Roman-30"/>
     <use x="551.806640625" xlink:href="#BitstreamVeraSans-Roman-2d"/>
     <use x="587.890625" xlink:href="#BitstreamVeraSans-Roman-44"/>
    </g>
   </g>
   <g id="text_11">
    <!-- v2.1.1.3 -->
    <defs>
     <path d="
M2.98438 54.6875
L12.5 54.6875
L29.5938 8.79688
L46.6875 54.6875
L56.2031 54.6875
L35.6875 0
L23.4844 0
z
" id="BitstreamVeraSans-Roman-76"/>
     <path d="
M40.5781 39.3125
Q47.6562 37.7969 51.625 33
Q55.6094 28.2188 55.6094 21.1875
Q55.6094 10.4062 48.1875 4.48438
Q40.7656 -1.42188 27.0938 -1.42188
Q22.5156 -1.42188 17.6562 -0.515625
Q12.7969 0.390625 7.625 2.20312
L7.625 11.7188
Q11.7188 9.32812 16.5938 8.10938
Q21.4844 6.89062 26.8125 6.89062
Q36.0781 6.89062 40.9375 10.5469
Q45.7969 14.2031 45.7969 21.1875
Q45.7969 27.6406 41.2812 31.2656
Q36.7656 34.9062 28.7188 34.9062
L20.2188 34.9062
L20.2188 43.0156
L29.1094 43.0156
Q36.375 43.0156 40.2344 45.9219
Q44.0938 48.8281 44.0938 54.2969
Q44.0938 59.9062 40.1094 62.9062
Q36.1406 65.9219 28.7188 65.9219
Q24.6562 65.9219 20.0156 65.0312
Q15.375 64.1562 9.8125 62.3125
L9.8125 71.0938
Q15.4375 72.6562 20.3438 73.4375
Q25.25 74.2188 29.5938 74.2188
Q40.8281 74.2188 47.3594 69.1094
Q53.9062 64.0156 53.9062 55.3281
Q53.9062 49.2656 50.4375 45.0938
Q46.9688 40.9219 40.5781 39.3125" id="BitstreamVeraSans-Roman-33"/>
     <path d="
M10.6875 12.4062
L21 12.4062
L21 0
L10.6875 0
z
" id="BitstreamVeraSans-Roman-2e"/>
    </defs>
    <g style="fill:#808080;" transform="translate(210.4984375 347.2643125)scale(0.1 -0.1)">
     <use xlink:href="#BitstreamVeraSans-Roman-76"/>
     <use x="59.1796875" xlink:href="#BitstreamVeraSans-Roman-32"/>
     <use x="122.802734375" xlink:href="#BitstreamVeraSans-Roman-2e"/>
     <use x="154.58984375" xlink:href="#BitstreamVeraSans-Roman-31"/>
     <use x="218.212890625" xlink:href="#BitstreamVeraSans-Roman-2e"/>
     <use x="250.0" xlink:href="#BitstreamVeraSans-Roman-31"/>
     <use x="313.623046875" xlink:href="#BitstreamVeraSans-Roman-2e"/>
     <use x="345.41015625" xlink:href="#BitstreamVeraSans-Roman-33"/>
    </g>
   </g>
  </g>
 </g>
 <defs>
  <clipPath id="p99b4b0da67">
   <rect height="345.6" width="446.4" x="7.2" y="7.2"/>
  </clipPath>
 </defs>
</svg>
