<?xml version="1.0" encoding="utf-8" standalone="no"?>
<!DOCTYPE svg PUBLIC "-//W3C//DTD SVG 1.1//EN"
  "http://www.w3.org/Graphics/SVG/1.1/DTD/svg11.dtd">
<!-- Created with matplotlib (http://matplotlib.org/) -->
<svg height="407pt" version="1.1" viewBox="0 0 460 407" width="460pt" xmlns="http://www.w3.org/2000/svg" xmlns:xlink="http://www.w3.org/1999/xlink">
 <defs>
  <style type="text/css">
*{stroke-linecap:butt;stroke-linejoin:round;}
  </style>
 </defs>
 <g id="figure_1">
  <g id="patch_1">
   <path d="
M0 407.712
L460.8 407.712
L460.8 0
L0 0
z
" style="fill:#ffffff;"/>
  </g>
  <g id="axes_1">
   <g id="patch_2">
    <path d="
M7.2 352.8
L453.6 352.8
L453.6 7.2
L7.2 7.2
z
" style="fill:#ffffff;"/>
   </g>
   <g id="line2d_1">
    <path clip-path="url(#p99b4b0da67)" d="
M-1 339.113
L0.752415 339.113
L0.752415 334.55
L2.22114 334.55
L2.22114 329.988
L4.51061 329.988
L4.56714 320.863
L4.65255 320.863
L4.65255 316.301
L4.76531 316.301
L4.76531 311.739
L4.97699 311.739
L4.97699 307.176
L5.35756 307.176
L5.35756 302.614
L5.50643 302.614
L5.50643 298.051
L5.66595 298.051
L5.66595 293.489
L6.35275 293.489
L6.35275 288.927
L6.52596 288.927
L6.52596 284.364
L6.7528 284.364
L6.7528 279.802
L6.94145 279.802
L6.94145 275.24
L184.969 275.24
L184.969 247.865
L190.394 247.865
L190.394 243.303
L195.932 243.303
L195.932 238.741
L197.45 238.741
L197.45 234.178
L204.211 234.178
L204.211 229.616
L206.272 229.616
L206.272 225.053
L207.448 225.053
L207.448 220.491
L207.861 220.491
L207.861 215.929
L209.485 215.929
L209.485 211.366
L210.017 211.366
L210.017 206.804
L210.384 206.804
L210.384 202.242
L212.355 202.242
L212.355 197.679
L213.008 197.679
L213.008 183.992
L215.872 183.992
L215.872 179.43
L216.306 179.43
L216.306 174.867
L218.666 174.867
L218.666 170.305
L219.436 170.305
L219.436 165.743
L223.934 165.743
L223.934 156.618
L224.858 156.618
L224.858 120.119
L225.114 120.119
L225.114 115.556
L225.364 115.556
L225.364 110.994
L228.865 110.994
L228.865 106.432
L235.712 106.432
L235.712 88.1822
L240.724 88.1822
L240.724 83.6198
L241.943 83.6198
L241.943 79.0574
L250.096 79.0574
L250.096 74.495
L251.467 74.495
L251.534 65.3703
L251.582 65.3703
L251.582 60.8079
L251.696 60.8079
L251.771 47.1208
L254.105 47.1208
L254.105 42.5584
L256.386 42.5584
L256.386 37.996
L259.644 37.996
L259.644 33.4337
L261.206 33.4337
L261.206 28.8713
L261.55 28.8713
L261.555 19.7465
L261.971 19.7465
L261.971 15.1842
L262.125 15.1842
L262.125 10.6218
L262.125 10.6218
L453.6 10.6218
L453.6 10.6218" style="fill:none;stroke:#ff0000;stroke-linecap:square;stroke-width:3.0;"/>
   </g>
   <g id="line2d_2">
    <path clip-path="url(#p99b4b0da67)" d="
M237.507 352.8
L237.507 348.238
L238.735 348.238
L238.735 343.675
L238.891 343.675
L238.891 339.113
L239.151 339.113
L239.151 334.55
L239.408 334.55
L239.408 329.988
L239.911 329.988
L239.911 325.426
L240.391 325.426
L240.434 316.301
L241.01 316.301
L241.01 311.739
L242.488 311.739
L242.598 302.614
L242.704 302.614
L242.704 298.051
L243.431 298.051
L243.431 293.489
L243.813 293.489
L243.922 284.364
L265.273 284.364
L265.273 279.802
L265.664 279.802
L265.664 275.24
L265.782 275.24
L265.782 270.677
L265.936 270.677
L265.936 266.115
L266.303 266.115
L266.303 261.552
L266.729 261.552
L266.782 247.865
L266.859 247.865
L266.965 229.616
L266.988 229.616
L267.097 215.929
L267.102 215.929
L267.157 202.242
L267.264 202.242
L267.33 193.117
L267.449 193.117
L267.556 165.743
L267.599 165.743
L267.709 147.493
L280.127 147.493
L280.127 142.931
L281.101 142.931
L281.101 138.368
L281.698 138.368
L281.698 133.806
L282.019 133.806
L282.019 129.244
L282.45 129.244
L282.534 120.119
L282.582 120.119
L282.582 115.556
L282.761 115.556
L282.761 110.994
L282.94 110.994
L283.019 101.869
L283.26 101.869
L283.26 97.3069
L283.776 97.3069
L283.776 92.7446
L284.023 92.7446
L284.023 88.1822
L284.614 88.1822
L284.614 83.6198
L285.006 83.6198
L285.006 79.0574
L316.401 79.0574
L316.401 74.495
L316.857 74.495
L316.857 69.9327
L318.909 69.9327
L318.909 65.3703
L329.178 65.3703
L329.178 10.6218
L329.178 10.6218
L453.6 10.6218
L453.6 10.6218" style="fill:none;stroke:#00bfbf;stroke-linecap:square;"/>
   </g>
   <g id="line2d_3">
    <path clip-path="url(#p99b4b0da67)" d="
M235.897 352.8
L235.897 348.238
L236.999 348.238
L236.999 343.675
L237.779 343.675
L237.779 339.113
L238.026 339.113
L238.026 334.55
L238.33 334.55
L238.33 329.988
L238.735 329.988
L238.735 325.426
L239.151 325.426
L239.151 320.863
L239.911 320.863
L239.966 311.739
L240.155 311.739
L240.155 307.176
L240.857 307.176
L240.857 302.614
L241.183 302.614
L241.183 298.051
L242.215 298.051
L242.215 293.489
L242.488 293.489
L242.488 288.927
L243.431 288.927
L243.431 284.364
L265.24 284.364
L265.24 279.802
L265.664 279.802
L265.739 266.115
L265.936 266.115
L265.936 261.552
L266.053 261.552
L266.124 252.428
L266.358 252.428
L266.431 238.741
L266.477 238.741
L266.477 234.178
L266.636 234.178
L266.744 225.053
L266.753 225.053
L266.859 211.366
L266.874 211.366
L266.927 197.679
L266.997 197.679
L267.097 188.554
L267.144 188.554
L267.189 179.43
L267.274 179.43
L267.353 161.18
L267.45 161.18
L267.552 152.055
L267.679 152.055
L267.679 147.493
L280.127 147.493
L280.127 142.931
L281.101 142.931
L281.101 138.368
L281.698 138.368
L281.698 133.806
L282.019 133.806
L282.019 129.244
L282.45 129.244
L282.534 120.119
L282.582 120.119
L282.582 115.556
L282.761 115.556
L282.761 110.994
L282.94 110.994
L283.019 101.869
L283.26 101.869
L283.26 97.3069
L283.776 97.3069
L283.776 92.7446
L284.023 92.7446
L284.044 83.6198
L284.614 83.6198
L284.614 79.0574
L316.401 79.0574
L316.401 74.495
L316.857 74.495
L316.857 69.9327
L318.909 69.9327
L318.909 65.3703
L324.31 65.3703
L324.31 60.8079
L325.845 60.8079
L325.845 56.2455
L326.567 56.2455
L326.567 51.6832
L329.178 51.6832
L329.178 10.6218
L329.178 10.6218
L453.6 10.6218
L453.6 10.6218" style="fill:none;stroke:#bf00bf;stroke-linecap:square;"/>
   </g>
   <g id="line2d_4">
    <path clip-path="url(#p99b4b0da67)" d="
M234.268 352.8
L234.268 348.238
L234.839 348.238
L234.839 343.675
L235.601 343.675
L235.601 339.113
L235.897 339.113
L235.897 334.55
L236.203 334.55
L236.203 329.988
L236.323 329.988
L236.353 320.863
L237.039 320.863
L237.039 316.301
L238.33 316.301
L238.33 311.739
L238.672 311.739
L238.672 307.176
L239.911 307.176
L239.911 302.614
L240.155 302.614
L240.155 298.051
L240.61 298.051
L240.61 293.489
L240.87 293.489
L240.87 288.927
L242.187 288.927
L242.187 284.364
L262.859 284.364
L262.859 279.802
L263.764 279.802
L263.764 275.24
L264.48 275.24
L264.48 270.677
L265.24 270.677
L265.24 266.115
L265.501 266.115
L265.504 256.99
L265.662 256.99
L265.724 234.178
L265.849 234.178
L265.94 225.053
L266.016 225.053
L266.016 220.491
L266.293 220.491
L266.379 206.804
L266.415 206.804
L266.501 197.679
L266.636 197.679
L266.727 183.992
L266.808 183.992
L266.874 170.305
L267.024 170.305
L267.045 161.18
L267.267 161.18
L267.286 152.055
L267.458 152.055
L267.458 147.493
L280.127 147.493
L280.127 142.931
L281.101 142.931
L281.188 133.806
L281.698 133.806
L281.698 129.244
L282.019 129.244
L282.019 124.681
L282.45 124.681
L282.534 115.556
L282.739 115.556
L282.817 101.869
L282.942 101.869
L282.942 97.3069
L283.26 97.3069
L283.26 92.7446
L283.776 92.7446
L283.776 88.1822
L284.004 88.1822
L284.023 79.0574
L305.765 79.0574
L305.765 74.495
L307.153 74.495
L307.153 69.9327
L308.196 69.9327
L308.196 65.3703
L316.401 65.3703
L316.401 60.8079
L316.857 60.8079
L316.857 56.2455
L318.256 56.2455
L318.256 51.6832
L318.909 51.6832
L318.909 47.1208
L319.455 47.1208
L319.519 37.996
L324.31 37.996
L324.31 33.4337
L325.726 33.4337
L325.726 28.8713
L325.856 28.8713
L325.856 24.3089
L326.567 24.3089
L326.567 19.7465
L326.721 19.7465
L326.721 15.1842
L329.178 15.1842
L329.178 10.6218
L329.178 10.6218
L453.6 10.6218
L453.6 10.6218" style="fill:none;stroke:#000000;stroke-linecap:square;"/>
   </g>
   <g id="line2d_5">
    <path clip-path="url(#p99b4b0da67)" d="
M231.375 352.8
L231.375 348.238
L233.513 348.238
L233.513 343.675
L233.987 343.675
L233.987 339.113
L234.268 339.113
L234.268 334.55
L234.839 334.55
L234.839 329.988
L235.304 329.988
L235.304 325.426
L235.897 325.426
L235.897 320.863
L236.323 320.863
L236.323 316.301
L236.894 316.301
L236.894 311.739
L237.279 311.739
L237.279 307.176
L237.46 307.176
L237.46 302.614
L238.079 302.614
L238.083 293.489
L238.641 293.489
L238.641 288.927
L239.82 288.927
L239.911 279.802
L247.68 279.802
L247.68 275.24
L249.908 275.24
L249.908 270.677
L250.107 270.677
L250.107 266.115
L252.967 266.115
L252.967 261.552
L253.484 261.552
L253.55 252.428
L254.523 252.428
L254.523 247.865
L255.844 247.865
L255.844 243.303
L256.366 243.303
L256.433 234.178
L256.743 234.178
L256.743 229.616
L257.973 229.616
L258.006 220.491
L258.555 220.491
L258.555 215.929
L259.244 215.929
L259.323 206.804
L259.566 206.804
L259.566 202.242
L259.825 202.242
L259.825 197.679
L260.605 197.679
L260.605 193.117
L261.029 193.117
L261.029 188.554
L261.781 188.554
L261.781 183.992
L261.989 183.992
L261.989 179.43
L262.224 179.43
L262.224 174.867
L262.622 174.867
L262.622 170.305
L263.256 170.305
L263.256 165.743
L264.293 165.743
L264.294 156.618
L264.892 156.618
L264.892 152.055
L265.328 152.055
L265.328 147.493
L266.132 147.493
L266.132 142.931
L268.769 142.931
L268.769 138.368
L269.444 138.368
L269.444 133.806
L274.504 133.806
L274.504 129.244
L277.595 129.244
L277.595 124.681
L277.808 124.681
L277.808 120.119
L278.556 120.119
L278.556 115.556
L278.8 115.556
L278.8 110.994
L278.925 110.994
L278.925 106.432
L279.13 106.432
L279.13 101.869
L279.308 101.869
L279.411 88.1822
L279.802 88.1822
L279.853 79.0574
L280.165 79.0574
L280.165 74.495
L280.702 74.495
L280.778 65.3703
L281.124 65.3703
L281.124 60.8079
L286.151 60.8079
L286.151 56.2455
L288.086 56.2455
L288.086 51.6832
L291.253 51.6832
L291.253 47.1208
L293.098 47.1208
L293.098 42.5584
L295.851 42.5584
L295.851 37.996
L300.067 37.996
L300.067 33.4337
L300.801 33.4337
L300.801 28.8713
L301.585 28.8713
L301.585 24.3089
L301.972 24.3089
L302.077 15.1842
L304.764 15.1842
L304.764 10.6218
L304.764 10.6218
L453.6 10.6218
L453.6 10.6218" style="fill:none;stroke:#00bfbf;stroke-linecap:square;"/>
   </g>
   <g id="line2d_6">
    <path clip-path="url(#p99b4b0da67)" d="
M-1 348.238
L4.65255 348.238
L4.65255 343.675
L25.58 343.675
L25.58 339.113
L61.6898 339.113
L61.6898 334.55
L213.008 334.55
L213.008 329.988
L213.213 329.988
L213.213 325.426
L218.543 325.426
L218.543 320.863
L219.713 320.863
L219.713 316.301
L221.67 316.301
L221.67 311.739
L222.074 311.739
L222.074 307.176
L222.315 307.176
L222.315 302.614
L222.969 302.614
L223.074 293.489
L223.765 293.489
L223.765 288.927
L223.935 288.927
L223.935 284.364
L224.417 284.364
L224.417 279.802
L224.858 279.802
L224.944 247.865
L225.014 247.865
L225.014 243.303
L225.332 243.303
L225.364 229.616
L225.471 229.616
L225.471 225.053
L226.379 225.053
L226.471 215.929
L226.49 215.929
L226.49 211.366
L226.712 211.366
L226.712 206.804
L227.041 206.804
L227.041 202.242
L227.435 202.242
L227.435 197.679
L229.711 197.679
L229.711 193.117
L230.269 193.117
L230.269 188.554
L230.973 188.554
L230.997 179.43
L231.434 179.43
L231.434 174.867
L232.109 174.867
L232.109 170.305
L232.682 170.305
L232.682 165.743
L232.972 165.743
L233.028 156.618
L233.283 156.618
L233.283 152.055
L233.987 152.055
L233.987 147.493
L234.238 147.493
L234.238 142.931
L235.712 142.931
L235.712 133.806
L236.154 133.806
L236.154 129.244
L238.837 129.244
L238.837 124.681
L240.724 124.681
L240.724 120.119
L241.943 120.119
L241.976 106.432
L244.693 106.432
L244.693 101.869
L248.609 101.869
L248.609 97.3069
L250.362 97.3069
L250.362 92.7446
L253.079 92.7446
L253.079 88.1822
L254.144 88.1822
L254.144 83.6198
L260.09 83.6198
L260.09 79.0574
L272.031 79.0574
L272.031 74.495
L273.126 74.495
L273.126 69.9327
L273.498 69.9327
L273.586 60.8079
L273.967 60.8079
L273.967 56.2455
L274.128 56.2455
L274.128 51.6832
L274.694 51.6832
L274.754 37.996
L274.869 37.996
L274.972 28.8713
L274.999 28.8713
L274.999 24.3089
L275.133 24.3089
L275.133 19.7465
L275.27 19.7465
L275.27 15.1842
L275.418 15.1842
L275.418 10.6218
L275.418 10.6218
L453.6 10.6218
L453.6 10.6218" style="fill:none;stroke:#bf00bf;stroke-linecap:square;"/>
   </g>
   <g id="line2d_7">
    <path clip-path="url(#p99b4b0da67)" d="
M-1 348.238
L4.56714 348.238
L4.65255 339.113
L5.66595 339.113
L5.66595 334.55
L190.394 334.55
L190.394 329.988
L206.273 329.988
L206.273 325.426
L207.448 325.426
L207.448 320.863
L207.68 320.863
L207.68 316.301
L210.774 316.301
L210.774 311.739
L212.368 311.739
L212.368 307.176
L213.008 307.176
L213.008 298.051
L213.55 298.051
L213.55 293.489
L218.543 293.489
L218.543 288.927
L218.68 288.927
L218.68 284.364
L219.436 284.364
L219.436 279.802
L219.713 279.802
L219.713 275.24
L221.61 275.24
L221.61 270.677
L222.061 270.677
L222.061 266.115
L222.305 266.115
L222.305 261.552
L222.911 261.552
L222.911 252.428
L223.314 252.428
L223.314 247.865
L223.934 247.865
L224.017 238.741
L224.141 238.741
L224.141 234.178
L224.797 234.178
L224.858 202.242
L224.912 202.242
L224.912 197.679
L225.251 197.679
L225.251 193.117
L225.364 193.117
L225.416 183.992
L225.664 183.992
L225.664 179.43
L226.056 179.43
L226.056 174.867
L226.413 174.867
L226.49 165.743
L226.614 165.743
L226.716 156.618
L227.435 156.618
L227.435 152.055
L229.606 152.055
L229.606 147.493
L230.029 147.493
L230.1 138.368
L234.461 138.368
L234.461 133.806
L235.712 133.806
L235.712 124.681
L236.02 124.681
L236.02 120.119
L236.154 120.119
L236.154 115.556
L236.724 115.556
L236.724 110.994
L238.837 110.994
L238.837 106.432
L239.134 106.432
L239.134 101.869
L239.723 101.869
L239.723 97.3069
L240.724 97.3069
L240.724 92.7446
L241.943 92.7446
L241.943 88.1822
L244.693 88.1822
L244.693 83.6198
L250.362 83.6198
L250.362 79.0574
L250.871 79.0574
L250.871 74.495
L256.386 74.495
L256.386 69.9327
L256.949 69.9327
L256.949 65.3703
L259.644 65.3703
L259.644 60.8079
L260.649 60.8079
L260.649 56.2455
L261.206 56.2455
L261.238 47.1208
L261.55 47.1208
L261.555 37.996
L261.971 37.996
L262.078 28.8713
L262.384 28.8713
L262.384 24.3089
L262.934 24.3089
L262.934 19.7465
L264.184 19.7465
L264.184 15.1842
L264.644 15.1842
L264.644 10.6218
L264.644 10.6218
L453.6 10.6218
L453.6 10.6218" style="fill:none;stroke:#000000;stroke-linecap:square;"/>
   </g>
   <g id="line2d_8">
    <path clip-path="url(#p99b4b0da67)" d="
M-1 343.675
L0.752415 343.675
L0.752415 339.113
L4.56714 339.113
L4.65255 329.988
L5.66595 329.988
L5.66595 325.426
L190.394 325.426
L190.394 320.863
L195.932 320.863
L195.932 316.301
L197.45 316.301
L197.45 311.739
L204.211 311.739
L204.211 307.176
L206.272 307.176
L206.272 302.614
L207.448 302.614
L207.448 298.051
L207.861 298.051
L207.861 293.489
L209.485 293.489
L209.485 288.927
L210.017 288.927
L210.017 284.364
L210.384 284.364
L210.384 279.802
L212.355 279.802
L212.355 275.24
L213.008 275.24
L213.008 261.552
L216.306 261.552
L216.306 256.99
L218.666 256.99
L218.666 252.428
L219.436 252.428
L219.436 247.865
L221.61 247.865
L221.61 243.303
L222.061 243.303
L222.061 238.741
L222.911 238.741
L222.911 229.616
L223.314 229.616
L223.314 225.053
L223.526 225.053
L223.526 220.491
L223.934 220.491
L224.017 211.366
L224.141 211.366
L224.141 206.804
L224.286 206.804
L224.286 202.242
L224.638 202.242
L224.638 197.679
L224.797 197.679
L224.858 156.618
L225.251 156.618
L225.251 152.055
L225.364 152.055
L225.416 138.368
L226.056 138.368
L226.056 133.806
L226.413 133.806
L226.49 124.681
L228.865 124.681
L228.865 120.119
L234.897 120.119
L234.897 115.556
L235.712 115.556
L235.712 97.3069
L236.154 97.3069
L236.154 92.7446
L240.724 92.7446
L240.724 88.1822
L241.943 88.1822
L241.943 83.6198
L244.693 83.6198
L244.693 79.0574
L250.096 79.0574
L250.096 74.495
L256.386 74.495
L256.386 69.9327
L256.949 69.9327
L256.949 65.3703
L259.644 65.3703
L259.644 60.8079
L260.649 60.8079
L260.649 56.2455
L261.206 56.2455
L261.238 47.1208
L261.55 47.1208
L261.555 37.996
L261.971 37.996
L262.078 28.8713
L262.125 28.8713
L262.125 24.3089
L262.384 24.3089
L262.384 19.7465
L262.934 19.7465
L262.934 15.1842
L264.184 15.1842
L264.184 10.6218
L264.184 10.6218
L453.6 10.6218
L453.6 10.6218" style="fill:none;stroke:#00bfbf;stroke-linecap:square;"/>
   </g>
   <g id="line2d_9">
    <path clip-path="url(#p99b4b0da67)" d="
M-1 339.113
L0.752415 339.113
L0.752415 334.55
L2.22114 334.55
L2.22114 329.988
L4.51061 329.988
L4.56714 320.863
L4.65255 320.863
L4.65255 316.301
L4.76531 316.301
L4.76531 311.739
L4.97699 311.739
L4.97699 307.176
L5.35756 307.176
L5.35756 302.614
L5.50643 302.614
L5.50643 298.051
L5.66595 298.051
L5.66595 293.489
L6.35275 293.489
L6.35275 288.927
L6.52596 288.927
L6.52596 284.364
L6.7528 284.364
L6.7528 279.802
L6.94145 279.802
L6.94145 275.24
L184.969 275.24
L184.969 247.865
L190.394 247.865
L190.394 243.303
L195.932 243.303
L195.932 238.741
L197.45 238.741
L197.45 234.178
L204.211 234.178
L204.211 229.616
L206.272 229.616
L206.272 225.053
L207.448 225.053
L207.448 220.491
L207.861 220.491
L207.861 215.929
L209.485 215.929
L209.485 211.366
L210.017 211.366
L210.017 206.804
L210.384 206.804
L210.384 202.242
L212.355 202.242
L212.355 197.679
L213.008 197.679
L213.008 183.992
L215.872 183.992
L215.872 179.43
L216.306 179.43
L216.306 174.867
L218.666 174.867
L218.666 170.305
L219.436 170.305
L219.436 165.743
L223.934 165.743
L223.934 156.618
L224.858 156.618
L224.858 120.119
L225.114 120.119
L225.114 115.556
L225.364 115.556
L225.364 110.994
L228.865 110.994
L228.865 106.432
L235.712 106.432
L235.712 88.1822
L240.724 88.1822
L240.724 83.6198
L241.943 83.6198
L241.943 79.0574
L250.096 79.0574
L250.096 74.495
L251.467 74.495
L251.534 65.3703
L251.582 65.3703
L251.582 60.8079
L251.696 60.8079
L251.771 47.1208
L255.012 47.1208
L255.012 42.5584
L256.386 42.5584
L256.386 37.996
L259.644 37.996
L259.644 33.4337
L261.206 33.4337
L261.206 28.8713
L261.55 28.8713
L261.555 19.7465
L261.971 19.7465
L261.971 15.1842
L262.125 15.1842
L262.125 10.6218
L262.125 10.6218
L453.6 10.6218
L453.6 10.6218" style="fill:none;stroke:#bf00bf;stroke-linecap:square;"/>
   </g>
   <g id="patch_3">
    <path d="
M7.2 7.2
L453.6 7.2" style="fill:none;stroke:#000000;stroke-linecap:square;stroke-linejoin:miter;"/>
   </g>
   <g id="patch_4">
    <path d="
M453.6 352.8
L453.6 7.2" style="fill:none;stroke:#000000;stroke-linecap:square;stroke-linejoin:miter;"/>
   </g>
   <g id="patch_5">
    <path d="
M7.2 352.8
L453.6 352.8" style="fill:none;stroke:#000000;stroke-linecap:square;stroke-linejoin:miter;"/>
   </g>
   <g id="patch_6">
    <path d="
M7.2 352.8
L7.2 7.2" style="fill:none;stroke:#000000;stroke-linecap:square;stroke-linejoin:miter;"/>
   </g>
   <g id="matplotlib.axis_1">
    <g id="xtick_1"/>
    <g id="xtick_2">
     <g id="line2d_10">
      <path clip-path="url(#p99b4b0da67)" d="
M59.6175 352.8
L59.6175 7.2" style="fill:none;stroke:#000000;stroke-dasharray:1.000000,3.000000;stroke-dashoffset:0.0;stroke-width:0.5;"/>
     </g>
     <g id="line2d_11">
      <defs>
       <path d="
M0 0
L0 -4" id="m93b0483c22" style="stroke:#000000;stroke-width:0.5;"/>
      </defs>
      <g>
       <use style="stroke:#000000;stroke-width:0.5;" x="59.6174973142" xlink:href="#m93b0483c22" y="352.8"/>
      </g>
     </g>
     <g id="line2d_12">
      <defs>
       <path d="
M0 0
L0 4" id="m741efc42ff" style="stroke:#000000;stroke-width:0.5;"/>
      </defs>
      <g>
       <use style="stroke:#000000;stroke-width:0.5;" x="59.6174973142" xlink:href="#m741efc42ff" y="7.2"/>
      </g>
     </g>
     <g id="text_1">
      <!-- -6 -->
      <defs>
       <path d="
M33.0156 40.375
Q26.375 40.375 22.4844 35.8281
Q18.6094 31.2969 18.6094 23.3906
Q18.6094 15.5312 22.4844 10.9531
Q26.375 6.39062 33.0156 6.39062
Q39.6562 6.39062 43.5312 10.9531
Q47.4062 15.5312 47.4062 23.3906
Q47.4062 31.2969 43.5312 35.8281
Q39.6562 40.375 33.0156 40.375
M52.5938 71.2969
L52.5938 62.3125
Q48.875 64.0625 45.0938 64.9844
Q41.3125 65.9219 37.5938 65.9219
Q27.8281 65.9219 22.6719 59.3281
Q17.5312 52.7344 16.7969 39.4062
Q19.6719 43.6562 24.0156 45.9219
Q28.375 48.1875 33.5938 48.1875
Q44.5781 48.1875 50.9531 41.5156
Q57.3281 34.8594 57.3281 23.3906
Q57.3281 12.1562 50.6875 5.35938
Q44.0469 -1.42188 33.0156 -1.42188
Q20.3594 -1.42188 13.6719 8.26562
Q6.98438 17.9688 6.98438 36.375
Q6.98438 53.6562 15.1875 63.9375
Q23.3906 74.2188 37.2031 74.2188
Q40.9219 74.2188 44.7031 73.4844
Q48.4844 72.75 52.5938 71.2969" id="BitstreamVeraSans-Roman-36"/>
       <path d="
M4.89062 31.3906
L31.2031 31.3906
L31.2031 23.3906
L4.89062 23.3906
z
" id="BitstreamVeraSans-Roman-2d"/>
      </defs>
      <g transform="translate(50.7659348142 371.996875)scale(0.2 -0.2)">
       <use xlink:href="#BitstreamVeraSans-Roman-2d"/>
       <use x="36.083984375" xlink:href="#BitstreamVeraSans-Roman-36"/>
      </g>
     </g>
    </g>
    <g id="xtick_3">
     <g id="line2d_13">
      <path clip-path="url(#p99b4b0da67)" d="
M112.148 352.8
L112.148 7.2" style="fill:none;stroke:#000000;stroke-dasharray:1.000000,3.000000;stroke-dashoffset:0.0;stroke-width:0.5;"/>
     </g>
     <g id="line2d_14">
      <g>
       <use style="stroke:#000000;stroke-width:0.5;" x="112.148497672" xlink:href="#m93b0483c22" y="352.8"/>
      </g>
     </g>
     <g id="line2d_15">
      <g>
       <use style="stroke:#000000;stroke-width:0.5;" x="112.148497672" xlink:href="#m741efc42ff" y="7.2"/>
      </g>
     </g>
     <g id="text_2">
      <!-- -4 -->
      <defs>
       <path d="
M37.7969 64.3125
L12.8906 25.3906
L37.7969 25.3906
z

M35.2031 72.9062
L47.6094 72.9062
L47.6094 25.3906
L58.0156 25.3906
L58.0156 17.1875
L47.6094 17.1875
L47.6094 0
L37.7969 0
L37.7969 17.1875
L4.89062 17.1875
L4.89062 26.7031
z
" id="BitstreamVeraSans-Roman-34"/>
      </defs>
      <g transform="translate(103.228185172 371.996875)scale(0.2 -0.2)">
       <use xlink:href="#BitstreamVeraSans-Roman-2d"/>
       <use x="36.083984375" xlink:href="#BitstreamVeraSans-Roman-34"/>
      </g>
     </g>
    </g>
    <g id="xtick_4">
     <g id="line2d_16">
      <path clip-path="url(#p99b4b0da67)" d="
M164.679 352.8
L164.679 7.2" style="fill:none;stroke:#000000;stroke-dasharray:1.000000,3.000000;stroke-dashoffset:0.0;stroke-width:0.5;"/>
     </g>
     <g id="line2d_17">
      <g>
       <use style="stroke:#000000;stroke-width:0.5;" x="164.67949803" xlink:href="#m93b0483c22" y="352.8"/>
      </g>
     </g>
     <g id="line2d_18">
      <g>
       <use style="stroke:#000000;stroke-width:0.5;" x="164.67949803" xlink:href="#m741efc42ff" y="7.2"/>
      </g>
     </g>
     <g id="text_3">
      <!-- -2 -->
      <defs>
       <path d="
M19.1875 8.29688
L53.6094 8.29688
L53.6094 0
L7.32812 0
L7.32812 8.29688
Q12.9375 14.1094 22.625 23.8906
Q32.3281 33.6875 34.8125 36.5312
Q39.5469 41.8438 41.4219 45.5312
Q43.3125 49.2188 43.3125 52.7812
Q43.3125 58.5938 39.2344 62.25
Q35.1562 65.9219 28.6094 65.9219
Q23.9688 65.9219 18.8125 64.3125
Q13.6719 62.7031 7.8125 59.4219
L7.8125 69.3906
Q13.7656 71.7812 18.9375 73
Q24.125 74.2188 28.4219 74.2188
Q39.75 74.2188 46.4844 68.5469
Q53.2188 62.8906 53.2188 53.4219
Q53.2188 48.9219 51.5312 44.8906
Q49.8594 40.875 45.4062 35.4062
Q44.1875 33.9844 37.6406 27.2188
Q31.1094 20.4531 19.1875 8.29688" id="BitstreamVeraSans-Roman-32"/>
      </defs>
      <g transform="translate(156.19981053 371.996875)scale(0.2 -0.2)">
       <use xlink:href="#BitstreamVeraSans-Roman-2d"/>
       <use x="36.083984375" xlink:href="#BitstreamVeraSans-Roman-32"/>
      </g>
     </g>
    </g>
    <g id="xtick_5">
     <g id="line2d_19">
      <path clip-path="url(#p99b4b0da67)" d="
M217.21 352.8
L217.21 7.2" style="fill:none;stroke:#000000;stroke-dasharray:1.000000,3.000000;stroke-dashoffset:0.0;stroke-width:0.5;"/>
     </g>
     <g id="line2d_20">
      <g>
       <use style="stroke:#000000;stroke-width:0.5;" x="217.210498389" xlink:href="#m93b0483c22" y="352.8"/>
      </g>
     </g>
     <g id="line2d_21">
      <g>
       <use style="stroke:#000000;stroke-width:0.5;" x="217.210498389" xlink:href="#m741efc42ff" y="7.2"/>
      </g>
     </g>
     <g id="text_4">
      <!-- 0 -->
      <defs>
       <path d="
M31.7812 66.4062
Q24.1719 66.4062 20.3281 58.9062
Q16.5 51.4219 16.5 36.375
Q16.5 21.3906 20.3281 13.8906
Q24.1719 6.39062 31.7812 6.39062
Q39.4531 6.39062 43.2812 13.8906
Q47.125 21.3906 47.125 36.375
Q47.125 51.4219 43.2812 58.9062
Q39.4531 66.4062 31.7812 66.4062
M31.7812 74.2188
Q44.0469 74.2188 50.5156 64.5156
Q56.9844 54.8281 56.9844 36.375
Q56.9844 17.9688 50.5156 8.26562
Q44.0469 -1.42188 31.7812 -1.42188
Q19.5312 -1.42188 13.0625 8.26562
Q6.59375 17.9688 6.59375 36.375
Q6.59375 54.8281 13.0625 64.5156
Q19.5312 74.2188 31.7812 74.2188" id="BitstreamVeraSans-Roman-30"/>
      </defs>
      <g transform="translate(212.171435889 371.996875)scale(0.2 -0.2)">
       <use xlink:href="#BitstreamVeraSans-Roman-30"/>
      </g>
     </g>
    </g>
    <g id="xtick_6">
     <g id="line2d_22">
      <path clip-path="url(#p99b4b0da67)" d="
M269.741 352.8
L269.741 7.2" style="fill:none;stroke:#000000;stroke-dasharray:1.000000,3.000000;stroke-dashoffset:0.0;stroke-width:0.5;"/>
     </g>
     <g id="line2d_23">
      <g>
       <use style="stroke:#000000;stroke-width:0.5;" x="269.741498747" xlink:href="#m93b0483c22" y="352.8"/>
      </g>
     </g>
     <g id="line2d_24">
      <g>
       <use style="stroke:#000000;stroke-width:0.5;" x="269.741498747" xlink:href="#m741efc42ff" y="7.2"/>
      </g>
     </g>
     <g id="text_5">
      <!-- 2 -->
      <g transform="translate(265.113373747 371.996875)scale(0.2 -0.2)">
       <use xlink:href="#BitstreamVeraSans-Roman-32"/>
      </g>
     </g>
    </g>
    <g id="xtick_7">
     <g id="line2d_25">
      <path clip-path="url(#p99b4b0da67)" d="
M322.272 352.8
L322.272 7.2" style="fill:none;stroke:#000000;stroke-dasharray:1.000000,3.000000;stroke-dashoffset:0.0;stroke-width:0.5;"/>
     </g>
     <g id="line2d_26">
      <g>
       <use style="stroke:#000000;stroke-width:0.5;" x="322.272499105" xlink:href="#m93b0483c22" y="352.8"/>
      </g>
     </g>
     <g id="line2d_27">
      <g>
       <use style="stroke:#000000;stroke-width:0.5;" x="322.272499105" xlink:href="#m741efc42ff" y="7.2"/>
      </g>
     </g>
     <g id="text_6">
      <!-- 4 -->
      <g transform="translate(316.959999105 371.996875)scale(0.2 -0.2)">
       <use xlink:href="#BitstreamVeraSans-Roman-34"/>
      </g>
     </g>
    </g>
    <g id="xtick_8">
     <g id="line2d_28">
      <path clip-path="url(#p99b4b0da67)" d="
M374.803 352.8
L374.803 7.2" style="fill:none;stroke:#000000;stroke-dasharray:1.000000,3.000000;stroke-dashoffset:0.0;stroke-width:0.5;"/>
     </g>
     <g id="line2d_29">
      <g>
       <use style="stroke:#000000;stroke-width:0.5;" x="374.803499463" xlink:href="#m93b0483c22" y="352.8"/>
      </g>
     </g>
     <g id="line2d_30">
      <g>
       <use style="stroke:#000000;stroke-width:0.5;" x="374.803499463" xlink:href="#m741efc42ff" y="7.2"/>
      </g>
     </g>
     <g id="text_7">
      <!-- 6 -->
      <g transform="translate(369.769124463 371.996875)scale(0.2 -0.2)">
       <use xlink:href="#BitstreamVeraSans-Roman-36"/>
      </g>
     </g>
    </g>
    <g id="xtick_9">
     <g id="line2d_31">
      <path clip-path="url(#p99b4b0da67)" d="
M427.334 352.8
L427.334 7.2" style="fill:none;stroke:#000000;stroke-dasharray:1.000000,3.000000;stroke-dashoffset:0.0;stroke-width:0.5;"/>
     </g>
     <g id="line2d_32">
      <g>
       <use style="stroke:#000000;stroke-width:0.5;" x="427.334499821" xlink:href="#m93b0483c22" y="352.8"/>
      </g>
     </g>
     <g id="line2d_33">
      <g>
       <use style="stroke:#000000;stroke-width:0.5;" x="427.334499821" xlink:href="#m741efc42ff" y="7.2"/>
      </g>
     </g>
     <g id="text_8">
      <!-- 8 -->
      <defs>
       <path d="
M31.7812 34.625
Q24.75 34.625 20.7188 30.8594
Q16.7031 27.0938 16.7031 20.5156
Q16.7031 13.9219 20.7188 10.1562
Q24.75 6.39062 31.7812 6.39062
Q38.8125 6.39062 42.8594 10.1719
Q46.9219 13.9688 46.9219 20.5156
Q46.9219 27.0938 42.8906 30.8594
Q38.875 34.625 31.7812 34.625
M21.9219 38.8125
Q15.5781 40.375 12.0312 44.7188
Q8.5 49.0781 8.5 55.3281
Q8.5 64.0625 14.7188 69.1406
Q20.9531 74.2188 31.7812 74.2188
Q42.6719 74.2188 48.875 69.1406
Q55.0781 64.0625 55.0781 55.3281
Q55.0781 49.0781 51.5312 44.7188
Q48 40.375 41.7031 38.8125
Q48.8281 37.1562 52.7969 32.3125
Q56.7812 27.4844 56.7812 20.5156
Q56.7812 9.90625 50.3125 4.23438
Q43.8438 -1.42188 31.7812 -1.42188
Q19.7344 -1.42188 13.25 4.23438
Q6.78125 9.90625 6.78125 20.5156
Q6.78125 27.4844 10.7812 32.3125
Q14.7969 37.1562 21.9219 38.8125
M18.3125 54.3906
Q18.3125 48.7344 21.8438 45.5625
Q25.3906 42.3906 31.7812 42.3906
Q38.1406 42.3906 41.7188 45.5625
Q45.3125 48.7344 45.3125 54.3906
Q45.3125 60.0625 41.7188 63.2344
Q38.1406 66.4062 31.7812 66.4062
Q25.3906 66.4062 21.8438 63.2344
Q18.3125 60.0625 18.3125 54.3906" id="BitstreamVeraSans-Roman-38"/>
      </defs>
      <g transform="translate(422.334499821 371.996875)scale(0.2 -0.2)">
       <use xlink:href="#BitstreamVeraSans-Roman-38"/>
      </g>
     </g>
    </g>
    <g id="xtick_10"/>
    <g id="xtick_11">
     <g id="line2d_34">
      <defs>
       <path d="
M0 0
L0 -2" id="m177f7580d0" style="stroke:#000000;stroke-width:0.5;"/>
      </defs>
      <g>
       <use style="stroke:#000000;stroke-width:0.5;" x="59.6174973142" xlink:href="#m177f7580d0" y="352.8"/>
      </g>
     </g>
     <g id="line2d_35">
      <defs>
       <path d="
M0 0
L0 2" id="m5284c7e2a0" style="stroke:#000000;stroke-width:0.5;"/>
      </defs>
      <g>
       <use style="stroke:#000000;stroke-width:0.5;" x="59.6174973142" xlink:href="#m5284c7e2a0" y="7.2"/>
      </g>
     </g>
    </g>
    <g id="xtick_12">
     <g id="line2d_36">
      <g>
       <use style="stroke:#000000;stroke-width:0.5;" x="112.148497672" xlink:href="#m177f7580d0" y="352.8"/>
      </g>
     </g>
     <g id="line2d_37">
      <g>
       <use style="stroke:#000000;stroke-width:0.5;" x="112.148497672" xlink:href="#m5284c7e2a0" y="7.2"/>
      </g>
     </g>
    </g>
    <g id="xtick_13">
     <g id="line2d_38">
      <g>
       <use style="stroke:#000000;stroke-width:0.5;" x="164.67949803" xlink:href="#m177f7580d0" y="352.8"/>
      </g>
     </g>
     <g id="line2d_39">
      <g>
       <use style="stroke:#000000;stroke-width:0.5;" x="164.67949803" xlink:href="#m5284c7e2a0" y="7.2"/>
      </g>
     </g>
    </g>
    <g id="xtick_14">
     <g id="line2d_40">
      <g>
       <use style="stroke:#000000;stroke-width:0.5;" x="217.210498389" xlink:href="#m177f7580d0" y="352.8"/>
      </g>
     </g>
     <g id="line2d_41">
      <g>
       <use style="stroke:#000000;stroke-width:0.5;" x="217.210498389" xlink:href="#m5284c7e2a0" y="7.2"/>
      </g>
     </g>
    </g>
    <g id="xtick_15">
     <g id="line2d_42">
      <g>
       <use style="stroke:#000000;stroke-width:0.5;" x="269.741498747" xlink:href="#m177f7580d0" y="352.8"/>
      </g>
     </g>
     <g id="line2d_43">
      <g>
       <use style="stroke:#000000;stroke-width:0.5;" x="269.741498747" xlink:href="#m5284c7e2a0" y="7.2"/>
      </g>
     </g>
    </g>
    <g id="xtick_16">
     <g id="line2d_44">
      <g>
       <use style="stroke:#000000;stroke-width:0.5;" x="322.272499105" xlink:href="#m177f7580d0" y="352.8"/>
      </g>
     </g>
     <g id="line2d_45">
      <g>
       <use style="stroke:#000000;stroke-width:0.5;" x="322.272499105" xlink:href="#m5284c7e2a0" y="7.2"/>
      </g>
     </g>
    </g>
    <g id="xtick_17">
     <g id="line2d_46">
      <g>
       <use style="stroke:#000000;stroke-width:0.5;" x="374.803499463" xlink:href="#m177f7580d0" y="352.8"/>
      </g>
     </g>
     <g id="line2d_47">
      <g>
       <use style="stroke:#000000;stroke-width:0.5;" x="374.803499463" xlink:href="#m5284c7e2a0" y="7.2"/>
      </g>
     </g>
    </g>
    <g id="xtick_18">
     <g id="line2d_48">
      <g>
       <use style="stroke:#000000;stroke-width:0.5;" x="427.334499821" xlink:href="#m177f7580d0" y="352.8"/>
      </g>
     </g>
     <g id="line2d_49">
      <g>
       <use style="stroke:#000000;stroke-width:0.5;" x="427.334499821" xlink:href="#m5284c7e2a0" y="7.2"/>
      </g>
     </g>
    </g>
    <g id="text_9">
     <!-- log10 of Df -->
     <defs>
      <path id="BitstreamVeraSans-Roman-20"/>
      <path d="
M12.4062 8.29688
L28.5156 8.29688
L28.5156 63.9219
L10.9844 60.4062
L10.9844 69.3906
L28.4219 72.9062
L38.2812 72.9062
L38.2812 8.29688
L54.3906 8.29688
L54.3906 0
L12.4062 0
z
" id="BitstreamVeraSans-Roman-31"/>
      <path d="
M30.6094 48.3906
Q23.3906 48.3906 19.1875 42.75
Q14.9844 37.1094 14.9844 27.2969
Q14.9844 17.4844 19.1562 11.8438
Q23.3438 6.20312 30.6094 6.20312
Q37.7969 6.20312 41.9844 11.8594
Q46.1875 17.5312 46.1875 27.2969
Q46.1875 37.0156 41.9844 42.7031
Q37.7969 48.3906 30.6094 48.3906
M30.6094 56
Q42.3281 56 49.0156 48.375
Q55.7188 40.7656 55.7188 27.2969
Q55.7188 13.875 49.0156 6.21875
Q42.3281 -1.42188 30.6094 -1.42188
Q18.8438 -1.42188 12.1719 6.21875
Q5.51562 13.875 5.51562 27.2969
Q5.51562 40.7656 12.1719 48.375
Q18.8438 56 30.6094 56" id="BitstreamVeraSans-Roman-6f"/>
      <path d="
M9.42188 75.9844
L18.4062 75.9844
L18.4062 0
L9.42188 0
z
" id="BitstreamVeraSans-Roman-6c"/>
      <path d="
M19.6719 64.7969
L19.6719 8.10938
L31.5938 8.10938
Q46.6875 8.10938 53.6875 14.9375
Q60.6875 21.7812 60.6875 36.5312
Q60.6875 51.1719 53.6875 57.9844
Q46.6875 64.7969 31.5938 64.7969
z

M9.8125 72.9062
L30.0781 72.9062
Q51.2656 72.9062 61.1719 64.0938
Q71.0938 55.2812 71.0938 36.5312
Q71.0938 17.6719 61.125 8.82812
Q51.1719 0 30.0781 0
L9.8125 0
z
" id="BitstreamVeraSans-Roman-44"/>
      <path d="
M45.4062 27.9844
Q45.4062 37.75 41.375 43.1094
Q37.3594 48.4844 30.0781 48.4844
Q22.8594 48.4844 18.8281 43.1094
Q14.7969 37.75 14.7969 27.9844
Q14.7969 18.2656 18.8281 12.8906
Q22.8594 7.51562 30.0781 7.51562
Q37.3594 7.51562 41.375 12.8906
Q45.4062 18.2656 45.4062 27.9844
M54.3906 6.78125
Q54.3906 -7.17188 48.1875 -13.9844
Q42 -20.7969 29.2031 -20.7969
Q24.4688 -20.7969 20.2656 -20.0938
Q16.0625 -19.3906 12.1094 -17.9219
L12.1094 -9.1875
Q16.0625 -11.3281 19.9219 -12.3438
Q23.7812 -13.375 27.7812 -13.375
Q36.625 -13.375 41.0156 -8.76562
Q45.4062 -4.15625 45.4062 5.17188
L45.4062 9.625
Q42.625 4.78125 38.2812 2.39062
Q33.9375 0 27.875 0
Q17.8281 0 11.6719 7.65625
Q5.51562 15.3281 5.51562 27.9844
Q5.51562 40.6719 11.6719 48.3281
Q17.8281 56 27.875 56
Q33.9375 56 38.2812 53.6094
Q42.625 51.2188 45.4062 46.3906
L45.4062 54.6875
L54.3906 54.6875
z
" id="BitstreamVeraSans-Roman-67"/>
      <path d="
M37.1094 75.9844
L37.1094 68.5
L28.5156 68.5
Q23.6875 68.5 21.7969 66.5469
Q19.9219 64.5938 19.9219 59.5156
L19.9219 54.6875
L34.7188 54.6875
L34.7188 47.7031
L19.9219 47.7031
L19.9219 0
L10.8906 0
L10.8906 47.7031
L2.29688 47.7031
L2.29688 54.6875
L10.8906 54.6875
L10.8906 58.5
Q10.8906 67.625 15.1406 71.7969
Q19.3906 75.9844 28.6094 75.9844
z
" id="BitstreamVeraSans-Roman-66"/>
     </defs>
     <g transform="translate(175.0234375 396.353125)scale(0.2 -0.2)">
      <use xlink:href="#BitstreamVeraSans-Roman-6c"/>
      <use x="27.783203125" xlink:href="#BitstreamVeraSans-Roman-6f"/>
      <use x="88.96484375" xlink:href="#BitstreamVeraSans-Roman-67"/>
      <use x="152.44140625" xlink:href="#BitstreamVeraSans-Roman-31"/>
      <use x="216.064453125" xlink:href="#BitstreamVeraSans-Roman-30"/>
      <use x="279.6875" xlink:href="#BitstreamVeraSans-Roman-20"/>
      <use x="311.474609375" xlink:href="#BitstreamVeraSans-Roman-6f"/>
      <use x="372.65625" xlink:href="#BitstreamVeraSans-Roman-66"/>
      <use x="407.861328125" xlink:href="#BitstreamVeraSans-Roman-20"/>
      <use x="439.6484375" xlink:href="#BitstreamVeraSans-Roman-44"/>
      <use x="516.650390625" xlink:href="#BitstreamVeraSans-Roman-66"/>
     </g>
    </g>
   </g>
   <g id="matplotlib.axis_2">
    <g id="ytick_1">
     <g id="line2d_50">
      <path clip-path="url(#p99b4b0da67)" d="
M7.2 352.8
L453.6 352.8" style="fill:none;stroke:#000000;stroke-dasharray:1.000000,3.000000;stroke-dashoffset:0.0;stroke-width:0.5;"/>
     </g>
     <g id="line2d_51">
      <defs>
       <path d="
M0 0
L4 0" id="m728421d6d4" style="stroke:#000000;stroke-width:0.5;"/>
      </defs>
      <g>
       <use style="stroke:#000000;stroke-width:0.5;" x="7.2" xlink:href="#m728421d6d4" y="352.8"/>
      </g>
     </g>
     <g id="line2d_52">
      <defs>
       <path d="
M0 0
L-4 0" id="mcb0005524f" style="stroke:#000000;stroke-width:0.5;"/>
      </defs>
      <g>
       <use style="stroke:#000000;stroke-width:0.5;" x="453.6" xlink:href="#mcb0005524f" y="352.8"/>
      </g>
     </g>
    </g>
    <g id="ytick_2">
     <g id="line2d_53">
      <path clip-path="url(#p99b4b0da67)" d="
M7.2 284.364
L453.6 284.364" style="fill:none;stroke:#000000;stroke-dasharray:1.000000,3.000000;stroke-dashoffset:0.0;stroke-width:0.5;"/>
     </g>
     <g id="line2d_54">
      <g>
       <use style="stroke:#000000;stroke-width:0.5;" x="7.2" xlink:href="#m728421d6d4" y="284.364356436"/>
      </g>
     </g>
     <g id="line2d_55">
      <g>
       <use style="stroke:#000000;stroke-width:0.5;" x="453.6" xlink:href="#mcb0005524f" y="284.364356436"/>
      </g>
     </g>
    </g>
    <g id="ytick_3">
     <g id="line2d_56">
      <path clip-path="url(#p99b4b0da67)" d="
M7.2 215.929
L453.6 215.929" style="fill:none;stroke:#000000;stroke-dasharray:1.000000,3.000000;stroke-dashoffset:0.0;stroke-width:0.5;"/>
     </g>
     <g id="line2d_57">
      <g>
       <use style="stroke:#000000;stroke-width:0.5;" x="7.2" xlink:href="#m728421d6d4" y="215.928712871"/>
      </g>
     </g>
     <g id="line2d_58">
      <g>
       <use style="stroke:#000000;stroke-width:0.5;" x="453.6" xlink:href="#mcb0005524f" y="215.928712871"/>
      </g>
     </g>
    </g>
    <g id="ytick_4">
     <g id="line2d_59">
      <path clip-path="url(#p99b4b0da67)" d="
M7.2 147.493
L453.6 147.493" style="fill:none;stroke:#000000;stroke-dasharray:1.000000,3.000000;stroke-dashoffset:0.0;stroke-width:0.5;"/>
     </g>
     <g id="line2d_60">
      <g>
       <use style="stroke:#000000;stroke-width:0.5;" x="7.2" xlink:href="#m728421d6d4" y="147.493069307"/>
      </g>
     </g>
     <g id="line2d_61">
      <g>
       <use style="stroke:#000000;stroke-width:0.5;" x="453.6" xlink:href="#mcb0005524f" y="147.493069307"/>
      </g>
     </g>
    </g>
    <g id="ytick_5">
     <g id="line2d_62">
      <path clip-path="url(#p99b4b0da67)" d="
M7.2 79.0574
L453.6 79.0574" style="fill:none;stroke:#000000;stroke-dasharray:1.000000,3.000000;stroke-dashoffset:0.0;stroke-width:0.5;"/>
     </g>
     <g id="line2d_63">
      <g>
       <use style="stroke:#000000;stroke-width:0.5;" x="7.2" xlink:href="#m728421d6d4" y="79.0574257426"/>
      </g>
     </g>
     <g id="line2d_64">
      <g>
       <use style="stroke:#000000;stroke-width:0.5;" x="453.6" xlink:href="#mcb0005524f" y="79.0574257426"/>
      </g>
     </g>
    </g>
    <g id="ytick_6">
     <g id="line2d_65">
      <path clip-path="url(#p99b4b0da67)" d="
M7.2 10.6218
L453.6 10.6218" style="fill:none;stroke:#000000;stroke-dasharray:1.000000,3.000000;stroke-dashoffset:0.0;stroke-width:0.5;"/>
     </g>
     <g id="line2d_66">
      <g>
       <use style="stroke:#000000;stroke-width:0.5;" x="7.2" xlink:href="#m728421d6d4" y="10.6217821782"/>
      </g>
     </g>
     <g id="line2d_67">
      <g>
       <use style="stroke:#000000;stroke-width:0.5;" x="453.6" xlink:href="#mcb0005524f" y="10.6217821782"/>
      </g>
     </g>
    </g>
   </g>
   <g id="text_10">
    <!-- {f20-f24}, 20-D -->
    <defs>
     <path d="
M12.5 -9.28125
L15.9219 -9.28125
Q22.75 -9.28125 24.8281 -7.17188
Q26.9062 -5.07812 26.9062 1.90625
L26.9062 14.0156
Q26.9062 21.625 29.0938 25.0938
Q31.2969 28.5625 36.7188 29.8906
Q31.2969 31.1094 29.0938 34.5625
Q26.9062 38.0312 26.9062 45.7031
L26.9062 57.8125
Q26.9062 64.75 24.8281 66.875
Q22.75 69 15.9219 69
L12.5 69
L12.5 75.9844
L15.5781 75.9844
Q27.7344 75.9844 31.8125 72.3906
Q35.8906 68.7969 35.8906 58.0156
L35.8906 46.2969
Q35.8906 39.0156 38.5156 36.2031
Q41.1562 33.4062 48.0938 33.4062
L51.125 33.4062
L51.125 26.4219
L48.0938 26.4219
Q41.1562 26.4219 38.5156 23.5781
Q35.8906 20.75 35.8906 13.375
L35.8906 1.70312
Q35.8906 -9.07812 31.8125 -12.6875
Q27.7344 -16.3125 15.5781 -16.3125
L12.5 -16.3125
z
" id="BitstreamVeraSans-Roman-7d"/>
     <path d="
M51.125 -9.28125
L51.125 -16.3125
L48.0938 -16.3125
Q35.9375 -16.3125 31.8125 -12.6875
Q27.6875 -9.07812 27.6875 1.70312
L27.6875 13.375
Q27.6875 20.75 25.0469 23.5781
Q22.4062 26.4219 15.4844 26.4219
L12.5 26.4219
L12.5 33.4062
L15.4844 33.4062
Q22.4688 33.4062 25.0781 36.2031
Q27.6875 39.0156 27.6875 46.2969
L27.6875 58.0156
Q27.6875 68.7969 31.8125 72.3906
Q35.9375 75.9844 48.0938 75.9844
L51.125 75.9844
L51.125 69
L47.7969 69
Q40.9219 69 38.8125 66.8438
Q36.7188 64.7031 36.7188 57.8125
L36.7188 45.7031
Q36.7188 38.0312 34.5 34.5625
Q32.2812 31.1094 26.9062 29.8906
Q32.3281 28.5625 34.5156 25.0938
Q36.7188 21.625 36.7188 14.0156
L36.7188 1.90625
Q36.7188 -4.98438 38.8125 -7.125
Q40.9219 -9.28125 47.7969 -9.28125
z
" id="BitstreamVeraSans-Roman-7b"/>
     <path d="
M11.7188 12.4062
L22.0156 12.4062
L22.0156 4
L14.0156 -11.625
L7.71875 -11.625
L11.7188 4
z
" id="BitstreamVeraSans-Roman-2c"/>
    </defs>
    <g transform="translate(287.42825 345.888)scale(0.2 -0.2)">
     <use xlink:href="#BitstreamVeraSans-Roman-7b"/>
     <use x="63.623046875" xlink:href="#BitstreamVeraSans-Roman-66"/>
     <use x="98.828125" xlink:href="#BitstreamVeraSans-Roman-32"/>
     <use x="162.451171875" xlink:href="#BitstreamVeraSans-Roman-30"/>
     <use x="226.07421875" xlink:href="#BitstreamVeraSans-Roman-2d"/>
     <use x="262.158203125" xlink:href="#BitstreamVeraSans-Roman-66"/>
     <use x="297.36328125" xlink:href="#BitstreamVeraSans-Roman-32"/>
     <use x="360.986328125" xlink:href="#BitstreamVeraSans-Roman-34"/>
     <use x="424.609375" xlink:href="#BitstreamVeraSans-Roman-7d"/>
     <use x="488.232421875" xlink:href="#BitstreamVeraSans-Roman-2c"/>
     <use x="520.01953125" xlink:href="#BitstreamVeraSans-Roman-20"/>
     <use x="551.806640625" xlink:href="#BitstreamVeraSans-Roman-32"/>
     <use x="615.4296875" xlink:href="#BitstreamVeraSans-Roman-30"/>
     <use x="679.052734375" xlink:href="#BitstreamVeraSans-Roman-2d"/>
     <use x="715.13671875" xlink:href="#BitstreamVeraSans-Roman-44"/>
    </g>
   </g>
   <g id="text_11">
    <!-- v2.1.1.3 -->
    <defs>
     <path d="
M2.98438 54.6875
L12.5 54.6875
L29.5938 8.79688
L46.6875 54.6875
L56.2031 54.6875
L35.6875 0
L23.4844 0
z
" id="BitstreamVeraSans-Roman-76"/>
     <path d="
M40.5781 39.3125
Q47.6562 37.7969 51.625 33
Q55.6094 28.2188 55.6094 21.1875
Q55.6094 10.4062 48.1875 4.48438
Q40.7656 -1.42188 27.0938 -1.42188
Q22.5156 -1.42188 17.6562 -0.515625
Q12.7969 0.390625 7.625 2.20312
L7.625 11.7188
Q11.7188 9.32812 16.5938 8.10938
Q21.4844 6.89062 26.8125 6.89062
Q36.0781 6.89062 40.9375 10.5469
Q45.7969 14.2031 45.7969 21.1875
Q45.7969 27.6406 41.2812 31.2656
Q36.7656 34.9062 28.7188 34.9062
L20.2188 34.9062
L20.2188 43.0156
L29.1094 43.0156
Q36.375 43.0156 40.2344 45.9219
Q44.0938 48.8281 44.0938 54.2969
Q44.0938 59.9062 40.1094 62.9062
Q36.1406 65.9219 28.7188 65.9219
Q24.6562 65.9219 20.0156 65.0312
Q15.375 64.1562 9.8125 62.3125
L9.8125 71.0938
Q15.4375 72.6562 20.3438 73.4375
Q25.25 74.2188 29.5938 74.2188
Q40.8281 74.2188 47.3594 69.1094
Q53.9062 64.0156 53.9062 55.3281
Q53.9062 49.2656 50.4375 45.0938
Q46.9688 40.9219 40.5781 39.3125" id="BitstreamVeraSans-Roman-33"/>
     <path d="
M10.6875 12.4062
L21 12.4062
L21 0
L10.6875 0
z
" id="BitstreamVeraSans-Roman-2e"/>
    </defs>
    <g style="fill:#808080;" transform="translate(210.4984375 347.2643125)scale(0.1 -0.1)">
     <use xlink:href="#BitstreamVeraSans-Roman-76"/>
     <use x="59.1796875" xlink:href="#BitstreamVeraSans-Roman-32"/>
     <use x="122.802734375" xlink:href="#BitstreamVeraSans-Roman-2e"/>
     <use x="154.58984375" xlink:href="#BitstreamVeraSans-Roman-31"/>
     <use x="218.212890625" xlink:href="#BitstreamVeraSans-Roman-2e"/>
     <use x="250.0" xlink:href="#BitstreamVeraSans-Roman-31"/>
     <use x="313.623046875" xlink:href="#BitstreamVeraSans-Roman-2e"/>
     <use x="345.41015625" xlink:href="#BitstreamVeraSans-Roman-33"/>
    </g>
   </g>
  </g>
 </g>
 <defs>
  <clipPath id="p99b4b0da67">
   <rect height="345.6" width="446.4" x="7.2" y="7.2"/>
  </clipPath>
 </defs>
</svg>
