<?xml version="1.0" encoding="utf-8" standalone="no"?>
<!DOCTYPE svg PUBLIC "-//W3C//DTD SVG 1.1//EN"
  "http://www.w3.org/Graphics/SVG/1.1/DTD/svg11.dtd">
<!-- Created with matplotlib (http://matplotlib.org/) -->
<svg height="413pt" version="1.1" viewBox="0 0 523 413" width="523pt" xmlns="http://www.w3.org/2000/svg" xmlns:xlink="http://www.w3.org/1999/xlink">
 <defs>
  <style type="text/css">
*{stroke-linecap:butt;stroke-linejoin:round;}
  </style>
 </defs>
 <g id="figure_1">
  <g id="patch_1">
   <path d="
M0 413.969
L523.002 413.969
L523.002 0
L0 0
z
" style="fill:#ffffff;"/>
  </g>
  <g id="axes_1">
   <g id="patch_2">
    <path d="
M64.9219 359.056
L511.322 359.056
L511.322 13.4563
L64.9219 13.4563
z
" style="fill:#ffffff;"/>
   </g>
   <g id="line2d_1">
    <path clip-path="url(#p4b24e7e61f)" d="
M262.274 359.056
L262.274 354.494
L265.207 354.494
L265.207 349.932
L266.252 349.932
L266.252 345.369
L266.637 345.369
L266.637 340.807
L266.975 340.807
L266.975 336.244
L267.644 336.244
L267.644 331.682
L267.686 331.682
L267.686 327.12
L267.933 327.12
L267.933 322.557
L269.584 322.557
L269.584 317.995
L270.596 317.995
L270.596 313.433
L271.016 313.433
L271.016 308.87
L271.281 308.87
L271.281 304.308
L284.299 304.308
L284.299 299.745
L289.491 299.745
L289.491 295.183
L289.773 295.183
L289.773 290.621
L294.006 290.621
L294.006 286.058
L294.319 286.058
L294.319 281.496
L299.551 281.496
L299.551 276.934
L309.055 276.934
L309.055 272.371
L309.508 272.371
L309.508 267.809
L312.552 267.809
L312.552 263.246
L321.995 263.246
L321.995 258.684
L329.783 258.684
L329.783 254.122
L349.393 254.122
L349.393 249.559
L352.614 249.559
L352.614 244.997
L357.518 244.997
L357.518 240.435
L377.37 240.435
L377.37 235.872
L386.739 235.872
L386.739 231.31
L391.501 231.31
L391.501 226.747
L391.501 226.747
L391.501 226.747
L511.322 226.747" style="fill:none;stroke:#f5deb3;stroke-linecap:square;"/>
   </g>
   <g id="line2d_2"/>
   <g id="line2d_3">
    <path clip-path="url(#p4b24e7e61f)" d="
M167.194 359.056
L167.194 354.494
L168.286 354.494
L168.286 349.932
L178.204 349.932
L178.204 345.369
L242.446 345.369
L242.446 340.807
L258.685 340.807
L258.685 336.244
L293.583 336.244
L293.583 331.682
L303.079 331.682
L303.079 327.12
L307.899 327.12
L307.899 322.557
L318.094 322.557
L318.094 317.995
L319.889 317.995
L319.889 313.433
L324.768 313.433
L324.768 308.87
L330.746 308.87
L330.746 304.308
L335.473 304.308
L335.473 299.745
L337.63 299.745
L337.63 295.183
L341.956 295.183
L341.956 290.621
L361.754 290.621
L361.754 286.058
L363.915 286.058
L363.915 281.496
L365.18 281.496
L365.18 276.934
L365.523 276.934
L365.523 272.371
L366.141 272.371
L366.141 267.809
L366.376 267.809
L366.376 263.246
L367.762 263.246
L367.762 258.684
L367.865 258.684
L367.865 254.122
L369.359 254.122
L369.359 249.559
L369.497 249.559
L369.497 244.997
L371.873 244.997
L371.873 240.435
L372.363 240.435
L372.363 235.872
L372.802 235.872
L372.802 231.31
L372.841 231.31
L372.841 226.747
L373.769 226.747
L373.769 222.185
L373.982 222.185
L373.982 217.623
L375.236 217.623
L375.236 213.06
L382.607 213.06
L382.607 208.498
L384.229 208.498
L384.229 203.936
L388.486 203.936
L388.486 199.373
L392.233 199.373
L392.233 194.811
L402.13 194.811
L402.13 190.248
L410.455 190.248
L410.455 185.686
L414.691 185.686
L414.691 181.124
L417.589 181.124
L417.589 176.561
L417.589 176.561
L417.589 176.561
L511.322 176.561" style="fill:none;stroke:#f5deb3;stroke-linecap:square;"/>
   </g>
   <g id="line2d_4">
    <path clip-path="url(#p4b24e7e61f)" d="
M273.303 359.056
L273.303 354.494
L278.741 354.494
L278.741 349.932
L279.785 349.932
L279.876 340.807
L279.997 340.807
L279.997 336.244
L281.562 336.244
L281.562 331.682
L282.222 331.682
L282.222 327.12
L283.592 327.12
L283.592 322.557
L283.811 322.557
L283.811 317.995
L285.205 317.995
L285.205 313.433
L286.142 313.433
L286.142 308.87
L286.704 308.87
L286.704 304.308
L287.308 304.308
L287.308 299.745
L287.482 299.745
L287.482 295.183
L287.828 295.183
L287.828 290.621
L288.074 290.621
L288.171 276.934
L288.439 276.934
L288.536 267.809
L288.729 267.809
L288.729 263.246
L289.656 263.246
L289.656 258.684
L290.4 258.684
L290.4 254.122
L290.698 254.122
L290.698 249.559
L290.835 249.559
L290.835 244.997
L291.468 244.997
L291.558 235.872
L293.071 235.872
L293.071 231.31
L293.456 231.31
L293.456 226.747
L293.753 226.747
L293.753 222.185
L294.131 222.185
L294.131 217.623
L294.713 217.623
L294.795 208.498
L295.021 208.498
L295.021 203.936
L295.71 203.936
L295.71 199.373
L296.308 199.373
L296.308 194.811
L296.623 194.811
L296.721 185.686
L296.76 185.686
L296.76 181.124
L297.072 181.124
L297.091 171.999
L297.649 171.999
L297.707 162.874
L298.03 162.874
L298.068 153.749
L298.612 153.749
L298.631 144.625
L298.854 144.625
L298.891 135.5
L299.533 135.5
L299.533 130.938
L299.787 130.938
L299.787 126.375
L301.83 126.375
L301.83 121.813
L304.225 121.813
L304.225 117.25
L305.603 117.25
L305.603 112.688
L306.904 112.688
L306.904 108.126
L310.672 108.126
L310.672 103.563
L318.319 103.563
L318.319 99.0009
L318.642 99.0009
L318.642 94.4385
L319.879 94.4385
L319.879 89.8761
L320.318 89.8761
L320.318 85.3138
L320.562 85.3138
L320.562 80.7514
L323.465 80.7514
L323.465 76.189
L326.603 76.189
L326.603 71.6266
L334.452 71.6266
L334.452 67.0643
L338.731 67.0643
L338.731 62.5019
L344.083 62.5019
L344.083 57.9395
L344.261 57.9395
L344.261 53.3771
L348.312 53.3771
L348.312 48.8148
L354.022 48.8148
L354.022 44.2524
L356.914 44.2524
L356.914 39.69
L369.251 39.69
L369.251 35.1276
L374.909 35.1276
L374.909 30.5653
L377.949 30.5653
L377.949 26.0029
L379.743 26.0029
L379.743 21.4405
L387.789 21.4405
L387.789 16.8781
L387.789 16.8781
L511.322 16.8781
L511.322 16.8781" style="fill:none;stroke:#f5deb3;stroke-linecap:square;"/>
   </g>
   <g id="line2d_5">
    <path clip-path="url(#p4b24e7e61f)" d="
M318.049 359.056
L318.049 354.494
L319.172 354.494
L319.172 349.932
L329.59 349.932
L329.59 345.369
L330.239 345.369
L330.239 340.807
L330.51 340.807
L330.51 336.244
L337.969 336.244
L337.969 331.682
L344.582 331.682
L344.582 327.12
L352.927 327.12
L352.927 322.557
L353.284 322.557
L353.284 317.995
L354.848 317.995
L354.848 313.433
L360.295 313.433
L360.295 308.87
L361.117 308.87
L361.117 304.308
L364.817 304.308
L364.817 299.745
L366.359 299.745
L366.359 295.183
L374.451 295.183
L374.451 290.621
L417.323 290.621
L417.323 286.058
L421.461 286.058
L421.461 281.496
L421.461 281.496
L421.461 276.934
L422.199 276.934
L422.199 272.371
L425.519 272.371
L425.519 267.809
L429.601 267.809
L429.601 263.246
L430.834 263.246
L430.834 258.684
L431.389 258.684
L431.389 254.122
L435.651 254.122
L435.651 249.559
L436.061 249.559
L436.061 244.997
L436.954 244.997
L436.954 240.435
L438.475 240.435
L438.475 235.872
L442.29 235.872
L442.29 231.31
L442.954 231.31
L442.954 226.747
L443.604 226.747
L443.604 222.185
L444.178 222.185
L444.178 217.623
L445.686 217.623
L445.686 213.06
L446.691 213.06
L446.691 208.498
L447.593 208.498
L447.593 203.936
L449.352 203.936
L449.352 199.373
L450.305 199.373
L450.305 194.811
L450.696 194.811
L450.696 190.248
L450.712 190.248
L450.712 185.686
L451.225 185.686
L451.225 181.124
L454.626 181.124
L454.626 176.561
L454.931 176.561
L454.931 171.999
L464.164 171.999
L464.164 167.437
L464.995 167.437
L464.995 162.874
L465.027 162.874
L465.027 158.312
L473.072 158.312
L473.072 153.749
L476.375 153.749
L476.375 149.187
L481.678 149.187
L481.678 144.625
L481.678 144.625
L481.678 144.625
L511.322 144.625" style="fill:none;stroke:#f5deb3;stroke-linecap:square;"/>
   </g>
   <g id="line2d_6"/>
   <g id="line2d_7">
    <path clip-path="url(#p4b24e7e61f)" d="
M300.003 359.056
L300.003 354.494
L300.628 354.494
L300.628 349.932
L301.172 349.932
L301.172 345.369
L301.744 345.369
L301.744 340.807
L301.864 340.807
L301.864 336.244
L303.721 336.244
L303.721 331.682
L303.868 331.682
L303.868 327.12
L304.45 327.12
L304.45 322.557
L304.801 322.557
L304.833 313.433
L305.038 313.433
L305.102 299.745
L305.18 299.745
L305.275 290.621
L305.603 290.621
L305.665 281.496
L305.727 281.496
L305.774 272.371
L305.928 272.371
L305.975 254.122
L306.48 254.122
L306.48 249.559
L306.632 249.559
L306.632 244.997
L306.919 244.997
L306.919 240.435
L307.59 240.435
L307.59 235.872
L307.826 235.872
L307.826 231.31
L308.075 231.31
L308.104 222.185
L308.221 222.185
L308.221 217.623
L308.351 217.623
L308.351 213.06
L308.683 213.06
L308.755 203.936
L309.24 203.936
L309.254 194.811
L309.48 194.811
L309.48 190.248
L310.357 190.248
L310.357 185.686
L310.945 185.686
L310.945 181.124
L311.416 181.124
L311.51 171.999
L311.537 171.999
L311.537 167.437
L311.723 167.437
L311.723 162.874
L311.909 162.874
L311.909 158.312
L312.824 158.312
L312.888 149.187
L313.705 149.187
L313.705 144.625
L316.705 144.625
L316.705 140.062
L316.961 140.062
L316.961 135.5
L320.815 135.5
L320.815 130.938
L320.962 130.938
L320.962 126.375
L322.672 126.375
L322.672 121.813
L323.807 121.813
L323.807 117.25
L323.953 117.25
L323.953 112.688
L325.09 112.688
L325.165 103.563
L325.789 103.563
L325.789 99.0009
L325.946 99.0009
L325.983 89.8761
L326.721 89.8761
L326.721 85.3138
L327.868 85.3138
L327.868 80.7514
L328.234 80.7514
L328.234 76.189
L329.523 76.189
L329.523 71.6266
L331.829 71.6266
L331.829 67.0643
L332.387 67.0643
L332.387 62.5019
L334.466 62.5019
L334.466 57.9395
L336.657 57.9395
L336.657 53.3771
L342.482 53.3771
L342.482 48.8148
L349.818 48.8148
L349.818 44.2524
L358.935 44.2524
L358.935 39.69
L361.265 39.69
L361.265 35.1276
L364.481 35.1276
L364.481 30.5653
L365.106 30.5653
L365.106 26.0029
L373.926 26.0029
L373.926 21.4405
L414.871 21.4405
L414.871 16.8781
L414.871 16.8781
L511.322 16.8781
L511.322 16.8781" style="fill:none;stroke:#f5deb3;stroke-linecap:square;"/>
   </g>
   <g id="line2d_8">
    <path clip-path="url(#p4b24e7e61f)" d="
M503.702 359.056
L503.702 354.494
L504.36 354.494
L504.36 349.932
L504.36 349.932
L504.36 349.932
L511.322 349.932" style="fill:none;stroke:#f5deb3;stroke-linecap:square;"/>
   </g>
   <g id="line2d_9">
    <path clip-path="url(#p4b24e7e61f)" d="
M295.021 359.056
L295.021 354.494
L295.99 354.494
L295.99 349.932
L296.741 349.932
L296.741 345.369
L297.973 345.369
L297.973 340.807
L298.294 340.807
L298.294 336.244
L298.406 336.244
L298.406 331.682
L299.02 331.682
L299.02 327.12
L299.678 327.12
L299.678 322.557
L300.111 322.557
L300.111 317.995
L300.326 317.995
L300.433 304.308
L300.45 304.308
L300.45 299.745
L301.015 299.745
L301.015 295.183
L301.242 295.183
L301.242 290.621
L301.416 290.621
L301.433 281.496
L301.572 281.496
L301.572 276.934
L301.692 276.934
L301.692 272.371
L301.933 272.371
L302.018 263.246
L302.527 263.246
L302.527 258.684
L302.946 258.684
L302.946 254.122
L303.145 254.122
L303.145 249.559
L303.311 249.559
L303.311 244.997
L303.574 244.997
L303.656 231.31
L303.884 231.31
L303.966 208.498
L304.014 208.498
L304.014 203.936
L304.273 203.936
L304.273 199.373
L304.514 199.373
L304.53 190.248
L305.117 190.248
L305.165 181.124
L305.618 181.124
L305.618 176.561
L305.959 176.561
L306.036 167.437
L306.465 167.437
L306.556 158.312
L306.813 158.312
L306.813 153.749
L307.782 153.749
L307.87 140.062
L308.841 140.062
L308.841 135.5
L309.508 135.5
L309.508 130.938
L314.542 130.938
L314.542 126.375
L315.179 126.375
L315.179 121.813
L315.878 121.813
L315.878 117.25
L317.042 117.25
L317.042 112.688
L317.273 112.688
L317.273 108.126
L318.642 108.126
L318.642 103.563
L320.104 103.563
L320.104 99.0009
L320.307 99.0009
L320.307 94.4385
L320.657 94.4385
L320.657 89.8761
L322.471 89.8761
L322.471 85.3138
L323.426 85.3138
L323.426 80.7514
L324.059 80.7514
L324.059 76.189
L326.349 76.189
L326.349 71.6266
L333.645 71.6266
L333.645 67.0643
L333.811 67.0643
L333.811 62.5019
L334.746 62.5019
L334.746 57.9395
L339.859 57.9395
L339.859 53.3771
L345.231 53.3771
L345.231 48.8148
L346.497 48.8148
L346.497 44.2524
L347.344 44.2524
L347.344 39.69
L347.687 39.69
L347.687 35.1276
L349.004 35.1276
L349.004 30.5653
L350.684 30.5653
L350.684 26.0029
L354.036 26.0029
L354.036 21.4405
L356.557 21.4405
L356.557 16.8781
L356.557 16.8781
L511.322 16.8781
L511.322 16.8781" style="fill:none;stroke:#f5deb3;stroke-linecap:square;"/>
   </g>
   <g id="line2d_10">
    <path clip-path="url(#p4b24e7e61f)" d="
M492.821 359.056
L492.821 354.494
L495.56 354.494
L495.56 349.932
L500.804 349.932
L500.804 345.369
L500.804 345.369
L500.804 345.369
L511.322 345.369" style="fill:none;stroke:#f5deb3;stroke-linecap:square;"/>
   </g>
   <g id="line2d_11">
    <path clip-path="url(#p4b24e7e61f)" d="
M571.288 359.056" style="fill:none;stroke:#f5deb3;stroke-linecap:square;"/>
   </g>
   <g id="line2d_12">
    <path clip-path="url(#p4b24e7e61f)" d="
M263.261 359.056
L263.261 354.494
L309.858 354.494
L309.858 349.932
L312.212 349.932
L312.212 345.369
L366.936 345.369
L366.936 340.807
L375.337 340.807
L375.337 336.244
L398.403 336.244
L398.403 331.682
L411.326 331.682
L411.326 327.12
L415.137 327.12
L415.137 322.557
L417.843 322.557
L417.843 317.995
L434.917 317.995
L434.917 313.433
L434.917 313.433
L434.917 313.433
L511.322 313.433" style="fill:none;stroke:#f5deb3;stroke-linecap:square;"/>
   </g>
   <g id="line2d_13"/>
   <g id="line2d_14">
    <path clip-path="url(#p4b24e7e61f)" d="
M289.135 359.056
L289.135 354.494
L294.361 354.494
L294.361 349.932
L305.243 349.932
L305.243 345.369
L306.556 345.369
L306.556 340.807
L311.147 340.807
L311.147 336.244
L311.47 336.244
L311.47 331.682
L314.019 331.682
L314.019 327.12
L317.112 327.12
L317.112 322.557
L317.936 322.557
L317.936 317.995
L322.33 317.995
L322.33 313.433
L323.298 313.433
L323.298 308.87
L324.664 308.87
L324.664 304.308
L325.604 304.308
L325.604 299.745
L329.799 299.745
L329.799 295.183
L333.136 295.183
L333.136 290.621
L333.592 290.621
L333.592 286.058
L334.805 286.058
L334.805 281.496
L335.322 281.496
L335.322 276.934
L343.22 276.934
L343.22 272.371
L344.204 272.371
L344.204 267.809
L348.131 267.809
L348.131 263.246
L351.051 263.246
L351.051 258.684
L351.616 258.684
L351.616 254.122
L353.614 254.122
L353.614 249.559
L355.797 249.559
L355.797 244.997
L357.408 244.997
L357.408 240.435
L358.349 240.435
L358.349 235.872
L361.087 235.872
L361.087 231.31
L361.82 231.31
L361.82 226.747
L369.326 226.747
L369.326 222.185
L370.76 222.185
L370.76 217.623
L372.775 217.623
L372.775 213.06
L385.75 213.06
L385.75 208.498
L399.397 208.498
L399.397 203.936
L401.671 203.936
L401.671 199.373
L406.181 199.373
L406.181 194.811
L410.806 194.811
L410.806 190.248
L418.407 190.248
L418.407 185.686
L418.92 185.686
L418.92 181.124
L418.92 181.124
L418.92 181.124
L511.322 181.124" style="fill:none;stroke:#f5deb3;stroke-linecap:square;"/>
   </g>
   <g id="line2d_15"/>
   <g id="line2d_16"/>
   <g id="line2d_17">
    <path clip-path="url(#p4b24e7e61f)" d="
M352.753 359.056
L352.753 354.494
L354.009 354.494
L354.009 349.932
L355.144 349.932
L355.144 345.369
L355.583 345.369
L355.583 340.807
L357.461 340.807
L357.461 336.244
L357.9 336.244
L357.9 331.682
L358.049 331.682
L358.049 327.12
L358.301 327.12
L358.301 322.557
L358.978 322.557
L359.026 313.433
L359.829 313.433
L359.886 295.183
L361.121 295.183
L361.161 286.058
L361.372 286.058
L361.391 276.934
L361.718 276.934
L361.718 272.371
L361.944 272.371
L361.944 267.809
L362.346 267.809
L362.346 263.246
L362.611 263.246
L362.611 258.684
L363.062 258.684
L363.062 254.122
L363.354 254.122
L363.354 249.559
L364.239 249.559
L364.239 244.997
L364.444 244.997
L364.444 240.435
L364.634 240.435
L364.634 235.872
L364.77 235.872
L364.82 226.747
L365.012 226.747
L365.066 217.623
L365.22 217.623
L365.22 213.06
L365.659 213.06
L365.659 208.498
L365.87 208.498
L365.87 203.936
L366.453 203.936
L366.453 199.373
L366.93 199.373
L366.93 194.811
L367.07 194.811
L367.137 185.686
L368.076 185.686
L368.076 181.124
L368.811 181.124
L368.811 176.561
L368.985 176.561
L368.985 171.999
L369.332 171.999
L369.332 167.437
L370.381 167.437
L370.381 162.874
L372.714 162.874
L372.714 158.312
L373.169 158.312
L373.169 153.749
L376.643 153.749
L376.657 144.625
L378.629 144.625
L378.629 140.062
L380.136 140.062
L380.136 135.5
L380.476 135.5
L380.51 126.375
L381.521 126.375
L381.521 121.813
L382.073 121.813
L382.073 117.25
L382.678 117.25
L382.691 108.126
L383.059 108.126
L383.059 103.563
L383.186 103.563
L383.186 99.0009
L383.739 99.0009
L383.739 94.4385
L386.102 94.4385
L386.102 89.8761
L386.252 89.8761
L386.252 85.3138
L386.525 85.3138
L386.525 80.7514
L386.7 80.7514
L386.7 76.189
L388.012 76.189
L388.012 71.6266
L389.25 71.6266
L389.25 67.0643
L391.258 67.0643
L391.368 57.9395
L393.494 57.9395
L393.494 53.3771
L396.212 53.3771
L396.212 48.8148
L398.265 48.8148
L398.265 44.2524
L399.804 44.2524
L399.804 39.69
L402.233 39.69
L402.233 35.1276
L406.604 35.1276
L406.604 30.5653
L406.725 30.5653
L406.725 26.0029
L409.299 26.0029
L409.299 21.4405
L411.875 21.4405
L411.875 16.8781
L411.875 16.8781
L511.322 16.8781
L511.322 16.8781" style="fill:none;stroke:#f5deb3;stroke-linecap:square;"/>
   </g>
   <g id="line2d_18">
    <path clip-path="url(#p4b24e7e61f)" d="
M224.737 359.056
L224.737 354.494
L251.786 354.494
L251.786 349.932
L253.014 349.932
L253.014 345.369
L259.512 345.369
L259.512 340.807
L260.271 340.807
L260.271 336.244
L272.177 336.244
L272.177 331.682
L275.462 331.682
L275.462 327.12
L288.56 327.12
L288.56 322.557
L291.758 322.557
L291.758 317.995
L304.562 317.995
L304.562 313.433
L305.054 313.433
L305.054 308.87
L310.795 308.87
L310.795 304.308
L314.344 304.308
L314.344 299.745
L315.866 299.745
L315.866 295.183
L316.021 295.183
L316.021 290.621
L316.116 290.621
L316.116 286.058
L320.381 286.058
L320.381 281.496
L321.087 281.496
L321.087 276.934
L321.616 276.934
L321.616 272.371
L321.719 272.371
L321.719 267.809
L322.239 267.809
L322.239 263.246
L322.822 263.246
L322.822 258.684
L326.973 258.684
L326.973 254.122
L331.014 254.122
L331.014 249.559
L331.175 249.559
L331.175 244.997
L334.429 244.997
L334.429 240.435
L335.767 240.435
L335.767 235.872
L336.866 235.872
L336.866 231.31
L348.662 231.31
L348.662 226.747
L352.503 226.747
L352.503 222.185
L365.347 222.185
L365.347 217.623
L369.085 217.623
L369.085 213.06
L371.636 213.06
L371.636 208.498
L376.849 208.498
L376.849 203.936
L380.998 203.936
L380.998 199.373
L382.277 199.373
L382.277 194.811
L384.176 194.811
L384.176 190.248
L388.629 190.248
L388.629 185.686
L397.919 185.686
L397.919 181.124
L410.657 181.124
L410.657 176.561
L413.931 176.561
L413.931 171.999
L419.606 171.999
L419.606 167.437
L420.421 167.437
L420.421 162.874
L420.819 162.874
L420.819 158.312
L437.37 158.312
L437.37 153.749
L437.37 153.749
L437.37 153.749
L511.322 153.749" style="fill:none;stroke:#f5deb3;stroke-linecap:square;"/>
   </g>
   <g id="line2d_19">
    <path clip-path="url(#p4b24e7e61f)" d="
M591.385 359.056" style="fill:none;stroke:#f5deb3;stroke-linecap:square;"/>
   </g>
   <g id="line2d_20">
    <path clip-path="url(#p4b24e7e61f)" d="
M238.958 359.056
L238.958 354.494
L243.232 354.494
L243.232 349.932
L246.584 349.932
L246.584 345.369
L247.362 345.369
L247.362 340.807
L248.938 340.807
L248.938 331.682
L249.206 331.682
L249.206 327.12
L249.867 327.12
L249.867 322.557
L250.194 322.557
L250.194 317.995
L251.536 317.995
L251.598 308.87
L252.589 308.87
L252.589 304.308
L253.375 304.308
L253.375 299.745
L255.869 299.745
L255.869 295.183
L256.702 295.183
L256.702 286.058
L258.632 286.058
L258.632 281.496
L260.421 281.496
L260.421 276.934
L263.214 276.934
L263.214 267.809
L263.538 267.809
L263.538 263.246
L264.087 263.246
L264.087 258.684
L264.494 258.684
L264.494 254.122
L265.163 254.122
L265.163 249.559
L267.144 249.559
L267.144 244.997
L267.769 244.997
L267.769 240.435
L268.505 240.435
L268.505 235.872
L269.268 235.872
L269.268 231.31
L271.732 231.31
L271.732 226.747
L271.843 226.747
L271.881 217.623
L272.25 217.623
L272.25 213.06
L273.088 213.06
L273.124 203.936
L274.779 203.936
L274.779 199.373
L277.508 199.373
L277.508 194.811
L277.923 194.811
L277.923 190.248
L279.633 190.248
L279.725 181.124
L284.164 181.124
L284.164 176.561
L284.755 176.561
L284.755 171.999
L284.888 171.999
L284.888 167.437
L285.546 167.437
L285.546 162.874
L285.884 162.874
L285.962 153.749
L291.781 153.749
L291.781 149.187
L296.564 149.187
L296.564 144.625
L297.169 144.625
L297.169 140.062
L299.277 140.062
L299.277 135.5
L303.129 135.5
L303.129 130.938
L303.656 130.938
L303.656 126.375
L305.65 126.375
L305.65 121.813
L309.635 121.813
L309.635 117.25
L311.79 117.25
L311.79 112.688
L313.881 112.688
L313.881 108.126
L314.232 108.126
L314.232 103.563
L317.72 103.563
L317.72 99.0009
L317.89 99.0009
L317.89 94.4385
L319.315 94.4385
L319.315 89.8761
L320.678 89.8761
L320.678 85.3138
L322.168 85.3138
L322.168 80.7514
L323.846 80.7514
L323.846 76.189
L333.478 76.189
L333.478 71.6266
L336.838 71.6266
L336.838 67.0643
L337.281 67.0643
L337.281 62.5019
L342.662 62.5019
L342.662 57.9395
L347.481 57.9395
L347.481 53.3771
L353.252 53.3771
L353.252 48.8148
L363.481 48.8148
L363.481 44.2524
L368.41 44.2524
L368.41 39.69
L369.53 39.69
L369.53 35.1276
L371.389 35.1276
L371.389 30.5653
L373.545 30.5653
L373.545 26.0029
L392.8 26.0029
L392.8 21.4405
L419.819 21.4405
L419.819 16.8781
L419.819 16.8781
L511.322 16.8781
L511.322 16.8781" style="fill:none;stroke:#f5deb3;stroke-linecap:square;"/>
   </g>
   <g id="line2d_21"/>
   <g id="line2d_22">
    <path clip-path="url(#p4b24e7e61f)" d="
M237.632 359.056
L237.632 354.494
L239.562 354.494
L239.562 349.932
L243.619 349.932
L243.619 345.369
L244.079 345.369
L244.079 340.807
L244.683 340.807
L244.683 336.244
L244.833 336.244
L244.833 331.682
L245.204 331.682
L245.204 327.12
L245.645 327.12
L245.718 317.995
L246.584 317.995
L246.584 313.433
L247.432 313.433
L247.432 308.87
L248.938 308.87
L248.938 304.308
L249.998 304.308
L249.998 299.745
L251.22 299.745
L251.22 295.183
L251.786 295.183
L251.786 290.621
L251.911 290.621
L251.911 286.058
L252.159 286.058
L252.159 281.496
L254.264 281.496
L254.264 276.934
L255.246 276.934
L255.246 272.371
L255.981 272.371
L255.981 267.809
L256.867 267.809
L256.867 263.246
L263.028 263.246
L263.028 258.684
L263.538 258.684
L263.538 254.122
L264.042 254.122
L264.042 249.559
L265.993 249.559
L265.993 244.997
L267.603 244.997
L267.603 240.435
L269.624 240.435
L269.624 235.872
L270.558 235.872
L270.558 231.31
L272.177 231.31
L272.177 226.747
L275.496 226.747
L275.496 222.185
L276.892 222.185
L276.892 217.623
L277.347 217.623
L277.347 213.06
L278.082 213.06
L278.082 208.498
L278.334 208.498
L278.334 203.936
L279.694 203.936
L279.694 199.373
L280.535 199.373
L280.535 194.811
L283.371 194.811
L283.371 190.248
L286.932 190.248
L286.932 185.686
L287.581 185.686
L287.581 181.124
L288.147 181.124
L288.147 176.561
L290.053 176.561
L290.053 171.999
L291.958 171.999
L291.958 167.437
L294.027 167.437
L294.027 162.874
L294.959 162.874
L294.959 158.312
L295.97 158.312
L295.97 153.749
L297.091 153.749
L297.169 144.625
L297.227 144.625
L297.227 140.062
L298.105 140.062
L298.105 135.5
L298.724 135.5
L298.724 130.938
L299.46 130.938
L299.46 126.375
L302.729 126.375
L302.745 117.25
L305.102 117.25
L305.102 112.688
L306.251 112.688
L306.251 108.126
L306.692 108.126
L306.692 103.563
L308.998 103.563
L308.998 99.0009
L309.564 99.0009
L309.564 94.4385
L309.984 94.4385
L309.984 89.8761
L310.288 89.8761
L310.288 85.3138
L310.522 85.3138
L310.522 80.7514
L310.904 80.7514
L310.958 71.6266
L313.528 71.6266
L313.528 67.0643
L319.608 67.0643
L319.608 62.5019
L320.678 62.5019
L320.678 57.9395
L325.052 57.9395
L325.052 53.3771
L325.427 53.3771
L325.427 48.8148
L328.017 48.8148
L328.017 44.2524
L328.683 44.2524
L328.683 39.69
L329.833 39.69
L329.833 35.1276
L336.734 35.1276
L336.734 30.5653
L337.329 30.5653
L337.329 26.0029
L349.303 26.0029
L349.303 21.4405
L357.924 21.4405
L357.924 16.8781
L357.924 16.8781
L511.322 16.8781
L511.322 16.8781" style="fill:none;stroke:#f5deb3;stroke-linecap:square;"/>
   </g>
   <g id="line2d_23">
    <path clip-path="url(#p4b24e7e61f)" d="
M499.797 359.056
L499.797 354.494
L504.055 354.494
L504.055 349.932
L504.09 349.932
L504.09 345.369
L506.14 345.369
L506.14 340.807
L506.822 340.807
L506.822 336.244
L509.074 336.244
L509.074 331.682
L509.777 331.682
L509.777 327.12
L510.117 327.12
L510.117 322.557
L510.117 322.557
L510.117 322.557
L511.322 322.557" style="fill:none;stroke:#f5deb3;stroke-linecap:square;"/>
   </g>
   <g id="line2d_24">
    <path clip-path="url(#p4b24e7e61f)" d="
M282.392 359.056
L282.392 354.494
L284.191 354.494
L284.191 349.932
L288.753 349.932
L288.753 345.369
L289.302 345.369
L289.396 336.244
L289.514 336.244
L289.514 331.682
L289.983 331.682
L289.983 327.12
L290.354 327.12
L290.354 322.557
L292.985 322.557
L293.006 313.433
L293.328 313.433
L293.328 308.87
L293.647 308.87
L293.647 304.308
L294.089 304.308
L294.089 299.745
L294.775 299.745
L294.775 295.183
L295.164 295.183
L295.164 290.621
L296.05 290.621
L296.05 286.058
L296.407 286.058
L296.407 281.496
L297.515 281.496
L297.515 276.934
L298.237 276.934
L298.294 267.809
L299.478 267.809
L299.478 263.246
L300.61 263.246
L300.61 258.684
L301.277 258.684
L301.277 254.122
L302.594 254.122
L302.594 249.559
L302.762 249.559
L302.846 240.435
L303.096 240.435
L303.096 235.872
L303.591 235.872
L303.689 226.747
L303.949 226.747
L304.014 217.623
L304.514 217.623
L304.514 213.06
L305.133 213.06
L305.133 208.498
L305.353 208.498
L305.353 203.936
L306.282 203.936
L306.282 199.373
L307.039 199.373
L307.039 194.811
L307.323 194.811
L307.382 185.686
L308.554 185.686
L308.554 181.124
L309.649 181.124
L309.649 176.561
L310.136 176.561
L310.136 171.999
L310.999 171.999
L310.999 167.437
L311.47 167.437
L311.47 162.874
L311.59 162.874
L311.59 158.312
L313.616 158.312
L313.616 153.749
L314.294 153.749
L314.294 149.187
L315.89 149.187
L315.89 144.625
L316.412 144.625
L316.412 140.062
L316.949 140.062
L316.949 135.5
L317.572 135.5
L317.572 130.938
L317.89 130.938
L317.89 126.375
L318.218 126.375
L318.218 121.813
L319.608 121.813
L319.608 117.25
L320.752 117.25
L320.783 108.126
L320.878 108.126
L320.878 103.563
L321.389 103.563
L321.389 99.0009
L321.903 99.0009
L321.903 94.4385
L322.722 94.4385
L322.722 89.8761
L322.981 89.8761
L322.981 85.3138
L323.768 85.3138
L323.866 76.189
L327.824 76.189
L327.824 71.6266
L329.101 71.6266
L329.101 67.0643
L330.156 67.0643
L330.156 62.5019
L330.542 62.5019
L330.542 57.9395
L338.352 57.9395
L338.352 53.3771
L341.852 53.3771
L341.852 48.8148
L346.746 48.8148
L346.746 44.2524
L358.504 44.2524
L358.504 39.69
L358.635 39.69
L358.635 35.1276
L361.908 35.1276
L361.908 30.5653
L364.928 30.5653
L364.928 26.0029
L382.78 26.0029
L382.78 21.4405
L384.685 21.4405
L384.685 16.8781
L384.685 16.8781
L511.322 16.8781
L511.322 16.8781" style="fill:none;stroke:#f5deb3;stroke-linecap:square;"/>
   </g>
   <g id="line2d_25"/>
   <g id="line2d_26">
    <path clip-path="url(#p4b24e7e61f)" d="
M329.858 359.056
L329.858 354.494
L331.239 354.494
L331.239 349.932
L332.097 349.932
L332.207 336.244
L332.332 336.244
L332.441 327.12
L336.405 327.12
L336.433 317.995
L336.622 317.995
L336.622 313.433
L337.012 313.433
L337.109 304.308
L337.322 304.308
L337.397 295.183
L337.486 295.183
L337.486 290.621
L337.623 290.621
L337.677 281.496
L337.881 281.496
L337.969 272.371
L338.251 272.371
L338.251 267.809
L338.392 267.809
L338.392 263.246
L338.525 263.246
L338.525 258.684
L338.823 258.684
L338.863 244.997
L339.106 244.997
L339.106 240.435
L339.381 240.435
L339.465 222.185
L342.692 222.185
L342.734 208.498
L343.001 208.498
L343.061 199.373
L343.438 199.373
L343.438 194.811
L343.637 194.811
L343.695 185.686
L344.21 185.686
L344.21 181.124
L344.547 181.124
L344.547 176.561
L345.057 176.561
L345.057 171.999
L348.421 171.999
L348.421 167.437
L348.928 167.437
L348.938 158.312
L349.277 158.312
L349.277 153.749
L349.559 153.749
L349.559 149.187
L353.461 149.187
L353.461 144.625
L354.58 144.625
L354.585 135.5
L354.73 135.5
L354.76 121.813
L355.057 121.813
L355.057 117.25
L357.588 117.25
L357.588 112.688
L358.097 112.688
L358.097 108.126
L358.389 108.126
L358.473 94.4385
L359.127 94.4385
L359.127 89.8761
L361.56 89.8761
L361.652 80.7514
L362.053 80.7514
L362.053 76.189
L362.661 76.189
L362.675 67.0643
L366.102 67.0643
L366.102 62.5019
L368.567 62.5019
L368.567 57.9395
L376.023 57.9395
L376.023 53.3771
L376.712 53.3771
L376.819 39.69
L377.894 39.69
L377.894 35.1276
L378.867 35.1276
L378.867 30.5653
L383.366 30.5653
L383.366 26.0029
L386.153 26.0029
L386.153 21.4405
L401.941 21.4405
L401.941 16.8781
L401.941 16.8781
L511.322 16.8781
L511.322 16.8781" style="fill:none;stroke:#f5deb3;stroke-linecap:square;"/>
   </g>
   <g id="line2d_27"/>
   <g id="line2d_28">
    <path clip-path="url(#p4b24e7e61f)" d="
M276.201 359.056
L276.201 354.494
L276.597 354.494
L276.597 349.932
L277.604 349.932
L277.604 345.369
L279.267 345.369
L279.267 340.807
L279.542 340.807
L279.542 336.244
L279.936 336.244
L279.936 331.682
L281.271 331.682
L281.271 327.12
L282.815 327.12
L282.815 322.557
L282.955 322.557
L282.955 317.995
L284.164 317.995
L284.164 313.433
L284.648 313.433
L284.648 308.87
L284.861 308.87
L284.861 304.308
L285.833 304.308
L285.833 299.745
L286.704 299.745
L286.704 295.183
L286.856 295.183
L286.856 290.621
L287.158 290.621
L287.158 286.058
L287.308 286.058
L287.308 281.496
L287.68 281.496
L287.68 276.934
L287.976 276.934
L287.976 272.371
L288.245 272.371
L288.245 267.809
L288.415 267.809
L288.415 263.246
L289.04 263.246
L289.04 258.684
L289.231 258.684
L289.231 254.122
L289.373 254.122
L289.373 249.559
L290.331 249.559
L290.331 244.997
L290.858 244.997
L290.858 240.435
L291.04 240.435
L291.04 235.872
L292.002 235.872
L292.002 231.31
L292.682 231.31
L292.682 226.747
L293.52 226.747
L293.52 222.185
L293.921 222.185
L293.921 217.623
L294.754 217.623
L294.754 213.06
L295.87 213.06
L295.87 208.498
L296.367 208.498
L296.367 203.936
L296.604 203.936
L296.604 199.373
L296.78 199.373
L296.78 194.811
L297.973 194.811
L297.973 190.248
L298.124 190.248
L298.124 185.686
L298.575 185.686
L298.575 181.124
L298.724 181.124
L298.724 176.561
L299.094 176.561
L299.094 171.999
L299.277 171.999
L299.277 167.437
L299.424 167.437
L299.424 162.874
L299.877 162.874
L299.877 158.312
L300.557 158.312
L300.557 153.749
L300.98 153.749
L300.98 149.187
L301.329 149.187
L301.433 140.062
L301.485 140.062
L301.503 130.938
L302.188 130.938
L302.188 126.375
L303.129 126.375
L303.129 121.813
L304.112 121.813
L304.112 117.25
L304.402 117.25
L304.402 112.688
L305.086 112.688
L305.086 108.126
L305.306 108.126
L305.306 103.563
L306.51 103.563
L306.51 99.0009
L307.144 99.0009
L307.144 94.4385
L307.516 94.4385
L307.516 89.8761
L307.811 89.8761
L307.811 85.3138
L308.913 85.3138
L308.913 80.7514
L309.24 80.7514
L309.24 76.189
L309.606 76.189
L309.606 71.6266
L310.067 71.6266
L310.067 67.0643
L310.371 67.0643
L310.371 62.5019
L311.228 62.5019
L311.228 57.9395
L312.888 57.9395
L312.888 53.3771
L313.209 53.3771
L313.209 48.8148
L313.629 48.8148
L313.629 44.2524
L327.178 44.2524
L327.178 39.69
L327.859 39.69
L327.859 35.1276
L330.452 35.1276
L330.452 30.5653
L332.744 30.5653
L332.744 26.0029
L334.995 26.0029
L334.995 21.4405
L347.592 21.4405
L347.592 16.8781
L347.592 16.8781
L511.322 16.8781
L511.322 16.8781" style="fill:none;stroke:#f5deb3;stroke-linecap:square;"/>
   </g>
   <g id="line2d_29">
    <path clip-path="url(#p4b24e7e61f)" d="
M339.949 359.056
L339.949 354.494
L339.949 354.494
L339.949 349.932
L339.949 349.932
L339.949 345.369
L365.596 345.369
L365.596 340.807
L365.596 340.807
L365.596 336.244
L365.596 336.244
L365.596 331.682
L365.596 331.682
L365.596 331.682
L511.322 331.682" style="fill:none;stroke:#f5deb3;stroke-linecap:square;"/>
   </g>
   <g id="line2d_30"/>
   <g id="line2d_31">
    <path clip-path="url(#p4b24e7e61f)" d="
M2.55091 359.056
L2.55091 354.494
L2.55091 354.494
L2.55091 354.494
L2.55091 349.932
L2.55091 349.932
L2.55091 349.932
L2.55091 345.369
L2.55091 345.369
L2.55091 345.369
L2.55091 340.807
L2.55091 340.807
L2.55091 340.807
L2.55091 336.244
L2.55091 336.244
L2.55091 336.244
L2.55091 331.682
L29.4126 331.682
L29.4126 317.995
L45.1257 317.995
L45.1257 313.433
L64.9219 313.433
L64.9219 304.308
L87.7005 304.308
L87.7005 299.745
L104.823 299.745
L104.823 295.183
L152.573 295.183
L152.573 290.621
L213.796 290.621
L213.796 286.058
L220.078 286.058
L220.078 281.496
L220.219 281.496
L220.219 276.934
L221.33 276.934
L221.33 272.371
L222.143 272.371
L222.143 267.809
L223.071 267.809
L223.071 263.246
L223.591 263.246
L223.591 258.684
L226.931 258.684
L226.931 254.122
L229.119 254.122
L229.119 249.559
L229.896 249.559
L229.896 244.997
L233.359 244.997
L233.359 240.435
L235.979 240.435
L236.073 231.31
L236.538 231.31
L236.538 226.747
L237.722 226.747
L237.722 222.185
L238.521 222.185
L238.521 217.623
L240.824 217.623
L240.824 213.06
L241.318 213.06
L241.318 208.498
L244.758 208.498
L244.758 199.373
L245.645 199.373
L245.645 194.811
L246.656 194.811
L246.727 185.686
L250.453 185.686
L250.453 181.124
L250.838 181.124
L250.838 176.561
L253.014 176.561
L253.014 171.999
L263.261 171.999
L263.261 167.437
L263.722 167.437
L263.722 162.874
L264.404 162.874
L264.404 158.312
L264.584 158.312
L264.584 153.749
L266.123 153.749
L266.123 149.187
L268.179 149.187
L268.22 140.062
L269.069 140.062
L269.069 135.5
L269.308 135.5
L269.308 130.938
L270.133 130.938
L270.133 126.375
L270.249 126.375
L270.249 121.813
L271.281 121.813
L271.281 117.25
L271.47 117.25
L271.47 112.688
L272.066 112.688
L272.066 108.126
L273.016 108.126
L273.016 103.563
L275.122 103.563
L275.122 99.0009
L275.699 99.0009
L275.699 94.4385
L276.333 94.4385
L276.333 85.3138
L277.572 85.3138
L277.572 80.7514
L277.86 80.7514
L277.86 76.189
L279.144 76.189
L279.175 67.0643
L279.997 67.0643
L279.997 62.5019
L280.207 62.5019
L280.207 57.9395
L280.979 57.9395
L280.979 53.3771
L282.193 53.3771
L282.193 48.8148
L282.646 48.8148
L282.646 44.2524
L283.094 44.2524
L283.094 39.69
L285.625 39.69
L285.625 35.1276
L286.245 35.1276
L286.245 30.5653
L287.233 30.5653
L287.233 26.0029
L294.089 26.0029
L294.089 21.4405
L298.928 21.4405
L298.928 16.8781
L298.928 16.8781
L511.322 16.8781
L511.322 16.8781" style="fill:none;stroke:#000000;stroke-linecap:square;"/>
   </g>
   <g id="line2d_32">
    <path clip-path="url(#p4b24e7e61f)" style="fill:none;stroke:#000000;stroke-linecap:square;"/>
   </g>
   <g id="line2d_33">
    <path clip-path="url(#p4b24e7e61f)" d="
M195.682 359.056
L195.682 354.494
L198.987 354.494
L198.987 349.932
L199.23 349.932
L199.23 345.369
L199.712 345.369
L199.712 340.807
L200.187 340.807
L200.187 331.682
L202.703 331.682
L202.703 327.12
L202.924 327.12
L202.924 322.557
L206.497 322.557
L206.497 317.995
L207.684 317.995
L207.684 308.87
L209.023 308.87
L209.023 304.308
L209.398 304.308
L209.398 299.745
L211.395 299.745
L211.395 295.183
L212.442 295.183
L212.442 290.621
L254.029 290.621
L254.029 286.058
L255.644 286.058
L255.644 281.496
L270.016 281.496
L270.016 276.934
L270.978 276.934
L270.978 272.371
L274.328 272.371
L274.328 267.809
L275.462 267.809
L275.462 263.246
L279.603 263.246
L279.603 258.684
L279.725 258.684
L279.725 254.122
L282.051 254.122
L282.079 244.997
L282.165 244.997
L282.222 235.872
L283.316 235.872
L283.316 231.31
L283.564 231.31
L283.592 222.185
L284.056 222.185
L284.056 217.623
L284.218 217.623
L284.245 203.936
L284.38 203.936
L284.38 199.373
L284.568 199.373
L284.648 190.248
L285.232 190.248
L285.337 171.999
L285.363 171.999
L285.363 167.437
L285.651 167.437
L285.651 162.874
L285.807 162.874
L285.807 158.312
L286.399 158.312
L286.424 149.187
L287.108 149.187
L287.108 144.625
L287.853 144.625
L287.853 140.062
L288.025 140.062
L288.025 135.5
L288.56 135.5
L288.56 130.938
L289.183 130.938
L289.254 117.25
L290.03 117.25
L290.053 108.126
L290.215 108.126
L290.262 99.0009
L290.676 99.0009
L290.744 89.8761
L290.813 89.8761
L290.813 85.3138
L291.221 85.3138
L291.221 80.7514
L292.595 80.7514
L292.595 76.189
L293.006 76.189
L293.006 71.6266
L293.668 71.6266
L293.668 67.0643
L295.245 67.0643
L295.245 62.5019
L295.67 62.5019
L295.67 57.9395
L296.268 57.9395
L296.268 53.3771
L298.143 53.3771
L298.143 48.8148
L302.409 48.8148
L302.409 44.2524
L302.979 44.2524
L302.979 39.69
L304.562 39.69
L304.562 35.1276
L309.621 35.1276
L309.621 30.5653
L315.446 30.5653
L315.446 26.0029
L322.862 26.0029
L322.862 21.4405
L335.988 21.4405
L335.988 16.8781
L335.988 16.8781
L511.322 16.8781
L511.322 16.8781" style="fill:none;stroke:#00bfbf;stroke-linecap:square;"/>
   </g>
   <g id="line2d_34">
    <path clip-path="url(#p4b24e7e61f)" style="fill:none;stroke:#00bfbf;stroke-linecap:square;"/>
   </g>
   <g id="line2d_35">
    <path clip-path="url(#p4b24e7e61f)" d="
M256.592 359.056
L256.592 354.494
L262.321 354.494
L262.416 345.369
L265.339 345.369
L265.339 340.807
L266.252 340.807
L266.338 331.682
L267.228 331.682
L267.27 322.557
L268.057 322.557
L268.057 317.995
L268.505 317.995
L268.505 313.433
L268.949 313.433
L268.949 308.87
L269.703 308.87
L269.703 304.308
L270.558 304.308
L270.558 299.745
L272.14 299.745
L272.14 295.183
L275.934 295.183
L275.934 290.621
L287.233 290.621
L287.233 286.058
L287.73 286.058
L287.73 281.496
L287.853 281.496
L287.853 276.934
L288.68 276.934
L288.68 272.371
L289.679 272.371
L289.679 267.809
L289.866 267.809
L289.89 258.684
L290.238 258.684
L290.238 254.122
L290.584 254.122
L290.584 249.559
L290.904 249.559
L290.949 235.872
L292.024 235.872
L292.024 231.31
L292.179 231.31
L292.179 226.747
L292.311 226.747
L292.311 222.185
L292.898 222.185
L292.985 213.06
L293.285 213.06
L293.306 203.936
L293.774 203.936
L293.774 199.373
L294.215 199.373
L294.215 194.811
L294.361 194.811
L294.361 190.248
L294.506 190.248
L294.506 185.686
L294.918 185.686
L294.918 181.124
L295.082 181.124
L295.184 162.874
L295.589 162.874
L295.589 158.312
L295.73 158.312
L295.73 153.749
L295.87 153.749
L295.89 144.625
L296.721 144.625
L296.721 140.062
L296.858 140.062
L296.877 130.938
L297.342 130.938
L297.342 126.375
L297.496 126.375
L297.496 121.813
L298.294 121.813
L298.294 117.25
L298.705 117.25
L298.705 112.688
L299.442 112.688
L299.497 94.4385
L300.165 94.4385
L300.165 89.8761
L304.208 89.8761
L304.208 85.3138
L307.382 85.3138
L307.382 80.7514
L308.264 80.7514
L308.264 76.189
L308.898 76.189
L308.898 71.6266
L309.635 71.6266
L309.635 67.0643
L312.277 67.0643
L312.277 62.5019
L314.269 62.5019
L314.269 57.9395
L315.878 57.9395
L315.878 53.3771
L321.513 53.3771
L321.513 48.8148
L326.331 48.8148
L326.331 39.69
L326.892 39.69
L326.892 35.1276
L327.569 35.1276
L327.569 30.5653
L328.459 30.5653
L328.459 26.0029
L329.749 26.0029
L329.749 21.4405
L346.643 21.4405
L346.643 16.8781
L346.643 16.8781
L511.322 16.8781
L511.322 16.8781" style="fill:none;stroke:#bf00bf;stroke-linecap:square;"/>
   </g>
   <g id="line2d_36">
    <path clip-path="url(#p4b24e7e61f)" style="fill:none;stroke:#bf00bf;stroke-linecap:square;"/>
   </g>
   <g id="line2d_37">
    <path clip-path="url(#p4b24e7e61f)" d="
M295.204 359.056
L295.204 354.494
L295.589 354.494
L295.589 349.932
L296.03 349.932
L296.03 345.369
L296.466 345.369
L296.466 340.807
L296.584 340.807
L296.584 336.244
L296.76 336.244
L296.76 331.682
L296.897 331.682
L296.897 327.12
L297.13 327.12
L297.13 322.557
L297.554 322.557
L297.554 317.995
L298.086 317.995
L298.086 313.433
L298.294 313.433
L298.294 308.87
L298.406 308.87
L298.406 304.308
L298.593 304.308
L298.612 290.621
L298.798 290.621
L298.798 286.058
L299.259 286.058
L299.259 281.496
L299.424 281.496
L299.497 272.371
L299.823 272.371
L299.823 267.809
L300.075 267.809
L300.075 263.246
L300.236 263.246
L300.326 254.122
L300.397 254.122
L300.433 244.997
L300.539 244.997
L300.539 240.435
L300.663 240.435
L300.663 235.872
L300.98 235.872
L300.98 231.31
L301.103 231.31
L301.155 217.623
L301.329 217.623
L301.329 213.06
L302.426 213.06
L302.426 208.498
L303.212 208.498
L303.261 194.811
L303.819 194.811
L303.819 190.248
L304.095 190.248
L304.128 181.124
L304.321 181.124
L304.369 171.999
L304.833 171.999
L304.833 167.437
L305.259 167.437
L305.29 158.312
L305.478 158.312
L305.478 153.749
L306.251 153.749
L306.251 149.187
L307.218 149.187
L307.218 144.625
L308.395 144.625
L308.395 140.062
L310.357 140.062
L310.357 135.5
L313.197 135.5
L313.197 130.938
L314.282 130.938
L314.282 126.375
L315.794 126.375
L315.794 121.813
L316.482 121.813
L316.588 112.688
L317.273 112.688
L317.273 108.126
L318.531 108.126
L318.531 103.563
L318.875 103.563
L318.875 99.0009
L319.051 99.0009
L319.051 94.4385
L319.695 94.4385
L319.695 89.8761
L320.604 89.8761
L320.604 85.3138
L321.554 85.3138
L321.554 80.7514
L323.13 80.7514
L323.13 76.189
L323.524 76.189
L323.524 71.6266
L324.3 71.6266
L324.3 67.0643
L332.41 67.0643
L332.41 62.5019
L335.581 62.5019
L335.617 53.3771
L335.874 53.3771
L335.874 48.8148
L336.433 48.8148
L336.433 44.2524
L337.452 44.2524
L337.452 39.69
L338.258 39.69
L338.258 35.1276
L344.008 35.1276
L344.008 30.5653
L346.056 30.5653
L346.056 26.0029
L355.252 26.0029
L355.252 21.4405
L368.067 21.4405
L368.067 16.8781
L368.067 16.8781
L511.322 16.8781
L511.322 16.8781" style="fill:none;stroke:#ff0000;stroke-linecap:square;stroke-width:3.0;"/>
   </g>
   <g id="line2d_38">
    <path clip-path="url(#p4b24e7e61f)" style="fill:none;stroke:#ff0000;stroke-linecap:square;stroke-width:3.0;"/>
   </g>
   <g id="line2d_39">
    <path clip-path="url(#p4b24e7e61f)" d="
M368.067 359.056
L368.067 13.4563" style="fill:none;stroke:#000000;stroke-linecap:square;"/>
   </g>
   <g id="patch_3">
    <path d="
M64.9219 13.4563
L511.322 13.4563" style="fill:none;stroke:#000000;stroke-linecap:square;stroke-linejoin:miter;"/>
   </g>
   <g id="patch_4">
    <path d="
M511.322 359.056
L511.322 13.4563" style="fill:none;stroke:#000000;stroke-linecap:square;stroke-linejoin:miter;"/>
   </g>
   <g id="patch_5">
    <path d="
M64.9219 359.056
L511.322 359.056" style="fill:none;stroke:#000000;stroke-linecap:square;stroke-linejoin:miter;"/>
   </g>
   <g id="patch_6">
    <path d="
M64.9219 359.056
L64.9219 13.4563" style="fill:none;stroke:#000000;stroke-linecap:square;stroke-linejoin:miter;"/>
   </g>
   <g id="matplotlib.axis_1">
    <g id="xtick_1">
     <g id="line2d_40">
      <path clip-path="url(#p4b24e7e61f)" d="
M64.9219 359.056
L64.9219 13.4563" style="fill:none;stroke:#000000;stroke-dasharray:1.000000,3.000000;stroke-dashoffset:0.0;stroke-width:0.5;"/>
     </g>
     <g id="line2d_41">
      <defs>
       <path d="
M0 0
L0 -4" id="m93b0483c22" style="stroke:#000000;stroke-width:0.5;"/>
      </defs>
      <g>
       <use style="stroke:#000000;stroke-width:0.5;" x="64.921875" xlink:href="#m93b0483c22" y="359.056342822"/>
      </g>
     </g>
     <g id="line2d_42">
      <defs>
       <path d="
M0 0
L0 4" id="m741efc42ff" style="stroke:#000000;stroke-width:0.5;"/>
      </defs>
      <g>
       <use style="stroke:#000000;stroke-width:0.5;" x="64.921875" xlink:href="#m741efc42ff" y="13.4563428218"/>
      </g>
     </g>
     <g id="text_1">
      <!-- 0 -->
      <defs>
       <path d="
M31.7812 66.4062
Q24.1719 66.4062 20.3281 58.9062
Q16.5 51.4219 16.5 36.375
Q16.5 21.3906 20.3281 13.8906
Q24.1719 6.39062 31.7812 6.39062
Q39.4531 6.39062 43.2812 13.8906
Q47.125 21.3906 47.125 36.375
Q47.125 51.4219 43.2812 58.9062
Q39.4531 66.4062 31.7812 66.4062
M31.7812 74.2188
Q44.0469 74.2188 50.5156 64.5156
Q56.9844 54.8281 56.9844 36.375
Q56.9844 17.9688 50.5156 8.26562
Q44.0469 -1.42188 31.7812 -1.42188
Q19.5312 -1.42188 13.0625 8.26562
Q6.59375 17.9688 6.59375 36.375
Q6.59375 54.8281 13.0625 64.5156
Q19.5312 74.2188 31.7812 74.2188" id="BitstreamVeraSans-Roman-30"/>
      </defs>
      <g transform="translate(59.8828125 378.253217822)scale(0.2 -0.2)">
       <use xlink:href="#BitstreamVeraSans-Roman-30"/>
      </g>
     </g>
    </g>
    <g id="xtick_2">
     <g id="line2d_43">
      <path clip-path="url(#p4b24e7e61f)" d="
M154.155 359.056
L154.155 13.4563" style="fill:none;stroke:#000000;stroke-dasharray:1.000000,3.000000;stroke-dashoffset:0.0;stroke-width:0.5;"/>
     </g>
     <g id="line2d_44">
      <g>
       <use style="stroke:#000000;stroke-width:0.5;" x="154.154554754" xlink:href="#m93b0483c22" y="359.056342822"/>
      </g>
     </g>
     <g id="line2d_45">
      <g>
       <use style="stroke:#000000;stroke-width:0.5;" x="154.154554754" xlink:href="#m741efc42ff" y="13.4563428218"/>
      </g>
     </g>
     <g id="text_2">
      <!-- 1 -->
      <defs>
       <path d="
M12.4062 8.29688
L28.5156 8.29688
L28.5156 63.9219
L10.9844 60.4062
L10.9844 69.3906
L28.4219 72.9062
L38.2812 72.9062
L38.2812 8.29688
L54.3906 8.29688
L54.3906 0
L12.4062 0
z
" id="BitstreamVeraSans-Roman-31"/>
      </defs>
      <g transform="translate(149.813929754 378.253217822)scale(0.2 -0.2)">
       <use xlink:href="#BitstreamVeraSans-Roman-31"/>
      </g>
     </g>
    </g>
    <g id="xtick_3">
     <g id="line2d_46">
      <path clip-path="url(#p4b24e7e61f)" d="
M243.387 359.056
L243.387 13.4563" style="fill:none;stroke:#000000;stroke-dasharray:1.000000,3.000000;stroke-dashoffset:0.0;stroke-width:0.5;"/>
     </g>
     <g id="line2d_47">
      <g>
       <use style="stroke:#000000;stroke-width:0.5;" x="243.387234508" xlink:href="#m93b0483c22" y="359.056342822"/>
      </g>
     </g>
     <g id="line2d_48">
      <g>
       <use style="stroke:#000000;stroke-width:0.5;" x="243.387234508" xlink:href="#m741efc42ff" y="13.4563428218"/>
      </g>
     </g>
     <g id="text_3">
      <!-- 2 -->
      <defs>
       <path d="
M19.1875 8.29688
L53.6094 8.29688
L53.6094 0
L7.32812 0
L7.32812 8.29688
Q12.9375 14.1094 22.625 23.8906
Q32.3281 33.6875 34.8125 36.5312
Q39.5469 41.8438 41.4219 45.5312
Q43.3125 49.2188 43.3125 52.7812
Q43.3125 58.5938 39.2344 62.25
Q35.1562 65.9219 28.6094 65.9219
Q23.9688 65.9219 18.8125 64.3125
Q13.6719 62.7031 7.8125 59.4219
L7.8125 69.3906
Q13.7656 71.7812 18.9375 73
Q24.125 74.2188 28.4219 74.2188
Q39.75 74.2188 46.4844 68.5469
Q53.2188 62.8906 53.2188 53.4219
Q53.2188 48.9219 51.5312 44.8906
Q49.8594 40.875 45.4062 35.4062
Q44.1875 33.9844 37.6406 27.2188
Q31.1094 20.4531 19.1875 8.29688" id="BitstreamVeraSans-Roman-32"/>
      </defs>
      <g transform="translate(238.759109508 378.253217822)scale(0.2 -0.2)">
       <use xlink:href="#BitstreamVeraSans-Roman-32"/>
      </g>
     </g>
    </g>
    <g id="xtick_4">
     <g id="line2d_49">
      <path clip-path="url(#p4b24e7e61f)" d="
M332.62 359.056
L332.62 13.4563" style="fill:none;stroke:#000000;stroke-dasharray:1.000000,3.000000;stroke-dashoffset:0.0;stroke-width:0.5;"/>
     </g>
     <g id="line2d_50">
      <g>
       <use style="stroke:#000000;stroke-width:0.5;" x="332.619914261" xlink:href="#m93b0483c22" y="359.056342822"/>
      </g>
     </g>
     <g id="line2d_51">
      <g>
       <use style="stroke:#000000;stroke-width:0.5;" x="332.619914261" xlink:href="#m741efc42ff" y="13.4563428218"/>
      </g>
     </g>
     <g id="text_4">
      <!-- 3 -->
      <defs>
       <path d="
M40.5781 39.3125
Q47.6562 37.7969 51.625 33
Q55.6094 28.2188 55.6094 21.1875
Q55.6094 10.4062 48.1875 4.48438
Q40.7656 -1.42188 27.0938 -1.42188
Q22.5156 -1.42188 17.6562 -0.515625
Q12.7969 0.390625 7.625 2.20312
L7.625 11.7188
Q11.7188 9.32812 16.5938 8.10938
Q21.4844 6.89062 26.8125 6.89062
Q36.0781 6.89062 40.9375 10.5469
Q45.7969 14.2031 45.7969 21.1875
Q45.7969 27.6406 41.2812 31.2656
Q36.7656 34.9062 28.7188 34.9062
L20.2188 34.9062
L20.2188 43.0156
L29.1094 43.0156
Q36.375 43.0156 40.2344 45.9219
Q44.0938 48.8281 44.0938 54.2969
Q44.0938 59.9062 40.1094 62.9062
Q36.1406 65.9219 28.7188 65.9219
Q24.6562 65.9219 20.0156 65.0312
Q15.375 64.1562 9.8125 62.3125
L9.8125 71.0938
Q15.4375 72.6562 20.3438 73.4375
Q25.25 74.2188 29.5938 74.2188
Q40.8281 74.2188 47.3594 69.1094
Q53.9062 64.0156 53.9062 55.3281
Q53.9062 49.2656 50.4375 45.0938
Q46.9688 40.9219 40.5781 39.3125" id="BitstreamVeraSans-Roman-33"/>
      </defs>
      <g transform="translate(327.821476761 378.253217822)scale(0.2 -0.2)">
       <use xlink:href="#BitstreamVeraSans-Roman-33"/>
      </g>
     </g>
    </g>
    <g id="xtick_5">
     <g id="line2d_52">
      <path clip-path="url(#p4b24e7e61f)" d="
M421.853 359.056
L421.853 13.4563" style="fill:none;stroke:#000000;stroke-dasharray:1.000000,3.000000;stroke-dashoffset:0.0;stroke-width:0.5;"/>
     </g>
     <g id="line2d_53">
      <g>
       <use style="stroke:#000000;stroke-width:0.5;" x="421.852594015" xlink:href="#m93b0483c22" y="359.056342822"/>
      </g>
     </g>
     <g id="line2d_54">
      <g>
       <use style="stroke:#000000;stroke-width:0.5;" x="421.852594015" xlink:href="#m741efc42ff" y="13.4563428218"/>
      </g>
     </g>
     <g id="text_5">
      <!-- 4 -->
      <defs>
       <path d="
M37.7969 64.3125
L12.8906 25.3906
L37.7969 25.3906
z

M35.2031 72.9062
L47.6094 72.9062
L47.6094 25.3906
L58.0156 25.3906
L58.0156 17.1875
L47.6094 17.1875
L47.6094 0
L37.7969 0
L37.7969 17.1875
L4.89062 17.1875
L4.89062 26.7031
z
" id="BitstreamVeraSans-Roman-34"/>
      </defs>
      <g transform="translate(416.540094015 378.253217822)scale(0.2 -0.2)">
       <use xlink:href="#BitstreamVeraSans-Roman-34"/>
      </g>
     </g>
    </g>
    <g id="xtick_6">
     <g id="line2d_55">
      <path clip-path="url(#p4b24e7e61f)" d="
M511.085 359.056
L511.085 13.4563" style="fill:none;stroke:#000000;stroke-dasharray:1.000000,3.000000;stroke-dashoffset:0.0;stroke-width:0.5;"/>
     </g>
     <g id="line2d_56">
      <g>
       <use style="stroke:#000000;stroke-width:0.5;" x="511.085273769" xlink:href="#m93b0483c22" y="359.056342822"/>
      </g>
     </g>
     <g id="line2d_57">
      <g>
       <use style="stroke:#000000;stroke-width:0.5;" x="511.085273769" xlink:href="#m741efc42ff" y="13.4563428218"/>
      </g>
     </g>
     <g id="text_6">
      <!-- 5 -->
      <defs>
       <path d="
M10.7969 72.9062
L49.5156 72.9062
L49.5156 64.5938
L19.8281 64.5938
L19.8281 46.7344
Q21.9688 47.4688 24.1094 47.8281
Q26.2656 48.1875 28.4219 48.1875
Q40.625 48.1875 47.75 41.5
Q54.8906 34.8125 54.8906 23.3906
Q54.8906 11.625 47.5625 5.09375
Q40.2344 -1.42188 26.9062 -1.42188
Q22.3125 -1.42188 17.5469 -0.640625
Q12.7969 0.140625 7.71875 1.70312
L7.71875 11.625
Q12.1094 9.23438 16.7969 8.0625
Q21.4844 6.89062 26.7031 6.89062
Q35.1562 6.89062 40.0781 11.3281
Q45.0156 15.7656 45.0156 23.3906
Q45.0156 31 40.0781 35.4375
Q35.1562 39.8906 26.7031 39.8906
Q22.75 39.8906 18.8125 39.0156
Q14.8906 38.1406 10.7969 36.2812
z
" id="BitstreamVeraSans-Roman-35"/>
      </defs>
      <g transform="translate(506.368086269 378.253217822)scale(0.2 -0.2)">
       <use xlink:href="#BitstreamVeraSans-Roman-35"/>
      </g>
     </g>
    </g>
    <g id="xtick_7">
     <g id="line2d_58">
      <defs>
       <path d="
M0 0
L0 -2" id="m177f7580d0" style="stroke:#000000;stroke-width:0.5;"/>
      </defs>
      <g>
       <use style="stroke:#000000;stroke-width:0.5;" x="91.7835881994" xlink:href="#m177f7580d0" y="359.056342822"/>
      </g>
     </g>
     <g id="line2d_59">
      <defs>
       <path d="
M0 0
L0 2" id="m5284c7e2a0" style="stroke:#000000;stroke-width:0.5;"/>
      </defs>
      <g>
       <use style="stroke:#000000;stroke-width:0.5;" x="91.7835881994" xlink:href="#m5284c7e2a0" y="13.4563428218"/>
      </g>
     </g>
    </g>
    <g id="xtick_8">
     <g id="line2d_60">
      <g>
       <use style="stroke:#000000;stroke-width:0.5;" x="107.496683126" xlink:href="#m177f7580d0" y="359.056342822"/>
      </g>
     </g>
     <g id="line2d_61">
      <g>
       <use style="stroke:#000000;stroke-width:0.5;" x="107.496683126" xlink:href="#m5284c7e2a0" y="13.4563428218"/>
      </g>
     </g>
    </g>
    <g id="xtick_9">
     <g id="line2d_62">
      <g>
       <use style="stroke:#000000;stroke-width:0.5;" x="118.645301399" xlink:href="#m177f7580d0" y="359.056342822"/>
      </g>
     </g>
     <g id="line2d_63">
      <g>
       <use style="stroke:#000000;stroke-width:0.5;" x="118.645301399" xlink:href="#m5284c7e2a0" y="13.4563428218"/>
      </g>
     </g>
    </g>
    <g id="xtick_10">
     <g id="line2d_64">
      <g>
       <use style="stroke:#000000;stroke-width:0.5;" x="127.292841554" xlink:href="#m177f7580d0" y="359.056342822"/>
      </g>
     </g>
     <g id="line2d_65">
      <g>
       <use style="stroke:#000000;stroke-width:0.5;" x="127.292841554" xlink:href="#m5284c7e2a0" y="13.4563428218"/>
      </g>
     </g>
    </g>
    <g id="xtick_11">
     <g id="line2d_66">
      <g>
       <use style="stroke:#000000;stroke-width:0.5;" x="134.358396325" xlink:href="#m177f7580d0" y="359.056342822"/>
      </g>
     </g>
     <g id="line2d_67">
      <g>
       <use style="stroke:#000000;stroke-width:0.5;" x="134.358396325" xlink:href="#m5284c7e2a0" y="13.4563428218"/>
      </g>
     </g>
    </g>
    <g id="xtick_12">
     <g id="line2d_68">
      <g>
       <use style="stroke:#000000;stroke-width:0.5;" x="140.332237765" xlink:href="#m177f7580d0" y="359.056342822"/>
      </g>
     </g>
     <g id="line2d_69">
      <g>
       <use style="stroke:#000000;stroke-width:0.5;" x="140.332237765" xlink:href="#m5284c7e2a0" y="13.4563428218"/>
      </g>
     </g>
    </g>
    <g id="xtick_13">
     <g id="line2d_70">
      <g>
       <use style="stroke:#000000;stroke-width:0.5;" x="145.507014598" xlink:href="#m177f7580d0" y="359.056342822"/>
      </g>
     </g>
     <g id="line2d_71">
      <g>
       <use style="stroke:#000000;stroke-width:0.5;" x="145.507014598" xlink:href="#m5284c7e2a0" y="13.4563428218"/>
      </g>
     </g>
    </g>
    <g id="xtick_14">
     <g id="line2d_72">
      <g>
       <use style="stroke:#000000;stroke-width:0.5;" x="150.071491252" xlink:href="#m177f7580d0" y="359.056342822"/>
      </g>
     </g>
     <g id="line2d_73">
      <g>
       <use style="stroke:#000000;stroke-width:0.5;" x="150.071491252" xlink:href="#m5284c7e2a0" y="13.4563428218"/>
      </g>
     </g>
    </g>
    <g id="xtick_15">
     <g id="line2d_74">
      <g>
       <use style="stroke:#000000;stroke-width:0.5;" x="181.016267953" xlink:href="#m177f7580d0" y="359.056342822"/>
      </g>
     </g>
     <g id="line2d_75">
      <g>
       <use style="stroke:#000000;stroke-width:0.5;" x="181.016267953" xlink:href="#m5284c7e2a0" y="13.4563428218"/>
      </g>
     </g>
    </g>
    <g id="xtick_16">
     <g id="line2d_76">
      <g>
       <use style="stroke:#000000;stroke-width:0.5;" x="196.72936288" xlink:href="#m177f7580d0" y="359.056342822"/>
      </g>
     </g>
     <g id="line2d_77">
      <g>
       <use style="stroke:#000000;stroke-width:0.5;" x="196.72936288" xlink:href="#m5284c7e2a0" y="13.4563428218"/>
      </g>
     </g>
    </g>
    <g id="xtick_17">
     <g id="line2d_78">
      <g>
       <use style="stroke:#000000;stroke-width:0.5;" x="207.877981153" xlink:href="#m177f7580d0" y="359.056342822"/>
      </g>
     </g>
     <g id="line2d_79">
      <g>
       <use style="stroke:#000000;stroke-width:0.5;" x="207.877981153" xlink:href="#m5284c7e2a0" y="13.4563428218"/>
      </g>
     </g>
    </g>
    <g id="xtick_18">
     <g id="line2d_80">
      <g>
       <use style="stroke:#000000;stroke-width:0.5;" x="216.525521308" xlink:href="#m177f7580d0" y="359.056342822"/>
      </g>
     </g>
     <g id="line2d_81">
      <g>
       <use style="stroke:#000000;stroke-width:0.5;" x="216.525521308" xlink:href="#m5284c7e2a0" y="13.4563428218"/>
      </g>
     </g>
    </g>
    <g id="xtick_19">
     <g id="line2d_82">
      <g>
       <use style="stroke:#000000;stroke-width:0.5;" x="223.591076079" xlink:href="#m177f7580d0" y="359.056342822"/>
      </g>
     </g>
     <g id="line2d_83">
      <g>
       <use style="stroke:#000000;stroke-width:0.5;" x="223.591076079" xlink:href="#m5284c7e2a0" y="13.4563428218"/>
      </g>
     </g>
    </g>
    <g id="xtick_20">
     <g id="line2d_84">
      <g>
       <use style="stroke:#000000;stroke-width:0.5;" x="229.564917519" xlink:href="#m177f7580d0" y="359.056342822"/>
      </g>
     </g>
     <g id="line2d_85">
      <g>
       <use style="stroke:#000000;stroke-width:0.5;" x="229.564917519" xlink:href="#m5284c7e2a0" y="13.4563428218"/>
      </g>
     </g>
    </g>
    <g id="xtick_21">
     <g id="line2d_86">
      <g>
       <use style="stroke:#000000;stroke-width:0.5;" x="234.739694352" xlink:href="#m177f7580d0" y="359.056342822"/>
      </g>
     </g>
     <g id="line2d_87">
      <g>
       <use style="stroke:#000000;stroke-width:0.5;" x="234.739694352" xlink:href="#m5284c7e2a0" y="13.4563428218"/>
      </g>
     </g>
    </g>
    <g id="xtick_22">
     <g id="line2d_88">
      <g>
       <use style="stroke:#000000;stroke-width:0.5;" x="239.304171006" xlink:href="#m177f7580d0" y="359.056342822"/>
      </g>
     </g>
     <g id="line2d_89">
      <g>
       <use style="stroke:#000000;stroke-width:0.5;" x="239.304171006" xlink:href="#m5284c7e2a0" y="13.4563428218"/>
      </g>
     </g>
    </g>
    <g id="xtick_23">
     <g id="line2d_90">
      <g>
       <use style="stroke:#000000;stroke-width:0.5;" x="270.248947707" xlink:href="#m177f7580d0" y="359.056342822"/>
      </g>
     </g>
     <g id="line2d_91">
      <g>
       <use style="stroke:#000000;stroke-width:0.5;" x="270.248947707" xlink:href="#m5284c7e2a0" y="13.4563428218"/>
      </g>
     </g>
    </g>
    <g id="xtick_24">
     <g id="line2d_92">
      <g>
       <use style="stroke:#000000;stroke-width:0.5;" x="285.962042634" xlink:href="#m177f7580d0" y="359.056342822"/>
      </g>
     </g>
     <g id="line2d_93">
      <g>
       <use style="stroke:#000000;stroke-width:0.5;" x="285.962042634" xlink:href="#m5284c7e2a0" y="13.4563428218"/>
      </g>
     </g>
    </g>
    <g id="xtick_25">
     <g id="line2d_94">
      <g>
       <use style="stroke:#000000;stroke-width:0.5;" x="297.110660906" xlink:href="#m177f7580d0" y="359.056342822"/>
      </g>
     </g>
     <g id="line2d_95">
      <g>
       <use style="stroke:#000000;stroke-width:0.5;" x="297.110660906" xlink:href="#m5284c7e2a0" y="13.4563428218"/>
      </g>
     </g>
    </g>
    <g id="xtick_26">
     <g id="line2d_96">
      <g>
       <use style="stroke:#000000;stroke-width:0.5;" x="305.758201062" xlink:href="#m177f7580d0" y="359.056342822"/>
      </g>
     </g>
     <g id="line2d_97">
      <g>
       <use style="stroke:#000000;stroke-width:0.5;" x="305.758201062" xlink:href="#m5284c7e2a0" y="13.4563428218"/>
      </g>
     </g>
    </g>
    <g id="xtick_27">
     <g id="line2d_98">
      <g>
       <use style="stroke:#000000;stroke-width:0.5;" x="312.823755833" xlink:href="#m177f7580d0" y="359.056342822"/>
      </g>
     </g>
     <g id="line2d_99">
      <g>
       <use style="stroke:#000000;stroke-width:0.5;" x="312.823755833" xlink:href="#m5284c7e2a0" y="13.4563428218"/>
      </g>
     </g>
    </g>
    <g id="xtick_28">
     <g id="line2d_100">
      <g>
       <use style="stroke:#000000;stroke-width:0.5;" x="318.797597273" xlink:href="#m177f7580d0" y="359.056342822"/>
      </g>
     </g>
     <g id="line2d_101">
      <g>
       <use style="stroke:#000000;stroke-width:0.5;" x="318.797597273" xlink:href="#m5284c7e2a0" y="13.4563428218"/>
      </g>
     </g>
    </g>
    <g id="xtick_29">
     <g id="line2d_102">
      <g>
       <use style="stroke:#000000;stroke-width:0.5;" x="323.972374106" xlink:href="#m177f7580d0" y="359.056342822"/>
      </g>
     </g>
     <g id="line2d_103">
      <g>
       <use style="stroke:#000000;stroke-width:0.5;" x="323.972374106" xlink:href="#m5284c7e2a0" y="13.4563428218"/>
      </g>
     </g>
    </g>
    <g id="xtick_30">
     <g id="line2d_104">
      <g>
       <use style="stroke:#000000;stroke-width:0.5;" x="328.53685076" xlink:href="#m177f7580d0" y="359.056342822"/>
      </g>
     </g>
     <g id="line2d_105">
      <g>
       <use style="stroke:#000000;stroke-width:0.5;" x="328.53685076" xlink:href="#m5284c7e2a0" y="13.4563428218"/>
      </g>
     </g>
    </g>
    <g id="xtick_31">
     <g id="line2d_106">
      <g>
       <use style="stroke:#000000;stroke-width:0.5;" x="359.481627461" xlink:href="#m177f7580d0" y="359.056342822"/>
      </g>
     </g>
     <g id="line2d_107">
      <g>
       <use style="stroke:#000000;stroke-width:0.5;" x="359.481627461" xlink:href="#m5284c7e2a0" y="13.4563428218"/>
      </g>
     </g>
    </g>
    <g id="xtick_32">
     <g id="line2d_108">
      <g>
       <use style="stroke:#000000;stroke-width:0.5;" x="375.194722387" xlink:href="#m177f7580d0" y="359.056342822"/>
      </g>
     </g>
     <g id="line2d_109">
      <g>
       <use style="stroke:#000000;stroke-width:0.5;" x="375.194722387" xlink:href="#m5284c7e2a0" y="13.4563428218"/>
      </g>
     </g>
    </g>
    <g id="xtick_33">
     <g id="line2d_110">
      <g>
       <use style="stroke:#000000;stroke-width:0.5;" x="386.34334066" xlink:href="#m177f7580d0" y="359.056342822"/>
      </g>
     </g>
     <g id="line2d_111">
      <g>
       <use style="stroke:#000000;stroke-width:0.5;" x="386.34334066" xlink:href="#m5284c7e2a0" y="13.4563428218"/>
      </g>
     </g>
    </g>
    <g id="xtick_34">
     <g id="line2d_112">
      <g>
       <use style="stroke:#000000;stroke-width:0.5;" x="394.990880816" xlink:href="#m177f7580d0" y="359.056342822"/>
      </g>
     </g>
     <g id="line2d_113">
      <g>
       <use style="stroke:#000000;stroke-width:0.5;" x="394.990880816" xlink:href="#m5284c7e2a0" y="13.4563428218"/>
      </g>
     </g>
    </g>
    <g id="xtick_35">
     <g id="line2d_114">
      <g>
       <use style="stroke:#000000;stroke-width:0.5;" x="402.056435587" xlink:href="#m177f7580d0" y="359.056342822"/>
      </g>
     </g>
     <g id="line2d_115">
      <g>
       <use style="stroke:#000000;stroke-width:0.5;" x="402.056435587" xlink:href="#m5284c7e2a0" y="13.4563428218"/>
      </g>
     </g>
    </g>
    <g id="xtick_36">
     <g id="line2d_116">
      <g>
       <use style="stroke:#000000;stroke-width:0.5;" x="408.030277027" xlink:href="#m177f7580d0" y="359.056342822"/>
      </g>
     </g>
     <g id="line2d_117">
      <g>
       <use style="stroke:#000000;stroke-width:0.5;" x="408.030277027" xlink:href="#m5284c7e2a0" y="13.4563428218"/>
      </g>
     </g>
    </g>
    <g id="xtick_37">
     <g id="line2d_118">
      <g>
       <use style="stroke:#000000;stroke-width:0.5;" x="413.205053859" xlink:href="#m177f7580d0" y="359.056342822"/>
      </g>
     </g>
     <g id="line2d_119">
      <g>
       <use style="stroke:#000000;stroke-width:0.5;" x="413.205053859" xlink:href="#m5284c7e2a0" y="13.4563428218"/>
      </g>
     </g>
    </g>
    <g id="xtick_38">
     <g id="line2d_120">
      <g>
       <use style="stroke:#000000;stroke-width:0.5;" x="417.769530514" xlink:href="#m177f7580d0" y="359.056342822"/>
      </g>
     </g>
     <g id="line2d_121">
      <g>
       <use style="stroke:#000000;stroke-width:0.5;" x="417.769530514" xlink:href="#m5284c7e2a0" y="13.4563428218"/>
      </g>
     </g>
    </g>
    <g id="xtick_39">
     <g id="line2d_122">
      <g>
       <use style="stroke:#000000;stroke-width:0.5;" x="448.714307215" xlink:href="#m177f7580d0" y="359.056342822"/>
      </g>
     </g>
     <g id="line2d_123">
      <g>
       <use style="stroke:#000000;stroke-width:0.5;" x="448.714307215" xlink:href="#m5284c7e2a0" y="13.4563428218"/>
      </g>
     </g>
    </g>
    <g id="xtick_40">
     <g id="line2d_124">
      <g>
       <use style="stroke:#000000;stroke-width:0.5;" x="464.427402141" xlink:href="#m177f7580d0" y="359.056342822"/>
      </g>
     </g>
     <g id="line2d_125">
      <g>
       <use style="stroke:#000000;stroke-width:0.5;" x="464.427402141" xlink:href="#m5284c7e2a0" y="13.4563428218"/>
      </g>
     </g>
    </g>
    <g id="xtick_41">
     <g id="line2d_126">
      <g>
       <use style="stroke:#000000;stroke-width:0.5;" x="475.576020414" xlink:href="#m177f7580d0" y="359.056342822"/>
      </g>
     </g>
     <g id="line2d_127">
      <g>
       <use style="stroke:#000000;stroke-width:0.5;" x="475.576020414" xlink:href="#m5284c7e2a0" y="13.4563428218"/>
      </g>
     </g>
    </g>
    <g id="xtick_42">
     <g id="line2d_128">
      <g>
       <use style="stroke:#000000;stroke-width:0.5;" x="484.22356057" xlink:href="#m177f7580d0" y="359.056342822"/>
      </g>
     </g>
     <g id="line2d_129">
      <g>
       <use style="stroke:#000000;stroke-width:0.5;" x="484.22356057" xlink:href="#m5284c7e2a0" y="13.4563428218"/>
      </g>
     </g>
    </g>
    <g id="xtick_43">
     <g id="line2d_130">
      <g>
       <use style="stroke:#000000;stroke-width:0.5;" x="491.289115341" xlink:href="#m177f7580d0" y="359.056342822"/>
      </g>
     </g>
     <g id="line2d_131">
      <g>
       <use style="stroke:#000000;stroke-width:0.5;" x="491.289115341" xlink:href="#m5284c7e2a0" y="13.4563428218"/>
      </g>
     </g>
    </g>
    <g id="xtick_44">
     <g id="line2d_132">
      <g>
       <use style="stroke:#000000;stroke-width:0.5;" x="497.26295678" xlink:href="#m177f7580d0" y="359.056342822"/>
      </g>
     </g>
     <g id="line2d_133">
      <g>
       <use style="stroke:#000000;stroke-width:0.5;" x="497.26295678" xlink:href="#m5284c7e2a0" y="13.4563428218"/>
      </g>
     </g>
    </g>
    <g id="xtick_45">
     <g id="line2d_134">
      <g>
       <use style="stroke:#000000;stroke-width:0.5;" x="502.437733613" xlink:href="#m177f7580d0" y="359.056342822"/>
      </g>
     </g>
     <g id="line2d_135">
      <g>
       <use style="stroke:#000000;stroke-width:0.5;" x="502.437733613" xlink:href="#m5284c7e2a0" y="13.4563428218"/>
      </g>
     </g>
    </g>
    <g id="xtick_46">
     <g id="line2d_136">
      <g>
       <use style="stroke:#000000;stroke-width:0.5;" x="507.002210267" xlink:href="#m177f7580d0" y="359.056342822"/>
      </g>
     </g>
     <g id="line2d_137">
      <g>
       <use style="stroke:#000000;stroke-width:0.5;" x="507.002210267" xlink:href="#m5284c7e2a0" y="13.4563428218"/>
      </g>
     </g>
    </g>
    <g id="text_7">
     <!-- log10 of FEvals / DIM -->
     <defs>
      <path id="BitstreamVeraSans-Roman-20"/>
      <path d="
M9.8125 72.9062
L24.5156 72.9062
L43.1094 23.2969
L61.8125 72.9062
L76.5156 72.9062
L76.5156 0
L66.8906 0
L66.8906 64.0156
L48.0938 14.0156
L38.1875 14.0156
L19.3906 64.0156
L19.3906 0
L9.8125 0
z
" id="BitstreamVeraSans-Roman-4d"/>
      <path d="
M30.6094 48.3906
Q23.3906 48.3906 19.1875 42.75
Q14.9844 37.1094 14.9844 27.2969
Q14.9844 17.4844 19.1562 11.8438
Q23.3438 6.20312 30.6094 6.20312
Q37.7969 6.20312 41.9844 11.8594
Q46.1875 17.5312 46.1875 27.2969
Q46.1875 37.0156 41.9844 42.7031
Q37.7969 48.3906 30.6094 48.3906
M30.6094 56
Q42.3281 56 49.0156 48.375
Q55.7188 40.7656 55.7188 27.2969
Q55.7188 13.875 49.0156 6.21875
Q42.3281 -1.42188 30.6094 -1.42188
Q18.8438 -1.42188 12.1719 6.21875
Q5.51562 13.875 5.51562 27.2969
Q5.51562 40.7656 12.1719 48.375
Q18.8438 56 30.6094 56" id="BitstreamVeraSans-Roman-6f"/>
      <path d="
M9.42188 75.9844
L18.4062 75.9844
L18.4062 0
L9.42188 0
z
" id="BitstreamVeraSans-Roman-6c"/>
      <path d="
M9.8125 72.9062
L51.7031 72.9062
L51.7031 64.5938
L19.6719 64.5938
L19.6719 43.1094
L48.5781 43.1094
L48.5781 34.8125
L19.6719 34.8125
L19.6719 0
L9.8125 0
z
" id="BitstreamVeraSans-Roman-46"/>
      <path d="
M9.8125 72.9062
L55.9062 72.9062
L55.9062 64.5938
L19.6719 64.5938
L19.6719 43.0156
L54.3906 43.0156
L54.3906 34.7188
L19.6719 34.7188
L19.6719 8.29688
L56.7812 8.29688
L56.7812 0
L9.8125 0
z
" id="BitstreamVeraSans-Roman-45"/>
      <path d="
M19.6719 64.7969
L19.6719 8.10938
L31.5938 8.10938
Q46.6875 8.10938 53.6875 14.9375
Q60.6875 21.7812 60.6875 36.5312
Q60.6875 51.1719 53.6875 57.9844
Q46.6875 64.7969 31.5938 64.7969
z

M9.8125 72.9062
L30.0781 72.9062
Q51.2656 72.9062 61.1719 64.0938
Q71.0938 55.2812 71.0938 36.5312
Q71.0938 17.6719 61.125 8.82812
Q51.1719 0 30.0781 0
L9.8125 0
z
" id="BitstreamVeraSans-Roman-44"/>
      <path d="
M25.3906 72.9062
L33.6875 72.9062
L8.29688 -9.28125
L0 -9.28125
z
" id="BitstreamVeraSans-Roman-2f"/>
      <path d="
M2.98438 54.6875
L12.5 54.6875
L29.5938 8.79688
L46.6875 54.6875
L56.2031 54.6875
L35.6875 0
L23.4844 0
z
" id="BitstreamVeraSans-Roman-76"/>
      <path d="
M45.4062 27.9844
Q45.4062 37.75 41.375 43.1094
Q37.3594 48.4844 30.0781 48.4844
Q22.8594 48.4844 18.8281 43.1094
Q14.7969 37.75 14.7969 27.9844
Q14.7969 18.2656 18.8281 12.8906
Q22.8594 7.51562 30.0781 7.51562
Q37.3594 7.51562 41.375 12.8906
Q45.4062 18.2656 45.4062 27.9844
M54.3906 6.78125
Q54.3906 -7.17188 48.1875 -13.9844
Q42 -20.7969 29.2031 -20.7969
Q24.4688 -20.7969 20.2656 -20.0938
Q16.0625 -19.3906 12.1094 -17.9219
L12.1094 -9.1875
Q16.0625 -11.3281 19.9219 -12.3438
Q23.7812 -13.375 27.7812 -13.375
Q36.625 -13.375 41.0156 -8.76562
Q45.4062 -4.15625 45.4062 5.17188
L45.4062 9.625
Q42.625 4.78125 38.2812 2.39062
Q33.9375 0 27.875 0
Q17.8281 0 11.6719 7.65625
Q5.51562 15.3281 5.51562 27.9844
Q5.51562 40.6719 11.6719 48.3281
Q17.8281 56 27.875 56
Q33.9375 56 38.2812 53.6094
Q42.625 51.2188 45.4062 46.3906
L45.4062 54.6875
L54.3906 54.6875
z
" id="BitstreamVeraSans-Roman-67"/>
      <path d="
M37.1094 75.9844
L37.1094 68.5
L28.5156 68.5
Q23.6875 68.5 21.7969 66.5469
Q19.9219 64.5938 19.9219 59.5156
L19.9219 54.6875
L34.7188 54.6875
L34.7188 47.7031
L19.9219 47.7031
L19.9219 0
L10.8906 0
L10.8906 47.7031
L2.29688 47.7031
L2.29688 54.6875
L10.8906 54.6875
L10.8906 58.5
Q10.8906 67.625 15.1406 71.7969
Q19.3906 75.9844 28.6094 75.9844
z
" id="BitstreamVeraSans-Roman-66"/>
      <path d="
M34.2812 27.4844
Q23.3906 27.4844 19.1875 25
Q14.9844 22.5156 14.9844 16.5
Q14.9844 11.7188 18.1406 8.90625
Q21.2969 6.10938 26.7031 6.10938
Q34.1875 6.10938 38.7031 11.4062
Q43.2188 16.7031 43.2188 25.4844
L43.2188 27.4844
z

M52.2031 31.2031
L52.2031 0
L43.2188 0
L43.2188 8.29688
Q40.1406 3.32812 35.5469 0.953125
Q30.9531 -1.42188 24.3125 -1.42188
Q15.9219 -1.42188 10.9531 3.29688
Q6 8.01562 6 15.9219
Q6 25.1406 12.1719 29.8281
Q18.3594 34.5156 30.6094 34.5156
L43.2188 34.5156
L43.2188 35.4062
Q43.2188 41.6094 39.1406 45
Q35.0625 48.3906 27.6875 48.3906
Q23 48.3906 18.5469 47.2656
Q14.1094 46.1406 10.0156 43.8906
L10.0156 52.2031
Q14.9375 54.1094 19.5781 55.0469
Q24.2188 56 28.6094 56
Q40.4844 56 46.3438 49.8438
Q52.2031 43.7031 52.2031 31.2031" id="BitstreamVeraSans-Roman-61"/>
      <path d="
M44.2812 53.0781
L44.2812 44.5781
Q40.4844 46.5312 36.375 47.5
Q32.2812 48.4844 27.875 48.4844
Q21.1875 48.4844 17.8438 46.4375
Q14.5 44.3906 14.5 40.2812
Q14.5 37.1562 16.8906 35.375
Q19.2812 33.5938 26.5156 31.9844
L29.5938 31.2969
Q39.1562 29.25 43.1875 25.5156
Q47.2188 21.7812 47.2188 15.0938
Q47.2188 7.46875 41.1875 3.01562
Q35.1562 -1.42188 24.6094 -1.42188
Q20.2188 -1.42188 15.4531 -0.5625
Q10.6875 0.296875 5.42188 2
L5.42188 11.2812
Q10.4062 8.6875 15.2344 7.39062
Q20.0625 6.10938 24.8125 6.10938
Q31.1562 6.10938 34.5625 8.28125
Q37.9844 10.4531 37.9844 14.4062
Q37.9844 18.0625 35.5156 20.0156
Q33.0625 21.9688 24.7031 23.7812
L21.5781 24.5156
Q13.2344 26.2656 9.51562 29.9062
Q5.8125 33.5469 5.8125 39.8906
Q5.8125 47.6094 11.2812 51.7969
Q16.75 56 26.8125 56
Q31.7812 56 36.1719 55.2656
Q40.5781 54.5469 44.2812 53.0781" id="BitstreamVeraSans-Roman-73"/>
      <path d="
M9.8125 72.9062
L19.6719 72.9062
L19.6719 0
L9.8125 0
z
" id="BitstreamVeraSans-Roman-49"/>
     </defs>
     <g transform="translate(184.025 402.609467822)scale(0.2 -0.2)">
      <use xlink:href="#BitstreamVeraSans-Roman-6c"/>
      <use x="27.783203125" xlink:href="#BitstreamVeraSans-Roman-6f"/>
      <use x="88.96484375" xlink:href="#BitstreamVeraSans-Roman-67"/>
      <use x="152.44140625" xlink:href="#BitstreamVeraSans-Roman-31"/>
      <use x="216.064453125" xlink:href="#BitstreamVeraSans-Roman-30"/>
      <use x="279.6875" xlink:href="#BitstreamVeraSans-Roman-20"/>
      <use x="311.474609375" xlink:href="#BitstreamVeraSans-Roman-6f"/>
      <use x="372.65625" xlink:href="#BitstreamVeraSans-Roman-66"/>
      <use x="407.861328125" xlink:href="#BitstreamVeraSans-Roman-20"/>
      <use x="439.6484375" xlink:href="#BitstreamVeraSans-Roman-46"/>
      <use x="497.16796875" xlink:href="#BitstreamVeraSans-Roman-45"/>
      <use x="560.3515625" xlink:href="#BitstreamVeraSans-Roman-76"/>
      <use x="619.53125" xlink:href="#BitstreamVeraSans-Roman-61"/>
      <use x="680.810546875" xlink:href="#BitstreamVeraSans-Roman-6c"/>
      <use x="708.59375" xlink:href="#BitstreamVeraSans-Roman-73"/>
      <use x="760.693359375" xlink:href="#BitstreamVeraSans-Roman-20"/>
      <use x="792.48046875" xlink:href="#BitstreamVeraSans-Roman-2f"/>
      <use x="826.171875" xlink:href="#BitstreamVeraSans-Roman-20"/>
      <use x="857.958984375" xlink:href="#BitstreamVeraSans-Roman-44"/>
      <use x="934.9609375" xlink:href="#BitstreamVeraSans-Roman-49"/>
      <use x="964.453125" xlink:href="#BitstreamVeraSans-Roman-4d"/>
     </g>
    </g>
   </g>
   <g id="matplotlib.axis_2">
    <g id="ytick_1">
     <g id="line2d_138">
      <path clip-path="url(#p4b24e7e61f)" d="
M64.9219 359.056
L511.322 359.056" style="fill:none;stroke:#000000;stroke-dasharray:1.000000,3.000000;stroke-dashoffset:0.0;stroke-width:0.5;"/>
     </g>
     <g id="line2d_139">
      <defs>
       <path d="
M0 0
L4 0" id="m728421d6d4" style="stroke:#000000;stroke-width:0.5;"/>
      </defs>
      <g>
       <use style="stroke:#000000;stroke-width:0.5;" x="64.921875" xlink:href="#m728421d6d4" y="359.056342822"/>
      </g>
     </g>
     <g id="line2d_140">
      <defs>
       <path d="
M0 0
L-4 0" id="mcb0005524f" style="stroke:#000000;stroke-width:0.5;"/>
      </defs>
      <g>
       <use style="stroke:#000000;stroke-width:0.5;" x="511.321875" xlink:href="#mcb0005524f" y="359.056342822"/>
      </g>
     </g>
     <g id="text_8">
      <!-- 0.0 -->
      <defs>
       <path d="
M10.6875 12.4062
L21 12.4062
L21 0
L10.6875 0
z
" id="BitstreamVeraSans-Roman-2e"/>
      </defs>
      <g transform="translate(31.7625 364.575092822)scale(0.2 -0.2)">
       <use xlink:href="#BitstreamVeraSans-Roman-30"/>
       <use x="63.623046875" xlink:href="#BitstreamVeraSans-Roman-2e"/>
       <use x="95.41015625" xlink:href="#BitstreamVeraSans-Roman-30"/>
      </g>
     </g>
    </g>
    <g id="ytick_2">
     <g id="line2d_141">
      <path clip-path="url(#p4b24e7e61f)" d="
M64.9219 290.621
L511.322 290.621" style="fill:none;stroke:#000000;stroke-dasharray:1.000000,3.000000;stroke-dashoffset:0.0;stroke-width:0.5;"/>
     </g>
     <g id="line2d_142">
      <g>
       <use style="stroke:#000000;stroke-width:0.5;" x="64.921875" xlink:href="#m728421d6d4" y="290.620699257"/>
      </g>
     </g>
     <g id="line2d_143">
      <g>
       <use style="stroke:#000000;stroke-width:0.5;" x="511.321875" xlink:href="#mcb0005524f" y="290.620699257"/>
      </g>
     </g>
     <g id="text_9">
      <!-- 0.2 -->
      <g transform="translate(32.4375 296.139449257)scale(0.2 -0.2)">
       <use xlink:href="#BitstreamVeraSans-Roman-30"/>
       <use x="63.623046875" xlink:href="#BitstreamVeraSans-Roman-2e"/>
       <use x="95.41015625" xlink:href="#BitstreamVeraSans-Roman-32"/>
      </g>
     </g>
    </g>
    <g id="ytick_3">
     <g id="line2d_144">
      <path clip-path="url(#p4b24e7e61f)" d="
M64.9219 222.185
L511.322 222.185" style="fill:none;stroke:#000000;stroke-dasharray:1.000000,3.000000;stroke-dashoffset:0.0;stroke-width:0.5;"/>
     </g>
     <g id="line2d_145">
      <g>
       <use style="stroke:#000000;stroke-width:0.5;" x="64.921875" xlink:href="#m728421d6d4" y="222.185055693"/>
      </g>
     </g>
     <g id="line2d_146">
      <g>
       <use style="stroke:#000000;stroke-width:0.5;" x="511.321875" xlink:href="#mcb0005524f" y="222.185055693"/>
      </g>
     </g>
     <g id="text_10">
      <!-- 0.4 -->
      <g transform="translate(31.55625 227.703805693)scale(0.2 -0.2)">
       <use xlink:href="#BitstreamVeraSans-Roman-30"/>
       <use x="63.623046875" xlink:href="#BitstreamVeraSans-Roman-2e"/>
       <use x="95.41015625" xlink:href="#BitstreamVeraSans-Roman-34"/>
      </g>
     </g>
    </g>
    <g id="ytick_4">
     <g id="line2d_147">
      <path clip-path="url(#p4b24e7e61f)" d="
M64.9219 153.749
L511.322 153.749" style="fill:none;stroke:#000000;stroke-dasharray:1.000000,3.000000;stroke-dashoffset:0.0;stroke-width:0.5;"/>
     </g>
     <g id="line2d_148">
      <g>
       <use style="stroke:#000000;stroke-width:0.5;" x="64.921875" xlink:href="#m728421d6d4" y="153.749412129"/>
      </g>
     </g>
     <g id="line2d_149">
      <g>
       <use style="stroke:#000000;stroke-width:0.5;" x="511.321875" xlink:href="#mcb0005524f" y="153.749412129"/>
      </g>
     </g>
     <g id="text_11">
      <!-- 0.6 -->
      <defs>
       <path d="
M33.0156 40.375
Q26.375 40.375 22.4844 35.8281
Q18.6094 31.2969 18.6094 23.3906
Q18.6094 15.5312 22.4844 10.9531
Q26.375 6.39062 33.0156 6.39062
Q39.6562 6.39062 43.5312 10.9531
Q47.4062 15.5312 47.4062 23.3906
Q47.4062 31.2969 43.5312 35.8281
Q39.6562 40.375 33.0156 40.375
M52.5938 71.2969
L52.5938 62.3125
Q48.875 64.0625 45.0938 64.9844
Q41.3125 65.9219 37.5938 65.9219
Q27.8281 65.9219 22.6719 59.3281
Q17.5312 52.7344 16.7969 39.4062
Q19.6719 43.6562 24.0156 45.9219
Q28.375 48.1875 33.5938 48.1875
Q44.5781 48.1875 50.9531 41.5156
Q57.3281 34.8594 57.3281 23.3906
Q57.3281 12.1562 50.6875 5.35938
Q44.0469 -1.42188 33.0156 -1.42188
Q20.3594 -1.42188 13.6719 8.26562
Q6.98438 17.9688 6.98438 36.375
Q6.98438 53.6562 15.1875 63.9375
Q23.3906 74.2188 37.2031 74.2188
Q40.9219 74.2188 44.7031 73.4844
Q48.4844 72.75 52.5938 71.2969" id="BitstreamVeraSans-Roman-36"/>
      </defs>
      <g transform="translate(31.69375 159.268162129)scale(0.2 -0.2)">
       <use xlink:href="#BitstreamVeraSans-Roman-30"/>
       <use x="63.623046875" xlink:href="#BitstreamVeraSans-Roman-2e"/>
       <use x="95.41015625" xlink:href="#BitstreamVeraSans-Roman-36"/>
      </g>
     </g>
    </g>
    <g id="ytick_5">
     <g id="line2d_150">
      <path clip-path="url(#p4b24e7e61f)" d="
M64.9219 85.3138
L511.322 85.3138" style="fill:none;stroke:#000000;stroke-dasharray:1.000000,3.000000;stroke-dashoffset:0.0;stroke-width:0.5;"/>
     </g>
     <g id="line2d_151">
      <g>
       <use style="stroke:#000000;stroke-width:0.5;" x="64.921875" xlink:href="#m728421d6d4" y="85.3137685644"/>
      </g>
     </g>
     <g id="line2d_152">
      <g>
       <use style="stroke:#000000;stroke-width:0.5;" x="511.321875" xlink:href="#mcb0005524f" y="85.3137685644"/>
      </g>
     </g>
     <g id="text_12">
      <!-- 0.8 -->
      <defs>
       <path d="
M31.7812 34.625
Q24.75 34.625 20.7188 30.8594
Q16.7031 27.0938 16.7031 20.5156
Q16.7031 13.9219 20.7188 10.1562
Q24.75 6.39062 31.7812 6.39062
Q38.8125 6.39062 42.8594 10.1719
Q46.9219 13.9688 46.9219 20.5156
Q46.9219 27.0938 42.8906 30.8594
Q38.875 34.625 31.7812 34.625
M21.9219 38.8125
Q15.5781 40.375 12.0312 44.7188
Q8.5 49.0781 8.5 55.3281
Q8.5 64.0625 14.7188 69.1406
Q20.9531 74.2188 31.7812 74.2188
Q42.6719 74.2188 48.875 69.1406
Q55.0781 64.0625 55.0781 55.3281
Q55.0781 49.0781 51.5312 44.7188
Q48 40.375 41.7031 38.8125
Q48.8281 37.1562 52.7969 32.3125
Q56.7812 27.4844 56.7812 20.5156
Q56.7812 9.90625 50.3125 4.23438
Q43.8438 -1.42188 31.7812 -1.42188
Q19.7344 -1.42188 13.25 4.23438
Q6.78125 9.90625 6.78125 20.5156
Q6.78125 27.4844 10.7812 32.3125
Q14.7969 37.1562 21.9219 38.8125
M18.3125 54.3906
Q18.3125 48.7344 21.8438 45.5625
Q25.3906 42.3906 31.7812 42.3906
Q38.1406 42.3906 41.7188 45.5625
Q45.3125 48.7344 45.3125 54.3906
Q45.3125 60.0625 41.7188 63.2344
Q38.1406 66.4062 31.7812 66.4062
Q25.3906 66.4062 21.8438 63.2344
Q18.3125 60.0625 18.3125 54.3906" id="BitstreamVeraSans-Roman-38"/>
      </defs>
      <g transform="translate(31.803125 90.8325185644)scale(0.2 -0.2)">
       <use xlink:href="#BitstreamVeraSans-Roman-30"/>
       <use x="63.623046875" xlink:href="#BitstreamVeraSans-Roman-2e"/>
       <use x="95.41015625" xlink:href="#BitstreamVeraSans-Roman-38"/>
      </g>
     </g>
    </g>
    <g id="ytick_6">
     <g id="line2d_153">
      <path clip-path="url(#p4b24e7e61f)" d="
M64.9219 16.8781
L511.322 16.8781" style="fill:none;stroke:#000000;stroke-dasharray:1.000000,3.000000;stroke-dashoffset:0.0;stroke-width:0.5;"/>
     </g>
     <g id="line2d_154">
      <g>
       <use style="stroke:#000000;stroke-width:0.5;" x="64.921875" xlink:href="#m728421d6d4" y="16.878125"/>
      </g>
     </g>
     <g id="line2d_155">
      <g>
       <use style="stroke:#000000;stroke-width:0.5;" x="511.321875" xlink:href="#mcb0005524f" y="16.878125"/>
      </g>
     </g>
     <g id="text_13">
      <!-- 1.0 -->
      <g transform="translate(32.640625 22.396875)scale(0.2 -0.2)">
       <use xlink:href="#BitstreamVeraSans-Roman-31"/>
       <use x="63.623046875" xlink:href="#BitstreamVeraSans-Roman-2e"/>
       <use x="95.41015625" xlink:href="#BitstreamVeraSans-Roman-30"/>
      </g>
     </g>
    </g>
    <g id="text_14">
     <!-- proportion of trials -->
     <defs>
      <path d="
M54.8906 33.0156
L54.8906 0
L45.9062 0
L45.9062 32.7188
Q45.9062 40.4844 42.875 44.3281
Q39.8438 48.1875 33.7969 48.1875
Q26.5156 48.1875 22.3125 43.5469
Q18.1094 38.9219 18.1094 30.9062
L18.1094 0
L9.07812 0
L9.07812 54.6875
L18.1094 54.6875
L18.1094 46.1875
Q21.3438 51.125 25.7031 53.5625
Q30.0781 56 35.7969 56
Q45.2188 56 50.0469 50.1719
Q54.8906 44.3438 54.8906 33.0156" id="BitstreamVeraSans-Roman-6e"/>
      <path d="
M9.42188 54.6875
L18.4062 54.6875
L18.4062 0
L9.42188 0
z

M9.42188 75.9844
L18.4062 75.9844
L18.4062 64.5938
L9.42188 64.5938
z
" id="BitstreamVeraSans-Roman-69"/>
      <path d="
M18.3125 70.2188
L18.3125 54.6875
L36.8125 54.6875
L36.8125 47.7031
L18.3125 47.7031
L18.3125 18.0156
Q18.3125 11.3281 20.1406 9.42188
Q21.9688 7.51562 27.5938 7.51562
L36.8125 7.51562
L36.8125 0
L27.5938 0
Q17.1875 0 13.2344 3.875
Q9.28125 7.76562 9.28125 18.0156
L9.28125 47.7031
L2.6875 47.7031
L2.6875 54.6875
L9.28125 54.6875
L9.28125 70.2188
z
" id="BitstreamVeraSans-Roman-74"/>
      <path d="
M41.1094 46.2969
Q39.5938 47.1719 37.8125 47.5781
Q36.0312 48 33.8906 48
Q26.2656 48 22.1875 43.0469
Q18.1094 38.0938 18.1094 28.8125
L18.1094 0
L9.07812 0
L9.07812 54.6875
L18.1094 54.6875
L18.1094 46.1875
Q20.9531 51.1719 25.4844 53.5781
Q30.0312 56 36.5312 56
Q37.4531 56 38.5781 55.875
Q39.7031 55.7656 41.0625 55.5156
z
" id="BitstreamVeraSans-Roman-72"/>
      <path d="
M18.1094 8.20312
L18.1094 -20.7969
L9.07812 -20.7969
L9.07812 54.6875
L18.1094 54.6875
L18.1094 46.3906
Q20.9531 51.2656 25.2656 53.625
Q29.5938 56 35.5938 56
Q45.5625 56 51.7812 48.0938
Q58.0156 40.1875 58.0156 27.2969
Q58.0156 14.4062 51.7812 6.48438
Q45.5625 -1.42188 35.5938 -1.42188
Q29.5938 -1.42188 25.2656 0.953125
Q20.9531 3.32812 18.1094 8.20312
M48.6875 27.2969
Q48.6875 37.2031 44.6094 42.8438
Q40.5312 48.4844 33.4062 48.4844
Q26.2656 48.4844 22.1875 42.8438
Q18.1094 37.2031 18.1094 27.2969
Q18.1094 17.3906 22.1875 11.75
Q26.2656 6.10938 33.4062 6.10938
Q40.5312 6.10938 44.6094 11.75
Q48.6875 17.3906 48.6875 27.2969" id="BitstreamVeraSans-Roman-70"/>
     </defs>
     <g transform="translate(22.396875 278.775092822)rotate(-90.0)scale(0.2 -0.2)">
      <use xlink:href="#BitstreamVeraSans-Roman-70"/>
      <use x="63.4765625" xlink:href="#BitstreamVeraSans-Roman-72"/>
      <use x="102.33984375" xlink:href="#BitstreamVeraSans-Roman-6f"/>
      <use x="163.521484375" xlink:href="#BitstreamVeraSans-Roman-70"/>
      <use x="226.998046875" xlink:href="#BitstreamVeraSans-Roman-6f"/>
      <use x="288.1796875" xlink:href="#BitstreamVeraSans-Roman-72"/>
      <use x="329.29296875" xlink:href="#BitstreamVeraSans-Roman-74"/>
      <use x="368.501953125" xlink:href="#BitstreamVeraSans-Roman-69"/>
      <use x="396.28515625" xlink:href="#BitstreamVeraSans-Roman-6f"/>
      <use x="457.466796875" xlink:href="#BitstreamVeraSans-Roman-6e"/>
      <use x="520.845703125" xlink:href="#BitstreamVeraSans-Roman-20"/>
      <use x="552.6328125" xlink:href="#BitstreamVeraSans-Roman-6f"/>
      <use x="613.814453125" xlink:href="#BitstreamVeraSans-Roman-66"/>
      <use x="649.01953125" xlink:href="#BitstreamVeraSans-Roman-20"/>
      <use x="680.806640625" xlink:href="#BitstreamVeraSans-Roman-74"/>
      <use x="720.015625" xlink:href="#BitstreamVeraSans-Roman-72"/>
      <use x="761.12890625" xlink:href="#BitstreamVeraSans-Roman-69"/>
      <use x="788.912109375" xlink:href="#BitstreamVeraSans-Roman-61"/>
      <use x="850.19140625" xlink:href="#BitstreamVeraSans-Roman-6c"/>
      <use x="877.974609375" xlink:href="#BitstreamVeraSans-Roman-73"/>
     </g>
    </g>
   </g>
   <g id="text_15">
    <!-- {f10-f14}, 5-D -->
    <defs>
     <path d="
M11.7188 12.4062
L22.0156 12.4062
L22.0156 4
L14.0156 -11.625
L7.71875 -11.625
L11.7188 4
z
" id="BitstreamVeraSans-Roman-2c"/>
     <path d="
M12.5 -9.28125
L15.9219 -9.28125
Q22.75 -9.28125 24.8281 -7.17188
Q26.9062 -5.07812 26.9062 1.90625
L26.9062 14.0156
Q26.9062 21.625 29.0938 25.0938
Q31.2969 28.5625 36.7188 29.8906
Q31.2969 31.1094 29.0938 34.5625
Q26.9062 38.0312 26.9062 45.7031
L26.9062 57.8125
Q26.9062 64.75 24.8281 66.875
Q22.75 69 15.9219 69
L12.5 69
L12.5 75.9844
L15.5781 75.9844
Q27.7344 75.9844 31.8125 72.3906
Q35.8906 68.7969 35.8906 58.0156
L35.8906 46.2969
Q35.8906 39.0156 38.5156 36.2031
Q41.1562 33.4062 48.0938 33.4062
L51.125 33.4062
L51.125 26.4219
L48.0938 26.4219
Q41.1562 26.4219 38.5156 23.5781
Q35.8906 20.75 35.8906 13.375
L35.8906 1.70312
Q35.8906 -9.07812 31.8125 -12.6875
Q27.7344 -16.3125 15.5781 -16.3125
L12.5 -16.3125
z
" id="BitstreamVeraSans-Roman-7d"/>
     <path d="
M51.125 -9.28125
L51.125 -16.3125
L48.0938 -16.3125
Q35.9375 -16.3125 31.8125 -12.6875
Q27.6875 -9.07812 27.6875 1.70312
L27.6875 13.375
Q27.6875 20.75 25.0469 23.5781
Q22.4062 26.4219 15.4844 26.4219
L12.5 26.4219
L12.5 33.4062
L15.4844 33.4062
Q22.4688 33.4062 25.0781 36.2031
Q27.6875 39.0156 27.6875 46.2969
L27.6875 58.0156
Q27.6875 68.7969 31.8125 72.3906
Q35.9375 75.9844 48.0938 75.9844
L51.125 75.9844
L51.125 69
L47.7969 69
Q40.9219 69 38.8125 66.8438
Q36.7188 64.7031 36.7188 57.8125
L36.7188 45.7031
Q36.7188 38.0312 34.5 34.5625
Q32.2812 31.1094 26.9062 29.8906
Q32.3281 28.5625 34.5156 25.0938
Q36.7188 21.625 36.7188 14.0156
L36.7188 1.90625
Q36.7188 -4.98438 38.8125 -7.125
Q40.9219 -9.28125 47.7969 -9.28125
z
" id="BitstreamVeraSans-Roman-7b"/>
     <path d="
M4.89062 31.3906
L31.2031 31.3906
L31.2031 23.3906
L4.89062 23.3906
z
" id="BitstreamVeraSans-Roman-2d"/>
    </defs>
    <g transform="translate(215.8625 35.5652178218)scale(0.2 -0.2)">
     <use xlink:href="#BitstreamVeraSans-Roman-7b"/>
     <use x="63.623046875" xlink:href="#BitstreamVeraSans-Roman-66"/>
     <use x="98.828125" xlink:href="#BitstreamVeraSans-Roman-31"/>
     <use x="162.451171875" xlink:href="#BitstreamVeraSans-Roman-30"/>
     <use x="226.07421875" xlink:href="#BitstreamVeraSans-Roman-2d"/>
     <use x="262.158203125" xlink:href="#BitstreamVeraSans-Roman-66"/>
     <use x="297.36328125" xlink:href="#BitstreamVeraSans-Roman-31"/>
     <use x="360.986328125" xlink:href="#BitstreamVeraSans-Roman-34"/>
     <use x="424.609375" xlink:href="#BitstreamVeraSans-Roman-7d"/>
     <use x="488.232421875" xlink:href="#BitstreamVeraSans-Roman-2c"/>
     <use x="520.01953125" xlink:href="#BitstreamVeraSans-Roman-20"/>
     <use x="551.806640625" xlink:href="#BitstreamVeraSans-Roman-35"/>
     <use x="615.4296875" xlink:href="#BitstreamVeraSans-Roman-2d"/>
     <use x="651.513671875" xlink:href="#BitstreamVeraSans-Roman-44"/>
    </g>
   </g>
   <g id="text_16">
    <!-- absolute targets -->
    <defs>
     <path d="
M56.2031 29.5938
L56.2031 25.2031
L14.8906 25.2031
Q15.4844 15.9219 20.4844 11.0625
Q25.4844 6.20312 34.4219 6.20312
Q39.5938 6.20312 44.4531 7.46875
Q49.3125 8.73438 54.1094 11.2812
L54.1094 2.78125
Q49.2656 0.734375 44.1875 -0.34375
Q39.1094 -1.42188 33.8906 -1.42188
Q20.7969 -1.42188 13.1562 6.1875
Q5.51562 13.8125 5.51562 26.8125
Q5.51562 40.2344 12.7656 48.1094
Q20.0156 56 32.3281 56
Q43.3594 56 49.7812 48.8906
Q56.2031 41.7969 56.2031 29.5938
M47.2188 32.2344
Q47.125 39.5938 43.0938 43.9844
Q39.0625 48.3906 32.4219 48.3906
Q24.9062 48.3906 20.3906 44.1406
Q15.875 39.8906 15.1875 32.1719
z
" id="BitstreamVeraSans-Roman-65"/>
     <path d="
M8.5 21.5781
L8.5 54.6875
L17.4844 54.6875
L17.4844 21.9219
Q17.4844 14.1562 20.5 10.2656
Q23.5312 6.39062 29.5938 6.39062
Q36.8594 6.39062 41.0781 11.0312
Q45.3125 15.6719 45.3125 23.6875
L45.3125 54.6875
L54.2969 54.6875
L54.2969 0
L45.3125 0
L45.3125 8.40625
Q42.0469 3.42188 37.7188 1
Q33.4062 -1.42188 27.6875 -1.42188
Q18.2656 -1.42188 13.375 4.4375
Q8.5 10.2969 8.5 21.5781" id="BitstreamVeraSans-Roman-75"/>
     <path d="
M48.6875 27.2969
Q48.6875 37.2031 44.6094 42.8438
Q40.5312 48.4844 33.4062 48.4844
Q26.2656 48.4844 22.1875 42.8438
Q18.1094 37.2031 18.1094 27.2969
Q18.1094 17.3906 22.1875 11.75
Q26.2656 6.10938 33.4062 6.10938
Q40.5312 6.10938 44.6094 11.75
Q48.6875 17.3906 48.6875 27.2969
M18.1094 46.3906
Q20.9531 51.2656 25.2656 53.625
Q29.5938 56 35.5938 56
Q45.5625 56 51.7812 48.0938
Q58.0156 40.1875 58.0156 27.2969
Q58.0156 14.4062 51.7812 6.48438
Q45.5625 -1.42188 35.5938 -1.42188
Q29.5938 -1.42188 25.2656 0.953125
Q20.9531 3.32812 18.1094 8.20312
L18.1094 0
L9.07812 0
L9.07812 75.9844
L18.1094 75.9844
z
" id="BitstreamVeraSans-Roman-62"/>
    </defs>
    <g transform="translate(64.921875 359.056342822)scale(0.14 -0.14)">
     <use xlink:href="#BitstreamVeraSans-Roman-61"/>
     <use x="61.279296875" xlink:href="#BitstreamVeraSans-Roman-62"/>
     <use x="124.755859375" xlink:href="#BitstreamVeraSans-Roman-73"/>
     <use x="176.85546875" xlink:href="#BitstreamVeraSans-Roman-6f"/>
     <use x="238.037109375" xlink:href="#BitstreamVeraSans-Roman-6c"/>
     <use x="265.8203125" xlink:href="#BitstreamVeraSans-Roman-75"/>
     <use x="329.19921875" xlink:href="#BitstreamVeraSans-Roman-74"/>
     <use x="368.408203125" xlink:href="#BitstreamVeraSans-Roman-65"/>
     <use x="429.931640625" xlink:href="#BitstreamVeraSans-Roman-20"/>
     <use x="461.71875" xlink:href="#BitstreamVeraSans-Roman-74"/>
     <use x="500.927734375" xlink:href="#BitstreamVeraSans-Roman-61"/>
     <use x="562.20703125" xlink:href="#BitstreamVeraSans-Roman-72"/>
     <use x="601.5703125" xlink:href="#BitstreamVeraSans-Roman-67"/>
     <use x="665.046875" xlink:href="#BitstreamVeraSans-Roman-65"/>
     <use x="726.5703125" xlink:href="#BitstreamVeraSans-Roman-74"/>
     <use x="765.779296875" xlink:href="#BitstreamVeraSans-Roman-73"/>
    </g>
   </g>
   <g id="text_17">
    <!-- v2.1.1.3 -->
    <g style="fill:#808080;" transform="translate(268.2203125 353.520655322)scale(0.1 -0.1)">
     <use xlink:href="#BitstreamVeraSans-Roman-76"/>
     <use x="59.1796875" xlink:href="#BitstreamVeraSans-Roman-32"/>
     <use x="122.802734375" xlink:href="#BitstreamVeraSans-Roman-2e"/>
     <use x="154.58984375" xlink:href="#BitstreamVeraSans-Roman-31"/>
     <use x="218.212890625" xlink:href="#BitstreamVeraSans-Roman-2e"/>
     <use x="250.0" xlink:href="#BitstreamVeraSans-Roman-31"/>
     <use x="313.623046875" xlink:href="#BitstreamVeraSans-Roman-2e"/>
     <use x="345.41015625" xlink:href="#BitstreamVeraSans-Roman-33"/>
    </g>
   </g>
   <g id="legend_1">
    <g id="patch_7">
     <path d="
M74.9219 146.881
L210.397 146.881
L210.397 23.4563
L74.9219 23.4563
z
" style="fill:#ffffff;opacity:0.2;stroke:#000000;stroke-linejoin:miter;"/>
    </g>
    <g id="line2d_156">
     <path d="
M88.9219 39.6532
L116.922 39.6532" style="fill:none;stroke:#000000;stroke-linecap:square;"/>
    </g>
    <g id="line2d_157"/>
    <g id="text_18">
     <!-- 1: 5/5 -->
     <defs>
      <path d="
M11.7188 12.4062
L22.0156 12.4062
L22.0156 0
L11.7188 0
z

M11.7188 51.7031
L22.0156 51.7031
L22.0156 39.3125
L11.7188 39.3125
z
" id="BitstreamVeraSans-Roman-3a"/>
     </defs>
     <g transform="translate(138.921875 46.6532178218)scale(0.2 -0.2)">
      <use xlink:href="#BitstreamVeraSans-Roman-31"/>
      <use x="63.623046875" xlink:href="#BitstreamVeraSans-Roman-3a"/>
      <use x="97.314453125" xlink:href="#BitstreamVeraSans-Roman-20"/>
      <use x="129.1015625" xlink:href="#BitstreamVeraSans-Roman-35"/>
      <use x="192.724609375" xlink:href="#BitstreamVeraSans-Roman-2f"/>
      <use x="226.416015625" xlink:href="#BitstreamVeraSans-Roman-35"/>
     </g>
    </g>
    <g id="line2d_158">
     <path d="
M88.9219 69.0095
L116.922 69.0095" style="fill:none;stroke:#00bfbf;stroke-linecap:square;"/>
    </g>
    <g id="line2d_159"/>
    <g id="text_19">
     <!-- -1: 5/5 -->
     <g transform="translate(138.921875 76.0094678218)scale(0.2 -0.2)">
      <use xlink:href="#BitstreamVeraSans-Roman-2d"/>
      <use x="36.083984375" xlink:href="#BitstreamVeraSans-Roman-31"/>
      <use x="99.70703125" xlink:href="#BitstreamVeraSans-Roman-3a"/>
      <use x="133.3984375" xlink:href="#BitstreamVeraSans-Roman-20"/>
      <use x="165.185546875" xlink:href="#BitstreamVeraSans-Roman-35"/>
      <use x="228.80859375" xlink:href="#BitstreamVeraSans-Roman-2f"/>
      <use x="262.5" xlink:href="#BitstreamVeraSans-Roman-35"/>
     </g>
    </g>
    <g id="line2d_160">
     <path d="
M88.9219 98.3657
L116.922 98.3657" style="fill:none;stroke:#bf00bf;stroke-linecap:square;"/>
    </g>
    <g id="line2d_161"/>
    <g id="text_20">
     <!-- -4: 5/5 -->
     <g transform="translate(138.921875 105.365717822)scale(0.2 -0.2)">
      <use xlink:href="#BitstreamVeraSans-Roman-2d"/>
      <use x="36.083984375" xlink:href="#BitstreamVeraSans-Roman-34"/>
      <use x="99.70703125" xlink:href="#BitstreamVeraSans-Roman-3a"/>
      <use x="133.3984375" xlink:href="#BitstreamVeraSans-Roman-20"/>
      <use x="165.185546875" xlink:href="#BitstreamVeraSans-Roman-35"/>
      <use x="228.80859375" xlink:href="#BitstreamVeraSans-Roman-2f"/>
      <use x="262.5" xlink:href="#BitstreamVeraSans-Roman-35"/>
     </g>
    </g>
    <g id="line2d_162">
     <path d="
M88.9219 127.722
L116.922 127.722" style="fill:none;stroke:#ff0000;stroke-linecap:square;stroke-width:3.0;"/>
    </g>
    <g id="line2d_163"/>
    <g id="text_21">
     <!-- -8: 5/5 -->
     <g transform="translate(138.921875 134.721967822)scale(0.2 -0.2)">
      <use xlink:href="#BitstreamVeraSans-Roman-2d"/>
      <use x="36.083984375" xlink:href="#BitstreamVeraSans-Roman-38"/>
      <use x="99.70703125" xlink:href="#BitstreamVeraSans-Roman-3a"/>
      <use x="133.3984375" xlink:href="#BitstreamVeraSans-Roman-20"/>
      <use x="165.185546875" xlink:href="#BitstreamVeraSans-Roman-35"/>
      <use x="228.80859375" xlink:href="#BitstreamVeraSans-Roman-2f"/>
      <use x="262.5" xlink:href="#BitstreamVeraSans-Roman-35"/>
     </g>
    </g>
   </g>
  </g>
 </g>
 <defs>
  <clipPath id="p4b24e7e61f">
   <rect height="345.6" width="446.4" x="64.921875" y="13.4563428218"/>
  </clipPath>
 </defs>
</svg>
