Function,Run,Iteration,X1,X2,Y,LB1,LB2,UB1,UB2,Method
bbob_f004_i76_d02, 65, 99, 0.99840000,-1.32507436,   -603.92504094,-5.00000000,-5.00000000, 5.00000000, 5.00000000,-1
bbob_f004_i76_d02, 66, 29, 0.99839893,-1.01519976,   -604.92000000,-5.00000000,-5.00000000, 5.00000000, 5.00000000,4
