Function,Run,Iteration,X1,X2,Y,LB1,LB2,UB1,UB2,Method
bbob_f020_i73_d02,390, 79, 2.10484372,-0.96089981,   -248.09780833,-5.00000000,-5.00000000, 5.00000000, 5.00000000,-1
bbob_f020_i73_d02,391, 79, 2.10484507,-0.96089949,   -248.09780833,-5.00000000,-5.00000000, 5.00000000, 5.00000000,4
bbob_f020_i73_d02,392, 49, 2.10484373,-0.96089977,   -248.09780833, 1.97336945,-1.08042446, 2.25107018,-0.81481495,2
bbob_f020_i73_d02,393, 49, 2.10484323,-0.96090002,   -248.09780833, 1.95794471,-1.05416593, 2.22255584,-0.86666799,2
bbob_f020_i73_d02,394, 59, 2.10484348,-0.96090000,   -248.09780833, 2.02433711,-1.03997044, 2.19597807,-0.95608413,2
bbob_f020_i73_d02,395, 39, 2.10485661,-2.10484426,   -248.68999999,-5.00000000,-5.00000000, 5.00000000,-0.96089977,0
