Function,Run,Iteration,X1,X2,Y,LB1,LB2,UB1,UB2,Method
bbob_f023_i02_d02,436,119,-5.00000000, 2.21782814,      0.40800077,-5.00000000,-5.00000000, 5.00000000, 5.00000000,-1
bbob_f023_i02_d02,437, 99,-5.00000000, 2.21782814,      0.40800077,-5.00000000, 2.06823623,-4.93403822, 2.35960722,2
bbob_f023_i02_d02,438,389,-5.00000000, 2.21782814,      0.40800077,-5.00000000,-5.00000000, 5.00000000, 2.21782814,0
bbob_f023_i02_d02,439, 79,-5.00000000, 2.21782814,      0.40800077,-5.00000000, 2.14490794,-4.88329247, 2.28454688,2
bbob_f023_i02_d02,440,189,-3.20572823,-4.40849274,      0.01000001,-5.00000000, 2.21782814, 5.00000000, 5.00000000,0
