Function,Run,Iteration,X1,X2,Y,Behavior
bbob_f014_i01_d02,208, -1,-2.79210948, 2.76948992,     31.48479769,NonoverlappingRegionsExploringLocationInitializer
bbob_f014_i01_d02,208, -1, 3.75848115, 0.42394681,    -47.44391250,NonoverlappingRegionsExploringLocationInitializer
bbob_f014_i01_d02,208, -1,-1.54149894,-1.93950744,    -51.51331271,NonoverlappingRegionsExploringLocationInitializer
bbob_f014_i01_d02,208, -1, 5.00000000,-5.00000000,     85.05945595,NonoverlappingRegionsExploringLocationInitializer
bbob_f014_i01_d02,208, -1,-0.94532162, 0.17257731,    -49.66334381,NonoverlappingRegionsExploringLocationInitializer
bbob_f014_i01_d02,208, -1,-5.00000000,-0.77065048,    -47.05273309,NonoverlappingRegionsExploringLocationInitializer
bbob_f014_i01_d02,208, -1,-3.44825263,-1.39197604,    -49.82037038,NonoverlappingRegionsExploringLocationInitializer
bbob_f014_i01_d02,208, -1, 0.38611232,-0.70469462,    -50.99444186,NonoverlappingRegionsExploringLocationInitializer
bbob_f014_i01_d02,208, -1, 1.50765660, 4.67075575,     79.42954024,NonoverlappingRegionsExploringLocationInitializer
bbob_f014_i01_d02,208, -1, 0.05596754,-0.42389853,    -51.22737175,NonoverlappingRegionsExploringLocationInitializer
bbob_f014_i01_d02,208, -1,-0.89578842,-1.30665053,    -52.31087418,NonoverlappingRegionsExploringLocationInitializer
bbob_f014_i01_d02,208, -1,-0.01885330,-0.42367786,    -51.29558678,NonoverlappingRegionsExploringLocationInitializer
bbob_f014_i01_d02,208, -1, 2.40031339, 2.16256159,    -37.37630233,NonoverlappingRegionsExploringLocationInitializer
bbob_f014_i01_d02,208, -1, 1.14916881,-0.30830740,    -50.15369089,NonoverlappingRegionsExploringLocationInitializer
bbob_f014_i01_d02,208, -1, 2.70257749,-1.39662563,    -48.71325528,NonoverlappingRegionsExploringLocationInitializer
bbob_f014_i01_d02,208, -1, 1.04986156,-0.30809434,    -50.24912885,NonoverlappingRegionsExploringLocationInitializer
bbob_f014_i01_d02,208, -1,-0.17700180,-0.62565671,    -51.51424347,NonoverlappingRegionsExploringLocationInitializer
bbob_f014_i01_d02,208, -1, 1.08387610,-0.30360799,    -50.21520522,NonoverlappingRegionsExploringLocationInitializer
bbob_f014_i01_d02,208, -1, 4.39521386,-3.42648299,     -9.87871622,NonoverlappingRegionsExploringLocationInitializer
bbob_f014_i01_d02,208, -1, 2.39359821,-0.32819012,    -48.95834503,NonoverlappingRegionsExploringLocationInitializer
bbob_f014_i01_d02,208,  0, 1.10985793, 0.66997221,    -48.97853744,SLPSO2007Behaviour
bbob_f014_i01_d02,208,  0, 2.20160644,-1.06983205,    -49.32668660,DEBest1BinBehaviour
bbob_f014_i01_d02,208,  0, 1.02233209, 0.00000000,    -50.16751449,PolynomialModelBehaviour
bbob_f014_i01_d02,208,  0,-1.64295299,-1.35869591,    -51.57607382,DEBest1BinBehaviour
bbob_f014_i01_d02,208,  0,-2.03334077,-1.94683144,    -51.04450115,SLPSO2007Behaviour
bbob_f014_i01_d02,208,  0,-5.00000000,-2.24639483,    -48.10370374,DEBest1BinBehaviour
bbob_f014_i01_d02,208,  0,-1.54748110,-0.27763839,    -50.92500525,SLPSO2007Behaviour
bbob_f014_i01_d02,208,  0,-5.00000000,-0.77892759,    -47.08952791,LinearModelBehaviour
bbob_f014_i01_d02,208,  0, 1.50765660,-0.64860235,    -49.89723360,DEBest1BinBehaviour
bbob_f014_i01_d02,208,  0, 2.91427699,-1.40191906,    -48.44274261,DEBest1BinBehaviour
bbob_f014_i01_d02,208,  0,-1.71257697,-1.33395470,    -51.51533219,SLPSO2007Behaviour
bbob_f014_i01_d02,208,  0, 0.05476030,-1.51881486,    -51.51683897,SLPSO2007Behaviour
bbob_f014_i01_d02,208,  0, 1.68915765,-2.41673060,    -46.12399687,SLPSO2007Behaviour
bbob_f014_i01_d02,208,  0, 0.79934440,-0.34529656,    -50.49992113,SLPSO2007Behaviour
bbob_f014_i01_d02,208,  0, 0.33195994,-0.69816662,    -51.04498933,SLPSO2007Behaviour
bbob_f014_i01_d02,208,  0,-1.13441279,-1.06951701,    -52.14207952,DEBest1BinBehaviour
bbob_f014_i01_d02,208,  0,-0.17700180,-1.47165832,    -51.73507099,DEBest1BinBehaviour
bbob_f014_i01_d02,208,  0, 1.77327681,-3.17208869,    -35.61106623,SLPSO2007Behaviour
bbob_f014_i01_d02,208,  0,-2.28324140,-1.89404927,    -50.81803387,DEBest1BinBehaviour
bbob_f014_i01_d02,208,  0,-0.51356094,-0.93203173,    -51.92218445,DEBest1BinBehaviour
bbob_f014_i01_d02,208,  1, 3.14857502,-0.73072642,    -48.33118416,SLPSO2007Behaviour
bbob_f014_i01_d02,208,  1,-3.05249932,-2.08700964,    -50.02513341,SLPSO2007Behaviour
bbob_f014_i01_d02,208,  1,-1.01427786,-0.02508558,    -50.54939715,SLPSO2007Behaviour
bbob_f014_i01_d02,208,  1, 0.25427823,-0.81079836,    -51.14944043,DEBest1BinBehaviour
bbob_f014_i01_d02,208,  1,-2.30679228,-2.76655660,    -50.13838440,SLPSO2007Behaviour
bbob_f014_i01_d02,208,  1,-3.03883462,-3.11966075,    -49.13128046,SLPSO2007Behaviour
bbob_f014_i01_d02,208,  1,-0.80442689,-1.07623936,    -52.24068156,LinearModelBehaviour
bbob_f014_i01_d02,208,  1, 0.16701130,-0.90514375,    -51.25833208,DEBest1BinBehaviour
bbob_f014_i01_d02,208,  1, 1.19087248,-4.14523976,    -15.11179281,SLPSO2007Behaviour
bbob_f014_i01_d02,208,  1,-0.67014612,-0.42389853,    -51.77442425,DEBest1BinBehaviour
bbob_f014_i01_d02,208,  1,-1.90306207,-1.32266943,    -51.33439305,SLPSO2007Behaviour
bbob_f014_i01_d02,208,  1, 0.05476030,-1.52502388,    -51.51769822,DEBest1BinBehaviour
bbob_f014_i01_d02,208,  1, 0.62530334,-0.21493918,    -50.62165925,DEBest1BinBehaviour
bbob_f014_i01_d02,208,  1,-0.01979423,-0.84622396,    -51.42323807,SLPSO2007Behaviour
bbob_f014_i01_d02,208,  1,-2.08388395,-0.44082019,    -50.73025113,SLPSO2007Behaviour
bbob_f014_i01_d02,208,  1,-0.80862246,-0.91937051,    -52.20142386,PolynomialModelBehaviour
bbob_f014_i01_d02,208,  1, 0.38704953, 0.18967882,    -50.37208411,DEBest1BinBehaviour
bbob_f014_i01_d02,208,  1,-0.41811560, 0.75715088,    -46.30626829,SLPSO2007Behaviour
bbob_f014_i01_d02,208,  1,-4.47521449, 0.27095798,    -38.10663032,SLPSO2007Behaviour
bbob_f014_i01_d02,208,  1,-2.37414279,-1.31849035,    -50.88042675,SLPSO2007Behaviour
bbob_f014_i01_d02,208,  2, 0.50380425,-0.80023826,    -50.90582779,DEBest1BinBehaviour
bbob_f014_i01_d02,208,  2,-0.80013607,-1.30287151,    -52.29580809,DEBest1BinBehaviour
bbob_f014_i01_d02,208,  2,-2.36504424,-0.94544135,    -50.95154225,SLPSO2007Behaviour
bbob_f014_i01_d02,208,  2,-1.56176666,-1.32611837,    -51.66295201,PolynomialModelBehaviour
bbob_f014_i01_d02,208,  2,-2.00685795,-1.26054683,    -51.25024002,SLPSO2007Behaviour
bbob_f014_i01_d02,208,  2,-0.68672540,-1.75083656,    -52.18839696,DEBest1BinBehaviour
bbob_f014_i01_d02,208,  2,-0.32887219,-1.58734398,    -51.90263847,SLPSO2007Behaviour
bbob_f014_i01_d02,208,  2,-5.00000000,-3.89489244,    -46.66225334,LinearModelBehaviour
bbob_f014_i01_d02,208,  2,-0.67228897,-0.93859567,    -52.07682642,DEBest1BinBehaviour
bbob_f014_i01_d02,208,  2,-2.27770225,-1.82619910,    -50.84119067,DEBest1BinBehaviour
bbob_f014_i01_d02,208,  2, 0.59885085,-1.29598154,    -50.94127321,SLPSO2007Behaviour
bbob_f014_i01_d02,208,  2,-0.57446879,-1.29189023,    -52.07510870,SLPSO2007Behaviour
bbob_f014_i01_d02,208,  2,-1.68655314, 0.43739920,    -46.14515972,SLPSO2007Behaviour
bbob_f014_i01_d02,208,  2,-0.01979423,-1.40978356,    -51.56853706,DEBest1BinBehaviour
bbob_f014_i01_d02,208,  2,-2.15019341,-1.19145208,    -51.12882322,SLPSO2007Behaviour
bbob_f014_i01_d02,208,  2,-0.85204020,-1.09412009,    -52.29129089,DEBest1BinBehaviour
bbob_f014_i01_d02,208,  2,-0.57348308,-1.35413306,    -52.09035629,DEBest1BinBehaviour
bbob_f014_i01_d02,208,  2, 0.91866997, 0.07819117,    -50.20927837,DEBest1BinBehaviour
bbob_f014_i01_d02,208,  2, 0.87696827, 0.26492833,    -50.03938527,SLPSO2007Behaviour
bbob_f014_i01_d02,208,  2, 0.19983320,-0.92708752,    -51.23238554,SLPSO2007Behaviour
bbob_f014_i01_d02,208,  3, 0.00000000,-1.05976155,    -51.45994665,PolynomialModelBehaviour
bbob_f014_i01_d02,208,  3, 0.52933656,-0.49332020,    -50.80028141,DEBest1BinBehaviour
bbob_f014_i01_d02,208,  3,-1.52963529,-1.79041890,    -51.57134702,DEBest1BinBehaviour
bbob_f014_i01_d02,208,  3,-0.90668521,-1.49933883,    -52.24912595,DEBest1BinBehaviour
bbob_f014_i01_d02,208,  3,-1.11116198,-0.45131909,    -51.78101318,SLPSO2007Behaviour
bbob_f014_i01_d02,208,  3,-1.41521304, 5.00000000,    182.50809605,LinearModelBehaviour
bbob_f014_i01_d02,208,  3,-0.55466355,-0.84577035,    -51.93848363,DEBest1BinBehaviour
bbob_f014_i01_d02,208,  3, 1.82501196,-1.67228891,    -49.49429980,SLPSO2007Behaviour
bbob_f014_i01_d02,208,  3,-1.86471230, 1.11365655,    -36.03806170,SLPSO2007Behaviour
bbob_f014_i01_d02,208,  3,-0.73340094,-1.30017827,    -52.23068776,DEBest1BinBehaviour
bbob_f014_i01_d02,208,  3,-0.36869564,-1.29274187,    -51.87668218,SLPSO2007Behaviour
bbob_f014_i01_d02,208,  3,-1.13025544,-1.15889992,    -52.12314283,SLPSO2007Behaviour
bbob_f014_i01_d02,208,  3,-1.17097089,-1.04978756,    -52.11163250,DEBest1BinBehaviour
bbob_f014_i01_d02,208,  3,-1.46390299,-1.65783255,    -51.67057119,SLPSO2007Behaviour
bbob_f014_i01_d02,208,  3,-0.38500223,-1.60447434,    -51.95905269,SLPSO2007Behaviour
bbob_f014_i01_d02,208,  3,-0.87982755,-1.20595982,    -52.34740443,SLPSO2007Behaviour
bbob_f014_i01_d02,208,  3,-1.52947558,-2.16938970,    -51.39717360,SLPSO2007Behaviour
bbob_f014_i01_d02,208,  3, 0.95145994,-1.39290163,    -50.61227394,SLPSO2007Behaviour
bbob_f014_i01_d02,208,  3,-0.90189624,-1.42678674,    -52.27343675,DEBest1BinBehaviour
bbob_f014_i01_d02,208,  3,-0.31524297,-0.93203173,    -51.73084194,DEBest1BinBehaviour
bbob_f014_i01_d02,208,  4,-0.56178571,-1.35334794,    -52.07885791,SLPSO2007Behaviour
bbob_f014_i01_d02,208,  4,-0.78160431,-0.79955573,    -52.13564822,DEBest1BinBehaviour
bbob_f014_i01_d02,208,  4,-1.41764780,-0.89820286,    -51.90056655,DEBest1BinBehaviour
bbob_f014_i01_d02,208,  4,-0.48743308,-1.61019993,    -52.05900043,SLPSO2007Behaviour
bbob_f014_i01_d02,208,  4,-0.25636505,-0.41786606,    -51.49931333,SLPSO2007Behaviour
bbob_f014_i01_d02,208,  4,-0.97041722, 3.48956898,     44.71107995,SLPSO2007Behaviour
bbob_f014_i01_d02,208,  4,-1.09217357,-1.37532083,    -52.10336789,LinearModelBehaviour
bbob_f014_i01_d02,208,  4, 4.07956518, 0.34518151,    -47.15497388,SLPSO2007Behaviour
bbob_f014_i01_d02,208,  4,-0.69292371,-1.09263306,    -52.13737787,DEBest1BinBehaviour
bbob_f014_i01_d02,208,  4,-0.92034890,-1.53587260,    -52.22575242,PolynomialModelBehaviour
bbob_f014_i01_d02,208,  4,-1.88064751,-1.30505287,    -51.36062099,SLPSO2007Behaviour
bbob_f014_i01_d02,208,  4,-1.22496499,-1.24523326,    -52.00918723,SLPSO2007Behaviour
bbob_f014_i01_d02,208,  4,-1.32249138,-0.81933134,    -51.99431014,DEBest1BinBehaviour
bbob_f014_i01_d02,208,  4,-1.14512766,-0.78465829,    -52.15167874,DEBest1BinBehaviour
bbob_f014_i01_d02,208,  4,-1.05163635,-0.85592877,    -52.24596811,DEBest1BinBehaviour
bbob_f014_i01_d02,208,  4,-0.89761146,-1.27753725,    -52.31672316,SLPSO2007Behaviour
bbob_f014_i01_d02,208,  4,-1.19384894,-1.17066127,    -52.05868677,DEBest1BinBehaviour
bbob_f014_i01_d02,208,  4,-0.78929969,-2.37043263,    -50.97250223,SLPSO2007Behaviour
bbob_f014_i01_d02,208,  4,-2.04036953,-2.50948439,    -50.70229275,SLPSO2007Behaviour
bbob_f014_i01_d02,208,  4,-0.76550770,-1.59104927,    -52.30097467,SLPSO2007Behaviour
bbob_f014_i01_d02,208,  5,-1.06112158,-1.65660985,    -52.05678146,SLPSO2007Behaviour
bbob_f014_i01_d02,208,  5,-1.62666750,-2.06019543,    -51.38636306,SLPSO2007Behaviour
bbob_f014_i01_d02,208,  5,-0.84070312,-0.65761595,    -52.09679528,SLPSO2007Behaviour
bbob_f014_i01_d02,208,  5,-0.83564197,-1.17163535,    -52.29578442,LinearModelBehaviour
bbob_f014_i01_d02,208,  5,-0.37145041,-1.45928699,    -51.92116168,DEBest1BinBehaviour
bbob_f014_i01_d02,208,  5,-0.74281067,-1.68001579,    -52.25587374,SLPSO2007Behaviour
bbob_f014_i01_d02,208,  5,-0.78338391,-2.16939536,    -51.56666540,DEBest1BinBehaviour
bbob_f014_i01_d02,208,  5,-1.38693903,-0.70962561,    -51.89855610,PolynomialModelBehaviour
bbob_f014_i01_d02,208,  5, 0.01695646,-2.68581292,    -48.04580867,SLPSO2007Behaviour
bbob_f014_i01_d02,208,  5,-0.73340094,-1.27227889,    -52.22339857,DEBest1BinBehaviour
bbob_f014_i01_d02,208,  5,-0.89578842,-2.05460711,    -51.82802097,DEBest1BinBehaviour
bbob_f014_i01_d02,208,  5,-0.93579249,-1.32954010,    -52.26627831,SLPSO2007Behaviour
bbob_f014_i01_d02,208,  5,-0.88596380,-1.19230359,    -52.34971081,DEBest1BinBehaviour
bbob_f014_i01_d02,208,  5,-0.78503813,-1.26366646,    -52.27099072,DEBest1BinBehaviour
bbob_f014_i01_d02,208,  5,-0.92106440,-1.25998499,    -52.29867231,DEBest1BinBehaviour
bbob_f014_i01_d02,208,  5,-0.87982755,-1.21596688,    -52.34996644,DEBest1BinBehaviour
bbob_f014_i01_d02,208,  5,-1.04744602,-1.12267183,    -52.21249759,DEBest1BinBehaviour
bbob_f014_i01_d02,208,  5,-1.01294113,-0.77532115,    -52.23159839,DEBest1BinBehaviour
bbob_f014_i01_d02,208,  5,-0.96943514,-1.25074511,    -52.25439728,DEBest1BinBehaviour
bbob_f014_i01_d02,208,  5,-0.43950721,-1.61385089,    -52.01276408,DEBest1BinBehaviour
bbob_f014_i01_d02,208,  6,-0.77986624,-1.26381049,    -52.26603620,DEBest1BinBehaviour
bbob_f014_i01_d02,208,  6,-0.93234917,-2.18592862,    -51.57639240,SLPSO2007Behaviour
bbob_f014_i01_d02,208,  6,-1.02615802,-1.13181079,    -52.23068102,DEBest1BinBehaviour
bbob_f014_i01_d02,208,  6,-0.69369902,-1.17163535,    -52.15877479,DEBest1BinBehaviour
bbob_f014_i01_d02,208,  6,-0.92263155,-1.18570088,    -52.31657097,DEBest1BinBehaviour
bbob_f014_i01_d02,208,  6,-0.71728694,-4.34236901,    -24.51430077,SLPSO2007Behaviour
bbob_f014_i01_d02,208,  6,-0.57623207,-0.96120957,    -51.99031825,SLPSO2007Behaviour
bbob_f014_i01_d02,208,  6,-1.05714490,-1.10869657,    -52.20674030,DEBest1BinBehaviour
bbob_f014_i01_d02,208,  6,-0.84004144,-1.17349736,    -52.30051760,DEBest1BinBehaviour
bbob_f014_i01_d02,208,  6,-0.83649249,-1.31283311,    -52.33350062,DEBest1BinBehaviour
bbob_f014_i01_d02,208,  6,-1.04425457,-1.15765381,    -52.20648999,DEBest1BinBehaviour
bbob_f014_i01_d02,208,  6,-0.73763888,-1.20112642,    -52.20889473,SLPSO2007Behaviour
bbob_f014_i01_d02,208,  6,-0.60658615,-1.43100583,    -52.14189748,SLPSO2007Behaviour
bbob_f014_i01_d02,208,  6,-5.00000000,-5.00000000,    -35.11743522,LinearModelBehaviour
bbob_f014_i01_d02,208,  6,-0.87652596,-1.18670111,    -52.33918368,PolynomialModelBehaviour
bbob_f014_i01_d02,208,  6,-1.04299723,-1.14556035,    -52.21085264,DEBest1BinBehaviour
bbob_f014_i01_d02,208,  6,-0.96856456,-1.17767750,    -52.27432931,DEBest1BinBehaviour
bbob_f014_i01_d02,208,  6,-0.83227760,-1.52879842,    -52.30736728,DEBest1BinBehaviour
bbob_f014_i01_d02,208,  6,-0.82951477,-1.25154222,    -52.31075322,DEBest1BinBehaviour
bbob_f014_i01_d02,208,  6,-0.97304062,-1.36787356,    -52.22030476,DEBest1BinBehaviour
bbob_f014_i01_d02,208,  7,-0.68987919,-1.70599602,    -52.21820313,DEBest1BinBehaviour
bbob_f014_i01_d02,208,  7,-0.89530192,-1.19698275,    -52.34000325,DEBest1BinBehaviour
bbob_f014_i01_d02,208,  7,-0.84038198,-1.24126449,    -52.31855682,PolynomialModelBehaviour
bbob_f014_i01_d02,208,  7,-0.64623791,-1.17932590,    -52.11497288,SLPSO2007Behaviour
bbob_f014_i01_d02,208,  7,-0.64925575,-1.32121339,    -52.15495268,DEBest1BinBehaviour
bbob_f014_i01_d02,208,  7,-0.77581226,-2.85673513,    -48.38416677,SLPSO2007Behaviour
bbob_f014_i01_d02,208,  7,-0.88267255,-0.58348971,    -52.04039349,SLPSO2007Behaviour
bbob_f014_i01_d02,208,  7,-0.60172702,-1.43694990,    -52.13866677,SLPSO2007Behaviour
bbob_f014_i01_d02,208,  7,-1.38728758,-0.33800256,    -51.28745648,SLPSO2007Behaviour
bbob_f014_i01_d02,208,  7,-0.89930224,-1.53242006,    -52.24656996,DEBest1BinBehaviour
bbob_f014_i01_d02,208,  7,-0.92871594,-0.72770758,    -52.19223010,SLPSO2007Behaviour
bbob_f014_i01_d02,208,  7,-1.02031433,-1.25955578,    -52.20298370,SLPSO2007Behaviour
bbob_f014_i01_d02,208,  7,-0.67825797,-1.26596191,    -52.16852097,SLPSO2007Behaviour
bbob_f014_i01_d02,208,  7, 0.12716978,-4.34091847,    -18.03289984,SLPSO2007Behaviour
bbob_f014_i01_d02,208,  7,-0.84838325,-1.14406716,    -52.30087301,SLPSO2007Behaviour
bbob_f014_i01_d02,208,  7,-0.87705691,-1.21770555,    -52.34780031,DEBest1BinBehaviour
bbob_f014_i01_d02,208,  7,-0.87743670,-1.22239919,    -52.34939349,SLPSO2007Behaviour
bbob_f014_i01_d02,208,  7,-0.72856297,-1.74176107,    -52.21140478,SLPSO2007Behaviour
bbob_f014_i01_d02,208,  7,-5.00000000,-5.00000000,    -35.11743522,LinearModelBehaviour
bbob_f014_i01_d02,208,  7,-0.89871107,-1.24574005,    -52.32397153,DEBest1BinBehaviour
bbob_f014_i01_d02,208,  8,-0.83655191,-1.24955770,    -52.31702717,SLPSO2007Behaviour
bbob_f014_i01_d02,208,  8,-0.85718467,-1.16513873,    -52.31487898,DEBest1BinBehaviour
bbob_f014_i01_d02,208,  8,-0.75242628,-1.26546873,    -52.23998315,SLPSO2007Behaviour
bbob_f014_i01_d02,208,  8,-0.88773230,-1.29449659,    -52.32182677,LinearModelBehaviour
bbob_f014_i01_d02,208,  8,-0.85247597,-1.23897677,    -52.32963265,DEBest1BinBehaviour
bbob_f014_i01_d02,208,  8,-0.77312194,-1.31468556,    -52.27281755,DEBest1BinBehaviour
bbob_f014_i01_d02,208,  8,-0.92037399,-1.19616349,    -52.31601695,DEBest1BinBehaviour
bbob_f014_i01_d02,208,  8,-0.95361560, 0.00000000,    -50.50476565,PolynomialModelBehaviour
bbob_f014_i01_d02,208,  8,-1.50196882,-1.55792626,    -51.66008776,SLPSO2007Behaviour
bbob_f014_i01_d02,208,  8,-0.88101151,-1.26237396,    -52.33670894,DEBest1BinBehaviour
bbob_f014_i01_d02,208,  8,-0.82831373,-1.02951352,    -52.25127870,DEBest1BinBehaviour
bbob_f014_i01_d02,208,  8,-0.84363942,-1.32498360,    -52.34355101,DEBest1BinBehaviour
bbob_f014_i01_d02,208,  8,-1.04858504,-1.08013525,    -52.22229292,DEBest1BinBehaviour
bbob_f014_i01_d02,208,  8,-0.91643837,-1.10119792,    -52.34365312,DEBest1BinBehaviour
bbob_f014_i01_d02,208,  8,-0.88220761,-1.21080213,    -52.34903098,SLPSO2007Behaviour
bbob_f014_i01_d02,208,  8,-0.93056707,-0.89794126,    -52.29517677,DEBest1BinBehaviour
bbob_f014_i01_d02,208,  8,-0.82134939,-1.24765328,    -52.30185528,SLPSO2007Behaviour
bbob_f014_i01_d02,208,  8,-0.89678535,-1.20361622,    -52.33683845,DEBest1BinBehaviour
bbob_f014_i01_d02,208,  8,-5.00000000,-5.00000000,    -35.11743522,SLPSO2007Behaviour
bbob_f014_i01_d02,208,  8,-0.90106930,-1.11970485,    -52.34490756,DEBest1BinBehaviour
bbob_f014_i01_d02,208,  9,-1.01676277,-1.08556204,    -52.25163147,DEBest1BinBehaviour
bbob_f014_i01_d02,208,  9,-0.87345640,-1.22140995,    -52.34529310,SLPSO2007Behaviour
bbob_f014_i01_d02,208,  9,-0.77942886,-1.25477262,    -52.26325212,SLPSO2007Behaviour
bbob_f014_i01_d02,208,  9,-1.00972319,-1.33372227,    -52.19382432,SLPSO2007Behaviour
bbob_f014_i01_d02,208,  9,-0.87177191,-1.40770406,    -52.30746890,PolynomialModelBehaviour
bbob_f014_i01_d02,208,  9,-0.91950067,-1.18228973,    -52.32048379,DEBest1BinBehaviour
bbob_f014_i01_d02,208,  9,-0.88285069,-1.21175342,    -52.34816219,DEBest1BinBehaviour
bbob_f014_i01_d02,208,  9,-1.19540986,-0.55949261,    -51.91401642,SLPSO2007Behaviour
bbob_f014_i01_d02,208,  9,-0.91118398,-1.11852389,    -52.34465497,DEBest1BinBehaviour
bbob_f014_i01_d02,208,  9,-0.83729829,-1.18458771,    -52.30076844,DEBest1BinBehaviour
bbob_f014_i01_d02,208,  9,-0.84381057,-1.71488561,    -52.21303211,SLPSO2007Behaviour
bbob_f014_i01_d02,208,  9,-0.84363942,-1.21834133,    -52.31571040,DEBest1BinBehaviour
bbob_f014_i01_d02,208,  9,-0.88057550,-1.13866503,    -52.33050674,DEBest1BinBehaviour
bbob_f014_i01_d02,208,  9,-0.89572937,-1.32819616,    -52.30529893,DEBest1BinBehaviour
bbob_f014_i01_d02,208,  9,-0.90108265,-1.25397118,    -52.31953127,SLPSO2007Behaviour
bbob_f014_i01_d02,208,  9,-0.90459799,-1.10251720,    -52.34349380,SLPSO2007Behaviour
bbob_f014_i01_d02,208,  9,-0.87953324, 5.00000000,    166.88474393,LinearModelBehaviour
bbob_f014_i01_d02,208,  9,-0.89653760,-1.18797245,    -52.34116326,DEBest1BinBehaviour
bbob_f014_i01_d02,208,  9,-1.00953771, 3.17192513,     27.11795678,SLPSO2007Behaviour
bbob_f014_i01_d02,208,  9,-0.87551355,-1.20304068,    -52.34247788,DEBest1BinBehaviour
bbob_f014_i01_d02,208, 10,-0.77991118,-1.28756913,    -52.27228810,SLPSO2007Behaviour
bbob_f014_i01_d02,208, 10,-0.88387031,-1.25742353,    -52.33524322,SLPSO2007Behaviour
bbob_f014_i01_d02,208, 10,-0.86954807,-1.21964196,    -52.34105856,SLPSO2007Behaviour
bbob_f014_i01_d02,208, 10,-0.90833072,-1.20104862,    -52.32636528,SLPSO2007Behaviour
bbob_f014_i01_d02,208, 10,-5.00000000,-5.00000000,    -35.11743522,LinearModelBehaviour
bbob_f014_i01_d02,208, 10,-1.00794021,-1.09970136,    -52.25654669,SLPSO2007Behaviour
bbob_f014_i01_d02,208, 10,-0.85883578,-1.22173098,    -52.33126449,SLPSO2007Behaviour
bbob_f014_i01_d02,208, 10,-1.07431987,-2.20989034,    -51.53729399,SLPSO2007Behaviour
bbob_f014_i01_d02,208, 10,-0.53308168,-0.83730638,    -51.91544402,SLPSO2007Behaviour
bbob_f014_i01_d02,208, 10,-0.90779973,-1.15271409,    -52.33946705,SLPSO2007Behaviour
bbob_f014_i01_d02,208, 10,-0.85908096,-1.30665053,    -52.34629776,DEBest1BinBehaviour
bbob_f014_i01_d02,208, 10,-0.88002748,-1.50660349,    -52.27222351,PolynomialModelBehaviour
bbob_f014_i01_d02,208, 10,-0.78257985,-1.25991345,    -52.26763707,SLPSO2007Behaviour
bbob_f014_i01_d02,208, 10,-0.85288049,-1.10119792,    -52.29396567,DEBest1BinBehaviour
bbob_f014_i01_d02,208, 10,-0.88371195,-1.22451106,    -52.34399730,SLPSO2007Behaviour
bbob_f014_i01_d02,208, 10,-0.87957993,-1.36788807,    -52.31048389,SLPSO2007Behaviour
bbob_f014_i01_d02,208, 10,-0.91684903, 3.68988396,     56.52418642,SLPSO2007Behaviour
bbob_f014_i01_d02,208, 10,-0.89211795,-1.22129074,    -52.33672501,SLPSO2007Behaviour
bbob_f014_i01_d02,208, 10, 1.77418133, 3.43268550,      3.66888760,SLPSO2007Behaviour
bbob_f014_i01_d02,208, 10,-0.90109186,-1.24778692,    -52.32113855,SLPSO2007Behaviour
bbob_f014_i01_d02,208, 11,-0.79648577,-1.33913036,    -52.30174287,SLPSO2007Behaviour
bbob_f014_i01_d02,208, 11,-0.87818005,-1.20103094,    -52.34452617,SLPSO2007Behaviour
bbob_f014_i01_d02,208, 11,-0.93115727,-1.19800371,    -52.30512761,SLPSO2007Behaviour
bbob_f014_i01_d02,208, 11,-0.90833072,-1.27327018,    -52.30749156,DEBest1BinBehaviour
bbob_f014_i01_d02,208, 11,-3.75232845,-1.43971050,    -49.51311739,SLPSO2007Behaviour
bbob_f014_i01_d02,208, 11,-0.91384418,-1.14374761,    -52.33596053,SLPSO2007Behaviour
bbob_f014_i01_d02,208, 11,-0.87027049,-1.24588721,    -52.34861472,DEBest1BinBehaviour
bbob_f014_i01_d02,208, 11,-0.84217860,-1.45115453,    -52.32333942,SLPSO2007Behaviour
bbob_f014_i01_d02,208, 11,-0.79019941,-1.08764583,    -52.22995164,SLPSO2007Behaviour
bbob_f014_i01_d02,208, 11,-0.91184274,-1.31516547,    -52.29315250,SLPSO2007Behaviour
bbob_f014_i01_d02,208, 11,-0.86885401,-1.04538009,    -52.29439998,SLPSO2007Behaviour
bbob_f014_i01_d02,208, 11,-0.79553492,-1.08367426,    -52.23405747,PolynomialModelBehaviour
bbob_f014_i01_d02,208, 11,-0.90159928,-1.20133828,    -52.33278706,SLPSO2007Behaviour
bbob_f014_i01_d02,208, 11,-0.89941515,-1.02901571,    -52.31844343,SLPSO2007Behaviour
bbob_f014_i01_d02,208, 11,-0.86630089,-1.18779857,    -52.32960181,SLPSO2007Behaviour
bbob_f014_i01_d02,208, 11,-0.86400996,-1.23710608,    -52.34027693,SLPSO2007Behaviour
bbob_f014_i01_d02,208, 11,-0.89695807,-0.76837642,    -52.20725827,SLPSO2007Behaviour
bbob_f014_i01_d02,208, 11,-0.88123727, 5.00000000,    166.93330713,LinearModelBehaviour
bbob_f014_i01_d02,208, 11,-0.88905314,-1.03717953,    -52.31123619,SLPSO2007Behaviour
bbob_f014_i01_d02,208, 11,-0.91742933,-1.17817030,    -52.32355852,SLPSO2007Behaviour
bbob_f014_i01_d02,208, 12,-0.88978381,-1.17555411,    -52.34900016,SLPSO2007Behaviour
bbob_f014_i01_d02,208, 12,-0.88716801,-1.16898529,    -52.34480740,SLPSO2007Behaviour
bbob_f014_i01_d02,208, 12,-0.94657717,-1.19696798,    -52.29051414,SLPSO2007Behaviour
bbob_f014_i01_d02,208, 12,-0.85543607,-1.23280801,    -52.33087776,SLPSO2007Behaviour
bbob_f014_i01_d02,208, 12,-0.79870631,-1.46533548,    -52.33188998,DEBest1BinBehaviour
bbob_f014_i01_d02,208, 12,-0.90024773,-1.10736056,    -52.34092260,PolynomialModelBehaviour
bbob_f014_i01_d02,208, 12,-0.87758870,-1.26134719,    -52.34028113,SLPSO2007Behaviour
bbob_f014_i01_d02,208, 12,-0.97446625,-1.45115453,    -52.19708082,DEBest1BinBehaviour
bbob_f014_i01_d02,208, 12,-1.10104310,-1.26222015,    -52.12436413,SLPSO2007Behaviour
bbob_f014_i01_d02,208, 12,-0.87221292,-1.25139371,    -52.34807130,DEBest1BinBehaviour
bbob_f014_i01_d02,208, 12,-0.84819978, 5.00000000,    165.99305072,LinearModelBehaviour
bbob_f014_i01_d02,208, 12,-0.80984584,-1.05724459,    -52.24089893,SLPSO2007Behaviour
bbob_f014_i01_d02,208, 12,-0.97186174,-1.15305274,    -52.27756990,SLPSO2007Behaviour
bbob_f014_i01_d02,208, 12,-0.92355412,-1.26577244,    -52.29475663,SLPSO2007Behaviour
bbob_f014_i01_d02,208, 12,-0.88053371,-1.18899761,    -52.34365149,SLPSO2007Behaviour
bbob_f014_i01_d02,208, 12,-0.87982755,-1.10764125,    -52.32160678,DEBest1BinBehaviour
bbob_f014_i01_d02,208, 12,-0.88382677,-1.22239919,    -52.34443837,DEBest1BinBehaviour
bbob_f014_i01_d02,208, 12,-0.88503560,-1.19719518,    -52.34981416,DEBest1BinBehaviour
bbob_f014_i01_d02,208, 12,-2.59237207,-3.99967899,    -41.30326131,SLPSO2007Behaviour
bbob_f014_i01_d02,208, 12,-0.88777509,-1.10006412,    -52.32720707,SLPSO2007Behaviour
bbob_f014_i01_d02,208, 13,-0.94949455,-1.07086530,    -52.31990785,SLPSO2007Behaviour
bbob_f014_i01_d02,208, 13,-0.88139887,-1.23468926,    -52.34357006,DEBest1BinBehaviour
bbob_f014_i01_d02,208, 13,-0.81487459,-1.21337561,    -52.28664749,SLPSO2007Behaviour
bbob_f014_i01_d02,208, 13,-0.84004711,-1.19191174,    -52.30533585,SLPSO2007Behaviour
bbob_f014_i01_d02,208, 13, 0.96907152,-1.35484390,    -50.58996483,SLPSO2007Behaviour
bbob_f014_i01_d02,208, 13,-0.86926289,-1.23563251,    -52.34496221,SLPSO2007Behaviour
bbob_f014_i01_d02,208, 13,-0.86831984,-1.24431568,    -52.34632117,SLPSO2007Behaviour
bbob_f014_i01_d02,208, 13,-0.85882678,-1.16687344,    -52.31691746,DEBest1BinBehaviour
bbob_f014_i01_d02,208, 13,-0.99168938,-1.25588323,    -52.23157364,SLPSO2007Behaviour
bbob_f014_i01_d02,208, 13,-0.84684984,-1.21057979,    -52.31678087,SLPSO2007Behaviour
bbob_f014_i01_d02,208, 13,-0.82088411,-1.38081997,    -52.33587930,DEBest1BinBehaviour
bbob_f014_i01_d02,208, 13,-0.90972425,-1.24839538,    -52.31264715,SLPSO2007Behaviour
bbob_f014_i01_d02,208, 13,-0.99081225,-1.19329868,    -52.24877455,SLPSO2007Behaviour
bbob_f014_i01_d02,208, 13,-0.89555685,-1.24805389,    -52.32641144,SLPSO2007Behaviour
bbob_f014_i01_d02,208, 13,-0.88960715,-1.21812303,    -52.33997637,SLPSO2007Behaviour
bbob_f014_i01_d02,208, 13,-0.84670813,-1.31790961,    -52.34467342,DEBest1BinBehaviour
bbob_f014_i01_d02,208, 13,-0.87891134,-1.21281723,    -52.34831253,LinearModelBehaviour
bbob_f014_i01_d02,208, 13,-0.88625107,-3.18029764,    -45.84742692,SLPSO2007Behaviour
bbob_f014_i01_d02,208, 13, 2.72000000,-1.84571636,    -47.53033076,PolynomialModelBehaviour
bbob_f014_i01_d02,208, 13,-0.88675190,-1.10040738,    -52.32632115,SLPSO2007Behaviour
bbob_f014_i01_d02,208, 14,-0.89061910,-1.19085351,    -52.34612175,DEBest1BinBehaviour
bbob_f014_i01_d02,208, 14,-0.91311619,-1.22140995,    -52.31642535,DEBest1BinBehaviour
bbob_f014_i01_d02,208, 14,-0.87073671,-1.26095530,    -52.34699741,DEBest1BinBehaviour
bbob_f014_i01_d02,208, 14,-0.85543607,-1.21845469,    -52.32712671,DEBest1BinBehaviour
bbob_f014_i01_d02,208, 14,-0.89175021,-1.18092430,    -52.34761051,DEBest1BinBehaviour
bbob_f014_i01_d02,208, 14,-0.85122791,-1.23563251,    -52.32755398,DEBest1BinBehaviour
bbob_f014_i01_d02,208, 14,-0.86986719,-1.26168750,    -52.34764537,PolynomialModelBehaviour
bbob_f014_i01_d02,208, 14,-0.88052033,-1.21263358,    -52.34981427,DEBest1BinBehaviour
bbob_f014_i01_d02,208, 14,-0.88461123,-1.13752394,    -52.33409099,SLPSO2007Behaviour
bbob_f014_i01_d02,208, 14,-0.87221292,-1.18555955,    -52.33472268,DEBest1BinBehaviour
bbob_f014_i01_d02,208, 14,-0.88583791,-1.09948914,    -52.32520246,DEBest1BinBehaviour
bbob_f014_i01_d02,208, 14,-0.87137395,-1.25780175,    -52.34720646,DEBest1BinBehaviour
bbob_f014_i01_d02,208, 14,-0.86154883,-1.19230359,    -52.32619255,DEBest1BinBehaviour
bbob_f014_i01_d02,208, 14,-0.87842438,-1.22291083,    -52.34951917,DEBest1BinBehaviour
bbob_f014_i01_d02,208, 14,-0.88220761,-1.19893725,    -52.34786475,DEBest1BinBehaviour
bbob_f014_i01_d02,208, 14,-0.89679976,-1.20201593,    -52.33724266,DEBest1BinBehaviour
bbob_f014_i01_d02,208, 14,-0.87743670,-1.24878309,    -52.34371131,DEBest1BinBehaviour
bbob_f014_i01_d02,208, 14,-0.88533940,-1.20442731,    -52.34767377,LinearModelBehaviour
bbob_f014_i01_d02,208, 14,-0.88571882,-1.19824212,    -52.34891916,DEBest1BinBehaviour
bbob_f014_i01_d02,208, 14,-0.88192636,-1.20567557,    -52.34935340,DEBest1BinBehaviour
bbob_f014_i01_d02,208, 15,-0.84685708,-1.35620774,    -52.34493159,DEBest1BinBehaviour
bbob_f014_i01_d02,208, 15,-0.86374589,-1.26556527,    -52.34745943,DEBest1BinBehaviour
bbob_f014_i01_d02,208, 15,-0.87713971,-1.23963940,    -52.34638756,DEBest1BinBehaviour
bbob_f014_i01_d02,208, 15,-0.86582974,-1.26927825,    -52.34955847,DEBest1BinBehaviour
bbob_f014_i01_d02,208, 15,-0.88221302,-1.20682221,    -52.34990959,DEBest1BinBehaviour
bbob_f014_i01_d02,208, 15,-0.87832597,-1.22180759,    -52.34990169,DEBest1BinBehaviour
bbob_f014_i01_d02,208, 15,-0.87885368,-1.21948321,    -52.34998194,DEBest1BinBehaviour
bbob_f014_i01_d02,208, 15,-0.88086344, 3.27158479,     30.63977432,PolynomialModelBehaviour
bbob_f014_i01_d02,208, 15,-0.87669860,-1.22596708,    -52.34961352,DEBest1BinBehaviour
bbob_f014_i01_d02,208, 15,-0.86782669,-1.25139371,    -52.34769490,DEBest1BinBehaviour
bbob_f014_i01_d02,208, 15,-0.89574622,-1.14364756,    -52.34631205,DEBest1BinBehaviour
bbob_f014_i01_d02,208, 15,-0.87646670,-1.22466298,    -52.34904889,DEBest1BinBehaviour
bbob_f014_i01_d02,208, 15,-0.88001798,-1.21844115,    -52.34914894,DEBest1BinBehaviour
bbob_f014_i01_d02,208, 15,-0.87848913,-1.22436675,    -52.34907628,LinearModelBehaviour
bbob_f014_i01_d02,208, 15,-0.87572743,-1.19776577,    -52.34130556,SLPSO2007Behaviour
bbob_f014_i01_d02,208, 15,-0.87957537,-1.21599466,    -52.34978261,DEBest1BinBehaviour
bbob_f014_i01_d02,208, 15,-0.87926761,-1.21789642,    -52.34997318,DEBest1BinBehaviour
bbob_f014_i01_d02,208, 15,-0.88011889,-1.21475795,    -52.34996662,DEBest1BinBehaviour
bbob_f014_i01_d02,208, 15,-0.87592531,-1.23058036,    -52.34992715,DEBest1BinBehaviour
bbob_f014_i01_d02,208, 15,-0.87887177,-1.21968607,    -52.34992803,DEBest1BinBehaviour
bbob_f014_i01_d02,208, 16,-0.87857882,-1.17555411,    -52.33824929,DEBest1BinBehaviour
bbob_f014_i01_d02,208, 16,-0.87347168,-1.24027322,    -52.34976248,DEBest1BinBehaviour
bbob_f014_i01_d02,208, 16,-0.87483617,-1.22600187,    -52.34782496,PolynomialModelBehaviour
bbob_f014_i01_d02,208, 16,-0.86582974,-1.25433564,    -52.34653618,DEBest1BinBehaviour
bbob_f014_i01_d02,208, 16,-0.86934086,-1.25575559,    -52.34970363,DEBest1BinBehaviour
bbob_f014_i01_d02,208, 16,-0.88247619,-1.20726251,    -52.34969206,DEBest1BinBehaviour
bbob_f014_i01_d02,208, 16,-0.89038645,-1.16773876,    -52.34755755,DEBest1BinBehaviour
bbob_f014_i01_d02,208, 16,-0.88052033,-1.24652065,    -52.34132611,DEBest1BinBehaviour
bbob_f014_i01_d02,208, 16,-0.87670314,-1.22768188,    -52.34993366,DEBest1BinBehaviour
bbob_f014_i01_d02,208, 16,-0.88639137,-1.18835180,    -52.34911687,DEBest1BinBehaviour
bbob_f014_i01_d02,208, 16,-0.89574622,-1.21426226,    -52.33505957,DEBest1BinBehaviour
bbob_f014_i01_d02,208, 16,-0.87099835,-1.24982738,    -52.34965300,DEBest1BinBehaviour
bbob_f014_i01_d02,208, 16,-0.87345005,-1.23034700,    -52.34762256,DEBest1BinBehaviour
bbob_f014_i01_d02,208, 16,-0.87580309,-1.23182084,    -52.34972100,DEBest1BinBehaviour
bbob_f014_i01_d02,208, 16,-0.87224516,-1.24462192,    -52.34980990,DEBest1BinBehaviour
bbob_f014_i01_d02,208, 16,-0.86852050,-1.22520501,    -52.34152053,SLPSO2007Behaviour
bbob_f014_i01_d02,208, 16,-0.86920759,-1.25636853,    -52.34967209,DEBest1BinBehaviour
bbob_f014_i01_d02,208, 16,-0.88072275,-1.21636989,    -52.34900986,LinearModelBehaviour
bbob_f014_i01_d02,208, 16,-0.88809325,-1.18325237,    -52.34939212,DEBest1BinBehaviour
bbob_f014_i01_d02,208, 16,-0.88021321,-1.21399499,    -52.34987310,DEBest1BinBehaviour
bbob_f014_i01_d02,208, 17,-0.90409923, 3.07689780,     20.68753437,PolynomialModelBehaviour
bbob_f014_i01_d02,208, 17,-0.87080565,-1.24027322,    -52.34766415,DEBest1BinBehaviour
bbob_f014_i01_d02,208, 17,-0.86023015,-1.29282329,    -52.34880446,DEBest1BinBehaviour
bbob_f014_i01_d02,208, 17,-0.87446579,-1.23639942,    -52.34981528,DEBest1BinBehaviour
bbob_f014_i01_d02,208, 17,-0.85489730,-1.31420110,    -52.34833092,DEBest1BinBehaviour
bbob_f014_i01_d02,208, 17,-0.86388740,-1.27822737,    -52.34909396,DEBest1BinBehaviour
bbob_f014_i01_d02,208, 17,-0.88431321,-1.19861689,    -52.34978601,DEBest1BinBehaviour
bbob_f014_i01_d02,208, 17,-0.88188757,-1.20801964,    -52.34991231,DEBest1BinBehaviour
bbob_f014_i01_d02,208, 17,-0.87670314,-1.19968379,    -52.34274862,DEBest1BinBehaviour
bbob_f014_i01_d02,208, 17,-0.88026215,-1.21427553,    -52.34996830,DEBest1BinBehaviour
bbob_f014_i01_d02,208, 17,-0.88093840,-1.21120901,    -52.34984348,DEBest1BinBehaviour
bbob_f014_i01_d02,208, 17,-0.88149236,-1.20951292,    -52.34992319,DEBest1BinBehaviour
bbob_f014_i01_d02,208, 17,-0.87296735,-1.24181202,    -52.34984714,DEBest1BinBehaviour
bbob_f014_i01_d02,208, 17,-0.87680253,-1.22721379,    -52.34995983,DEBest1BinBehaviour
bbob_f014_i01_d02,208, 17,-0.87902523,-1.24462192,    -52.34326545,DEBest1BinBehaviour
bbob_f014_i01_d02,208, 17,-0.87973026,-1.21837985,    -52.34944254,SLPSO2007Behaviour
bbob_f014_i01_d02,208, 17,-0.87762726,-1.22419081,    -52.34995321,DEBest1BinBehaviour
bbob_f014_i01_d02,208, 17,-0.87996625, 5.00000000,    166.89708361,LinearModelBehaviour
bbob_f014_i01_d02,208, 17,-0.87533489,-1.23375888,    -52.34966645,DEBest1BinBehaviour
bbob_f014_i01_d02,208, 17,-0.87766526,-1.22441939,    -52.34985750,DEBest1BinBehaviour
bbob_f014_i01_d02,208, 18,-0.87838718,-1.22159236,    -52.34989883,DEBest1BinBehaviour
bbob_f014_i01_d02,208, 18,-0.87938384,-1.21708625,    -52.34988223,DEBest1BinBehaviour
bbob_f014_i01_d02,208, 18,-0.87500516,-1.29282329,    -52.33454874,DEBest1BinBehaviour
bbob_f014_i01_d02,208, 18,-0.87446579,-1.20235487,    -52.34128734,DEBest1BinBehaviour
bbob_f014_i01_d02,208, 18,-0.88453433,-1.19793905,    -52.34981330,DEBest1BinBehaviour
bbob_f014_i01_d02,208, 18,-0.87766720, 5.00000000,    166.83157168,LinearModelBehaviour
bbob_f014_i01_d02,208, 18,-0.87885368,-1.19652686,    -52.34399889,DEBest1BinBehaviour
bbob_f014_i01_d02,208, 18,-0.87899165,-1.21895428,    -52.34997996,DEBest1BinBehaviour
bbob_f014_i01_d02,208, 18,-0.88290852,-1.22768188,    -52.34394416,DEBest1BinBehaviour
bbob_f014_i01_d02,208, 18,-0.87903351,-1.21879382,    -52.34997913,DEBest1BinBehaviour
bbob_f014_i01_d02,208, 18,-0.87276674,-1.24296204,    -52.34974023,DEBest1BinBehaviour
bbob_f014_i01_d02,208, 18,-0.88149236,-1.22401966,    -52.34626816,DEBest1BinBehaviour
bbob_f014_i01_d02,208, 18,-0.87943988,-1.21718332,    -52.34995713,DEBest1BinBehaviour
bbob_f014_i01_d02,208, 18,-0.87790493,-1.22721379,    -52.34889618,DEBest1BinBehaviour
bbob_f014_i01_d02,208, 18,-0.88236405,-1.20620131,    -52.34989500,DEBest1BinBehaviour
bbob_f014_i01_d02,208, 18,-0.87904671,-1.21864727,    -52.34996161,DEBest1BinBehaviour
bbob_f014_i01_d02,208, 18,-0.87758979,-1.21751776,    -52.34826556,PolynomialModelBehaviour
bbob_f014_i01_d02,208, 18,-0.87947021,-4.08478770,    -31.78039282,SLPSO2007Behaviour
bbob_f014_i01_d02,208, 18,-0.87878736,-1.21973943,    -52.34998236,DEBest1BinBehaviour
bbob_f014_i01_d02,208, 18,-0.87982192,-1.21583489,    -52.34996666,DEBest1BinBehaviour
bbob_f014_i01_d02,208, 19,-0.86389838,-3.96812414,    -34.12835244,SLPSO2007Behaviour
bbob_f014_i01_d02,208, 19,-0.87804742,-1.22268941,    -52.34993983,DEBest1BinBehaviour
bbob_f014_i01_d02,208, 19,-0.87883196,-1.21957766,    -52.34998190,DEBest1BinBehaviour
bbob_f014_i01_d02,208, 19,-0.87396399,-1.23617481,    -52.34964166,LinearModelBehaviour
bbob_f014_i01_d02,208, 19,-0.88221302,-1.22029119,    -52.34654691,DEBest1BinBehaviour
bbob_f014_i01_d02,208, 19,-0.87873827,-1.21991745,    -52.34998281,DEBest1BinBehaviour
bbob_f014_i01_d02,208, 19,-0.87873555,-1.21993027,    -52.34998277,DEBest1BinBehaviour
bbob_f014_i01_d02,208, 19,-0.87912665,-1.21840063,    -52.34997130,DEBest1BinBehaviour
bbob_f014_i01_d02,208, 19,-0.87670314,-1.22669857,    -52.34980901,DEBest1BinBehaviour
bbob_f014_i01_d02,208, 19,-0.87742415,-1.22512886,    -52.34990475,DEBest1BinBehaviour
bbob_f014_i01_d02,208, 19,-0.88093840,-1.21767478,    -52.34846087,DEBest1BinBehaviour
bbob_f014_i01_d02,208, 19,-0.88003617,-1.21501904,    -52.34996082,DEBest1BinBehaviour
bbob_f014_i01_d02,208, 19,-0.87162165,-1.24703741,    -52.34978049,DEBest1BinBehaviour
bbob_f014_i01_d02,208, 19,-0.87988162,-1.21558978,    -52.34996202,DEBest1BinBehaviour
bbob_f014_i01_d02,208, 19,-0.88236405,-1.22007389,    -52.34645791,DEBest1BinBehaviour
bbob_f014_i01_d02,208, 19,-0.87694754,-1.22660957,    -52.34997722,DEBest1BinBehaviour
bbob_f014_i01_d02,208, 19,-0.87729795,-1.22534665,    -52.34996894,DEBest1BinBehaviour
bbob_f014_i01_d02,208, 19,-0.88011889,-1.22162346,    -52.34822007,DEBest1BinBehaviour
bbob_f014_i01_d02,208, 19,-0.87857052,-1.21704582,    -52.34908870,PolynomialModelBehaviour
bbob_f014_i01_d02,208, 19,-0.88084194,-1.21206208,    -52.34995573,DEBest1BinBehaviour
bbob_f014_i01_d02,208, 20,-0.88324029,-1.20289567,    -52.34986975,DEBest1BinBehaviour
bbob_f014_i01_d02,208, 20,-0.87843930,-1.22107122,    -52.34997936,DEBest1BinBehaviour
bbob_f014_i01_d02,208, 20,-0.87477997,-1.23486388,    -52.34991330,DEBest1BinBehaviour
bbob_f014_i01_d02,208, 20,-0.87801257,-1.23639942,    -52.34639176,DEBest1BinBehaviour
bbob_f014_i01_d02,208, 20,-0.88263545,-1.20563048,    -52.34992695,LinearModelBehaviour
bbob_f014_i01_d02,208, 20,-0.87625432,-1.22937359,    -52.34992490,DEBest1BinBehaviour
bbob_f014_i01_d02,208, 20,-0.87512246,-1.23385039,    -52.34984758,DEBest1BinBehaviour
bbob_f014_i01_d02,208, 20,-0.87782951,-1.22329134,    -52.34998745,DEBest1BinBehaviour
bbob_f014_i01_d02,208, 20,-0.87670314,-1.22320207,    -52.34889531,DEBest1BinBehaviour
bbob_f014_i01_d02,208, 20,-0.87903351,-1.22391999,    -52.34866759,DEBest1BinBehaviour
bbob_f014_i01_d02,208, 20,-0.87982051,-1.21575123,    -52.34994929,DEBest1BinBehaviour
bbob_f014_i01_d02,208, 20,-0.87949086,-1.21698993,    -52.34995575,DEBest1BinBehaviour
bbob_f014_i01_d02,208, 20,-0.87825430,-1.22136717,    -52.34991193,DEBest1BinBehaviour
bbob_f014_i01_d02,208, 20,-0.88114670,-1.20815042,    -52.34924902,SLPSO2007Behaviour
bbob_f014_i01_d02,208, 20,-0.87785600,-1.22318832,    -52.34998788,DEBest1BinBehaviour
bbob_f014_i01_d02,208, 20,-0.87739189,-1.22489613,    -52.34999077,DEBest1BinBehaviour
bbob_f014_i01_d02,208, 20,-0.87842009,-1.22148310,    -52.34989561,DEBest1BinBehaviour
bbob_f014_i01_d02,208, 20,-0.88027654,-1.21540184,    -52.34969258,PolynomialModelBehaviour
bbob_f014_i01_d02,208, 20,-0.87742118,-1.22478665,    -52.34999072,DEBest1BinBehaviour
bbob_f014_i01_d02,208, 20,-0.87789677,-1.22307045,    -52.34998261,DEBest1BinBehaviour
bbob_f014_i01_d02,208, 21,-0.87902222,-1.21877750,    -52.34997021,DEBest1BinBehaviour
bbob_f014_i01_d02,208, 21,-0.87908378,-1.21957289,    -52.34975451,SLPSO2007Behaviour
bbob_f014_i01_d02,208, 21,-0.87744513,-1.21957766,    -52.34866427,DEBest1BinBehaviour
bbob_f014_i01_d02,208, 21,-0.87651381,-1.22832071,    -52.34994945,DEBest1BinBehaviour
bbob_f014_i01_d02,208, 21,-0.88263545,-1.21959652,    -52.34632069,DEBest1BinBehaviour
bbob_f014_i01_d02,208, 21,-0.87929947,-1.21766385,    -52.34994905,DEBest1BinBehaviour
bbob_f014_i01_d02,208, 21,-0.87711899,-1.22590177,    -52.34999215,DEBest1BinBehaviour
bbob_f014_i01_d02,208, 21,-0.87283432,-1.24156016,    -52.34995864,DEBest1BinBehaviour
bbob_f014_i01_d02,208, 21,-0.87722580,-1.22549406,    -52.34999192,DEBest1BinBehaviour
bbob_f014_i01_d02,208, 21,-0.87770416,-1.21879382,    -52.34870943,DEBest1BinBehaviour
bbob_f014_i01_d02,208, 21,-0.87714307,-1.22581223,    -52.34999209,DEBest1BinBehaviour
bbob_f014_i01_d02,208, 21,-0.87615460,-1.22941077,    -52.34998776,DEBest1BinBehaviour
bbob_f014_i01_d02,208, 21,-0.87750589,-1.22444143,    -52.34998893,DEBest1BinBehaviour
bbob_f014_i01_d02,208, 21,-0.87735098,-1.22503596,    -52.34999142,DEBest1BinBehaviour
bbob_f014_i01_d02,208, 21,-0.87531929,-1.23257856,    -52.34998976,DEBest1BinBehaviour
bbob_f014_i01_d02,208, 21,-0.87740750,-1.22474702,    -52.34997717,PolynomialModelBehaviour
bbob_f014_i01_d02,208, 21,-0.87759307,-1.21789642,    -52.34836768,DEBest1BinBehaviour
bbob_f014_i01_d02,208, 21,-0.87987430, 5.00000000,    166.89446316,LinearModelBehaviour
bbob_f014_i01_d02,208, 21,-0.87510580,-1.23334290,    -52.34999593,DEBest1BinBehaviour
bbob_f014_i01_d02,208, 21,-0.87789677,-1.22307045,    -52.34998261,DEBest1BinBehaviour
bbob_f014_i01_d02,208, 22,-0.87319870,-1.24042297,    -52.34998683,DEBest1BinBehaviour
bbob_f014_i01_d02,208, 22,-0.87596418,-1.23008757,    -52.34998119,DEBest1BinBehaviour
bbob_f014_i01_d02,208, 22,-0.87504291,-1.23357772,    -52.34999536,DEBest1BinBehaviour
bbob_f014_i01_d02,208, 22,-0.87616135, 0.00000000,    -50.58119690,PolynomialModelBehaviour
bbob_f014_i01_d02,208, 22,-0.87515164,-1.23317589,    -52.34999535,DEBest1BinBehaviour
bbob_f014_i01_d02,208, 22,-0.87601946,-1.23002061,    -52.34998225,DEBest1BinBehaviour
bbob_f014_i01_d02,208, 22,-0.87819610,-1.22191931,    -52.34998663,DEBest1BinBehaviour
bbob_f014_i01_d02,208, 22,-0.87131077,-1.22329134,    -52.34371372,DEBest1BinBehaviour
bbob_f014_i01_d02,208, 22,-0.87526982,-1.23275570,    -52.34999122,DEBest1BinBehaviour
bbob_f014_i01_d02,208, 22,-0.87509547,-1.23338261,    -52.34999556,DEBest1BinBehaviour
bbob_f014_i01_d02,208, 22,-0.88035867,-1.21394119,    -52.34996712,DEBest1BinBehaviour
bbob_f014_i01_d02,208, 22,-0.87171573,-1.24594917,    -52.34997407,DEBest1BinBehaviour
bbob_f014_i01_d02,208, 22,-0.87609190,-1.22970300,    -52.34999424,DEBest1BinBehaviour
bbob_f014_i01_d02,208, 22,-0.87368106,-1.23735161,    -52.34967610,SLPSO2007Behaviour
bbob_f014_i01_d02,208, 22,-0.87531929,-1.21817070,    -52.34624469,DEBest1BinBehaviour
bbob_f014_i01_d02,208, 22,-0.87739189,-1.23366955,    -52.34770429,DEBest1BinBehaviour
bbob_f014_i01_d02,208, 22,-0.87506103,-1.23350624,    -52.34999644,DEBest1BinBehaviour
bbob_f014_i01_d02,208, 22,-0.88011889,-1.23360471,    -52.34508899,DEBest1BinBehaviour
bbob_f014_i01_d02,208, 22,-0.78613436, 5.00000000,    164.23394850,LinearModelBehaviour
bbob_f014_i01_d02,208, 22,-0.87611396,-1.22961550,    -52.34999525,DEBest1BinBehaviour
bbob_f014_i01_d02,208, 23,-0.87503036,-1.23361872,    -52.34999665,DEBest1BinBehaviour
bbob_f014_i01_d02,208, 23,-0.87337670,-1.23723910,    -52.34935292,SLPSO2007Behaviour
bbob_f014_i01_d02,208, 23,-0.87492999,-1.23394138,    -52.34999030,DEBest1BinBehaviour
bbob_f014_i01_d02,208, 23,-0.87464733,-1.23503197,    -52.34999721,DEBest1BinBehaviour
bbob_f014_i01_d02,208, 23,-0.87339398,-1.23965320,    -52.34999949,DEBest1BinBehaviour
bbob_f014_i01_d02,208, 23,-0.87362112,-1.23881394,    -52.34999953,DEBest1BinBehaviour
bbob_f014_i01_d02,208, 23,-0.87060107,-1.24996089,    -52.34999841,DEBest1BinBehaviour
bbob_f014_i01_d02,208, 23,-0.87176353,-1.24566736,    -52.34999842,DEBest1BinBehaviour
bbob_f014_i01_d02,208, 23,-0.87842386,-1.22108608,    -52.34998481,DEBest1BinBehaviour
bbob_f014_i01_d02,208, 23,-0.87307606,-1.22195573,    -52.34506861,LinearModelBehaviour
bbob_f014_i01_d02,208, 23,-0.86795577,-1.25981406,    -52.34997962,DEBest1BinBehaviour
bbob_f014_i01_d02,208, 23,-0.87356484,-1.23901929,    -52.34999967,DEBest1BinBehaviour
bbob_f014_i01_d02,208, 23,-0.87606344,-0.30641451,    -51.56618995,PolynomialModelBehaviour
bbob_f014_i01_d02,208, 23,-0.87631224,-1.22888262,    -52.34999482,DEBest1BinBehaviour
bbob_f014_i01_d02,208, 23,-0.87952708,-1.23257856,    -52.34592841,DEBest1BinBehaviour
bbob_f014_i01_d02,208, 23,-0.87323089,-1.24024965,    -52.34999893,DEBest1BinBehaviour
bbob_f014_i01_d02,208, 23,-0.87465069,-1.23498946,    -52.34999462,DEBest1BinBehaviour
bbob_f014_i01_d02,208, 23,-0.87340331,-1.23961606,    -52.34999974,DEBest1BinBehaviour
bbob_f014_i01_d02,208, 23,-0.87340570,-1.23960824,    -52.34999984,DEBest1BinBehaviour
bbob_f014_i01_d02,208, 23,-0.87249756,-1.24298851,    -52.34999313,DEBest1BinBehaviour
bbob_f014_i01_d02,208, 24,-0.87271618,-1.24210884,    -52.34998799,DEBest1BinBehaviour
bbob_f014_i01_d02,208, 24,-0.87226788,-1.24379954,    -52.34999712,DEBest1BinBehaviour
bbob_f014_i01_d02,208, 24,-0.87197089,-1.24490259,    -52.34999872,DEBest1BinBehaviour
bbob_f014_i01_d02,208, 24,-0.87376477,-1.23828537,    -52.34999902,DEBest1BinBehaviour
bbob_f014_i01_d02,208, 24,-0.86774659,-1.26048086,    -52.34999126,DEBest1BinBehaviour
bbob_f014_i01_d02,208, 24,-0.87208618,-1.24444167,    -52.34998954,SLPSO2007Behaviour
bbob_f014_i01_d02,208, 24, 5.00000000,-1.24736157,    -45.61918517,LinearModelBehaviour
bbob_f014_i01_d02,208, 24,-0.87328014,-1.24007164,    -52.34999988,DEBest1BinBehaviour
bbob_f014_i01_d02,208, 24,-0.87235723,-1.24347470,    -52.34999847,DEBest1BinBehaviour
bbob_f014_i01_d02,208, 24,-0.87203809,-1.24464759,    -52.34999694,DEBest1BinBehaviour
bbob_f014_i01_d02,208, 24,-0.87383121,-1.23804037,    -52.34999891,DEBest1BinBehaviour
bbob_f014_i01_d02,208, 24,-0.87330080,-1.23999697,    -52.34999959,DEBest1BinBehaviour
bbob_f014_i01_d02,208, 24,-0.87302858,-1.22970300,    -52.34704743,DEBest1BinBehaviour
bbob_f014_i01_d02,208, 24,-0.87665131,-1.22764755,    -52.34999095,DEBest1BinBehaviour
bbob_f014_i01_d02,208, 24,-0.86224853,-1.20232298,    -52.32948654,PolynomialModelBehaviour
bbob_f014_i01_d02,208, 24,-0.87323089,-1.24085355,    -52.34984324,DEBest1BinBehaviour
bbob_f014_i01_d02,208, 24,-0.87327827,-1.24007773,    -52.34999972,DEBest1BinBehaviour
bbob_f014_i01_d02,208, 24,-0.87444265,-1.23578204,    -52.34999868,DEBest1BinBehaviour
bbob_f014_i01_d02,208, 24,-0.87328402,-1.24005731,    -52.34999987,DEBest1BinBehaviour
bbob_f014_i01_d02,208, 24,-0.87319290,-1.24039328,    -52.34999979,DEBest1BinBehaviour
bbob_f014_i01_d02,208, 25,-0.87307606,-1.22195573,    -52.34506861,LinearModelBehaviour
bbob_f014_i01_d02,208, 25,-0.87193018,-1.24504882,    -52.34999763,DEBest1BinBehaviour
bbob_f014_i01_d02,208, 25,-0.87642897,-1.22845382,    -52.34999419,DEBest1BinBehaviour
bbob_f014_i01_d02,208, 25,-0.87376477,-1.24019663,    -52.34949959,DEBest1BinBehaviour
bbob_f014_i01_d02,208, 25,-1.73261965, 0.00000000,    -49.40383345,PolynomialModelBehaviour
bbob_f014_i01_d02,208, 25,-0.88096336,-1.21171508,    -52.34995934,DEBest1BinBehaviour
bbob_f014_i01_d02,208, 25,-0.87435493,-1.23610851,    -52.34999817,DEBest1BinBehaviour
bbob_f014_i01_d02,208, 25,-0.87366205,-1.23866343,    -52.34999937,DEBest1BinBehaviour
bbob_f014_i01_d02,208, 25,-0.87409788,-1.23705336,    -52.34999929,DEBest1BinBehaviour
bbob_f014_i01_d02,208, 25,-0.87203809,-1.24464759,    -52.34999694,DEBest1BinBehaviour
bbob_f014_i01_d02,208, 25,-0.87214315,-1.24424953,    -52.34999432,DEBest1BinBehaviour
bbob_f014_i01_d02,208, 25,-0.87331996,-1.23992478,    -52.34999987,DEBest1BinBehaviour
bbob_f014_i01_d02,208, 25,-0.87220305,-1.22970300,    -52.34625059,DEBest1BinBehaviour
bbob_f014_i01_d02,208, 25,-0.87382535,-1.23806150,    -52.34999904,DEBest1BinBehaviour
bbob_f014_i01_d02,208, 25,-0.87459029,-1.23523369,    -52.34999900,DEBest1BinBehaviour
bbob_f014_i01_d02,208, 25,-0.87153581,-1.24651039,    -52.34999892,DEBest1BinBehaviour
bbob_f014_i01_d02,208, 25,-0.87350126,-1.23925549,    -52.34999978,DEBest1BinBehaviour
bbob_f014_i01_d02,208, 25,-0.87260215,-1.23932743,    -52.34915105,SLPSO2007Behaviour
bbob_f014_i01_d02,208, 25,-0.87325151,-1.24017991,    -52.34999938,DEBest1BinBehaviour
bbob_f014_i01_d02,208, 25,-0.87336009,-1.23977721,    -52.34999977,DEBest1BinBehaviour
bbob_f014_i01_d02,208, 26,-0.86950577,-1.25400118,    -52.34999693,DEBest1BinBehaviour
bbob_f014_i01_d02,208, 26,-0.87269644,-1.24221921,    -52.34999778,DEBest1BinBehaviour
bbob_f014_i01_d02,208, 26,-0.87331616,-1.23524145,    -52.34877242,SLPSO2007Behaviour
bbob_f014_i01_d02,208, 26,-0.87333361,-1.23987372,    -52.34999980,DEBest1BinBehaviour
bbob_f014_i01_d02,208, 26,-0.87527027,-1.23273207,    -52.34999656,DEBest1BinBehaviour
bbob_f014_i01_d02,208, 26,-0.87232439,-1.24359865,    -52.34999916,DEBest1BinBehaviour
bbob_f014_i01_d02,208, 26,-0.87322586,-1.24027204,    -52.34999988,DEBest1BinBehaviour
bbob_f014_i01_d02,208, 26,-0.87428878,-1.23635169,    -52.34999846,DEBest1BinBehaviour
bbob_f014_i01_d02,208, 26,-0.87311712,-1.24067243,    -52.34999961,DEBest1BinBehaviour
bbob_f014_i01_d02,208, 26,-0.87329559,-1.24464759,    -52.34878926,DEBest1BinBehaviour
bbob_f014_i01_d02,208, 26,-0.87316004,-1.24051605,    -52.34999980,DEBest1BinBehaviour
bbob_f014_i01_d02,208, 26,-0.87323486,-1.24023926,    -52.34999988,DEBest1BinBehaviour
bbob_f014_i01_d02,208, 26,-0.87620540,-1.24376508,    -52.34621121,PolynomialModelBehaviour
bbob_f014_i01_d02,208, 26,-0.92289729, 5.00000000,    168.12281856,LinearModelBehaviour
bbob_f014_i01_d02,208, 26,-0.87692080,-1.22662802,    -52.34999328,DEBest1BinBehaviour
bbob_f014_i01_d02,208, 26,-0.87301024,-1.24024965,    -52.34978596,DEBest1BinBehaviour
bbob_f014_i01_d02,208, 26,-0.87414826,-1.23686566,    -52.34999944,DEBest1BinBehaviour
bbob_f014_i01_d02,208, 26,-0.87340331,-1.23865416,    -52.34974841,DEBest1BinBehaviour
bbob_f014_i01_d02,208, 26,-0.87318784,-1.24041232,    -52.34999986,DEBest1BinBehaviour
bbob_f014_i01_d02,208, 26,-0.87267541,-1.24229917,    -52.34999838,DEBest1BinBehaviour
bbob_f014_i01_d02,208, 27,-0.87326715,-1.24011981,    -52.34999989,DEBest1BinBehaviour
bbob_f014_i01_d02,208, 27,-0.87322961,-1.24025798,    -52.34999985,DEBest1BinBehaviour
bbob_f014_i01_d02,208, 27,-0.85967228, 5.00000000,    166.31925497,LinearModelBehaviour
bbob_f014_i01_d02,208, 27,-0.87305767,-1.23966706,    -52.34967949,SLPSO2007Behaviour
bbob_f014_i01_d02,208, 27,-0.87326492,-1.24012562,    -52.34999937,DEBest1BinBehaviour
bbob_f014_i01_d02,208, 27,-0.87227051,-1.24359890,    -52.34994721,PolynomialModelBehaviour
bbob_f014_i01_d02,208, 27,-0.87329722,-1.24000902,    -52.34999985,DEBest1BinBehaviour
bbob_f014_i01_d02,208, 27,-0.87352126,-1.23918228,    -52.34999966,DEBest1BinBehaviour
bbob_f014_i01_d02,208, 27,-0.87321008,-1.24033106,    -52.34999984,DEBest1BinBehaviour
bbob_f014_i01_d02,208, 27,-0.87203809,-1.24050637,    -52.34891469,DEBest1BinBehaviour
bbob_f014_i01_d02,208, 27,-0.87319579,-1.24038291,    -52.34999985,DEBest1BinBehaviour
bbob_f014_i01_d02,208, 27,-0.87389614,-1.23779936,    -52.34999918,DEBest1BinBehaviour
bbob_f014_i01_d02,208, 27,-0.87459738,-1.22970300,    -52.34856171,DEBest1BinBehaviour
bbob_f014_i01_d02,208, 27,-0.86936740,-1.25450195,    -52.34999427,DEBest1BinBehaviour
bbob_f014_i01_d02,208, 27,-0.87459029,-1.24289240,    -52.34799825,DEBest1BinBehaviour
bbob_f014_i01_d02,208, 27,-0.87491744,-1.23403045,    -52.34999790,DEBest1BinBehaviour
bbob_f014_i01_d02,208, 27,-0.87338141,-1.23970195,    -52.34999890,DEBest1BinBehaviour
bbob_f014_i01_d02,208, 27,-0.87210422,-1.24440426,    -52.34999718,DEBest1BinBehaviour
bbob_f014_i01_d02,208, 27,-0.87331030,-1.23996041,    -52.34999987,DEBest1BinBehaviour
bbob_f014_i01_d02,208, 27,-0.87274246,-1.24205721,    -52.34999987,DEBest1BinBehaviour
bbob_f014_i01_d02,208, 28,-0.87164545,-1.24609998,    -52.34999751,DEBest1BinBehaviour
bbob_f014_i01_d02,208, 28,-0.87313149,-1.24061891,    -52.34999949,DEBest1BinBehaviour
bbob_f014_i01_d02,208, 28,-0.87335480,-1.23979598,    -52.34999986,DEBest1BinBehaviour
bbob_f014_i01_d02,208, 28,-0.87345019,-1.23944666,    -52.34999921,DEBest1BinBehaviour
bbob_f014_i01_d02,208, 28,-0.87177221,-1.24562723,    -52.34999631,DEBest1BinBehaviour
bbob_f014_i01_d02,208, 28,-0.87362112,-1.24002677,    -52.34968264,DEBest1BinBehaviour
bbob_f014_i01_d02,208, 28,-0.87321067,-1.24032834,    -52.34999990,DEBest1BinBehaviour
bbob_f014_i01_d02,208, 28,-0.87345196,-1.23910370,    -52.34991285,PolynomialModelBehaviour
bbob_f014_i01_d02,208, 28,-0.87339443,-1.23965307,    -52.34999910,DEBest1BinBehaviour
bbob_f014_i01_d02,208, 28,-0.87385280,-1.23795709,    -52.34999963,DEBest1BinBehaviour
bbob_f014_i01_d02,208, 28,-0.87069466,-1.24960728,    -52.34999634,DEBest1BinBehaviour
bbob_f014_i01_d02,208, 28,-0.87322895,-1.24026053,    -52.34999986,DEBest1BinBehaviour
bbob_f014_i01_d02,208, 28,-0.87321537,-1.24031092,    -52.34999990,DEBest1BinBehaviour
bbob_f014_i01_d02,208, 28, 5.00000000, 5.00000000,     38.65644047,LinearModelBehaviour
bbob_f014_i01_d02,208, 28,-0.87207376,-1.23998682,    -52.34881334,SLPSO2007Behaviour
bbob_f014_i01_d02,208, 28,-0.87323089,-1.24310496,    -52.34925487,DEBest1BinBehaviour
bbob_f014_i01_d02,208, 28,-0.87320376,-1.24035582,    -52.34999949,DEBest1BinBehaviour
bbob_f014_i01_d02,208, 28,-0.87292246,-1.24139264,    -52.34999992,DEBest1BinBehaviour
bbob_f014_i01_d02,208, 28,-0.87286864,-1.24158880,    -52.34999925,DEBest1BinBehaviour
bbob_f014_i01_d02,208, 28,-0.87296763,-1.24122663,    -52.34999984,DEBest1BinBehaviour
bbob_f014_i01_d02,208, 29,-0.87280590,-1.24182300,    -52.34999989,DEBest1BinBehaviour
bbob_f014_i01_d02,208, 29,-0.87314418,-1.24025798,    -52.34991743,DEBest1BinBehaviour
bbob_f014_i01_d02,208, 29,-0.87323387,-1.24024640,    -52.34999903,DEBest1BinBehaviour
bbob_f014_i01_d02,208, 29,-0.87333361,-1.24219526,    -52.34939345,DEBest1BinBehaviour
bbob_f014_i01_d02,208, 29,-0.87292074,-1.24139899,    -52.34999992,DEBest1BinBehaviour
bbob_f014_i01_d02,208, 29,-0.87308563,-1.24079009,    -52.34999992,DEBest1BinBehaviour
bbob_f014_i01_d02,208, 29, 5.00000000,-1.24031386,    -45.64340317,LinearModelBehaviour
bbob_f014_i01_d02,208, 29,-0.87305553,-1.24090104,    -52.34999989,DEBest1BinBehaviour
bbob_f014_i01_d02,208, 29,-0.87277852,-1.24033106,    -52.34958357,DEBest1BinBehaviour
bbob_f014_i01_d02,208, 29,-0.87457724,-1.23721590,    -52.34949432,SLPSO2007Behaviour
bbob_f014_i01_d02,208, 29,-0.87299127,-1.24038291,    -52.34980248,DEBest1BinBehaviour
bbob_f014_i01_d02,208, 29,-0.87264938,-1.24240130,    -52.34999995,DEBest1BinBehaviour
bbob_f014_i01_d02,208, 29,-0.87421714,-1.23661206,    -52.34999933,DEBest1BinBehaviour
bbob_f014_i01_d02,208, 29,-0.87226778,-1.24381057,    -52.34999990,DEBest1BinBehaviour
bbob_f014_i01_d02,208, 29,-0.87257482,-1.23523369,    -52.34805482,DEBest1BinBehaviour
bbob_f014_i01_d02,208, 29,-0.87291517,-1.24141982,    -52.34999996,DEBest1BinBehaviour
bbob_f014_i01_d02,208, 29,-0.87272592,-1.24211864,    -52.34999995,DEBest1BinBehaviour
bbob_f014_i01_d02,208, 29,-0.87265216,-1.24239113,    -52.34999996,DEBest1BinBehaviour
bbob_f014_i01_d02,208, 29,-0.84849581,-1.24259414,    -52.32673616,PolynomialModelBehaviour
bbob_f014_i01_d02,208, 29,-0.87265777,-1.24205721,    -52.34991812,DEBest1BinBehaviour
bbob_f014_i01_d02,208, 30,-0.87250241,-1.24294446,    -52.34999997,DEBest1BinBehaviour
bbob_f014_i01_d02,208, 30,-0.87265099,-1.24239604,    -52.34999987,DEBest1BinBehaviour
bbob_f014_i01_d02,208, 30,-0.87247181,-1.24305747,    -52.34999998,DEBest1BinBehaviour
bbob_f014_i01_d02,208, 30,-0.87421789,-1.23661004,    -52.34999923,DEBest1BinBehaviour
bbob_f014_i01_d02,208, 30,-0.87313571,-1.24060620,    -52.34999974,DEBest1BinBehaviour
bbob_f014_i01_d02,208, 30,-0.87240249,-1.24331345,    -52.34999998,DEBest1BinBehaviour
bbob_f014_i01_d02,208, 30,-0.87219704,-1.24407245,    -52.34999994,DEBest1BinBehaviour
bbob_f014_i01_d02,208, 30,-0.87201969,-1.24472750,    -52.34999994,DEBest1BinBehaviour
bbob_f014_i01_d02,208, 30,-0.87168171,-1.24597531,    -52.34999992,DEBest1BinBehaviour
bbob_f014_i01_d02,208, 30, 5.00000000, 5.00000000,     38.65644047,LinearModelBehaviour
bbob_f014_i01_d02,208, 30,-0.87320851,-1.24119427,    -52.34977580,PolynomialModelBehaviour
bbob_f014_i01_d02,208, 30,-0.87227846,-1.24377140,    -52.34999997,SLPSO2007Behaviour
bbob_f014_i01_d02,208, 30,-0.87194951,-1.24498694,    -52.34999988,DEBest1BinBehaviour
bbob_f014_i01_d02,208, 30,-0.87235508,-1.24348906,    -52.34999985,DEBest1BinBehaviour
bbob_f014_i01_d02,208, 30,-0.87219138,-1.24409339,    -52.34999993,DEBest1BinBehaviour
bbob_f014_i01_d02,208, 30,-0.87147976,-1.24672118,    -52.34999991,DEBest1BinBehaviour
bbob_f014_i01_d02,208, 30,-0.87304991,-1.24092185,    -52.34999990,DEBest1BinBehaviour
bbob_f014_i01_d02,208, 30,-0.87352908,-1.23915218,    -52.34999980,DEBest1BinBehaviour
bbob_f014_i01_d02,208, 30,-0.87239800,-1.24332992,    -52.34999998,DEBest1BinBehaviour
bbob_f014_i01_d02,208, 30,-0.87265929,-1.24236510,    -52.34999995,DEBest1BinBehaviour
bbob_f014_i01_d02,208, 31,-0.87212349,-1.24434410,    -52.34999994,DEBest1BinBehaviour
bbob_f014_i01_d02,208, 31,-0.87240608,-1.24330035,    -52.34999994,DEBest1BinBehaviour
bbob_f014_i01_d02,208, 31,-0.87117838,-1.24783560,    -52.34999975,DEBest1BinBehaviour
bbob_f014_i01_d02,208, 31,-0.87360081,-1.23888774,    -52.34999975,DEBest1BinBehaviour
bbob_f014_i01_d02,208, 31,-0.87283387,-1.24171980,    -52.34999991,DEBest1BinBehaviour
bbob_f014_i01_d02,208, 31,-0.87196529,-1.24492839,    -52.34999995,SLPSO2007Behaviour
bbob_f014_i01_d02,208, 31,-0.87225473,-1.24408218,    -52.34994171,PolynomialModelBehaviour
bbob_f014_i01_d02,208, 31,-0.87218046,-1.24413337,    -52.34999998,DEBest1BinBehaviour
bbob_f014_i01_d02,208, 31,-0.87224847,-1.24388244,    -52.34999996,DEBest1BinBehaviour
bbob_f014_i01_d02,208, 31,-0.87385280,-1.24710531,    -52.34760913,DEBest1BinBehaviour
bbob_f014_i01_d02,208, 31, 5.00000000,-1.24028937,    -45.64348650,LinearModelBehaviour
bbob_f014_i01_d02,208, 31,-0.87241521,-1.24326691,    -52.34999987,DEBest1BinBehaviour
bbob_f014_i01_d02,208, 31,-0.87227437,-1.24378678,    -52.34999996,DEBest1BinBehaviour
bbob_f014_i01_d02,208, 31,-0.87306735,-1.24085762,    -52.34999992,DEBest1BinBehaviour
bbob_f014_i01_d02,208, 31,-0.87245657,-1.24311370,    -52.34999999,DEBest1BinBehaviour
bbob_f014_i01_d02,208, 31,-0.87281017,-1.24180748,    -52.34999995,DEBest1BinBehaviour
bbob_f014_i01_d02,208, 31,-0.87274179,-1.24206000,    -52.34999994,DEBest1BinBehaviour
bbob_f014_i01_d02,208, 31,-0.87234154,-1.24353846,    -52.34999998,DEBest1BinBehaviour
bbob_f014_i01_d02,208, 31,-0.87239800,-1.24158189,    -52.34954316,DEBest1BinBehaviour
bbob_f014_i01_d02,208, 31,-0.87246370,-1.24308751,    -52.34999995,DEBest1BinBehaviour
bbob_f014_i01_d02,208, 32,-0.87223327,-1.24393858,    -52.34999995,DEBest1BinBehaviour
bbob_f014_i01_d02,208, 32,-0.87239447, 5.00000000,    166.68137366,LinearModelBehaviour
bbob_f014_i01_d02,208, 32,-0.87242406,-1.24305747,    -52.34995394,DEBest1BinBehaviour
bbob_f014_i01_d02,208, 32,-0.87252116,-1.24287508,    -52.34999999,DEBest1BinBehaviour
bbob_f014_i01_d02,208, 32,-0.87227019,-1.24344919,    -52.34990778,SLPSO2007Behaviour
bbob_f014_i01_d02,208, 32,-0.87247102,-1.24306033,    -52.34999999,DEBest1BinBehaviour
bbob_f014_i01_d02,208, 32,-0.87249189,-1.24298319,    -52.34999999,DEBest1BinBehaviour
bbob_f014_i01_d02,208, 32,-0.87265788,-1.24236999,    -52.34999996,DEBest1BinBehaviour
bbob_f014_i01_d02,208, 32,-0.87224847,-1.24388244,    -52.34999996,DEBest1BinBehaviour
bbob_f014_i01_d02,208, 32,-0.87262879,-1.24247740,    -52.34999995,DEBest1BinBehaviour
bbob_f014_i01_d02,208, 32,-0.87248131,-1.24302233,    -52.34999999,DEBest1BinBehaviour
bbob_f014_i01_d02,208, 32,-0.87258889,-1.24262496,    -52.34999999,DEBest1BinBehaviour
bbob_f014_i01_d02,208, 32,-0.87248157,-1.24302134,    -52.34999999,DEBest1BinBehaviour
bbob_f014_i01_d02,208, 32,-0.87249139,-1.24298501,    -52.34999999,DEBest1BinBehaviour
bbob_f014_i01_d02,208, 32,-0.87260990,-1.24254727,    -52.34999998,DEBest1BinBehaviour
bbob_f014_i01_d02,208, 32,-0.87249394,-1.24297563,    -52.34999999,DEBest1BinBehaviour
bbob_f014_i01_d02,208, 32,-0.87244121,-1.24317037,    -52.34999999,DEBest1BinBehaviour
bbob_f014_i01_d02,208, 32,-0.87251838,-1.24288547,    -52.34999997,DEBest1BinBehaviour
bbob_f014_i01_d02,208, 32,-0.87289447,-1.24325066,    -52.34954151,PolynomialModelBehaviour
bbob_f014_i01_d02,208, 32,-0.87258477,-1.24264029,    -52.34999997,DEBest1BinBehaviour
bbob_f014_i01_d02,208, 33,-0.87211542,-1.24437354,    -52.34999996,DEBest1BinBehaviour
bbob_f014_i01_d02,208, 33,-0.87244686,-1.24314948,    -52.34999999,DEBest1BinBehaviour
bbob_f014_i01_d02,208, 33,-0.87249075,-1.24298740,    -52.34999999,DEBest1BinBehaviour
bbob_f014_i01_d02,208, 33,-0.87245427,-1.24312211,    -52.34999998,DEBest1BinBehaviour
bbob_f014_i01_d02,208, 33,-0.87235170,-1.24350114,    -52.34999997,DEBest1BinBehaviour
bbob_f014_i01_d02,208, 33,-0.87247723,-1.24303717,    -52.34999995,DEBest1BinBehaviour
bbob_f014_i01_d02,208, 33,-0.87249189,-1.24300979,    -52.34999305,DEBest1BinBehaviour
bbob_f014_i01_d02,208, 33,-0.87249346,-1.24297742,    -52.34999999,DEBest1BinBehaviour
bbob_f014_i01_d02,208, 33,-0.87269631,-1.24222825,    -52.34999997,DEBest1BinBehaviour
bbob_f014_i01_d02,208, 33,-0.87243192,-1.24320468,    -52.34999999,DEBest1BinBehaviour
bbob_f014_i01_d02,208, 33,-0.87248744,-1.24299964,    -52.34999999,DEBest1BinBehaviour
bbob_f014_i01_d02,208, 33,-0.87232631,-1.24359496,    -52.34999995,DEBest1BinBehaviour
bbob_f014_i01_d02,208, 33,-0.87249867,-1.24295815,    -52.34999999,DEBest1BinBehaviour
bbob_f014_i01_d02,208, 33,-0.87266401,-1.24234749,    -52.34999998,DEBest1BinBehaviour
bbob_f014_i01_d02,208, 33,-0.87258911,-1.24262415,    -52.34999999,DEBest1BinBehaviour
bbob_f014_i01_d02,208, 33,-0.87257295,-1.24268382,    -52.34999999,DEBest1BinBehaviour
bbob_f014_i01_d02,208, 33, 5.00000000,-1.24324503,    -45.63338968,LinearModelBehaviour
bbob_f014_i01_d02,208, 33,-0.87234154,-1.24311037,    -52.34988811,DEBest1BinBehaviour
bbob_f014_i01_d02,208, 33,-0.87226130,-1.24447768,    -52.34983201,SLPSO2007Behaviour
bbob_f014_i01_d02,208, 33,-0.85893015,-1.24287153,    -52.33688038,PolynomialModelBehaviour
bbob_f014_i01_d02,208, 34,-0.87249034,-1.24298893,    -52.34999999,DEBest1BinBehaviour
bbob_f014_i01_d02,208, 34,-0.93105195, 5.00000000,    168.35616111,LinearModelBehaviour
bbob_f014_i01_d02,208, 34,-0.87253929,-1.24280814,    -52.34999999,DEBest1BinBehaviour
bbob_f014_i01_d02,208, 34,-0.87243788,-1.24318265,    -52.34999999,DEBest1BinBehaviour
bbob_f014_i01_d02,208, 34,-0.87249237,-1.24298145,    -52.34999999,DEBest1BinBehaviour
bbob_f014_i01_d02,208, 34,-0.87264795,-1.24240680,    -52.34999998,DEBest1BinBehaviour
bbob_f014_i01_d02,208, 34,-0.87270269,-1.24220466,    -52.34999997,DEBest1BinBehaviour
bbob_f014_i01_d02,208, 34,-0.87249346,-1.24322159,    -52.34993619,DEBest1BinBehaviour
bbob_f014_i01_d02,208, 34,-0.87244479,-1.24315718,    -52.34999999,DEBest1BinBehaviour
bbob_f014_i01_d02,208, 34,-0.87249060,-1.24298796,    -52.34999999,DEBest1BinBehaviour
bbob_f014_i01_d02,208, 34,-0.87249211,-1.24297925,    -52.34999918,SLPSO2007Behaviour
bbob_f014_i01_d02,208, 34,-0.87529243, 0.00000000,    -50.58201298,PolynomialModelBehaviour
bbob_f014_i01_d02,208, 34,-0.87250961,-1.24291771,    -52.34999999,SLPSO2007Behaviour
bbob_f014_i01_d02,208, 34,-0.87239670,-1.24325058,    -52.34997799,SLPSO2007Behaviour
bbob_f014_i01_d02,208, 34,-0.87250086,-1.24295013,    -52.34999998,DEBest1BinBehaviour
bbob_f014_i01_d02,208, 34,-0.87244329,-1.24294561,    -52.34994326,SLPSO2007Behaviour
bbob_f014_i01_d02,208, 34,-0.87244303,-1.24317037,    -52.34999825,DEBest1BinBehaviour
bbob_f014_i01_d02,208, 34,-0.87244546,-1.24315469,    -52.35000000,DEBest1BinBehaviour
bbob_f014_i01_d02,208, 34,-0.87239800,-1.24332992,    -52.34999998,DEBest1BinBehaviour
bbob_f014_i01_d02,208, 34,-0.87253325,-1.24283048,    -52.34999998,DEBest1BinBehaviour
bbob_f014_i01_d02,208, 35,-0.87241311,-1.24327417,    -52.35000000,DEBest1BinBehaviour
bbob_f014_i01_d02,208, 35,-0.87247874,-1.24303189,    -52.34999997,DEBest1BinBehaviour
bbob_f014_i01_d02,208, 35,-0.87253577,-1.24296295,    -52.34996294,SLPSO2007Behaviour
bbob_f014_i01_d02,208, 35,-0.87243549,-1.24319155,    -52.34999999,DEBest1BinBehaviour
bbob_f014_i01_d02,208, 35,-0.87228728,-1.24373891,    -52.35000000,DEBest1BinBehaviour
bbob_f014_i01_d02,208, 35,-0.87247102,-1.24373413,    -52.34982390,DEBest1BinBehaviour
bbob_f014_i01_d02,208, 35,-0.87262184,-1.24317673,    -52.34982399,SLPSO2007Behaviour
bbob_f014_i01_d02,208, 35,-0.87247394,-1.24302030,    -52.34999237,SLPSO2007Behaviour
bbob_f014_i01_d02,208, 35,-0.87228382,-1.24375169,    -52.34999999,SLPSO2007Behaviour
bbob_f014_i01_d02,208, 35,-0.87249181,-1.24298604,    -52.34999933,PolynomialModelBehaviour
bbob_f014_i01_d02,208, 35,-0.87249288,-1.24299715,    -52.34999540,SLPSO2007Behaviour
bbob_f014_i01_d02,208, 35,-0.87240064,-1.24332023,    -52.35000000,DEBest1BinBehaviour
bbob_f014_i01_d02,208, 35,-0.87243886,-1.24295815,    -52.34994226,DEBest1BinBehaviour
bbob_f014_i01_d02,208, 35,-0.87238652,-1.24337238,    -52.35000000,DEBest1BinBehaviour
bbob_f014_i01_d02,208, 35,-0.87258911,-1.24336569,    -52.34980620,DEBest1BinBehaviour
bbob_f014_i01_d02,208, 35,-0.87231950,-1.24361993,    -52.34999999,DEBest1BinBehaviour
bbob_f014_i01_d02,208, 35, 5.00000000,-1.24310320,    -45.63387614,LinearModelBehaviour
bbob_f014_i01_d02,208, 35,-0.87244546,-1.24324625,    -52.34997607,DEBest1BinBehaviour
bbob_f014_i01_d02,208, 35,-0.87238995,-1.24335973,    -52.35000000,DEBest1BinBehaviour
bbob_f014_i01_d02,208, 35,-0.87253325,-1.24336823,    -52.34985945,DEBest1BinBehaviour
bbob_f014_i01_d02,208, 36,-0.87233922,-1.24327417,    -52.34992868,DEBest1BinBehaviour
bbob_f014_i01_d02,208, 36,-0.87244686,-1.24314948,    -52.34999999,DEBest1BinBehaviour
bbob_f014_i01_d02,208, 36,-0.87221214,-1.24401642,    -52.34999999,DEBest1BinBehaviour
bbob_f014_i01_d02,208, 36,-0.87243857,-1.24317891,    -52.34999968,PolynomialModelBehaviour
bbob_f014_i01_d02,208, 36,-0.87233732,-1.24355411,    -52.35000000,DEBest1BinBehaviour
bbob_f014_i01_d02,208, 36,-0.87249071,-1.24309247,    -52.34997259,LinearModelBehaviour
bbob_f014_i01_d02,208, 36,-0.87229714,-1.24370253,    -52.35000000,DEBest1BinBehaviour
bbob_f014_i01_d02,208, 36,-0.87221381,-1.24297742,    -52.34973007,DEBest1BinBehaviour
bbob_f014_i01_d02,208, 36,-0.87224617,-1.24389073,    -52.34999999,DEBest1BinBehaviour
bbob_f014_i01_d02,208, 36,-0.87245247,-1.24310442,    -52.34999363,SLPSO2007Behaviour
bbob_f014_i01_d02,208, 36,-0.87248744,-1.24320403,    -52.34994659,DEBest1BinBehaviour
bbob_f014_i01_d02,208, 36,-0.87229869,-1.24369681,    -52.35000000,DEBest1BinBehaviour
bbob_f014_i01_d02,208, 36,-0.87241643,-1.24355176,    -52.34992426,SLPSO2007Behaviour
bbob_f014_i01_d02,208, 36,-0.87238001,-1.24345032,    -52.34998591,SLPSO2007Behaviour
bbob_f014_i01_d02,208, 36,-0.87241475,-1.24335675,    -52.34997684,SLPSO2007Behaviour
bbob_f014_i01_d02,208, 36,-0.87224028,-1.24405150,    -52.34996368,SLPSO2007Behaviour
bbob_f014_i01_d02,208, 36,-0.87226855,-1.24380813,    -52.35000000,DEBest1BinBehaviour
bbob_f014_i01_d02,208, 36,-0.87242054,-1.24324674,    -52.35000000,DEBest1BinBehaviour
bbob_f014_i01_d02,208, 36,-0.87232120,-1.24361365,    -52.35000000,DEBest1BinBehaviour
bbob_f014_i01_d02,208, 36,-0.87243377,-1.24319785,    -52.34999999,DEBest1BinBehaviour
bbob_f014_i01_d02,208, 37,-0.87241311,-1.24342365,    -52.34996093,DEBest1BinBehaviour
bbob_f014_i01_d02,208, 37,-0.87219103,-1.24409440,    -52.35000000,DEBest1BinBehaviour
bbob_f014_i01_d02,208, 37,-0.87219690,-1.24407270,    -52.34999999,DEBest1BinBehaviour
bbob_f014_i01_d02,208, 37,-0.87215830,-1.24421533,    -52.35000000,DEBest1BinBehaviour
bbob_f014_i01_d02,208, 37,-0.87221690,-1.24399885,    -52.34999999,DEBest1BinBehaviour
bbob_f014_i01_d02,208, 37,-0.87225672,-1.24306033,    -52.34979316,DEBest1BinBehaviour
bbob_f014_i01_d02,208, 37,-0.87228977,-1.24372972,    -52.35000000,DEBest1BinBehaviour
bbob_f014_i01_d02,208, 37,-0.87235575,-1.24348604,    -52.35000000,DEBest1BinBehaviour
bbob_f014_i01_d02,208, 37,-0.87220753,-1.24315718,    -52.34977099,DEBest1BinBehaviour
bbob_f014_i01_d02,208, 37,-0.87193368,-1.24504492,    -52.34999999,DEBest1BinBehaviour
bbob_f014_i01_d02,208, 37,-0.87243167,-1.24328923,    -52.34997815,SLPSO2007Behaviour
bbob_f014_i01_d02,208, 37,-0.87235467,-1.24369681,    -52.34994596,DEBest1BinBehaviour
bbob_f014_i01_d02,208, 37, 5.00000000,-1.24298284,    -45.63428880,LinearModelBehaviour
bbob_f014_i01_d02,208, 37,-0.87250510,-1.24293437,    -52.34999999,DEBest1BinBehaviour
bbob_f014_i01_d02,208, 37,-0.87230227,-1.24368357,    -52.35000000,DEBest1BinBehaviour
bbob_f014_i01_d02,208, 37,-0.87230136,-1.24351371,    -52.34995473,SLPSO2007Behaviour
bbob_f014_i01_d02,208, 37,-0.87218931,-1.24410081,    -52.35000000,DEBest1BinBehaviour
bbob_f014_i01_d02,208, 37,-0.87212109,-1.24435273,    -52.34999999,DEBest1BinBehaviour
bbob_f014_i01_d02,208, 37,-0.87232581,-1.24363813,    -52.34998915,PolynomialModelBehaviour
bbob_f014_i01_d02,208, 37,-0.87229047,-1.24329726,    -52.34988766,SLPSO2007Behaviour
bbob_f014_i01_d02,208, 38,-0.87244233,-1.24316626,    -52.35000000,DEBest1BinBehaviour
bbob_f014_i01_d02,208, 38,-0.87202730,-1.24469915,    -52.35000000,SLPSO2007Behaviour
bbob_f014_i01_d02,208, 38,-0.87202746,-1.24468243,    -52.34999578,SLPSO2007Behaviour
bbob_f014_i01_d02,208, 38,-0.87218254, 5.00000000,    166.67533808,LinearModelBehaviour
bbob_f014_i01_d02,208, 38,-0.87229105,-1.24372499,    -52.35000000,DEBest1BinBehaviour
bbob_f014_i01_d02,208, 38,-0.87229242,-1.24371995,    -52.35000000,DEBest1BinBehaviour
bbob_f014_i01_d02,208, 38,-0.87209273,-1.24445752,    -52.35000000,DEBest1BinBehaviour
bbob_f014_i01_d02,208, 38,-0.87227113,-1.24379860,    -52.35000000,DEBest1BinBehaviour
bbob_f014_i01_d02,208, 38,-0.87244386,-1.24316061,    -52.34999999,DEBest1BinBehaviour
bbob_f014_i01_d02,208, 38,-0.87290781,-1.24492765,    -52.34909037,PolynomialModelBehaviour
bbob_f014_i01_d02,208, 38,-0.87248744,-1.24344975,    -52.34988237,DEBest1BinBehaviour
bbob_f014_i01_d02,208, 38,-0.87225230,-1.24369681,    -52.34995522,SLPSO2007Behaviour
bbob_f014_i01_d02,208, 38,-0.87213084,-1.24431673,    -52.35000000,DEBest1BinBehaviour
bbob_f014_i01_d02,208, 38,-0.87203014,-1.24468867,    -52.35000000,DEBest1BinBehaviour
bbob_f014_i01_d02,208, 38,-0.87203143,-1.24410946,    -52.34984987,SLPSO2007Behaviour
bbob_f014_i01_d02,208, 38,-0.87231950,-1.24476793,    -52.34969998,DEBest1BinBehaviour
bbob_f014_i01_d02,208, 38,-0.87213859,-1.24428812,    -52.35000000,SLPSO2007Behaviour
bbob_f014_i01_d02,208, 38,-0.87210782,-1.24440175,    -52.35000000,DEBest1BinBehaviour
bbob_f014_i01_d02,208, 38,-0.87232348,-1.24363167,    -52.34999308,SLPSO2007Behaviour
bbob_f014_i01_d02,208, 38,-0.87196905,-1.24319785,    -52.34955143,DEBest1BinBehaviour
bbob_f014_i01_d02,208, 39,-0.87236050,-1.24346851,    -52.35000000,DEBest1BinBehaviour
bbob_f014_i01_d02,208, 39,-0.87212774,-1.24432821,    -52.35000000,DEBest1BinBehaviour
bbob_f014_i01_d02,208, 39,-0.87212563,-1.24401642,    -52.34991648,DEBest1BinBehaviour
bbob_f014_i01_d02,208, 39,-0.87214735,-1.24421533,    -52.34998943,DEBest1BinBehaviour
bbob_f014_i01_d02,208, 39,-0.87233851,-1.24354972,    -52.35000000,SLPSO2007Behaviour
bbob_f014_i01_d02,208, 39,-0.87229242,-1.24446623,    -52.34980497,DEBest1BinBehaviour
bbob_f014_i01_d02,208, 39,-0.87207801,-1.24424508,    -52.34993028,SLPSO2007Behaviour
bbob_f014_i01_d02,208, 39,-0.87222243,-1.24393911,    -52.35000000,SLPSO2007Behaviour
bbob_f014_i01_d02,208, 39,-0.87203452,-1.24467254,    -52.34999999,DEBest1BinBehaviour
bbob_f014_i01_d02,208, 39,-0.87193368,-1.24427001,    -52.34979748,DEBest1BinBehaviour
bbob_f014_i01_d02,208, 39,-0.87221598,-1.24400227,    -52.35000000,DEBest1BinBehaviour
bbob_f014_i01_d02,208, 39,-0.87214436,-1.24426682,    -52.35000000,DEBest1BinBehaviour
bbob_f014_i01_d02,208, 39, 5.00000000, 5.00000000,     38.65644047,LinearModelBehaviour
bbob_f014_i01_d02,208, 39,-0.87174225,-1.24575197,    -52.34999999,DEBest1BinBehaviour
bbob_f014_i01_d02,208, 39,-0.87229870,-1.24369672,    -52.34999999,DEBest1BinBehaviour
bbob_f014_i01_d02,208, 39,-0.87212995,-1.24361993,    -52.34981703,DEBest1BinBehaviour
bbob_f014_i01_d02,208, 39,-0.87204045,-1.24428812,    -52.34990527,DEBest1BinBehaviour
bbob_f014_i01_d02,208, 39,-0.87214779,-1.24440175,    -52.34996143,DEBest1BinBehaviour
bbob_f014_i01_d02,208, 39,-0.87231099,-1.24357480,    -52.34997999,PolynomialModelBehaviour
bbob_f014_i01_d02,208, 39,-0.87215948,-1.24323242,    -52.34974428,SLPSO2007Behaviour
