Function,Run,Iteration,X1,X2,Y,LB1,LB2,UB1,UB2,Method
bbob_f021_i05_d02,440, 49, 4.01595992, 2.79016489,    516.09185691,-5.00000000,-5.00000000, 5.00000000, 5.00000000,-1
bbob_f021_i05_d02,441, 59, 4.01596076, 2.79016363,    516.09185691,-5.00000000, 2.79016489, 5.00000000, 5.00000000,8
bbob_f021_i05_d02,442, 89,-0.81168825, 0.47242631,    516.64525554,-5.00000000, 5.00000000, 0.00000000, 5.00000000,8
bbob_f021_i05_d02,443, 19,-3.47311281,-0.72867344,    515.40000000,-5.00000000,-5.00000000, 5.00000000, 5.00000000,4
