Function,Run,Iteration,X1,X2,Y,LB1,LB2,UB1,UB2,Method
bbob_f020_i01_d02,410, 69,-1.01907116, 2.37628684,   -545.41430165,-5.00000000,-5.00000000, 5.00000000, 5.00000000,-1
bbob_f020_i01_d02,411, 79, 1.51262467, 3.00921083,   -545.90780833,-5.00000000,-5.00000000, 5.00000000, 5.00000000,4
bbob_f020_i01_d02,412, 49, 1.51262477, 3.00921086,   -545.90780833, 1.47947882, 2.94172655, 1.55968046, 3.15437311,2
bbob_f020_i01_d02,413, 59,-1.01907074, 2.37628721,   -545.41430165,-2.28491907, 2.69274883, 0.24677676, 3.32567282,8
bbob_f020_i01_d02,414, 29,-2.10484010, 2.10484418,   -546.50000000,-5.00000000,-5.00000000,-1.01907116, 5.00000000,0
