Function,Run,Iteration,X1,X2,Y,LB1,LB2,UB1,UB2,Method
bbob_f024_i71_d02,614,149, 2.89008019,-2.67577637,    -28.81027823,-5.00000000,-5.00000000, 5.00000000, 5.00000000,-1
bbob_f024_i71_d02,615,109, 2.12630154,-2.65818214,    -28.41207717,-5.00000000,-5.00000000, 5.00000000,-2.67577637,8
bbob_f024_i71_d02,616, 59, 2.89008029,-2.67577653,    -28.81027823, 2.50819086,-2.66697926, 3.27196952,-2.64938502,8
bbob_f024_i71_d02,617,219, 2.55442507,-2.63533771,    -28.71230866,-5.00000000,-5.00000000, 0.00000000,-5.00000000,0
bbob_f024_i71_d02,618, 59, 2.89008021,-2.67577640,    -28.81027823, 2.86023098,-2.77040454, 2.93034751,-2.61112112,2
bbob_f024_i71_d02,619, 69, 2.79761155,-2.73905907,    -28.81786349, 2.78050541,-2.80187093, 2.96570302,-2.64749601,2
bbob_f024_i71_d02,620,109, 2.83183129,-2.44549003,    -28.70192769,-5.00000000,-5.00000000, 5.00000000, 5.00000000,4
bbob_f024_i71_d02,621,109, 3.22573527,-2.71621498,    -28.76817709,-5.00000000,-5.00000000, 5.00000000, 5.00000000,4
bbob_f024_i71_d02,622, 59, 2.89008015,-2.67577633,    -28.81027823, 2.71793795,-2.82076835, 2.92621533,-2.64108388,2
bbob_f024_i71_d02,623, 59, 2.79761153,-2.73905905,    -28.81786349, 2.66924248,-2.85010649, 2.84125752,-2.72017018,2
bbob_f024_i71_d02,624, 69, 2.79761151,-2.73905899,    -28.81786349, 2.74749482,-2.87766083, 2.86937242,-2.61166530,2
bbob_f024_i71_d02,625, 89, 2.58864498,-2.34176893,    -28.56921677, 2.83183129,-2.67577640, 5.00000000, 5.00000000,0
bbob_f024_i71_d02,626, 59, 2.79761152,-2.73905904,    -28.81786349, 2.74401977,-2.80612760, 2.80387942,-2.66774011,2
bbob_f024_i71_d02,627, 79, 1.94136409,-2.78474731,    -28.24154977, 2.12630154,-2.67577640, 2.55442507, 5.00000000,0
bbob_f024_i71_d02,628, 59, 2.70514288,-2.80234179,    -28.81006710, 2.66775970,-2.86374418, 2.83220676,-2.62184144,2
bbob_f024_i71_d02,629, 59, 2.79761152,-2.73905905,    -28.81786349, 2.72788012,-2.75426858, 2.91455390,-2.72914606,2
bbob_f024_i71_d02,630, 59, 2.79761153,-2.73905905,    -28.81786349, 2.81472142,-2.74785619, 2.84894116,-2.73026196,8
bbob_f024_i71_d02,631, 69, 1.94136401,-2.78474716,    -28.24154977, 1.92425422,-2.74785619, 1.95847396,-2.73026196,8
bbob_f024_i71_d02,632,179, 3.56139037,-2.75665356,    -28.58600525,-5.00000000,-5.00000000, 5.00000000, 5.00000000,4
bbob_f024_i71_d02,633, 69, 2.79761152,-2.73905904,    -28.81786349, 2.79343213,-2.75580200, 2.81036953,-2.67355877,2
bbob_f024_i71_d02,634, 89, 2.79761153,-2.73905904,    -28.81786349,-5.00000000,-5.00000000, 5.00000000, 5.00000000,4
bbob_f024_i71_d02,635, 69, 2.54423459,-3.45276232,    -28.59099361, 1.94136409,-5.00000000, 2.79761153,-2.80234179,0
bbob_f024_i71_d02,636, 49, 2.79761152,-2.73905904,    -28.81786349, 2.74559250,-2.74706556, 2.85911827,-2.72887761,2
bbob_f024_i71_d02,637, 59, 2.79761153,-2.73905906,    -28.81786349, 2.78965538,-2.83887955, 2.82863228,-2.62031591,2
bbob_f024_i71_d02,638, 99, 2.72917198,-3.32619705,    -28.72852150, 2.55442507,-2.34176893, 2.83183129, 5.00000000,0
bbob_f024_i71_d02,639, 59, 2.79761152,-2.73905904,    -28.81786349, 2.73178052,-2.87133885, 2.82286905,-2.63875364,2
bbob_f024_i71_d02,640, 69, 2.79761155,-2.73905909,    -28.81786349, 2.79251631,-2.76545068, 2.80270679,-2.74785644,8
bbob_f024_i71_d02,641,129,-1.19224329, 1.02055288,    -30.62502806,-5.00000000,-5.00000000, 5.00000000, 5.00000000,4
bbob_f024_i71_d02,642, 59,-1.19224328, 1.02055286,    -30.62502806,-1.29664355, 0.99731424,-1.18403182, 1.04186952,2
bbob_f024_i71_d02,643, 79,-1.34248083, 1.18674730,    -30.79978193,-1.32013447, 0.92579491,-1.06716987, 1.14559156,2
bbob_f024_i71_d02,644,119, 3.46892160,-2.81993609,    -28.66336700,-5.00000000,-5.00000000, 5.00000000, 5.00000000,4
bbob_f024_i71_d02,645, 59,-1.34248024, 1.18674642,    -30.79978193,-1.38491088, 1.16126156,-1.31399868, 1.30882022,2
bbob_f024_i71_d02,646,129, 2.76339172,-3.03262799,    -28.82672809,-5.00000000,-5.00000000, 5.00000000, 5.00000000,4
bbob_f024_i71_d02,647, 59,-1.34248076, 1.18674725,    -30.79978193,-1.40384472, 1.06871066,-1.30880424, 1.23838356,2
bbob_f024_i71_d02,648, 79,-1.34248077, 1.18674726,    -30.79978193,-1.45435137, 1.18062566,-1.34129809, 1.29652708,2
bbob_f024_i71_d02,649, 69,-1.34248081, 1.18674731,    -30.79978193,-1.40201233, 1.10384323,-1.30305071, 1.22744533,2
bbob_f024_i71_d02,650,149, 3.09904676,-3.07306653,    -28.81899747,-5.00000000,-5.00000000, 5.00000000, 5.00000000,4
bbob_f024_i71_d02,651, 39,-1.25000020, 1.25000020,    -30.85000000,-1.47874886, 1.09383583,-1.20925287, 1.20489062,2
