<?xml version="1.0" encoding="utf-8" standalone="no"?>
<!DOCTYPE svg PUBLIC "-//W3C//DTD SVG 1.1//EN"
  "http://www.w3.org/Graphics/SVG/1.1/DTD/svg11.dtd">
<!-- Created with matplotlib (http://matplotlib.org/) -->
<svg height="412pt" version="1.1" viewBox="0 0 516 412" width="516pt" xmlns="http://www.w3.org/2000/svg" xmlns:xlink="http://www.w3.org/1999/xlink">
 <defs>
  <style type="text/css">
*{stroke-linecap:butt;stroke-linejoin:round;}
  </style>
 </defs>
 <g id="figure_1">
  <g id="patch_1">
   <path d="
M0 412.033
L516.586 412.033
L516.586 0
L0 0
z
" style="fill:#ffffff;"/>
  </g>
  <g id="axes_1">
   <g id="patch_2">
    <path d="
M62.9863 359.056
L509.386 359.056
L509.386 13.4563
L62.9863 13.4563
z
" style="fill:#ffffff;"/>
   </g>
   <g id="line2d_1">
    <defs>
     <path d="
M0 1.5
C0.397805 1.5 0.77937 1.34195 1.06066 1.06066
C1.34195 0.77937 1.5 0.397805 1.5 0
C1.5 -0.397805 1.34195 -0.77937 1.06066 -1.06066
C0.77937 -1.34195 0.397805 -1.5 0 -1.5
C-0.397805 -1.5 -0.77937 -1.34195 -1.06066 -1.06066
C-1.34195 -0.77937 -1.5 -0.397805 -1.5 0
C-1.5 0.397805 -1.34195 0.77937 -1.06066 1.06066
C-0.77937 1.34195 -0.397805 1.5 0 1.5
z
" id="m977c291b42" style="stroke:#00bfbf;stroke-width:0.5;"/>
    </defs>
    <g>
     <use style="fill:#00bfbf;stroke:#00bfbf;stroke-width:0.5;" x="364.687833303" xlink:href="#m977c291b42" y="91.2403847554"/>
     <use style="fill:#00bfbf;stroke:#00bfbf;stroke-width:0.5;" x="364.687833303" xlink:href="#m977c291b42" y="91.2403847554"/>
    </g>
   </g>
   <g id="line2d_2">
    <path d="
M27.0392 359.056
L27.0392 356.121
L42.5208 356.121
L42.5208 355.254
L51.5769 355.254
L51.5769 354.583
L58.0023 354.583
L58.0023 353.13
L62.9863 353.13
L62.9863 350.222
L67.0584 350.222
L67.0584 349.943
L70.5014 349.943
L70.5014 338.593
L73.4838 338.593
L73.4838 337.195
L76.1146 337.195
L76.1146 336.077
L78.4678 336.077
L78.4678 335.629
L80.5966 335.629
L80.5966 335.21
L82.54 335.21
L82.54 334.791
L84.3277 334.791
L84.3277 334.455
L85.9829 334.455
L85.9829 334.008
L87.5239 334.008
L87.5239 333.812
L88.9654 333.812
L88.9654 333.281
L90.3195 333.281
L90.3195 333.113
L91.5961 333.113
L91.5961 332.89
L93.9493 332.806
L93.9493 332.666
L95.0391 332.666
L95.0391 332.47
L96.0781 332.47
L96.0781 332.303
L97.0709 332.303
L97.0709 332.163
L98.0215 332.163
L98.0215 331.967
L99.8093 331.883
L99.8093 331.716
L102.248 331.632
L102.248 331.52
L103.005 331.52
L103.005 331.408
L103.738 331.408
L103.738 331.24
L105.801 331.157
L105.801 331.073
L107.078 331.045
L107.078 330.905
L108.285 330.821
L108.285 330.765
L109.431 330.681
L109.431 330.597
L109.982 330.597
L109.982 330.43
L111.046 330.346
L111.046 330.29
L111.56 330.29
L111.56 330.122
L112.552 330.094
L112.552 330.01
L113.033 330.01
L113.033 329.899
L114.415 329.843
L114.415 329.591
L115.291 329.563
L115.291 329.479
L116.544 329.423
L116.544 329.311
L119.577 329.256
L119.577 329.172
L119.928 329.172
L119.928 329.06
L120.275 329.06
L120.275 328.864
L121.93 328.78
L121.93 328.696
L123.471 328.613
L123.471 328.557
L124.059 328.501
L124.059 328.417
L125.735 328.333
L125.735 328.221
L126.002 328.221
L126.002 327.942
L126.266 327.942
L126.266 327.774
L126.528 327.774
L126.528 327.634
L126.786 327.634
L126.786 327.466
L127.294 327.382
L127.294 327.271
L127.543 327.271
L127.543 327.159
L127.79 327.159
L127.79 327.047
L128.034 327.047
L128.034 326.879
L128.514 326.795
L128.514 326.572
L128.985 326.544
L128.985 326.208
L129.672 326.124
L129.672 325.482
L129.896 325.482
L129.896 325.37
L130.339 325.286
L130.339 325.09
L130.986 325.034
L130.986 324.922
L131.198 324.922
L131.198 324.727
L131.615 324.699
L131.615 324.559
L132.227 324.503
L132.227 324.279
L132.626 324.251
L132.626 324.112
L132.823 324.112
L132.823 323.888
L133.211 323.86
L133.211 323.72
L133.403 323.72
L133.403 322.742
L133.782 322.686
L133.782 322.602
L134.154 322.574
L134.154 322.239
L134.701 322.155
L134.701 322.043
L135.058 321.959
L135.058 321.875
L135.235 321.875
L135.235 321.763
L135.927 321.707
L135.927 321.652
L136.433 321.568
L136.433 319.387
L136.599 319.387
L136.599 317.654
L137.09 317.598
L137.09 317.542
L137.412 317.514
L137.412 316.731
L137.885 316.675
L137.885 315.865
L138.041 315.865
L138.041 314.327
L138.195 314.327
L138.195 313.488
L138.349 313.488
L138.349 312.398
L138.803 312.342
L138.803 311.588
L138.952 311.588
L138.952 310.609
L139.101 310.609
L139.101 310.497
L139.395 310.441
L139.395 310.357
L139.971 310.357
L139.971 310.162
L140.254 310.162
L140.254 309.966
L140.671 309.938
L140.671 309.742
L140.945 309.714
L140.945 309.631
L141.216 309.547
L141.216 309.519
L141.616 309.435
L141.616 309.379
L141.879 309.323
L141.879 309.267
L142.395 309.211
L142.395 309.099
L142.523 309.099
L142.523 308.988
L142.649 308.988
L142.649 308.736
L142.9 308.68
L142.9 308.624
L143.394 308.54
L143.394 308.512
L143.996 308.429
L143.996 308.373
L144.35 308.345
L144.35 308.261
L144.812 308.177
L144.812 308.149
L145.378 308.065
L145.378 307.897
L145.6 307.869
L145.6 307.646
L145.82 307.646
L145.82 307.506
L146.146 307.45
L146.146 307.394
L146.574 307.338
L146.679 307.226
L147.097 307.198
L147.097 307.115
L147.709 307.059
L147.809 306.975
L148.009 306.919
L148.009 306.863
L148.304 306.835
L148.402 306.639
L148.885 306.583
L148.885 306.528
L149.075 306.528
L149.075 306.388
L149.263 306.388
L149.263 306.276
L149.728 306.192
L149.819 306.024
L150.54 305.94
L150.628 305.773
L150.716 305.773
L150.804 305.605
L151.238 305.521
L151.238 305.493
L151.494 305.437
L151.494 305.381
L151.831 305.325
L151.831 305.242
L151.998 305.242
L152.081 304.99
L152.163 304.99
L152.246 304.794
L152.409 304.71
L152.491 304.039
L152.893 303.956
L152.973 303.844
L153.367 303.788
L153.445 303.62
L153.522 303.62
L153.6 303.424
L153.907 303.396
L153.983 303.257
L154.134 303.201
L154.134 303.145
L154.434 303.061
L154.508 302.977
L154.656 302.921
L154.656 302.837
L154.949 302.781
L154.949 302.726
L155.166 302.698
L155.238 302.446
L155.31 302.446
L155.382 302.25
L155.735 302.166
L155.735 302.138
L156.153 302.055
L156.153 301.943
L156.495 301.859
L156.563 301.775
L156.765 301.691
L156.832 301.551
L157.295 301.495
L157.295 301.412
L157.491 301.356
L157.556 301.244
L157.877 301.188
L157.877 301.132
L158.131 301.048
L158.194 300.88
L158.257 300.88
L158.257 300.657
L158.506 300.657
L158.568 300.517
L158.814 300.433
L158.814 300.405
L158.997 300.321
L159.058 300.154
L159.239 300.07
L159.239 299.986
L159.418 299.958
L159.477 299.818
L159.655 299.79
L159.714 299.65
L159.948 299.594
L160.006 299.371
L160.064 299.371
L160.121 299.091
L160.237 299.063
L160.237 298.924
L160.408 298.84
L160.465 298.672
L160.859 298.616
L160.859 298.56
L161.247 298.476
L161.356 298.281
L161.465 298.197
L161.465 298.169
L161.843 298.085
L161.949 297.945
L162.055 297.917
L162.161 297.749
L162.266 297.666
L162.371 297.33
L162.784 297.246
L162.784 297.218
L163.09 297.134
L163.19 296.967
L163.44 296.939
L163.49 296.743
L163.688 296.687
L163.737 296.519
L164.078 296.463
L164.078 296.352
L164.223 296.352
L164.223 296.24
L164.509 296.156
L164.604 296.016
L164.792 295.932
L164.885 295.737
L165.347 295.653
L165.438 295.401
L165.619 295.345
L165.709 295.205
L165.888 295.15
L165.977 295.01
L166.021 295.01
L166.066 294.786
L166.417 294.73
L166.46 294.562
L166.719 294.479
L166.719 294.339
L167.018 294.283
L167.06 294.199
L167.145 294.199
L167.229 294.003
L167.521 293.947
L167.562 293.808
L167.85 293.752
L167.932 293.64
L168.255 293.584
L168.295 293.472
L168.652 293.388
L168.691 293.276
L168.926 293.193
L169.004 293.081
L169.235 292.997
L169.235 292.969
L169.426 292.941
L169.502 292.717
L169.653 292.634
L169.653 292.522
L169.99 292.466
L170.064 292.186
L170.321 292.13
L170.431 292.018
L170.756 291.935
L170.792 291.851
L171.252 291.767
L171.322 291.711
L171.806 291.627
L171.874 291.459
L172.044 291.376
L172.112 291.264
L172.246 291.208
L172.347 290.928
L172.414 290.844
L172.513 290.565
L172.678 290.481
L172.678 290.453
L172.94 290.369
L173.037 290.173
L173.134 290.117
L173.166 289.95
L173.454 289.866
L173.549 289.726
L173.675 289.642
L173.77 289.419
L173.926 289.363
L173.926 289.307
L174.05 289.307
L174.142 289.083
L174.326 288.999
L174.326 288.971
L174.57 288.915
L174.6 288.804
L174.81 288.748
L174.84 288.636
L175.077 288.608
L175.166 288.272
L175.313 288.217
L175.342 288.049
L175.487 288.021
L175.545 287.853
L175.661 287.769
L175.718 287.657
L175.833 287.601
L175.918 287.434
L176.369 287.35
L176.452 287.294
L176.811 287.21
L176.92 286.958
L177.055 286.875
L177.163 286.651
L177.244 286.595
L177.297 286.427
L177.51 286.371
L177.59 286.26
L177.774 286.176
L177.878 286.036
L178.06 285.952
L178.112 285.812
L178.291 285.756
L178.393 285.645
L178.596 285.561
L178.697 285.309
L178.897 285.225
L178.996 284.946
L179.071 284.89
L179.169 284.75
L179.243 284.666
L179.292 284.582
L179.39 284.582
L179.487 284.387
L179.511 284.387
L179.584 284.135
L179.704 284.051
L179.8 283.772
L179.848 283.744
L179.943 283.548
L180.085 283.548
L180.179 283.045
L180.25 282.989
L180.343 282.821
L180.506 282.765
L180.599 282.653
L180.668 282.597
L180.714 282.514
L180.851 282.486
L180.874 282.15
L181.055 282.094
L181.146 281.954
L181.235 281.871
L181.325 281.731
L181.657 281.647
L181.745 281.423
L181.898 281.339
L182.007 281.144
L182.072 281.088
L182.179 280.501
L182.222 280.445
L182.329 280.165
L182.521 280.109
L182.605 279.97
L182.773 279.886
L182.878 279.69
L182.919 279.634
L183.023 279.438
L183.044 279.438
L183.147 279.075
L183.168 279.075
L183.25 278.907
L183.352 278.823
L183.393 278.6
L183.494 278.6
L183.575 278.32
L183.716 278.264
L183.796 278.152
L183.836 278.152
L183.856 277.957
L184.015 277.873
L184.114 277.621
L184.153 277.621
L184.251 277.426
L184.291 277.426
L184.369 277.23
L184.427 277.202
L184.524 276.95
L184.601 276.866
L184.678 276.671
L184.736 276.587
L184.736 276.559
L184.927 276.503
L185.022 275.972
L185.041 275.972
L185.135 275.497
L185.21 275.469
L185.304 275.021
L185.378 274.993
L185.471 274.462
L185.546 274.462
L185.656 274.015
L185.693 273.931
L185.803 273.624
L185.821 273.624
L185.93 272.953
L185.985 272.897
L186.093 272.449
L186.147 272.422
L186.255 272.058
L186.273 272.058
L186.38 271.667
L186.434 271.639
L186.54 271.415
L186.611 271.359
L186.681 271.108
L186.839 271.024
L186.926 270.744
L187.03 270.66
L187.133 270.521
L187.202 270.465
L187.271 270.045
L187.458 269.961
L187.56 269.542
L187.627 269.458
L187.728 268.983
L187.845 268.899
L187.945 268.536
L187.978 268.452
L188.061 268.172
L188.143 268.088
L188.225 267.977
L188.275 267.977
L188.373 267.529
L188.438 267.445
L188.535 267.194
L188.599 267.166
L188.632 266.914
L188.712 266.914
L188.808 266.299
L188.824 266.299
L188.92 265.852
L188.967 265.768
L189.078 265.628
L189.11 265.628
L189.22 264.594
L189.376 264.51
L189.469 264.23
L189.547 264.175
L189.624 263.811
L189.685 263.811
L189.777 263.196
L189.854 263.14
L189.96 262.972
L190.006 262.889
L190.111 261.938
L190.142 261.882
L190.232 261.603
L190.351 261.519
L190.441 261.267
L190.485 261.267
L190.574 260.596
L190.618 260.54
L190.721 259.813
L190.75 259.786
L190.853 259.422
L190.911 259.338
L190.998 259.003
L191.027 259.003
L191.128 258.304
L191.171 258.22
L191.257 257.912
L191.343 257.857
L191.442 257.521
L191.556 257.493
L191.626 257.102
L191.697 257.046
L191.795 256.654
L191.823 256.654
L191.92 256.263
L191.934 256.263
L192.045 255.816
L192.086 255.732
L192.196 255.48
L192.21 255.48
L192.32 255.173
L192.347 255.117
L192.456 254.446
L192.523 254.362
L192.618 253.943
L192.779 253.859
L192.859 253.44
L192.939 253.384
L193.045 252.852
L193.084 252.797
L193.19 251.986
L193.216 251.93
L193.268 251.622
L193.334 251.622
L193.438 250.84
L193.567 250.756
L193.657 250.532
L193.696 250.504
L193.798 250.141
L193.824 250.113
L193.926 249.721
L193.989 249.638
L194.09 249.386
L194.141 249.302
L194.229 248.883
L194.316 248.799
L194.366 248.519
L194.428 248.519
L194.528 248.1
L194.54 248.1
L194.651 247.513
L194.7 247.457
L194.798 247.177
L194.847 247.122
L194.956 246.786
L195.005 246.702
L195.113 246.143
L195.186 246.059
L195.27 245.556
L195.341 245.5
L195.448 244.801
L195.472 244.773
L195.567 244.494
L195.614 244.466
L195.673 244.13
L195.755 244.102
L195.813 243.823
L195.964 243.739
L196.057 243.543
L196.103 243.459
L196.184 243.096
L196.355 243.012
L196.458 242.733
L196.503 242.649
L196.605 242.481
L196.616 242.481
L196.717 241.95
L196.751 241.894
L196.851 241.558
L196.907 241.53
L197.018 241.251
L197.051 241.167
L197.15 240.804
L197.194 240.776
L197.303 240.412
L197.325 240.412
L197.412 240.189
L197.542 240.105
L197.65 239.657
L197.704 239.574
L197.811 239.266
L197.886 239.238
L197.96 238.847
L198.066 238.763
L198.171 238.343
L198.255 238.26
L198.359 237.924
L198.38 237.84
L198.484 237.533
L198.515 237.449
L198.598 237.281
L198.69 237.253
L198.772 236.974
L198.823 236.89
L198.905 236.582
L198.976 236.526
L199.057 236.191
L199.147 236.107
L199.258 235.632
L199.328 235.576
L199.427 235.268
L199.487 235.184
L199.586 234.709
L199.625 234.625
L199.723 234.318
L199.772 234.234
L199.879 234.066
L199.918 234.01
L200.015 233.703
L200.102 233.647
L200.198 233.311
L200.227 233.228
L200.332 232.808
L200.427 232.724
L200.522 232.501
L200.579 232.445
L200.654 232.221
L200.72 232.193
L200.823 231.83
L200.851 231.746
L200.897 231.522
L200.99 231.438
L201.101 231.019
L201.147 230.963
L201.248 230.767
L201.275 230.767
L201.385 230.348
L201.43 230.32
L201.539 229.817
L201.566 229.789
L201.665 229.509
L201.71 229.482
L201.773 229.258
L201.888 229.174
L201.995 228.475
L202.083 228.391
L202.171 228.084
L202.215 228.028
L202.303 227.441
L202.355 227.357
L202.451 226.965
L202.485 226.882
L202.58 226.49
L202.623 226.49
L202.701 226.295
L202.761 226.295
L202.863 225.819
L202.923 225.735
L203.016 225.428
L203.126 225.344
L203.235 224.785
L203.268 224.729
L203.368 224.226
L203.435 224.198
L203.542 223.499
L203.608 223.443
L203.691 223.136
L203.748 223.052
L203.813 222.912
L203.87 222.856
L203.952 222.521
L204.081 222.437
L204.178 222.241
L204.194 222.241
L204.298 221.682
L204.354 221.654
L204.441 221.29
L204.536 221.207
L204.638 220.731
L204.693 220.703
L204.803 220.284
L204.842 220.2
L204.904 220.088
L204.99 220.005
L205.098 219.389
L205.152 219.362
L205.259 218.774
L205.267 218.774
L205.366 218.439
L205.449 218.355
L205.525 217.936
L205.57 217.908
L205.653 217.6
L205.706 217.516
L205.803 216.901
L205.848 216.818
L205.952 216.482
L205.981 216.454
L206.07 216.203
L206.1 216.203
L206.21 215.783
L206.224 215.783
L206.312 215.308
L206.392 215.224
L206.494 214.861
L206.53 214.805
L206.638 214.134
L206.696 214.05
L206.774 213.519
L206.967 213.435
L207.016 213.044
L207.115 213.016
L207.22 212.401
L207.227 212.401
L207.325 212.177
L207.402 212.093
L207.485 211.869
L207.547 211.841
L207.65 211.31
L207.746 211.226
L207.828 211.059
L207.917 210.975
L208.012 210.723
L208.099 210.639
L208.187 210.248
L208.234 210.164
L208.341 209.297
L208.361 209.27
L208.467 208.962
L208.52 208.906
L208.625 208.543
L208.638 208.515
L208.73 207.956
L208.783 207.9
L208.848 207.564
L208.919 207.48
L209.029 207.005
L209.049 206.949
L209.158 206.446
L209.171 206.39
L209.28 205.747
L209.312 205.719
L209.414 205.104
L209.439 205.048
L209.54 204.657
L209.572 204.629
L209.635 204.321
L209.729 204.265
L209.81 203.65
L209.898 203.567
L209.997 203.427
L210.015 203.371
L210.126 202.812
L210.151 202.784
L210.261 202.448
L210.304 202.364
L210.371 202.029
L210.432 201.945
L210.541 201.386
L210.577 201.302
L210.649 200.827
L210.733 200.743
L210.841 200.38
L210.912 200.352
L211.013 199.876
L211.048 199.848
L211.142 199.317
L211.189 199.233
L211.289 198.758
L211.33 198.674
L211.44 198.367
L211.469 198.283
L211.573 197.668
L211.631 197.584
L211.74 197.137
L211.751 197.053
L211.848 196.55
L211.899 196.494
L212.007 196.13
L212.03 196.074
L212.137 195.487
L212.165 195.403
L212.232 195.068
L212.282 195.068
L212.388 194.425
L212.411 194.369
L212.521 193.866
L212.593 193.782
L212.703 193.251
L212.725 193.195
L212.829 192.552
L212.85 192.496
L212.943 192.272
L212.975 192.217
L213.067 191.937
L213.094 191.853
L213.18 191.462
L213.228 191.406
L213.325 191.126
L213.378 191.042
L213.473 190.791
L213.568 190.707
L213.668 190.148
L213.757 190.092
L213.857 189.812
L213.872 189.812
L213.955 189.533
L214.074 189.449
L214.156 188.918
L214.197 188.862
L214.305 188.387
L214.346 188.387
L214.442 187.744
L214.483 187.66
L214.594 187.296
L214.634 187.24
L214.744 187.045
L214.769 187.045
L214.854 186.43
L214.939 186.346
L215.023 186.206
L215.116 186.122
L215.219 185.787
L215.249 185.703
L215.351 185.144
L215.376 185.116
L215.482 184.585
L215.521 184.557
L215.632 183.942
L215.646 183.858
L215.752 183.438
L215.842 183.382
L215.947 182.767
L216.027 182.684
L216.131 182.432
L216.155 182.404
L216.253 181.929
L216.29 181.901
L216.397 181.482
L216.421 181.454
L216.527 181.146
L216.55 181.062
L216.656 180.811
L216.684 180.783
L216.775 180.363
L216.834 180.307
L216.943 180
L217.025 179.916
L217.115 179.357
L217.173 179.273
L217.281 179.049
L217.303 179.021
L217.406 178.602
L217.45 178.574
L217.552 178.155
L217.578 178.071
L217.688 177.847
L217.736 177.791
L217.819 177.428
L217.876 177.372
L217.971 177.092
L218.036 177.037
L218.139 176.841
L218.199 176.757
L218.294 176.533
L218.387 176.449
L218.485 176.366
L218.535 176.282
L218.645 175.862
L218.687 175.779
L218.796 175.555
L218.846 175.527
L218.95 175.136
L219.098 175.052
L219.209 174.409
L219.323 174.353
L219.401 174.157
L219.51 174.073
L219.571 173.961
L219.659 173.878
L219.763 173.682
L219.831 173.598
L219.923 173.43
L220.073 173.346
L220.175 173.067
L220.265 173.039
L220.366 172.815
L220.44 172.731
L220.537 172.592
L220.595 172.536
L220.683 172.34
L220.779 172.284
L220.878 172.116
L220.961 172.06
L221.067 171.893
L221.097 171.865
L221.101 171.725
L221.285 171.641
L221.381 171.473
L221.478 171.417
L221.581 171.278
L221.658 171.194
L221.746 170.271
L221.808 170.271
L221.867 169.992
L222.095 169.908
L222.188 169.684
L222.359 169.6
L222.441 169.461
L222.48 169.461
L222.519 169.209
L222.684 169.153
L222.779 168.538
L222.862 168.454
L222.966 168.147
L223.056 168.063
L223.163 167.923
L223.183 167.839
L223.293 167.532
L223.327 167.448
L223.412 167.224
L223.476 167.196
L223.52 167.056
L223.652 166.972
L223.665 166.749
L223.895 166.665
L223.972 166.581
L224.094 166.497
L224.097 166.357
L224.271 166.274
L224.365 166.162
L224.453 166.078
L224.556 165.854
L224.643 165.77
L224.736 165.379
L224.825 165.295
L224.908 165.183
L225.016 165.099
L225.117 164.932
L225.189 164.848
L225.258 164.708
L225.413 164.624
L225.515 164.429
L225.611 164.373
L225.694 164.261
L225.859 164.233
L225.931 164.037
L226.283 163.953
L226.34 163.534
L226.644 163.45
L226.674 163.338
L226.829 163.282
L226.89 163.17
L227.195 163.087
L227.287 163.031
L227.421 162.947
L227.469 162.779
L227.539 162.779
L227.646 162.472
L227.744 162.388
L227.85 162.136
L227.917 162.052
L227.945 161.996
L228.163 161.912
L228.272 161.661
L228.427 161.577
L228.427 161.521
L228.742 161.437
L228.849 161.27
L228.936 161.186
L229.013 160.962
L229.118 160.878
L229.205 160.766
L229.312 160.71
L229.393 160.571
L229.476 160.571
L229.576 160.235
L229.85 160.151
L229.954 160.067
L230.075 159.984
L230.131 159.9
L230.236 159.816
L230.346 159.508
L230.418 159.48
L230.499 159.285
L230.752 159.201
L230.84 159.117
L230.874 159.089
L230.945 158.949
L231.214 158.865
L231.255 158.698
L231.504 158.614
L231.573 158.418
L231.802 158.334
L231.909 158.138
L232.025 158.055
L232.11 157.887
L232.359 157.803
L232.384 157.747
L232.585 157.663
L232.673 157.384
L232.698 157.384
L232.754 157.244
L232.954 157.16
L233.022 157.104
L233.24 157.02
L233.294 156.797
L233.507 156.713
L233.543 156.629
L233.762 156.545
L233.858 156.293
L233.981 156.21
L234.089 155.986
L234.212 155.93
L234.248 155.846
L234.454 155.762
L234.549 155.678
L234.625 155.65
L234.707 155.371
L235.155 155.287
L235.155 155.259
L235.418 155.175
L235.456 155.063
L235.68 155.007
L235.786 154.868
L236.581 154.784
L236.643 154.672
L236.777 154.588
L236.841 154.448
L237.2 154.364
L237.308 154.281
L237.601 154.197
L237.66 154.141
L237.942 154.085
L238.029 153.917
L238.196 153.861
L238.197 153.749
L238.389 153.694
L238.482 153.386
L238.641 153.302
L238.737 153.078
L238.87 152.995
L238.87 152.967
L239.014 152.883
L239.113 152.743
L239.157 152.659
L239.265 152.463
L239.315 152.435
L239.315 152.296
L239.489 152.24
L239.574 152.1
L239.68 152.016
L239.76 151.876
L239.84 151.793
L239.905 151.737
L240.009 151.653
L240.009 151.597
L240.213 151.513
L240.305 151.401
L240.462 151.317
L240.546 151.261
L240.792 151.177
L240.803 151.094
L241.355 151.01
L241.433 150.898
L241.581 150.814
L241.687 150.479
L241.802 150.395
L241.905 150.059
L241.983 149.975
L242.072 149.584
L242.129 149.556
L242.239 149.276
L242.483 149.193
L242.572 148.857
L242.668 148.801
L242.777 148.578
L242.861 148.494
L242.943 148.298
L243.021 148.214
L243.096 148.018
L243.335 147.935
L243.443 147.795
L243.591 147.711
L243.688 147.599
L243.814 147.515
L243.835 147.431
L244.049 147.403
L244.157 147.124
L244.551 147.04
L244.6 146.9
L244.701 146.816
L244.769 146.705
L245.137 146.621
L245.231 146.481
L245.352 146.397
L245.352 146.341
L245.608 146.257
L245.705 146.173
L245.91 146.09
L246.002 145.866
L246.159 145.782
L246.234 145.586
L246.568 145.502
L246.626 145.419
L247.104 145.363
L247.162 145.251
L247.891 145.167
L247.973 145.055
L248.612 144.999
L248.698 144.636
L248.923 144.552
L249.024 144.244
L249.085 144.161
L249.172 144.021
L249.222 143.965
L249.222 143.909
L249.488 143.853
L249.58 143.35
L249.704 143.266
L249.807 143.182
L250.211 143.098
L250.276 142.986
L250.492 142.903
L250.559 142.651
L250.759 142.567
L250.793 142.511
L250.899 142.427
L251.007 142.343
L251.342 142.26
L251.447 142.148
L251.537 142.064
L251.574 142.008
L251.768 141.98
L251.872 141.728
L251.982 141.645
L252.079 141.533
L252.259 141.449
L252.358 141.337
L252.604 141.281
L252.676 140.778
L252.829 140.694
L252.919 140.415
L253.024 140.331
L253.103 140.051
L253.189 139.995
L253.297 139.744
L253.329 139.66
L253.427 139.324
L253.727 139.24
L253.815 139.073
L254.036 139.017
L254.13 138.933
L254.305 138.849
L254.411 138.653
L254.427 138.569
L254.508 138.318
L254.656 138.262
L254.759 138.122
L254.902 138.038
L254.954 137.926
L255.229 137.843
L255.284 137.703
L255.57 137.619
L255.639 137.479
L255.945 137.395
L255.945 137.367
L256.826 137.283
L256.826 137.256
L258.357 137.2
L258.397 137.088
L258.759 137.004
L258.834 136.836
L259.097 136.78
L259.18 136.137
L259.65 136.053
L259.76 135.942
L259.949 135.858
L260.059 135.662
L260.142 135.606
L260.25 135.382
L260.334 135.327
L260.406 135.159
L260.641 135.075
L260.748 134.851
L261.048 134.767
L261.104 134.712
L262.063 134.628
L262.162 134.404
L262.264 134.348
L262.37 134.124
L262.437 134.041
L262.542 133.817
L263.1 133.761
L263.171 133.621
L263.237 133.593
L263.294 133.426
L263.432 133.342
L263.469 133.286
L264.867 133.202
L264.957 133.146
L265.165 133.062
L265.165 133.006
L265.369 132.95
L265.385 132.811
L268.26 132.727
L268.338 132.559
L268.485 132.475
L268.582 132.251
L268.656 132.168
L268.698 132.028
L268.86 131.944
L268.963 131.776
L269.086 131.692
L269.171 131.497
L269.239 131.413
L269.348 130.882
L269.366 130.798
L269.467 130.211
L269.483 130.155
L269.59 129.037
L269.605 128.953
L269.702 128.449
L269.733 128.366
L269.842 128.058
L269.896 127.974
L269.986 127.779
L270.047 127.695
L270.126 127.555
L270.2 127.471
L270.287 127.275
L270.432 127.191
L270.535 127.024
L270.657 126.94
L270.763 126.744
L270.81 126.66
L270.851 126.604
L270.966 126.521
L271.025 126.465
L271.3 126.381
L271.398 126.129
L271.445 126.045
L271.548 125.766
L271.595 125.682
L271.697 125.514
L271.823 125.43
L271.905 125.123
L272.038 125.039
L272.038 125.011
L272.282 124.927
L272.389 124.731
L272.429 124.647
L272.518 124.508
L272.669 124.424
L272.734 124.34
L273.001 124.256
L273.104 124.2
L273.231 124.116
L273.282 124.032
L273.639 123.949
L273.639 123.921
L273.857 123.837
L273.963 123.641
L274.049 123.557
L274.144 123.334
L274.564 123.25
L274.67 123.082
L274.695 123.026
L274.802 122.802
L274.871 122.719
L274.955 122.607
L275.122 122.523
L275.228 122.439
L275.478 122.355
L275.589 122.299
L276.325 122.215
L276.422 122.159
L276.642 122.076
L276.697 122.02
L276.871 121.936
L276.962 121.712
L277.014 121.628
L277.096 121.572
L277.47 121.488
L277.518 121.433
L277.778 121.349
L277.833 121.237
L277.981 121.153
L277.981 121.125
L279.169 121.041
L279.169 121.013
L279.893 120.957
L279.976 120.846
L280.279 120.762
L280.38 120.51
L280.495 120.426
L280.605 120.147
L280.856 120.063
L280.856 120.035
L281.358 119.951
L281.454 119.783
L281.875 119.699
L281.875 119.671
L282.448 119.588
L282.548 119.336
L282.637 119.252
L282.673 119.112
L284.153 119.028
L284.228 118.777
L284.42 118.693
L284.525 118.581
L284.583 118.497
L284.679 118.246
L284.727 118.162
L284.833 117.854
L285.015 117.77
L285.102 117.547
L285.236 117.463
L285.316 117.379
L285.601 117.295
L285.711 116.652
L285.827 116.568
L285.933 116.456
L286.144 116.373
L286.244 116.261
L286.406 116.177
L286.5 116.121
L286.667 116.037
L286.667 116.009
L286.985 115.925
L287.09 115.618
L287.141 115.534
L287.199 115.478
L287.437 115.394
L287.53 115.226
L288.449 115.143
L288.523 114.975
L288.695 114.891
L288.744 114.807
L289.238 114.723
L289.32 114.667
L290.815 114.583
L290.919 114.388
L290.949 114.304
L291.031 114.164
L291.097 114.08
L291.142 114.024
L292.12 113.94
L292.22 113.633
L292.261 113.549
L292.283 113.381
L293.333 113.297
L293.341 113.214
L293.649 113.13
L293.76 112.906
L293.816 112.822
L293.925 112.738
L293.981 112.654
L294.057 112.459
L294.223 112.375
L294.323 112.067
L294.361 111.984
L294.405 111.844
L294.923 111.76
L294.985 111.676
L295.187 111.592
L295.271 111.285
L295.476 111.201
L295.554 111.089
L296.328 111.005
L296.429 110.949
L296.847 110.865
L296.871 110.809
L297.956 110.726
L298.065 110.474
L298.861 110.39
L298.962 109.943
L299.735 109.859
L299.818 109.775
L299.938 109.691
L300.045 109.495
L300.136 109.412
L300.234 109.328
L300.354 109.244
L300.449 109.104
L300.491 109.02
L300.599 108.769
L300.837 108.685
L300.837 108.657
L301.118 108.573
L301.204 108.377
L301.236 108.293
L301.33 107.986
L302.331 107.902
L302.361 107.846
L303.299 107.762
L303.408 107.371
L303.626 107.287
L303.626 107.259
L304.039 107.175
L304.121 106.868
L304.17 106.784
L304.188 106.7
L304.948 106.616
L305.012 106.42
L305.174 106.336
L305.259 106.141
L305.336 106.057
L305.443 105.805
L305.581 105.721
L305.686 105.638
L305.888 105.554
L305.998 105.386
L306.023 105.302
L306.023 105.274
L307.627 105.19
L307.718 104.883
L307.863 104.799
L307.863 104.771
L308.236 104.687
L308.314 104.38
L308.998 104.296
L308.998 104.268
L309.181 104.184
L309.285 103.932
L309.324 103.848
L309.423 103.625
L309.706 103.541
L309.797 103.373
L309.826 103.289
L309.899 103.094
L311.234 103.01
L311.332 102.842
L311.73 102.758
L311.821 102.562
L312.397 102.479
L312.501 102.311
L312.639 102.227
L312.737 101.975
L312.926 101.892
L313.037 101.808
L313.123 101.724
L313.185 101.612
L314.334 101.528
L314.436 101.249
L314.837 101.165
L314.915 100.969
L315.427 100.885
L315.498 100.745
L315.605 100.661
L315.676 100.382
L315.909 100.298
L316.015 100.102
L316.271 100.018
L316.309 99.9626
L317.105 99.8787
L317.153 99.683
L317.515 99.5992
L317.535 99.4594
L318.184 99.3755
L318.245 99.2357
L318.531 99.1519
L318.62 98.9003
L319.568 98.8164
L319.57 98.7605
L319.92 98.6766
L319.953 98.5368
L320.497 98.453
L320.573 98.2573
L320.746 98.1734
L320.846 98.0336
L321.718 97.9498
L321.748 97.8379
L322.106 97.7541
L322.113 97.6982
L322.551 97.6143
L322.653 97.4466
L322.716 97.3627
L322.716 97.3347
L322.955 97.2509
L322.957 97.195
L323.756 97.1111
L323.782 97.0552
L324.396 96.9713
L324.493 96.8874
L324.608 96.8036
L324.608 96.7756
L324.809 96.6918
L324.827 96.6358
L325.558 96.552
L325.599 96.4402
L325.848 96.3563
L325.861 96.3004
L326.34 96.2165
L326.408 96.0488
L326.574 95.9649
L326.62 95.881
L327.344 95.7972
L327.344 95.7692
L327.528 95.6853
L327.554 95.5456
L327.935 95.4617
L327.988 95.3499
L328.191 95.266
L328.233 95.1821
L329.054 95.0983
L329.106 95.0424
L329.424 94.9585
L329.531 94.7069
L329.702 94.623
L329.768 94.4273
L330.518 94.3435
L330.545 94.2876
L330.948 94.2037
L330.99 94.0919
L331.171 94.008
L331.171 93.98
L331.88 93.8962
L331.9 93.8123
L333.186 93.7284
L333.22 93.6725
L333.672 93.5887
L333.736 93.5048
L334.395 93.4209
L334.43 93.3371
L335.367 93.2532
L335.399 93.1973
L335.782 93.1134
L335.851 92.9736
L336.094 92.8898
L336.116 92.8339
L336.993 92.75
L337.104 92.6661
L337.698 92.5823
L337.737 92.4704
L338.174 92.3866
L338.174 92.3586
L338.961 92.2747
L339.012 92.2188
L340.038 92.135
L340.038 92.107
L340.772 92.0231
L340.874 91.9393
L342.2 91.8554
L342.2 91.8275
L344.26 91.7436
L344.273 91.6877
L346.961 91.6038
L346.961 91.5759
L348.406 91.492
L348.406 91.464
L353.339 91.3802
L353.339 91.3522
L364.688 91.2683
L364.688 91.2404
L422.986 91.2404
L422.986 91.2404" style="fill:none;stroke:#00bfbf;stroke-linecap:square;stroke-width:1.5;"/>
   </g>
   <g id="line2d_3">
    <defs>
     <path d="
M-6 0
L6 0
M0 6
L0 -6" id="m3e4de746de" style="stroke:#00bfbf;stroke-width:1.5;"/>
    </defs>
    <g>
     <use style="fill:none;stroke:#00bfbf;stroke-width:1.5;" x="148.20626529" xlink:href="#m3e4de746de" y="306.862982309"/>
     <use style="fill:none;stroke:#00bfbf;stroke-width:1.5;" x="213.425565958" xlink:href="#m3e4de746de" y="190.958497743"/>
     <use style="fill:none;stroke:#00bfbf;stroke-width:1.5;" x="285.315802526" xlink:href="#m3e4de746de" y="117.378998617"/>
     <use style="fill:none;stroke:#00bfbf;stroke-width:1.5;" x="364.687833303" xlink:href="#m3e4de746de" y="91.2403847554"/>
     <use style="fill:none;stroke:#00bfbf;stroke-width:1.5;" x="364.687833303" xlink:href="#m3e4de746de" y="91.2403847554"/>
     <use style="fill:none;stroke:#00bfbf;stroke-width:1.5;" x="422.98625" xlink:href="#m3e4de746de" y="91.2403847554"/>
    </g>
   </g>
   <g id="line2d_4">
    <path style="fill:none;stroke:#00bfbf;stroke-linecap:square;stroke-width:1.5;"/>
    <g/>
   </g>
   <g id="line2d_5">
    <path clip-path="url(#p383f25ad90)" d="
M268.84 131.944" style="fill:none;stroke:#00bfbf;stroke-linecap:square;"/>
    <defs>
     <path d="
M-12 12
L12 -12
M-12 -12
L12 12" id="m09e435d1d9" style="stroke:#00bfbf;stroke-width:3;"/>
    </defs>
    <g clip-path="url(#p383f25ad90)">
     <use style="fill:#00bfbf;stroke:#00bfbf;stroke-width:3;" x="268.839917908" xlink:href="#m09e435d1d9" y="131.943937464"/>
    </g>
   </g>
   <g id="line2d_6">
    <path d="
M422.986 91.2404
L462.586 352.213" style="fill:none;stroke:#00bfbf;stroke-linecap:square;stroke-width:1.5;"/>
    <g>
     <use style="fill:none;stroke:#00bfbf;stroke-width:1.5;" x="422.98625" xlink:href="#m3e4de746de" y="91.2403847554"/>
     <use style="fill:none;stroke:#00bfbf;stroke-width:1.5;" x="462.58625" xlink:href="#m3e4de746de" y="352.212778465"/>
    </g>
   </g>
   <g id="line2d_7">
    <path d="
M422.986 359.056
L422.986 16.8781" style="fill:none;stroke:#000000;stroke-linecap:square;"/>
   </g>
   <g id="patch_3">
    <path d="
M62.9863 13.4563
L509.386 13.4563" style="fill:none;stroke:#000000;stroke-linecap:square;stroke-linejoin:miter;"/>
   </g>
   <g id="patch_4">
    <path d="
M509.386 359.056
L509.386 13.4563" style="fill:none;stroke:#000000;stroke-linecap:square;stroke-linejoin:miter;"/>
   </g>
   <g id="patch_5">
    <path d="
M62.9863 359.056
L509.386 359.056" style="fill:none;stroke:#000000;stroke-linecap:square;stroke-linejoin:miter;"/>
   </g>
   <g id="patch_6">
    <path d="
M62.9863 359.056
L62.9863 13.4563" style="fill:none;stroke:#000000;stroke-linecap:square;stroke-linejoin:miter;"/>
   </g>
   <g id="matplotlib.axis_1">
    <g id="xtick_1">
     <g id="line2d_8">
      <path clip-path="url(#p383f25ad90)" d="
M62.9863 359.056
L62.9863 13.4563" style="fill:none;stroke:#000000;stroke-dasharray:1.000000,3.000000;stroke-dashoffset:0.0;stroke-width:0.5;"/>
     </g>
     <g id="line2d_9">
      <defs>
       <path d="
M0 0
L0 -4" id="m93b0483c22" style="stroke:#000000;stroke-width:0.5;"/>
      </defs>
      <g>
       <use style="stroke:#000000;stroke-width:0.5;" x="62.98625" xlink:href="#m93b0483c22" y="359.056342822"/>
      </g>
     </g>
     <g id="line2d_10">
      <defs>
       <path d="
M0 0
L0 4" id="m741efc42ff" style="stroke:#000000;stroke-width:0.5;"/>
      </defs>
      <g>
       <use style="stroke:#000000;stroke-width:0.5;" x="62.98625" xlink:href="#m741efc42ff" y="13.4563428218"/>
      </g>
     </g>
     <g id="text_1">
      <!-- 0 -->
      <defs>
       <path d="
M31.7812 66.4062
Q24.1719 66.4062 20.3281 58.9062
Q16.5 51.4219 16.5 36.375
Q16.5 21.3906 20.3281 13.8906
Q24.1719 6.39062 31.7812 6.39062
Q39.4531 6.39062 43.2812 13.8906
Q47.125 21.3906 47.125 36.375
Q47.125 51.4219 43.2812 58.9062
Q39.4531 66.4062 31.7812 66.4062
M31.7812 74.2188
Q44.0469 74.2188 50.5156 64.5156
Q56.9844 54.8281 56.9844 36.375
Q56.9844 17.9688 50.5156 8.26562
Q44.0469 -1.42188 31.7812 -1.42188
Q19.5312 -1.42188 13.0625 8.26562
Q6.59375 17.9688 6.59375 36.375
Q6.59375 54.8281 13.0625 64.5156
Q19.5312 74.2188 31.7812 74.2188" id="BitstreamVeraSans-Roman-30"/>
      </defs>
      <g transform="translate(57.9471875 378.253217822)scale(0.2 -0.2)">
       <use xlink:href="#BitstreamVeraSans-Roman-30"/>
      </g>
     </g>
    </g>
    <g id="xtick_2">
     <g id="line2d_11">
      <path clip-path="url(#p383f25ad90)" d="
M114.415 359.056
L114.415 13.4563" style="fill:none;stroke:#000000;stroke-dasharray:1.000000,3.000000;stroke-dashoffset:0.0;stroke-width:0.5;"/>
     </g>
     <g id="line2d_12">
      <g>
       <use style="stroke:#000000;stroke-width:0.5;" x="114.414821429" xlink:href="#m93b0483c22" y="359.056342822"/>
      </g>
     </g>
     <g id="line2d_13">
      <g>
       <use style="stroke:#000000;stroke-width:0.5;" x="114.414821429" xlink:href="#m741efc42ff" y="13.4563428218"/>
      </g>
     </g>
     <g id="text_2">
      <!-- 1 -->
      <defs>
       <path d="
M12.4062 8.29688
L28.5156 8.29688
L28.5156 63.9219
L10.9844 60.4062
L10.9844 69.3906
L28.4219 72.9062
L38.2812 72.9062
L38.2812 8.29688
L54.3906 8.29688
L54.3906 0
L12.4062 0
z
" id="BitstreamVeraSans-Roman-31"/>
      </defs>
      <g transform="translate(110.074196429 378.253217822)scale(0.2 -0.2)">
       <use xlink:href="#BitstreamVeraSans-Roman-31"/>
      </g>
     </g>
    </g>
    <g id="xtick_3">
     <g id="line2d_14">
      <path clip-path="url(#p383f25ad90)" d="
M165.843 359.056
L165.843 13.4563" style="fill:none;stroke:#000000;stroke-dasharray:1.000000,3.000000;stroke-dashoffset:0.0;stroke-width:0.5;"/>
     </g>
     <g id="line2d_15">
      <g>
       <use style="stroke:#000000;stroke-width:0.5;" x="165.843392857" xlink:href="#m93b0483c22" y="359.056342822"/>
      </g>
     </g>
     <g id="line2d_16">
      <g>
       <use style="stroke:#000000;stroke-width:0.5;" x="165.843392857" xlink:href="#m741efc42ff" y="13.4563428218"/>
      </g>
     </g>
     <g id="text_3">
      <!-- 2 -->
      <defs>
       <path d="
M19.1875 8.29688
L53.6094 8.29688
L53.6094 0
L7.32812 0
L7.32812 8.29688
Q12.9375 14.1094 22.625 23.8906
Q32.3281 33.6875 34.8125 36.5312
Q39.5469 41.8438 41.4219 45.5312
Q43.3125 49.2188 43.3125 52.7812
Q43.3125 58.5938 39.2344 62.25
Q35.1562 65.9219 28.6094 65.9219
Q23.9688 65.9219 18.8125 64.3125
Q13.6719 62.7031 7.8125 59.4219
L7.8125 69.3906
Q13.7656 71.7812 18.9375 73
Q24.125 74.2188 28.4219 74.2188
Q39.75 74.2188 46.4844 68.5469
Q53.2188 62.8906 53.2188 53.4219
Q53.2188 48.9219 51.5312 44.8906
Q49.8594 40.875 45.4062 35.4062
Q44.1875 33.9844 37.6406 27.2188
Q31.1094 20.4531 19.1875 8.29688" id="BitstreamVeraSans-Roman-32"/>
      </defs>
      <g transform="translate(161.215267857 378.253217822)scale(0.2 -0.2)">
       <use xlink:href="#BitstreamVeraSans-Roman-32"/>
      </g>
     </g>
    </g>
    <g id="xtick_4">
     <g id="line2d_17">
      <path clip-path="url(#p383f25ad90)" d="
M217.272 359.056
L217.272 13.4563" style="fill:none;stroke:#000000;stroke-dasharray:1.000000,3.000000;stroke-dashoffset:0.0;stroke-width:0.5;"/>
     </g>
     <g id="line2d_18">
      <g>
       <use style="stroke:#000000;stroke-width:0.5;" x="217.271964286" xlink:href="#m93b0483c22" y="359.056342822"/>
      </g>
     </g>
     <g id="line2d_19">
      <g>
       <use style="stroke:#000000;stroke-width:0.5;" x="217.271964286" xlink:href="#m741efc42ff" y="13.4563428218"/>
      </g>
     </g>
     <g id="text_4">
      <!-- 3 -->
      <defs>
       <path d="
M40.5781 39.3125
Q47.6562 37.7969 51.625 33
Q55.6094 28.2188 55.6094 21.1875
Q55.6094 10.4062 48.1875 4.48438
Q40.7656 -1.42188 27.0938 -1.42188
Q22.5156 -1.42188 17.6562 -0.515625
Q12.7969 0.390625 7.625 2.20312
L7.625 11.7188
Q11.7188 9.32812 16.5938 8.10938
Q21.4844 6.89062 26.8125 6.89062
Q36.0781 6.89062 40.9375 10.5469
Q45.7969 14.2031 45.7969 21.1875
Q45.7969 27.6406 41.2812 31.2656
Q36.7656 34.9062 28.7188 34.9062
L20.2188 34.9062
L20.2188 43.0156
L29.1094 43.0156
Q36.375 43.0156 40.2344 45.9219
Q44.0938 48.8281 44.0938 54.2969
Q44.0938 59.9062 40.1094 62.9062
Q36.1406 65.9219 28.7188 65.9219
Q24.6562 65.9219 20.0156 65.0312
Q15.375 64.1562 9.8125 62.3125
L9.8125 71.0938
Q15.4375 72.6562 20.3438 73.4375
Q25.25 74.2188 29.5938 74.2188
Q40.8281 74.2188 47.3594 69.1094
Q53.9062 64.0156 53.9062 55.3281
Q53.9062 49.2656 50.4375 45.0938
Q46.9688 40.9219 40.5781 39.3125" id="BitstreamVeraSans-Roman-33"/>
      </defs>
      <g transform="translate(212.473526786 378.253217822)scale(0.2 -0.2)">
       <use xlink:href="#BitstreamVeraSans-Roman-33"/>
      </g>
     </g>
    </g>
    <g id="xtick_5">
     <g id="line2d_20">
      <path clip-path="url(#p383f25ad90)" d="
M268.701 359.056
L268.701 13.4563" style="fill:none;stroke:#000000;stroke-dasharray:1.000000,3.000000;stroke-dashoffset:0.0;stroke-width:0.5;"/>
     </g>
     <g id="line2d_21">
      <g>
       <use style="stroke:#000000;stroke-width:0.5;" x="268.700535714" xlink:href="#m93b0483c22" y="359.056342822"/>
      </g>
     </g>
     <g id="line2d_22">
      <g>
       <use style="stroke:#000000;stroke-width:0.5;" x="268.700535714" xlink:href="#m741efc42ff" y="13.4563428218"/>
      </g>
     </g>
     <g id="text_5">
      <!-- 4 -->
      <defs>
       <path d="
M37.7969 64.3125
L12.8906 25.3906
L37.7969 25.3906
z

M35.2031 72.9062
L47.6094 72.9062
L47.6094 25.3906
L58.0156 25.3906
L58.0156 17.1875
L47.6094 17.1875
L47.6094 0
L37.7969 0
L37.7969 17.1875
L4.89062 17.1875
L4.89062 26.7031
z
" id="BitstreamVeraSans-Roman-34"/>
      </defs>
      <g transform="translate(263.388035714 378.253217822)scale(0.2 -0.2)">
       <use xlink:href="#BitstreamVeraSans-Roman-34"/>
      </g>
     </g>
    </g>
    <g id="xtick_6">
     <g id="line2d_23">
      <path clip-path="url(#p383f25ad90)" d="
M320.129 359.056
L320.129 13.4563" style="fill:none;stroke:#000000;stroke-dasharray:1.000000,3.000000;stroke-dashoffset:0.0;stroke-width:0.5;"/>
     </g>
     <g id="line2d_24">
      <g>
       <use style="stroke:#000000;stroke-width:0.5;" x="320.129107143" xlink:href="#m93b0483c22" y="359.056342822"/>
      </g>
     </g>
     <g id="line2d_25">
      <g>
       <use style="stroke:#000000;stroke-width:0.5;" x="320.129107143" xlink:href="#m741efc42ff" y="13.4563428218"/>
      </g>
     </g>
     <g id="text_6">
      <!-- 5 -->
      <defs>
       <path d="
M10.7969 72.9062
L49.5156 72.9062
L49.5156 64.5938
L19.8281 64.5938
L19.8281 46.7344
Q21.9688 47.4688 24.1094 47.8281
Q26.2656 48.1875 28.4219 48.1875
Q40.625 48.1875 47.75 41.5
Q54.8906 34.8125 54.8906 23.3906
Q54.8906 11.625 47.5625 5.09375
Q40.2344 -1.42188 26.9062 -1.42188
Q22.3125 -1.42188 17.5469 -0.640625
Q12.7969 0.140625 7.71875 1.70312
L7.71875 11.625
Q12.1094 9.23438 16.7969 8.0625
Q21.4844 6.89062 26.7031 6.89062
Q35.1562 6.89062 40.0781 11.3281
Q45.0156 15.7656 45.0156 23.3906
Q45.0156 31 40.0781 35.4375
Q35.1562 39.8906 26.7031 39.8906
Q22.75 39.8906 18.8125 39.0156
Q14.8906 38.1406 10.7969 36.2812
z
" id="BitstreamVeraSans-Roman-35"/>
      </defs>
      <g transform="translate(315.411919643 378.253217822)scale(0.2 -0.2)">
       <use xlink:href="#BitstreamVeraSans-Roman-35"/>
      </g>
     </g>
    </g>
    <g id="xtick_7">
     <g id="line2d_26">
      <path clip-path="url(#p383f25ad90)" d="
M371.558 359.056
L371.558 13.4563" style="fill:none;stroke:#000000;stroke-dasharray:1.000000,3.000000;stroke-dashoffset:0.0;stroke-width:0.5;"/>
     </g>
     <g id="line2d_27">
      <g>
       <use style="stroke:#000000;stroke-width:0.5;" x="371.557678571" xlink:href="#m93b0483c22" y="359.056342822"/>
      </g>
     </g>
     <g id="line2d_28">
      <g>
       <use style="stroke:#000000;stroke-width:0.5;" x="371.557678571" xlink:href="#m741efc42ff" y="13.4563428218"/>
      </g>
     </g>
     <g id="text_7">
      <!-- 6 -->
      <defs>
       <path d="
M33.0156 40.375
Q26.375 40.375 22.4844 35.8281
Q18.6094 31.2969 18.6094 23.3906
Q18.6094 15.5312 22.4844 10.9531
Q26.375 6.39062 33.0156 6.39062
Q39.6562 6.39062 43.5312 10.9531
Q47.4062 15.5312 47.4062 23.3906
Q47.4062 31.2969 43.5312 35.8281
Q39.6562 40.375 33.0156 40.375
M52.5938 71.2969
L52.5938 62.3125
Q48.875 64.0625 45.0938 64.9844
Q41.3125 65.9219 37.5938 65.9219
Q27.8281 65.9219 22.6719 59.3281
Q17.5312 52.7344 16.7969 39.4062
Q19.6719 43.6562 24.0156 45.9219
Q28.375 48.1875 33.5938 48.1875
Q44.5781 48.1875 50.9531 41.5156
Q57.3281 34.8594 57.3281 23.3906
Q57.3281 12.1562 50.6875 5.35938
Q44.0469 -1.42188 33.0156 -1.42188
Q20.3594 -1.42188 13.6719 8.26562
Q6.98438 17.9688 6.98438 36.375
Q6.98438 53.6562 15.1875 63.9375
Q23.3906 74.2188 37.2031 74.2188
Q40.9219 74.2188 44.7031 73.4844
Q48.4844 72.75 52.5938 71.2969" id="BitstreamVeraSans-Roman-36"/>
      </defs>
      <g transform="translate(366.523303571 378.253217822)scale(0.2 -0.2)">
       <use xlink:href="#BitstreamVeraSans-Roman-36"/>
      </g>
     </g>
    </g>
    <g id="xtick_8">
     <g id="line2d_29">
      <path clip-path="url(#p383f25ad90)" d="
M422.986 359.056
L422.986 13.4563" style="fill:none;stroke:#000000;stroke-dasharray:1.000000,3.000000;stroke-dashoffset:0.0;stroke-width:0.5;"/>
     </g>
     <g id="line2d_30">
      <g>
       <use style="stroke:#000000;stroke-width:0.5;" x="422.98625" xlink:href="#m93b0483c22" y="359.056342822"/>
      </g>
     </g>
     <g id="line2d_31">
      <g>
       <use style="stroke:#000000;stroke-width:0.5;" x="422.98625" xlink:href="#m741efc42ff" y="13.4563428218"/>
      </g>
     </g>
     <g id="text_8">
      <!-- 7 -->
      <defs>
       <path d="
M8.20312 72.9062
L55.0781 72.9062
L55.0781 68.7031
L28.6094 0
L18.3125 0
L43.2188 64.5938
L8.20312 64.5938
z
" id="BitstreamVeraSans-Roman-37"/>
      </defs>
      <g transform="translate(418.29875 378.253217822)scale(0.2 -0.2)">
       <use xlink:href="#BitstreamVeraSans-Roman-37"/>
      </g>
     </g>
    </g>
    <g id="xtick_9">
     <g id="line2d_32">
      <path clip-path="url(#p383f25ad90)" d="
M474.415 359.056
L474.415 13.4563" style="fill:none;stroke:#000000;stroke-dasharray:1.000000,3.000000;stroke-dashoffset:0.0;stroke-width:0.5;"/>
     </g>
     <g id="line2d_33">
      <g>
       <use style="stroke:#000000;stroke-width:0.5;" x="474.414821429" xlink:href="#m93b0483c22" y="359.056342822"/>
      </g>
     </g>
     <g id="line2d_34">
      <g>
       <use style="stroke:#000000;stroke-width:0.5;" x="474.414821429" xlink:href="#m741efc42ff" y="13.4563428218"/>
      </g>
     </g>
     <g id="text_9">
      <!-- 8 -->
      <defs>
       <path d="
M31.7812 34.625
Q24.75 34.625 20.7188 30.8594
Q16.7031 27.0938 16.7031 20.5156
Q16.7031 13.9219 20.7188 10.1562
Q24.75 6.39062 31.7812 6.39062
Q38.8125 6.39062 42.8594 10.1719
Q46.9219 13.9688 46.9219 20.5156
Q46.9219 27.0938 42.8906 30.8594
Q38.875 34.625 31.7812 34.625
M21.9219 38.8125
Q15.5781 40.375 12.0312 44.7188
Q8.5 49.0781 8.5 55.3281
Q8.5 64.0625 14.7188 69.1406
Q20.9531 74.2188 31.7812 74.2188
Q42.6719 74.2188 48.875 69.1406
Q55.0781 64.0625 55.0781 55.3281
Q55.0781 49.0781 51.5312 44.7188
Q48 40.375 41.7031 38.8125
Q48.8281 37.1562 52.7969 32.3125
Q56.7812 27.4844 56.7812 20.5156
Q56.7812 9.90625 50.3125 4.23438
Q43.8438 -1.42188 31.7812 -1.42188
Q19.7344 -1.42188 13.25 4.23438
Q6.78125 9.90625 6.78125 20.5156
Q6.78125 27.4844 10.7812 32.3125
Q14.7969 37.1562 21.9219 38.8125
M18.3125 54.3906
Q18.3125 48.7344 21.8438 45.5625
Q25.3906 42.3906 31.7812 42.3906
Q38.1406 42.3906 41.7188 45.5625
Q45.3125 48.7344 45.3125 54.3906
Q45.3125 60.0625 41.7188 63.2344
Q38.1406 66.4062 31.7812 66.4062
Q25.3906 66.4062 21.8438 63.2344
Q18.3125 60.0625 18.3125 54.3906" id="BitstreamVeraSans-Roman-38"/>
      </defs>
      <g transform="translate(469.414821429 378.253217822)scale(0.2 -0.2)">
       <use xlink:href="#BitstreamVeraSans-Roman-38"/>
      </g>
     </g>
    </g>
    <g id="xtick_10">
     <g id="line2d_35">
      <defs>
       <path d="
M0 0
L0 -2" id="m177f7580d0" style="stroke:#000000;stroke-width:0.5;"/>
      </defs>
      <g>
       <use style="stroke:#000000;stroke-width:0.5;" x="78.4677926341" xlink:href="#m177f7580d0" y="359.056342822"/>
      </g>
     </g>
     <g id="line2d_36">
      <defs>
       <path d="
M0 0
L0 2" id="m5284c7e2a0" style="stroke:#000000;stroke-width:0.5;"/>
      </defs>
      <g>
       <use style="stroke:#000000;stroke-width:0.5;" x="78.4677926341" xlink:href="#m5284c7e2a0" y="13.4563428218"/>
      </g>
     </g>
    </g>
    <g id="xtick_11">
     <g id="line2d_37">
      <g>
       <use style="stroke:#000000;stroke-width:0.5;" x="93.9493352683" xlink:href="#m177f7580d0" y="359.056342822"/>
      </g>
     </g>
     <g id="line2d_38">
      <g>
       <use style="stroke:#000000;stroke-width:0.5;" x="93.9493352683" xlink:href="#m5284c7e2a0" y="13.4563428218"/>
      </g>
     </g>
    </g>
    <g id="xtick_12">
     <g id="line2d_39">
      <g>
       <use style="stroke:#000000;stroke-width:0.5;" x="103.005457163" xlink:href="#m177f7580d0" y="359.056342822"/>
      </g>
     </g>
     <g id="line2d_40">
      <g>
       <use style="stroke:#000000;stroke-width:0.5;" x="103.005457163" xlink:href="#m5284c7e2a0" y="13.4563428218"/>
      </g>
     </g>
    </g>
    <g id="xtick_13">
     <g id="line2d_41">
      <g>
       <use style="stroke:#000000;stroke-width:0.5;" x="109.430877902" xlink:href="#m177f7580d0" y="359.056342822"/>
      </g>
     </g>
     <g id="line2d_42">
      <g>
       <use style="stroke:#000000;stroke-width:0.5;" x="109.430877902" xlink:href="#m5284c7e2a0" y="13.4563428218"/>
      </g>
     </g>
    </g>
    <g id="xtick_14">
     <g id="line2d_43">
      <g>
       <use style="stroke:#000000;stroke-width:0.5;" x="129.896364063" xlink:href="#m177f7580d0" y="359.056342822"/>
      </g>
     </g>
     <g id="line2d_44">
      <g>
       <use style="stroke:#000000;stroke-width:0.5;" x="129.896364063" xlink:href="#m5284c7e2a0" y="13.4563428218"/>
      </g>
     </g>
    </g>
    <g id="xtick_15">
     <g id="line2d_45">
      <g>
       <use style="stroke:#000000;stroke-width:0.5;" x="145.377906697" xlink:href="#m177f7580d0" y="359.056342822"/>
      </g>
     </g>
     <g id="line2d_46">
      <g>
       <use style="stroke:#000000;stroke-width:0.5;" x="145.377906697" xlink:href="#m5284c7e2a0" y="13.4563428218"/>
      </g>
     </g>
    </g>
    <g id="xtick_16">
     <g id="line2d_47">
      <g>
       <use style="stroke:#000000;stroke-width:0.5;" x="154.434028591" xlink:href="#m177f7580d0" y="359.056342822"/>
      </g>
     </g>
     <g id="line2d_48">
      <g>
       <use style="stroke:#000000;stroke-width:0.5;" x="154.434028591" xlink:href="#m5284c7e2a0" y="13.4563428218"/>
      </g>
     </g>
    </g>
    <g id="xtick_17">
     <g id="line2d_49">
      <g>
       <use style="stroke:#000000;stroke-width:0.5;" x="160.859449331" xlink:href="#m177f7580d0" y="359.056342822"/>
      </g>
     </g>
     <g id="line2d_50">
      <g>
       <use style="stroke:#000000;stroke-width:0.5;" x="160.859449331" xlink:href="#m5284c7e2a0" y="13.4563428218"/>
      </g>
     </g>
    </g>
    <g id="xtick_18">
     <g id="line2d_51">
      <g>
       <use style="stroke:#000000;stroke-width:0.5;" x="181.324935491" xlink:href="#m177f7580d0" y="359.056342822"/>
      </g>
     </g>
     <g id="line2d_52">
      <g>
       <use style="stroke:#000000;stroke-width:0.5;" x="181.324935491" xlink:href="#m5284c7e2a0" y="13.4563428218"/>
      </g>
     </g>
    </g>
    <g id="xtick_19">
     <g id="line2d_53">
      <g>
       <use style="stroke:#000000;stroke-width:0.5;" x="196.806478125" xlink:href="#m177f7580d0" y="359.056342822"/>
      </g>
     </g>
     <g id="line2d_54">
      <g>
       <use style="stroke:#000000;stroke-width:0.5;" x="196.806478125" xlink:href="#m5284c7e2a0" y="13.4563428218"/>
      </g>
     </g>
    </g>
    <g id="xtick_20">
     <g id="line2d_55">
      <g>
       <use style="stroke:#000000;stroke-width:0.5;" x="205.86260002" xlink:href="#m177f7580d0" y="359.056342822"/>
      </g>
     </g>
     <g id="line2d_56">
      <g>
       <use style="stroke:#000000;stroke-width:0.5;" x="205.86260002" xlink:href="#m5284c7e2a0" y="13.4563428218"/>
      </g>
     </g>
    </g>
    <g id="xtick_21">
     <g id="line2d_57">
      <g>
       <use style="stroke:#000000;stroke-width:0.5;" x="212.28802076" xlink:href="#m177f7580d0" y="359.056342822"/>
      </g>
     </g>
     <g id="line2d_58">
      <g>
       <use style="stroke:#000000;stroke-width:0.5;" x="212.28802076" xlink:href="#m5284c7e2a0" y="13.4563428218"/>
      </g>
     </g>
    </g>
    <g id="xtick_22">
     <g id="line2d_59">
      <g>
       <use style="stroke:#000000;stroke-width:0.5;" x="232.75350692" xlink:href="#m177f7580d0" y="359.056342822"/>
      </g>
     </g>
     <g id="line2d_60">
      <g>
       <use style="stroke:#000000;stroke-width:0.5;" x="232.75350692" xlink:href="#m5284c7e2a0" y="13.4563428218"/>
      </g>
     </g>
    </g>
    <g id="xtick_23">
     <g id="line2d_61">
      <g>
       <use style="stroke:#000000;stroke-width:0.5;" x="248.235049554" xlink:href="#m177f7580d0" y="359.056342822"/>
      </g>
     </g>
     <g id="line2d_62">
      <g>
       <use style="stroke:#000000;stroke-width:0.5;" x="248.235049554" xlink:href="#m5284c7e2a0" y="13.4563428218"/>
      </g>
     </g>
    </g>
    <g id="xtick_24">
     <g id="line2d_63">
      <g>
       <use style="stroke:#000000;stroke-width:0.5;" x="257.291171448" xlink:href="#m177f7580d0" y="359.056342822"/>
      </g>
     </g>
     <g id="line2d_64">
      <g>
       <use style="stroke:#000000;stroke-width:0.5;" x="257.291171448" xlink:href="#m5284c7e2a0" y="13.4563428218"/>
      </g>
     </g>
    </g>
    <g id="xtick_25">
     <g id="line2d_65">
      <g>
       <use style="stroke:#000000;stroke-width:0.5;" x="263.716592188" xlink:href="#m177f7580d0" y="359.056342822"/>
      </g>
     </g>
     <g id="line2d_66">
      <g>
       <use style="stroke:#000000;stroke-width:0.5;" x="263.716592188" xlink:href="#m5284c7e2a0" y="13.4563428218"/>
      </g>
     </g>
    </g>
    <g id="xtick_26">
     <g id="line2d_67">
      <g>
       <use style="stroke:#000000;stroke-width:0.5;" x="284.182078348" xlink:href="#m177f7580d0" y="359.056342822"/>
      </g>
     </g>
     <g id="line2d_68">
      <g>
       <use style="stroke:#000000;stroke-width:0.5;" x="284.182078348" xlink:href="#m5284c7e2a0" y="13.4563428218"/>
      </g>
     </g>
    </g>
    <g id="xtick_27">
     <g id="line2d_69">
      <g>
       <use style="stroke:#000000;stroke-width:0.5;" x="299.663620983" xlink:href="#m177f7580d0" y="359.056342822"/>
      </g>
     </g>
     <g id="line2d_70">
      <g>
       <use style="stroke:#000000;stroke-width:0.5;" x="299.663620983" xlink:href="#m5284c7e2a0" y="13.4563428218"/>
      </g>
     </g>
    </g>
    <g id="xtick_28">
     <g id="line2d_71">
      <g>
       <use style="stroke:#000000;stroke-width:0.5;" x="308.719742877" xlink:href="#m177f7580d0" y="359.056342822"/>
      </g>
     </g>
     <g id="line2d_72">
      <g>
       <use style="stroke:#000000;stroke-width:0.5;" x="308.719742877" xlink:href="#m5284c7e2a0" y="13.4563428218"/>
      </g>
     </g>
    </g>
    <g id="xtick_29">
     <g id="line2d_73">
      <g>
       <use style="stroke:#000000;stroke-width:0.5;" x="315.145163617" xlink:href="#m177f7580d0" y="359.056342822"/>
      </g>
     </g>
     <g id="line2d_74">
      <g>
       <use style="stroke:#000000;stroke-width:0.5;" x="315.145163617" xlink:href="#m5284c7e2a0" y="13.4563428218"/>
      </g>
     </g>
    </g>
    <g id="xtick_30">
     <g id="line2d_75">
      <g>
       <use style="stroke:#000000;stroke-width:0.5;" x="335.610649777" xlink:href="#m177f7580d0" y="359.056342822"/>
      </g>
     </g>
     <g id="line2d_76">
      <g>
       <use style="stroke:#000000;stroke-width:0.5;" x="335.610649777" xlink:href="#m5284c7e2a0" y="13.4563428218"/>
      </g>
     </g>
    </g>
    <g id="xtick_31">
     <g id="line2d_77">
      <g>
       <use style="stroke:#000000;stroke-width:0.5;" x="351.092192411" xlink:href="#m177f7580d0" y="359.056342822"/>
      </g>
     </g>
     <g id="line2d_78">
      <g>
       <use style="stroke:#000000;stroke-width:0.5;" x="351.092192411" xlink:href="#m5284c7e2a0" y="13.4563428218"/>
      </g>
     </g>
    </g>
    <g id="xtick_32">
     <g id="line2d_79">
      <g>
       <use style="stroke:#000000;stroke-width:0.5;" x="360.148314305" xlink:href="#m177f7580d0" y="359.056342822"/>
      </g>
     </g>
     <g id="line2d_80">
      <g>
       <use style="stroke:#000000;stroke-width:0.5;" x="360.148314305" xlink:href="#m5284c7e2a0" y="13.4563428218"/>
      </g>
     </g>
    </g>
    <g id="xtick_33">
     <g id="line2d_81">
      <g>
       <use style="stroke:#000000;stroke-width:0.5;" x="366.573735045" xlink:href="#m177f7580d0" y="359.056342822"/>
      </g>
     </g>
     <g id="line2d_82">
      <g>
       <use style="stroke:#000000;stroke-width:0.5;" x="366.573735045" xlink:href="#m5284c7e2a0" y="13.4563428218"/>
      </g>
     </g>
    </g>
    <g id="xtick_34">
     <g id="line2d_83">
      <g>
       <use style="stroke:#000000;stroke-width:0.5;" x="387.039221206" xlink:href="#m177f7580d0" y="359.056342822"/>
      </g>
     </g>
     <g id="line2d_84">
      <g>
       <use style="stroke:#000000;stroke-width:0.5;" x="387.039221206" xlink:href="#m5284c7e2a0" y="13.4563428218"/>
      </g>
     </g>
    </g>
    <g id="xtick_35">
     <g id="line2d_85">
      <g>
       <use style="stroke:#000000;stroke-width:0.5;" x="402.52076384" xlink:href="#m177f7580d0" y="359.056342822"/>
      </g>
     </g>
     <g id="line2d_86">
      <g>
       <use style="stroke:#000000;stroke-width:0.5;" x="402.52076384" xlink:href="#m5284c7e2a0" y="13.4563428218"/>
      </g>
     </g>
    </g>
    <g id="xtick_36">
     <g id="line2d_87">
      <g>
       <use style="stroke:#000000;stroke-width:0.5;" x="411.576885734" xlink:href="#m177f7580d0" y="359.056342822"/>
      </g>
     </g>
     <g id="line2d_88">
      <g>
       <use style="stroke:#000000;stroke-width:0.5;" x="411.576885734" xlink:href="#m5284c7e2a0" y="13.4563428218"/>
      </g>
     </g>
    </g>
    <g id="xtick_37">
     <g id="line2d_89">
      <g>
       <use style="stroke:#000000;stroke-width:0.5;" x="418.002306474" xlink:href="#m177f7580d0" y="359.056342822"/>
      </g>
     </g>
     <g id="line2d_90">
      <g>
       <use style="stroke:#000000;stroke-width:0.5;" x="418.002306474" xlink:href="#m5284c7e2a0" y="13.4563428218"/>
      </g>
     </g>
    </g>
    <g id="xtick_38">
     <g id="line2d_91">
      <g>
       <use style="stroke:#000000;stroke-width:0.5;" x="438.467792634" xlink:href="#m177f7580d0" y="359.056342822"/>
      </g>
     </g>
     <g id="line2d_92">
      <g>
       <use style="stroke:#000000;stroke-width:0.5;" x="438.467792634" xlink:href="#m5284c7e2a0" y="13.4563428218"/>
      </g>
     </g>
    </g>
    <g id="xtick_39">
     <g id="line2d_93">
      <g>
       <use style="stroke:#000000;stroke-width:0.5;" x="453.949335268" xlink:href="#m177f7580d0" y="359.056342822"/>
      </g>
     </g>
     <g id="line2d_94">
      <g>
       <use style="stroke:#000000;stroke-width:0.5;" x="453.949335268" xlink:href="#m5284c7e2a0" y="13.4563428218"/>
      </g>
     </g>
    </g>
    <g id="xtick_40">
     <g id="line2d_95">
      <g>
       <use style="stroke:#000000;stroke-width:0.5;" x="463.005457163" xlink:href="#m177f7580d0" y="359.056342822"/>
      </g>
     </g>
     <g id="line2d_96">
      <g>
       <use style="stroke:#000000;stroke-width:0.5;" x="463.005457163" xlink:href="#m5284c7e2a0" y="13.4563428218"/>
      </g>
     </g>
    </g>
    <g id="xtick_41">
     <g id="line2d_97">
      <g>
       <use style="stroke:#000000;stroke-width:0.5;" x="469.430877902" xlink:href="#m177f7580d0" y="359.056342822"/>
      </g>
     </g>
     <g id="line2d_98">
      <g>
       <use style="stroke:#000000;stroke-width:0.5;" x="469.430877902" xlink:href="#m5284c7e2a0" y="13.4563428218"/>
      </g>
     </g>
    </g>
    <g id="xtick_42">
     <g id="line2d_99">
      <g>
       <use style="stroke:#000000;stroke-width:0.5;" x="489.896364063" xlink:href="#m177f7580d0" y="359.056342822"/>
      </g>
     </g>
     <g id="line2d_100">
      <g>
       <use style="stroke:#000000;stroke-width:0.5;" x="489.896364063" xlink:href="#m5284c7e2a0" y="13.4563428218"/>
      </g>
     </g>
    </g>
    <g id="xtick_43">
     <g id="line2d_101">
      <g>
       <use style="stroke:#000000;stroke-width:0.5;" x="505.377906697" xlink:href="#m177f7580d0" y="359.056342822"/>
      </g>
     </g>
     <g id="line2d_102">
      <g>
       <use style="stroke:#000000;stroke-width:0.5;" x="505.377906697" xlink:href="#m5284c7e2a0" y="13.4563428218"/>
      </g>
     </g>
    </g>
    <g id="text_10">
     <!-- log10 of (# f-evals / dimension) -->
     <defs>
      <path id="BitstreamVeraSans-Roman-20"/>
      <path d="
M51.125 44
L36.9219 44
L32.8125 27.6875
L47.125 27.6875
z

M43.7969 71.7812
L38.7188 51.5156
L52.9844 51.5156
L58.1094 71.7812
L65.9219 71.7812
L60.8906 51.5156
L76.125 51.5156
L76.125 44
L58.9844 44
L54.9844 27.6875
L70.5156 27.6875
L70.5156 20.2188
L53.0781 20.2188
L48 0
L40.1875 0
L45.2188 20.2188
L30.9062 20.2188
L25.875 0
L18.0156 0
L23.0938 20.2188
L7.71875 20.2188
L7.71875 27.6875
L24.9062 27.6875
L29 44
L13.2812 44
L13.2812 51.5156
L30.9062 51.5156
L35.8906 71.7812
z
" id="BitstreamVeraSans-Roman-23"/>
      <path d="
M52 44.1875
Q55.375 50.25 60.0625 53.125
Q64.75 56 71.0938 56
Q79.6406 56 84.2812 50.0156
Q88.9219 44.0469 88.9219 33.0156
L88.9219 0
L79.8906 0
L79.8906 32.7188
Q79.8906 40.5781 77.0938 44.375
Q74.3125 48.1875 68.6094 48.1875
Q61.625 48.1875 57.5625 43.5469
Q53.5156 38.9219 53.5156 30.9062
L53.5156 0
L44.4844 0
L44.4844 32.7188
Q44.4844 40.625 41.7031 44.4062
Q38.9219 48.1875 33.1094 48.1875
Q26.2188 48.1875 22.1562 43.5312
Q18.1094 38.875 18.1094 30.9062
L18.1094 0
L9.07812 0
L9.07812 54.6875
L18.1094 54.6875
L18.1094 46.1875
Q21.1875 51.2188 25.4844 53.6094
Q29.7812 56 35.6875 56
Q41.6562 56 45.8281 52.9688
Q50 49.9531 52 44.1875" id="BitstreamVeraSans-Roman-6d"/>
      <path d="
M54.8906 33.0156
L54.8906 0
L45.9062 0
L45.9062 32.7188
Q45.9062 40.4844 42.875 44.3281
Q39.8438 48.1875 33.7969 48.1875
Q26.5156 48.1875 22.3125 43.5469
Q18.1094 38.9219 18.1094 30.9062
L18.1094 0
L9.07812 0
L9.07812 54.6875
L18.1094 54.6875
L18.1094 46.1875
Q21.3438 51.125 25.7031 53.5625
Q30.0781 56 35.7969 56
Q45.2188 56 50.0469 50.1719
Q54.8906 44.3438 54.8906 33.0156" id="BitstreamVeraSans-Roman-6e"/>
      <path d="
M31 75.875
Q24.4688 64.6562 21.2812 53.6562
Q18.1094 42.6719 18.1094 31.3906
Q18.1094 20.125 21.3125 9.0625
Q24.5156 -2 31 -13.1875
L23.1875 -13.1875
Q15.875 -1.70312 12.2344 9.375
Q8.59375 20.4531 8.59375 31.3906
Q8.59375 42.2812 12.2031 53.3125
Q15.8281 64.3594 23.1875 75.875
z
" id="BitstreamVeraSans-Roman-28"/>
      <path d="
M30.6094 48.3906
Q23.3906 48.3906 19.1875 42.75
Q14.9844 37.1094 14.9844 27.2969
Q14.9844 17.4844 19.1562 11.8438
Q23.3438 6.20312 30.6094 6.20312
Q37.7969 6.20312 41.9844 11.8594
Q46.1875 17.5312 46.1875 27.2969
Q46.1875 37.0156 41.9844 42.7031
Q37.7969 48.3906 30.6094 48.3906
M30.6094 56
Q42.3281 56 49.0156 48.375
Q55.7188 40.7656 55.7188 27.2969
Q55.7188 13.875 49.0156 6.21875
Q42.3281 -1.42188 30.6094 -1.42188
Q18.8438 -1.42188 12.1719 6.21875
Q5.51562 13.875 5.51562 27.2969
Q5.51562 40.7656 12.1719 48.375
Q18.8438 56 30.6094 56" id="BitstreamVeraSans-Roman-6f"/>
      <path d="
M9.42188 75.9844
L18.4062 75.9844
L18.4062 0
L9.42188 0
z
" id="BitstreamVeraSans-Roman-6c"/>
      <path d="
M2.98438 54.6875
L12.5 54.6875
L29.5938 8.79688
L46.6875 54.6875
L56.2031 54.6875
L35.6875 0
L23.4844 0
z
" id="BitstreamVeraSans-Roman-76"/>
      <path d="
M9.42188 54.6875
L18.4062 54.6875
L18.4062 0
L9.42188 0
z

M9.42188 75.9844
L18.4062 75.9844
L18.4062 64.5938
L9.42188 64.5938
z
" id="BitstreamVeraSans-Roman-69"/>
      <path d="
M4.89062 31.3906
L31.2031 31.3906
L31.2031 23.3906
L4.89062 23.3906
z
" id="BitstreamVeraSans-Roman-2d"/>
      <path d="
M25.3906 72.9062
L33.6875 72.9062
L8.29688 -9.28125
L0 -9.28125
z
" id="BitstreamVeraSans-Roman-2f"/>
      <path d="
M56.2031 29.5938
L56.2031 25.2031
L14.8906 25.2031
Q15.4844 15.9219 20.4844 11.0625
Q25.4844 6.20312 34.4219 6.20312
Q39.5938 6.20312 44.4531 7.46875
Q49.3125 8.73438 54.1094 11.2812
L54.1094 2.78125
Q49.2656 0.734375 44.1875 -0.34375
Q39.1094 -1.42188 33.8906 -1.42188
Q20.7969 -1.42188 13.1562 6.1875
Q5.51562 13.8125 5.51562 26.8125
Q5.51562 40.2344 12.7656 48.1094
Q20.0156 56 32.3281 56
Q43.3594 56 49.7812 48.8906
Q56.2031 41.7969 56.2031 29.5938
M47.2188 32.2344
Q47.125 39.5938 43.0938 43.9844
Q39.0625 48.3906 32.4219 48.3906
Q24.9062 48.3906 20.3906 44.1406
Q15.875 39.8906 15.1875 32.1719
z
" id="BitstreamVeraSans-Roman-65"/>
      <path d="
M45.4062 46.3906
L45.4062 75.9844
L54.3906 75.9844
L54.3906 0
L45.4062 0
L45.4062 8.20312
Q42.5781 3.32812 38.25 0.953125
Q33.9375 -1.42188 27.875 -1.42188
Q17.9688 -1.42188 11.7344 6.48438
Q5.51562 14.4062 5.51562 27.2969
Q5.51562 40.1875 11.7344 48.0938
Q17.9688 56 27.875 56
Q33.9375 56 38.25 53.625
Q42.5781 51.2656 45.4062 46.3906
M14.7969 27.2969
Q14.7969 17.3906 18.875 11.75
Q22.9531 6.10938 30.0781 6.10938
Q37.2031 6.10938 41.2969 11.75
Q45.4062 17.3906 45.4062 27.2969
Q45.4062 37.2031 41.2969 42.8438
Q37.2031 48.4844 30.0781 48.4844
Q22.9531 48.4844 18.875 42.8438
Q14.7969 37.2031 14.7969 27.2969" id="BitstreamVeraSans-Roman-64"/>
      <path d="
M45.4062 27.9844
Q45.4062 37.75 41.375 43.1094
Q37.3594 48.4844 30.0781 48.4844
Q22.8594 48.4844 18.8281 43.1094
Q14.7969 37.75 14.7969 27.9844
Q14.7969 18.2656 18.8281 12.8906
Q22.8594 7.51562 30.0781 7.51562
Q37.3594 7.51562 41.375 12.8906
Q45.4062 18.2656 45.4062 27.9844
M54.3906 6.78125
Q54.3906 -7.17188 48.1875 -13.9844
Q42 -20.7969 29.2031 -20.7969
Q24.4688 -20.7969 20.2656 -20.0938
Q16.0625 -19.3906 12.1094 -17.9219
L12.1094 -9.1875
Q16.0625 -11.3281 19.9219 -12.3438
Q23.7812 -13.375 27.7812 -13.375
Q36.625 -13.375 41.0156 -8.76562
Q45.4062 -4.15625 45.4062 5.17188
L45.4062 9.625
Q42.625 4.78125 38.2812 2.39062
Q33.9375 0 27.875 0
Q17.8281 0 11.6719 7.65625
Q5.51562 15.3281 5.51562 27.9844
Q5.51562 40.6719 11.6719 48.3281
Q17.8281 56 27.875 56
Q33.9375 56 38.2812 53.6094
Q42.625 51.2188 45.4062 46.3906
L45.4062 54.6875
L54.3906 54.6875
z
" id="BitstreamVeraSans-Roman-67"/>
      <path d="
M37.1094 75.9844
L37.1094 68.5
L28.5156 68.5
Q23.6875 68.5 21.7969 66.5469
Q19.9219 64.5938 19.9219 59.5156
L19.9219 54.6875
L34.7188 54.6875
L34.7188 47.7031
L19.9219 47.7031
L19.9219 0
L10.8906 0
L10.8906 47.7031
L2.29688 47.7031
L2.29688 54.6875
L10.8906 54.6875
L10.8906 58.5
Q10.8906 67.625 15.1406 71.7969
Q19.3906 75.9844 28.6094 75.9844
z
" id="BitstreamVeraSans-Roman-66"/>
      <path d="
M34.2812 27.4844
Q23.3906 27.4844 19.1875 25
Q14.9844 22.5156 14.9844 16.5
Q14.9844 11.7188 18.1406 8.90625
Q21.2969 6.10938 26.7031 6.10938
Q34.1875 6.10938 38.7031 11.4062
Q43.2188 16.7031 43.2188 25.4844
L43.2188 27.4844
z

M52.2031 31.2031
L52.2031 0
L43.2188 0
L43.2188 8.29688
Q40.1406 3.32812 35.5469 0.953125
Q30.9531 -1.42188 24.3125 -1.42188
Q15.9219 -1.42188 10.9531 3.29688
Q6 8.01562 6 15.9219
Q6 25.1406 12.1719 29.8281
Q18.3594 34.5156 30.6094 34.5156
L43.2188 34.5156
L43.2188 35.4062
Q43.2188 41.6094 39.1406 45
Q35.0625 48.3906 27.6875 48.3906
Q23 48.3906 18.5469 47.2656
Q14.1094 46.1406 10.0156 43.8906
L10.0156 52.2031
Q14.9375 54.1094 19.5781 55.0469
Q24.2188 56 28.6094 56
Q40.4844 56 46.3438 49.8438
Q52.2031 43.7031 52.2031 31.2031" id="BitstreamVeraSans-Roman-61"/>
      <path d="
M44.2812 53.0781
L44.2812 44.5781
Q40.4844 46.5312 36.375 47.5
Q32.2812 48.4844 27.875 48.4844
Q21.1875 48.4844 17.8438 46.4375
Q14.5 44.3906 14.5 40.2812
Q14.5 37.1562 16.8906 35.375
Q19.2812 33.5938 26.5156 31.9844
L29.5938 31.2969
Q39.1562 29.25 43.1875 25.5156
Q47.2188 21.7812 47.2188 15.0938
Q47.2188 7.46875 41.1875 3.01562
Q35.1562 -1.42188 24.6094 -1.42188
Q20.2188 -1.42188 15.4531 -0.5625
Q10.6875 0.296875 5.42188 2
L5.42188 11.2812
Q10.4062 8.6875 15.2344 7.39062
Q20.0625 6.10938 24.8125 6.10938
Q31.1562 6.10938 34.5625 8.28125
Q37.9844 10.4531 37.9844 14.4062
Q37.9844 18.0625 35.5156 20.0156
Q33.0625 21.9688 24.7031 23.7812
L21.5781 24.5156
Q13.2344 26.2656 9.51562 29.9062
Q5.8125 33.5469 5.8125 39.8906
Q5.8125 47.6094 11.2812 51.7969
Q16.75 56 26.8125 56
Q31.7812 56 36.1719 55.2656
Q40.5781 54.5469 44.2812 53.0781" id="BitstreamVeraSans-Roman-73"/>
      <path d="
M8.01562 75.875
L15.8281 75.875
Q23.1406 64.3594 26.7812 53.3125
Q30.4219 42.2812 30.4219 31.3906
Q30.4219 20.4531 26.7812 9.375
Q23.1406 -1.70312 15.8281 -13.1875
L8.01562 -13.1875
Q14.5 -2 17.7031 9.0625
Q20.9062 20.125 20.9062 31.3906
Q20.9062 42.6719 17.7031 53.6562
Q14.5 64.6562 8.01562 75.875" id="BitstreamVeraSans-Roman-29"/>
     </defs>
     <g transform="translate(145.1028125 401.089780322)scale(0.18 -0.18)">
      <use xlink:href="#BitstreamVeraSans-Roman-6c"/>
      <use x="27.783203125" xlink:href="#BitstreamVeraSans-Roman-6f"/>
      <use x="88.96484375" xlink:href="#BitstreamVeraSans-Roman-67"/>
      <use x="152.44140625" xlink:href="#BitstreamVeraSans-Roman-31"/>
      <use x="216.064453125" xlink:href="#BitstreamVeraSans-Roman-30"/>
      <use x="279.6875" xlink:href="#BitstreamVeraSans-Roman-20"/>
      <use x="311.474609375" xlink:href="#BitstreamVeraSans-Roman-6f"/>
      <use x="372.65625" xlink:href="#BitstreamVeraSans-Roman-66"/>
      <use x="407.861328125" xlink:href="#BitstreamVeraSans-Roman-20"/>
      <use x="439.6484375" xlink:href="#BitstreamVeraSans-Roman-28"/>
      <use x="478.662109375" xlink:href="#BitstreamVeraSans-Roman-23"/>
      <use x="562.451171875" xlink:href="#BitstreamVeraSans-Roman-20"/>
      <use x="594.23828125" xlink:href="#BitstreamVeraSans-Roman-66"/>
      <use x="623.943359375" xlink:href="#BitstreamVeraSans-Roman-2d"/>
      <use x="660.02734375" xlink:href="#BitstreamVeraSans-Roman-65"/>
      <use x="721.55078125" xlink:href="#BitstreamVeraSans-Roman-76"/>
      <use x="780.73046875" xlink:href="#BitstreamVeraSans-Roman-61"/>
      <use x="842.009765625" xlink:href="#BitstreamVeraSans-Roman-6c"/>
      <use x="869.79296875" xlink:href="#BitstreamVeraSans-Roman-73"/>
      <use x="921.892578125" xlink:href="#BitstreamVeraSans-Roman-20"/>
      <use x="953.6796875" xlink:href="#BitstreamVeraSans-Roman-2f"/>
      <use x="987.37109375" xlink:href="#BitstreamVeraSans-Roman-20"/>
      <use x="1019.15820312" xlink:href="#BitstreamVeraSans-Roman-64"/>
      <use x="1082.63476562" xlink:href="#BitstreamVeraSans-Roman-69"/>
      <use x="1110.41796875" xlink:href="#BitstreamVeraSans-Roman-6d"/>
      <use x="1207.83007812" xlink:href="#BitstreamVeraSans-Roman-65"/>
      <use x="1269.35351562" xlink:href="#BitstreamVeraSans-Roman-6e"/>
      <use x="1332.73242188" xlink:href="#BitstreamVeraSans-Roman-73"/>
      <use x="1384.83203125" xlink:href="#BitstreamVeraSans-Roman-69"/>
      <use x="1412.61523438" xlink:href="#BitstreamVeraSans-Roman-6f"/>
      <use x="1473.796875" xlink:href="#BitstreamVeraSans-Roman-6e"/>
      <use x="1537.17578125" xlink:href="#BitstreamVeraSans-Roman-29"/>
     </g>
    </g>
   </g>
   <g id="matplotlib.axis_2">
    <g id="ytick_1">
     <g id="line2d_103">
      <path clip-path="url(#p383f25ad90)" d="
M62.9863 359.056
L509.386 359.056" style="fill:none;stroke:#000000;stroke-dasharray:1.000000,3.000000;stroke-dashoffset:0.0;stroke-width:0.5;"/>
     </g>
     <g id="line2d_104">
      <defs>
       <path d="
M0 0
L4 0" id="m728421d6d4" style="stroke:#000000;stroke-width:0.5;"/>
      </defs>
      <g>
       <use style="stroke:#000000;stroke-width:0.5;" x="62.98625" xlink:href="#m728421d6d4" y="359.056342822"/>
      </g>
     </g>
     <g id="line2d_105">
      <defs>
       <path d="
M0 0
L-4 0" id="mcb0005524f" style="stroke:#000000;stroke-width:0.5;"/>
      </defs>
      <g>
       <use style="stroke:#000000;stroke-width:0.5;" x="509.38625" xlink:href="#mcb0005524f" y="359.056342822"/>
      </g>
     </g>
     <g id="text_11">
      <!-- 0.0 -->
      <defs>
       <path d="
M10.6875 12.4062
L21 12.4062
L21 0
L10.6875 0
z
" id="BitstreamVeraSans-Roman-2e"/>
      </defs>
      <g transform="translate(29.826875 364.575092822)scale(0.2 -0.2)">
       <use xlink:href="#BitstreamVeraSans-Roman-30"/>
       <use x="63.623046875" xlink:href="#BitstreamVeraSans-Roman-2e"/>
       <use x="95.41015625" xlink:href="#BitstreamVeraSans-Roman-30"/>
      </g>
     </g>
    </g>
    <g id="ytick_2">
     <g id="line2d_106">
      <path clip-path="url(#p383f25ad90)" d="
M62.9863 290.621
L509.386 290.621" style="fill:none;stroke:#000000;stroke-dasharray:1.000000,3.000000;stroke-dashoffset:0.0;stroke-width:0.5;"/>
     </g>
     <g id="line2d_107">
      <g>
       <use style="stroke:#000000;stroke-width:0.5;" x="62.98625" xlink:href="#m728421d6d4" y="290.620699257"/>
      </g>
     </g>
     <g id="line2d_108">
      <g>
       <use style="stroke:#000000;stroke-width:0.5;" x="509.38625" xlink:href="#mcb0005524f" y="290.620699257"/>
      </g>
     </g>
     <g id="text_12">
      <!-- 0.2 -->
      <g transform="translate(30.501875 296.139449257)scale(0.2 -0.2)">
       <use xlink:href="#BitstreamVeraSans-Roman-30"/>
       <use x="63.623046875" xlink:href="#BitstreamVeraSans-Roman-2e"/>
       <use x="95.41015625" xlink:href="#BitstreamVeraSans-Roman-32"/>
      </g>
     </g>
    </g>
    <g id="ytick_3">
     <g id="line2d_109">
      <path clip-path="url(#p383f25ad90)" d="
M62.9863 222.185
L509.386 222.185" style="fill:none;stroke:#000000;stroke-dasharray:1.000000,3.000000;stroke-dashoffset:0.0;stroke-width:0.5;"/>
     </g>
     <g id="line2d_110">
      <g>
       <use style="stroke:#000000;stroke-width:0.5;" x="62.98625" xlink:href="#m728421d6d4" y="222.185055693"/>
      </g>
     </g>
     <g id="line2d_111">
      <g>
       <use style="stroke:#000000;stroke-width:0.5;" x="509.38625" xlink:href="#mcb0005524f" y="222.185055693"/>
      </g>
     </g>
     <g id="text_13">
      <!-- 0.4 -->
      <g transform="translate(29.620625 227.703805693)scale(0.2 -0.2)">
       <use xlink:href="#BitstreamVeraSans-Roman-30"/>
       <use x="63.623046875" xlink:href="#BitstreamVeraSans-Roman-2e"/>
       <use x="95.41015625" xlink:href="#BitstreamVeraSans-Roman-34"/>
      </g>
     </g>
    </g>
    <g id="ytick_4">
     <g id="line2d_112">
      <path clip-path="url(#p383f25ad90)" d="
M62.9863 153.749
L509.386 153.749" style="fill:none;stroke:#000000;stroke-dasharray:1.000000,3.000000;stroke-dashoffset:0.0;stroke-width:0.5;"/>
     </g>
     <g id="line2d_113">
      <g>
       <use style="stroke:#000000;stroke-width:0.5;" x="62.98625" xlink:href="#m728421d6d4" y="153.749412129"/>
      </g>
     </g>
     <g id="line2d_114">
      <g>
       <use style="stroke:#000000;stroke-width:0.5;" x="509.38625" xlink:href="#mcb0005524f" y="153.749412129"/>
      </g>
     </g>
     <g id="text_14">
      <!-- 0.6 -->
      <g transform="translate(29.758125 159.268162129)scale(0.2 -0.2)">
       <use xlink:href="#BitstreamVeraSans-Roman-30"/>
       <use x="63.623046875" xlink:href="#BitstreamVeraSans-Roman-2e"/>
       <use x="95.41015625" xlink:href="#BitstreamVeraSans-Roman-36"/>
      </g>
     </g>
    </g>
    <g id="ytick_5">
     <g id="line2d_115">
      <path clip-path="url(#p383f25ad90)" d="
M62.9863 85.3138
L509.386 85.3138" style="fill:none;stroke:#000000;stroke-dasharray:1.000000,3.000000;stroke-dashoffset:0.0;stroke-width:0.5;"/>
     </g>
     <g id="line2d_116">
      <g>
       <use style="stroke:#000000;stroke-width:0.5;" x="62.98625" xlink:href="#m728421d6d4" y="85.3137685644"/>
      </g>
     </g>
     <g id="line2d_117">
      <g>
       <use style="stroke:#000000;stroke-width:0.5;" x="509.38625" xlink:href="#mcb0005524f" y="85.3137685644"/>
      </g>
     </g>
     <g id="text_15">
      <!-- 0.8 -->
      <g transform="translate(29.8675 90.8325185644)scale(0.2 -0.2)">
       <use xlink:href="#BitstreamVeraSans-Roman-30"/>
       <use x="63.623046875" xlink:href="#BitstreamVeraSans-Roman-2e"/>
       <use x="95.41015625" xlink:href="#BitstreamVeraSans-Roman-38"/>
      </g>
     </g>
    </g>
    <g id="ytick_6">
     <g id="line2d_118">
      <path clip-path="url(#p383f25ad90)" d="
M62.9863 16.8781
L509.386 16.8781" style="fill:none;stroke:#000000;stroke-dasharray:1.000000,3.000000;stroke-dashoffset:0.0;stroke-width:0.5;"/>
     </g>
     <g id="line2d_119">
      <g>
       <use style="stroke:#000000;stroke-width:0.5;" x="62.98625" xlink:href="#m728421d6d4" y="16.878125"/>
      </g>
     </g>
     <g id="line2d_120">
      <g>
       <use style="stroke:#000000;stroke-width:0.5;" x="509.38625" xlink:href="#mcb0005524f" y="16.878125"/>
      </g>
     </g>
     <g id="text_16">
      <!-- 1.0 -->
      <g transform="translate(30.705 22.396875)scale(0.2 -0.2)">
       <use xlink:href="#BitstreamVeraSans-Roman-31"/>
       <use x="63.623046875" xlink:href="#BitstreamVeraSans-Roman-2e"/>
       <use x="95.41015625" xlink:href="#BitstreamVeraSans-Roman-30"/>
      </g>
     </g>
    </g>
    <g id="text_17">
     <!-- Proportion of function+target pairs -->
     <defs>
      <path d="
M19.6719 64.7969
L19.6719 37.4062
L32.0781 37.4062
Q38.9688 37.4062 42.7188 40.9688
Q46.4844 44.5312 46.4844 51.125
Q46.4844 57.6719 42.7188 61.2344
Q38.9688 64.7969 32.0781 64.7969
z

M9.8125 72.9062
L32.0781 72.9062
Q44.3438 72.9062 50.6094 67.3594
Q56.8906 61.8125 56.8906 51.125
Q56.8906 40.3281 50.6094 34.8125
Q44.3438 29.2969 32.0781 29.2969
L19.6719 29.2969
L19.6719 0
L9.8125 0
z
" id="BitstreamVeraSans-Roman-50"/>
      <path d="
M46 62.7031
L46 35.5
L73.1875 35.5
L73.1875 27.2031
L46 27.2031
L46 0
L37.7969 0
L37.7969 27.2031
L10.5938 27.2031
L10.5938 35.5
L37.7969 35.5
L37.7969 62.7031
z
" id="BitstreamVeraSans-Roman-2b"/>
      <path d="
M18.1094 8.20312
L18.1094 -20.7969
L9.07812 -20.7969
L9.07812 54.6875
L18.1094 54.6875
L18.1094 46.3906
Q20.9531 51.2656 25.2656 53.625
Q29.5938 56 35.5938 56
Q45.5625 56 51.7812 48.0938
Q58.0156 40.1875 58.0156 27.2969
Q58.0156 14.4062 51.7812 6.48438
Q45.5625 -1.42188 35.5938 -1.42188
Q29.5938 -1.42188 25.2656 0.953125
Q20.9531 3.32812 18.1094 8.20312
M48.6875 27.2969
Q48.6875 37.2031 44.6094 42.8438
Q40.5312 48.4844 33.4062 48.4844
Q26.2656 48.4844 22.1875 42.8438
Q18.1094 37.2031 18.1094 27.2969
Q18.1094 17.3906 22.1875 11.75
Q26.2656 6.10938 33.4062 6.10938
Q40.5312 6.10938 44.6094 11.75
Q48.6875 17.3906 48.6875 27.2969" id="BitstreamVeraSans-Roman-70"/>
      <path d="
M18.3125 70.2188
L18.3125 54.6875
L36.8125 54.6875
L36.8125 47.7031
L18.3125 47.7031
L18.3125 18.0156
Q18.3125 11.3281 20.1406 9.42188
Q21.9688 7.51562 27.5938 7.51562
L36.8125 7.51562
L36.8125 0
L27.5938 0
Q17.1875 0 13.2344 3.875
Q9.28125 7.76562 9.28125 18.0156
L9.28125 47.7031
L2.6875 47.7031
L2.6875 54.6875
L9.28125 54.6875
L9.28125 70.2188
z
" id="BitstreamVeraSans-Roman-74"/>
      <path d="
M8.5 21.5781
L8.5 54.6875
L17.4844 54.6875
L17.4844 21.9219
Q17.4844 14.1562 20.5 10.2656
Q23.5312 6.39062 29.5938 6.39062
Q36.8594 6.39062 41.0781 11.0312
Q45.3125 15.6719 45.3125 23.6875
L45.3125 54.6875
L54.2969 54.6875
L54.2969 0
L45.3125 0
L45.3125 8.40625
Q42.0469 3.42188 37.7188 1
Q33.4062 -1.42188 27.6875 -1.42188
Q18.2656 -1.42188 13.375 4.4375
Q8.5 10.2969 8.5 21.5781" id="BitstreamVeraSans-Roman-75"/>
      <path d="
M41.1094 46.2969
Q39.5938 47.1719 37.8125 47.5781
Q36.0312 48 33.8906 48
Q26.2656 48 22.1875 43.0469
Q18.1094 38.0938 18.1094 28.8125
L18.1094 0
L9.07812 0
L9.07812 54.6875
L18.1094 54.6875
L18.1094 46.1875
Q20.9531 51.1719 25.4844 53.5781
Q30.0312 56 36.5312 56
Q37.4531 56 38.5781 55.875
Q39.7031 55.7656 41.0625 55.5156
z
" id="BitstreamVeraSans-Roman-72"/>
      <path d="
M48.7812 52.5938
L48.7812 44.1875
Q44.9688 46.2969 41.1406 47.3438
Q37.3125 48.3906 33.4062 48.3906
Q24.6562 48.3906 19.8125 42.8438
Q14.9844 37.3125 14.9844 27.2969
Q14.9844 17.2812 19.8125 11.7344
Q24.6562 6.20312 33.4062 6.20312
Q37.3125 6.20312 41.1406 7.25
Q44.9688 8.29688 48.7812 10.4062
L48.7812 2.09375
Q45.0156 0.34375 40.9844 -0.53125
Q36.9688 -1.42188 32.4219 -1.42188
Q20.0625 -1.42188 12.7812 6.34375
Q5.51562 14.1094 5.51562 27.2969
Q5.51562 40.6719 12.8594 48.3281
Q20.2188 56 33.0156 56
Q37.1562 56 41.1094 55.1406
Q45.0625 54.2969 48.7812 52.5938" id="BitstreamVeraSans-Roman-63"/>
     </defs>
     <g transform="translate(20.8771875 343.295092822)rotate(-90.0)scale(0.18 -0.18)">
      <use xlink:href="#BitstreamVeraSans-Roman-50"/>
      <use x="58.552734375" xlink:href="#BitstreamVeraSans-Roman-72"/>
      <use x="97.416015625" xlink:href="#BitstreamVeraSans-Roman-6f"/>
      <use x="158.59765625" xlink:href="#BitstreamVeraSans-Roman-70"/>
      <use x="222.07421875" xlink:href="#BitstreamVeraSans-Roman-6f"/>
      <use x="283.255859375" xlink:href="#BitstreamVeraSans-Roman-72"/>
      <use x="324.369140625" xlink:href="#BitstreamVeraSans-Roman-74"/>
      <use x="363.578125" xlink:href="#BitstreamVeraSans-Roman-69"/>
      <use x="391.361328125" xlink:href="#BitstreamVeraSans-Roman-6f"/>
      <use x="452.54296875" xlink:href="#BitstreamVeraSans-Roman-6e"/>
      <use x="515.921875" xlink:href="#BitstreamVeraSans-Roman-20"/>
      <use x="547.708984375" xlink:href="#BitstreamVeraSans-Roman-6f"/>
      <use x="608.890625" xlink:href="#BitstreamVeraSans-Roman-66"/>
      <use x="644.095703125" xlink:href="#BitstreamVeraSans-Roman-20"/>
      <use x="675.8828125" xlink:href="#BitstreamVeraSans-Roman-66"/>
      <use x="711.087890625" xlink:href="#BitstreamVeraSans-Roman-75"/>
      <use x="774.466796875" xlink:href="#BitstreamVeraSans-Roman-6e"/>
      <use x="837.845703125" xlink:href="#BitstreamVeraSans-Roman-63"/>
      <use x="892.826171875" xlink:href="#BitstreamVeraSans-Roman-74"/>
      <use x="932.03515625" xlink:href="#BitstreamVeraSans-Roman-69"/>
      <use x="959.818359375" xlink:href="#BitstreamVeraSans-Roman-6f"/>
      <use x="1021.0" xlink:href="#BitstreamVeraSans-Roman-6e"/>
      <use x="1084.37890625" xlink:href="#BitstreamVeraSans-Roman-2b"/>
      <use x="1168.16796875" xlink:href="#BitstreamVeraSans-Roman-74"/>
      <use x="1207.37695312" xlink:href="#BitstreamVeraSans-Roman-61"/>
      <use x="1268.65625" xlink:href="#BitstreamVeraSans-Roman-72"/>
      <use x="1308.01953125" xlink:href="#BitstreamVeraSans-Roman-67"/>
      <use x="1371.49609375" xlink:href="#BitstreamVeraSans-Roman-65"/>
      <use x="1433.01953125" xlink:href="#BitstreamVeraSans-Roman-74"/>
      <use x="1472.22851562" xlink:href="#BitstreamVeraSans-Roman-20"/>
      <use x="1504.015625" xlink:href="#BitstreamVeraSans-Roman-70"/>
      <use x="1567.4921875" xlink:href="#BitstreamVeraSans-Roman-61"/>
      <use x="1628.77148438" xlink:href="#BitstreamVeraSans-Roman-69"/>
      <use x="1656.5546875" xlink:href="#BitstreamVeraSans-Roman-72"/>
      <use x="1697.66796875" xlink:href="#BitstreamVeraSans-Roman-73"/>
     </g>
    </g>
   </g>
   <g id="text_18">
    <!-- 5-D -->
    <defs>
     <path d="
M19.6719 64.7969
L19.6719 8.10938
L31.5938 8.10938
Q46.6875 8.10938 53.6875 14.9375
Q60.6875 21.7812 60.6875 36.5312
Q60.6875 51.1719 53.6875 57.9844
Q46.6875 64.7969 31.5938 64.7969
z

M9.8125 72.9062
L30.0781 72.9062
Q51.2656 72.9062 61.1719 64.0938
Q71.0938 55.2812 71.0938 36.5312
Q71.0938 17.6719 61.125 8.82812
Q51.1719 0 30.0781 0
L9.8125 0
z
" id="BitstreamVeraSans-Roman-44"/>
    </defs>
    <g transform="translate(469.78625 356.351840965)scale(0.15 -0.15)">
     <use xlink:href="#BitstreamVeraSans-Roman-35"/>
     <use x="63.623046875" xlink:href="#BitstreamVeraSans-Roman-2d"/>
     <use x="99.70703125" xlink:href="#BitstreamVeraSans-Roman-44"/>
    </g>
   </g>
   <g id="text_19">
    <!-- bbob - f1-f24 -->
    <defs>
     <path d="
M48.6875 27.2969
Q48.6875 37.2031 44.6094 42.8438
Q40.5312 48.4844 33.4062 48.4844
Q26.2656 48.4844 22.1875 42.8438
Q18.1094 37.2031 18.1094 27.2969
Q18.1094 17.3906 22.1875 11.75
Q26.2656 6.10938 33.4062 6.10938
Q40.5312 6.10938 44.6094 11.75
Q48.6875 17.3906 48.6875 27.2969
M18.1094 46.3906
Q20.9531 51.2656 25.2656 53.625
Q29.5938 56 35.5938 56
Q45.5625 56 51.7812 48.0938
Q58.0156 40.1875 58.0156 27.2969
Q58.0156 14.4062 51.7812 6.48438
Q45.5625 -1.42188 35.5938 -1.42188
Q29.5938 -1.42188 25.2656 0.953125
Q20.9531 3.32812 18.1094 8.20312
L18.1094 0
L9.07812 0
L9.07812 75.9844
L18.1094 75.9844
z
" id="BitstreamVeraSans-Roman-62"/>
    </defs>
    <g transform="translate(67.45025 33.0273396968)scale(0.1666 -0.1666)">
     <use xlink:href="#BitstreamVeraSans-Roman-62"/>
     <use x="63.4765625" xlink:href="#BitstreamVeraSans-Roman-62"/>
     <use x="126.953125" xlink:href="#BitstreamVeraSans-Roman-6f"/>
     <use x="188.134765625" xlink:href="#BitstreamVeraSans-Roman-62"/>
     <use x="251.611328125" xlink:href="#BitstreamVeraSans-Roman-20"/>
     <use x="283.3984375" xlink:href="#BitstreamVeraSans-Roman-2d"/>
     <use x="319.482421875" xlink:href="#BitstreamVeraSans-Roman-20"/>
     <use x="351.26953125" xlink:href="#BitstreamVeraSans-Roman-66"/>
     <use x="386.474609375" xlink:href="#BitstreamVeraSans-Roman-31"/>
     <use x="450.09765625" xlink:href="#BitstreamVeraSans-Roman-2d"/>
     <use x="486.181640625" xlink:href="#BitstreamVeraSans-Roman-66"/>
     <use x="521.38671875" xlink:href="#BitstreamVeraSans-Roman-32"/>
     <use x="585.009765625" xlink:href="#BitstreamVeraSans-Roman-34"/>
    </g>
    <!-- 51 targets in 100..1e-08 -->
    <g transform="translate(67.45025 51.6828953218)scale(0.1666 -0.1666)">
     <use xlink:href="#BitstreamVeraSans-Roman-35"/>
     <use x="63.623046875" xlink:href="#BitstreamVeraSans-Roman-31"/>
     <use x="127.24609375" xlink:href="#BitstreamVeraSans-Roman-20"/>
     <use x="159.033203125" xlink:href="#BitstreamVeraSans-Roman-74"/>
     <use x="198.2421875" xlink:href="#BitstreamVeraSans-Roman-61"/>
     <use x="259.521484375" xlink:href="#BitstreamVeraSans-Roman-72"/>
     <use x="298.884765625" xlink:href="#BitstreamVeraSans-Roman-67"/>
     <use x="362.361328125" xlink:href="#BitstreamVeraSans-Roman-65"/>
     <use x="423.884765625" xlink:href="#BitstreamVeraSans-Roman-74"/>
     <use x="463.09375" xlink:href="#BitstreamVeraSans-Roman-73"/>
     <use x="515.193359375" xlink:href="#BitstreamVeraSans-Roman-20"/>
     <use x="546.98046875" xlink:href="#BitstreamVeraSans-Roman-69"/>
     <use x="574.763671875" xlink:href="#BitstreamVeraSans-Roman-6e"/>
     <use x="638.142578125" xlink:href="#BitstreamVeraSans-Roman-20"/>
     <use x="669.9296875" xlink:href="#BitstreamVeraSans-Roman-31"/>
     <use x="733.552734375" xlink:href="#BitstreamVeraSans-Roman-30"/>
     <use x="797.17578125" xlink:href="#BitstreamVeraSans-Roman-30"/>
     <use x="860.798828125" xlink:href="#BitstreamVeraSans-Roman-2e"/>
     <use x="892.5859375" xlink:href="#BitstreamVeraSans-Roman-2e"/>
     <use x="924.373046875" xlink:href="#BitstreamVeraSans-Roman-31"/>
     <use x="987.99609375" xlink:href="#BitstreamVeraSans-Roman-65"/>
     <use x="1049.51953125" xlink:href="#BitstreamVeraSans-Roman-2d"/>
     <use x="1085.60351562" xlink:href="#BitstreamVeraSans-Roman-30"/>
     <use x="1149.2265625" xlink:href="#BitstreamVeraSans-Roman-38"/>
    </g>
    <!-- 15 instances -->
    <g transform="translate(67.45025 70.3384509468)scale(0.1666 -0.1666)">
     <use xlink:href="#BitstreamVeraSans-Roman-31"/>
     <use x="63.623046875" xlink:href="#BitstreamVeraSans-Roman-35"/>
     <use x="127.24609375" xlink:href="#BitstreamVeraSans-Roman-20"/>
     <use x="159.033203125" xlink:href="#BitstreamVeraSans-Roman-69"/>
     <use x="186.81640625" xlink:href="#BitstreamVeraSans-Roman-6e"/>
     <use x="250.1953125" xlink:href="#BitstreamVeraSans-Roman-73"/>
     <use x="302.294921875" xlink:href="#BitstreamVeraSans-Roman-74"/>
     <use x="341.50390625" xlink:href="#BitstreamVeraSans-Roman-61"/>
     <use x="402.783203125" xlink:href="#BitstreamVeraSans-Roman-6e"/>
     <use x="466.162109375" xlink:href="#BitstreamVeraSans-Roman-63"/>
     <use x="521.142578125" xlink:href="#BitstreamVeraSans-Roman-65"/>
     <use x="582.666015625" xlink:href="#BitstreamVeraSans-Roman-73"/>
    </g>
   </g>
   <g id="text_20">
    <!-- v2.1.1.3 -->
    <g style="fill:#808080;" transform="translate(266.2846875 353.520655322)scale(0.1 -0.1)">
     <use xlink:href="#BitstreamVeraSans-Roman-76"/>
     <use x="59.1796875" xlink:href="#BitstreamVeraSans-Roman-32"/>
     <use x="122.802734375" xlink:href="#BitstreamVeraSans-Roman-2e"/>
     <use x="154.58984375" xlink:href="#BitstreamVeraSans-Roman-31"/>
     <use x="218.212890625" xlink:href="#BitstreamVeraSans-Roman-2e"/>
     <use x="250.0" xlink:href="#BitstreamVeraSans-Roman-31"/>
     <use x="313.623046875" xlink:href="#BitstreamVeraSans-Roman-2e"/>
     <use x="345.41015625" xlink:href="#BitstreamVeraSans-Roman-33"/>
    </g>
   </g>
  </g>
 </g>
 <defs>
  <clipPath id="p383f25ad90">
   <rect height="345.6" width="446.4" x="62.98625" y="13.4563428218"/>
  </clipPath>
 </defs>
</svg>
